Tue Nov 26 18:15:47 IST 2013	This is the CT debug logger; svn version 638; sep 27 09
Tue Nov 26 18:15:47 IST 2013	Tue Nov 26 18:15:47 IST 2013
Tue Nov 26 18:15:47 IST 2013	ThreePlayersAgentPlayerNastySP(): entering.
Tue Nov 26 18:15:59 IST 2013	phaseAdvanced(): entering.
Tue Nov 26 18:15:59 IST 2013	phaseAdvanced(): new phase is 'Strategy Prep Phase'.
Tue Nov 26 18:16:59 IST 2013	phaseAdvanced(): entering.
Tue Nov 26 18:16:59 IST 2013	phaseAdvanced(): new phase is 'Communication Phase'.
Tue Nov 26 18:17:12 IST 2013	onReceipt(): entering.
Tue Nov 26 18:17:12 IST 2013	phaseAdvanced(): entering.
Tue Nov 26 18:17:12 IST 2013	phaseAdvanced(): new phase is 'Movement Phase'.
Tue Nov 26 18:17:56 IST 2013	phaseAdvanced(): entering.
Tue Nov 26 18:17:56 IST 2013	phaseAdvanced(): new phase is 'Feedback Phase'.
Tue Nov 26 18:18:01 IST 2013	phaseAdvanced(): entering.
Tue Nov 26 18:18:01 IST 2013	phaseAdvanced(): new phase is 'Communication Phase'.
Tue Nov 26 18:18:21 IST 2013	onReceipt(): entering.
Tue Nov 26 18:18:21 IST 2013	onReceipt(): opponent's proposal: ({ chips  'CTRed':2 'CTPurple':0 'CTGreen':0 'grey78':0 'CTYellow':0 }, { chips  'CTRed':0 'CTPurple':0 'CTGreen':0 'grey78':0 'CTYellow':0 }).
Tue Nov 26 18:18:21 IST 2013	respondToProposal(): entering.
Tue Nov 26 18:18:21 IST 2013	respondToProposal(): my chips: ({ chips  'CTRed':22 'CTPurple':5 'CTGreen':0 'grey78':3 'CTYellow':0 }).
Tue Nov 26 18:18:21 IST 2013	responseToSend(): entering.
Tue Nov 26 18:18:21 IST 2013	responseToSend(): accepting proposal 
Tue Nov 26 18:18:21 IST 2013	phaseAdvanced(): entering.
Tue Nov 26 18:18:21 IST 2013	phaseAdvanced(): new phase is 'Movement Phase'.
Tue Nov 26 18:19:05 IST 2013	phaseAdvanced(): entering.
Tue Nov 26 18:19:05 IST 2013	phaseAdvanced(): new phase is 'Feedback Phase'.
Tue Nov 26 18:19:10 IST 2013	phaseAdvanced(): entering.
Tue Nov 26 18:19:10 IST 2013	phaseAdvanced(): new phase is 'Communication Phase'.
Tue Nov 26 18:19:58 IST 2013	onReceipt(): entering.
Tue Nov 26 18:19:59 IST 2013	phaseAdvanced(): entering.
Tue Nov 26 18:19:59 IST 2013	phaseAdvanced(): new phase is 'Movement Phase'.
Tue Nov 26 18:20:44 IST 2013	phaseAdvanced(): entering.
Tue Nov 26 18:20:44 IST 2013	phaseAdvanced(): new phase is 'Feedback Phase'.
Tue Nov 26 18:20:49 IST 2013	phaseAdvanced(): entering.
Tue Nov 26 18:20:49 IST 2013	phaseAdvanced(): new phase is 'Communication Phase'.
Tue Nov 26 18:21:01 IST 2013	onReceipt(): entering.
Tue Nov 26 18:21:01 IST 2013	onReceipt(): opponent's proposal: ({ chips  'CTRed':0 'CTPurple':0 'CTGreen':0 'grey78':0 'CTYellow':1 }, { chips  'CTRed':0 'CTPurple':0 'CTGreen':0 'grey78':0 'CTYellow':0 }).
Tue Nov 26 18:21:01 IST 2013	respondToProposal(): entering.
Tue Nov 26 18:21:01 IST 2013	respondToProposal(): my chips: ({ chips  'CTRed':24 'CTPurple':5 'CTGreen':0 'grey78':3 'CTYellow':0 }).
Tue Nov 26 18:21:01 IST 2013	responseToSend(): entering.
Tue Nov 26 18:21:01 IST 2013	responseToSend(): accepting proposal 
Tue Nov 26 18:21:01 IST 2013	phaseAdvanced(): entering.
Tue Nov 26 18:21:01 IST 2013	phaseAdvanced(): new phase is 'Movement Phase'.
Tue Nov 26 18:21:45 IST 2013	phaseAdvanced(): entering.
Tue Nov 26 18:21:45 IST 2013	phaseAdvanced(): new phase is 'Feedback Phase'.
Tue Nov 26 18:21:50 IST 2013	phaseAdvanced(): entering.
Tue Nov 26 18:21:50 IST 2013	phaseAdvanced(): new phase is 'Communication Phase'.
Tue Nov 26 18:22:23 IST 2013	onReceipt(): entering.
Tue Nov 26 18:22:23 IST 2013	phaseAdvanced(): entering.
Tue Nov 26 18:22:23 IST 2013	phaseAdvanced(): new phase is 'Movement Phase'.
Tue Nov 26 18:23:07 IST 2013	phaseAdvanced(): entering.
Tue Nov 26 18:23:07 IST 2013	phaseAdvanced(): new phase is 'Feedback Phase'.
Tue Nov 26 18:23:12 IST 2013	phaseAdvanced(): entering.
Tue Nov 26 18:23:12 IST 2013	phaseAdvanced(): new phase is 'Communication Phase'.
Tue Nov 26 18:23:38 IST 2013	phaseAdvanced(): entering.
Tue Nov 26 18:23:38 IST 2013	phaseAdvanced(): new phase is 'Movement Phase'.
Tue Nov 26 18:24:22 IST 2013	phaseAdvanced(): entering.
Tue Nov 26 18:24:22 IST 2013	phaseAdvanced(): new phase is 'Feedback Phase'.
