Tue Nov 26 16:48:33 EST 2013	This is the CT debug logger; svn version 638; sep 27 09
Tue Nov 26 16:48:33 EST 2013	Tue Nov 26 16:48:33 EST 2013
Tue Nov 26 16:48:33 EST 2013	ID Number: 63489
Tue Nov 26 16:48:33 EST 2013	Creating board
Tue Nov 26 16:48:33 EST 2013	<colors>
Tue Nov 26 16:48:33 EST 2013	{ GamePalette  'CTPurple':0 'CTRed':1 'CTGreen':2 'grey78':3 'CTYellow':4 }
Tue Nov 26 16:48:33 EST 2013	<rows>
Tue Nov 26 16:48:33 EST 2013	6
Tue Nov 26 16:48:33 EST 2013	<columns>
Tue Nov 26 16:48:33 EST 2013	9
Tue Nov 26 16:48:33 EST 2013	<squaresColors>
Tue Nov 26 16:48:33 EST 2013	grey78 CTGreen CTGreen CTGreen CTGreen CTGreen CTGreen CTGreen CTYellow 
Tue Nov 26 16:48:33 EST 2013	grey78 CTPurple CTPurple CTPurple CTPurple CTPurple CTPurple CTPurple CTYellow 
Tue Nov 26 16:48:33 EST 2013	grey78 grey78 CTGreen CTGreen CTGreen CTGreen CTGreen CTYellow CTYellow 
Tue Nov 26 16:48:33 EST 2013	CTGreen grey78 grey78 CTPurple CTPurple CTPurple CTYellow CTYellow CTGreen 
Tue Nov 26 16:48:33 EST 2013	CTGreen CTGreen grey78 grey78 CTGreen CTYellow CTYellow CTGreen CTGreen 
Tue Nov 26 16:48:33 EST 2013	CTGreen CTGreen CTGreen grey78 CTGreen CTYellow CTGreen CTGreen CTGreen 
Tue Nov 26 16:48:33 EST 2013	</squareColors>
Tue Nov 26 16:48:33 EST 2013	<goalPosition>
Tue Nov 26 16:48:33 EST 2013	Goal position: (R:0,C:0)
Tue Nov 26 16:48:33 EST 2013	<goalPosition>
Tue Nov 26 16:48:33 EST 2013	Goal position: (R:0,C:0)
Tue Nov 26 16:48:33 EST 2013	<firstPlayerPossibleGoal1>
Tue Nov 26 16:48:33 EST 2013	0.5
Tue Nov 26 16:48:33 EST 2013	0
Tue Nov 26 16:48:33 EST 2013	0
Tue Nov 26 16:48:33 EST 2013	</firstPlayerPossibleGoal1>
Tue Nov 26 16:48:33 EST 2013	<firstPlayerPossibleGoal2>
Tue Nov 26 16:48:33 EST 2013	0.5
Tue Nov 26 16:48:33 EST 2013	0
Tue Nov 26 16:48:33 EST 2013	8
Tue Nov 26 16:48:33 EST 2013	</firstPlayerPossibleGoal2>
Tue Nov 26 16:48:33 EST 2013	<numberOfPlayers>
Tue Nov 26 16:48:33 EST 2013	3
Tue Nov 26 16:48:33 EST 2013	<firstPlayerChips>
Tue Nov 26 16:48:33 EST 2013	Setting chips for player: 510 id:0
Tue Nov 26 16:48:33 EST 2013	{ chips  'CTRed':0 'CTGreen':0 'CTPurple':0 'grey78':12 'CTYellow':12 }
Tue Nov 26 16:48:33 EST 2013	Player position: (R:5,C:4)
Tue Nov 26 16:48:33 EST 2013	Setting chips for player: 520 id:1
Tue Nov 26 16:48:33 EST 2013	{ chips  'CTRed':33 'CTGreen':0 'CTPurple':7 'grey78':0 'CTYellow':0 }
Tue Nov 26 16:48:33 EST 2013	Player position: (R:0,C:8)
Tue Nov 26 16:48:33 EST 2013	Setting chips for player: 540 id:2
Tue Nov 26 16:48:33 EST 2013	{ chips  'CTRed':33 'CTGreen':0 'CTPurple':7 'grey78':0 'CTYellow':0 }
Tue Nov 26 16:48:33 EST 2013	Player position: (R:0,C:0)
Tue Nov 26 16:48:33 EST 2013	Protocol: A New Phase Began: Strategy Prep Phase. loop is true
Tue Nov 26 16:48:33 EST 2013	---------- Beginning Strategy Prep Phase at round 0 ----------
Tue Nov 26 16:49:33 EST 2013	A Phase Ended: Strategy Prep Phase
Tue Nov 26 16:49:33 EST 2013	Protocol: A New Phase Began: Communication Phase. loop is true
Tue Nov 26 16:49:33 EST 2013	---------- Beginning Communication Phase at round 1 ----------
Tue Nov 26 16:50:27 EST 2013	Received communication message 
Tue Nov 26 16:50:27 EST 2013	From player: 540
Tue Nov 26 16:50:27 EST 2013	To player: 510
Tue Nov 26 16:50:27 EST 2013	Chips to send by proposer: { chips  'CTRed':2 'CTPurple':1 'CTGreen':0 'grey78':0 'CTYellow':0 }
Tue Nov 26 16:50:27 EST 2013	Chips to send by responder: { chips  'CTRed':0 'CTPurple':0 'CTGreen':0 'grey78':0 'CTYellow':2 }
Tue Nov 26 16:50:56 EST 2013	Received communication message 
Tue Nov 26 16:50:56 EST 2013	From player: 520
Tue Nov 26 16:50:56 EST 2013	To player: 510
Tue Nov 26 16:50:56 EST 2013	Chips to send by proposer: { chips  'CTRed':10 'CTPurple':0 'CTGreen':0 'grey78':0 'CTYellow':0 }
Tue Nov 26 16:50:56 EST 2013	Chips to send by responder: { chips  'CTRed':0 'CTPurple':0 'CTGreen':0 'grey78':0 'CTYellow':0 }
Tue Nov 26 16:50:56 EST 2013	Received communication message 
Tue Nov 26 16:50:56 EST 2013	Proposer 0 accepted? true
Tue Nov 26 16:50:56 EST 2013	A Phase Ended: Communication Phase
Tue Nov 26 16:50:56 EST 2013	Protocol: A New Phase Began: Movement Phase. loop is true
Tue Nov 26 16:50:56 EST 2013	---------- Beginning Movement Phase at round 1 ----------
Tue Nov 26 16:50:56 EST 2013	remove strategy phase. 
Tue Nov 26 16:50:56 EST 2013	Received communication message 
Tue Nov 26 16:50:56 EST 2013	Proposer 1 accepted? false
Tue Nov 26 16:51:40 EST 2013	A Phase Ended: Movement Phase
Tue Nov 26 16:51:40 EST 2013	Protocol: A New Phase Began: Feedback Phase. loop is true
Tue Nov 26 16:51:40 EST 2013	---------- Beginning Feedback Phase at round 1 ----------
Tue Nov 26 16:51:40 EST 2013	Number of consecutive no movements for player 510 is 1
Tue Nov 26 16:51:40 EST 2013	TDPlayerPosition is(R:5,C:4)goal location 0(R:0,C:0)goal location 1(R:0,C:8)
Tue Nov 26 16:51:40 EST 2013	ended is false
Tue Nov 26 16:51:45 EST 2013	A Phase Ended: Feedback Phase
Tue Nov 26 16:51:45 EST 2013	 numberofMoves in round 1 is 0
Tue Nov 26 16:51:45 EST 2013	Swaping roles:
Tue Nov 26 16:51:45 EST 2013	Protocol: A New Phase Began: Communication Phase. loop is true
Tue Nov 26 16:51:45 EST 2013	---------- Beginning Communication Phase at round 2 ----------
Tue Nov 26 16:51:51 EST 2013	Received communication message 
Tue Nov 26 16:51:51 EST 2013	From player: 510
Tue Nov 26 16:51:51 EST 2013	To player: 540
Tue Nov 26 16:51:51 EST 2013	Chips to send by proposer: { chips  'CTYellow':11 }
Tue Nov 26 16:51:51 EST 2013	Chips to send by responder: { chips  'CTRed':33 'CTPurple':7 'grey78':0 }
Tue Nov 26 16:53:06 EST 2013	Received communication message 
Tue Nov 26 16:53:06 EST 2013	Proposer 1 accepted? false
Tue Nov 26 16:53:06 EST 2013	case that we had one reject, and one accept
Tue Nov 26 16:53:06 EST 2013	A Phase Ended: Communication Phase
Tue Nov 26 16:53:06 EST 2013	Protocol: A New Phase Began: Movement Phase. loop is true
Tue Nov 26 16:53:06 EST 2013	---------- Beginning Movement Phase at round 2 ----------
Tue Nov 26 16:53:51 EST 2013	A Phase Ended: Movement Phase
Tue Nov 26 16:53:51 EST 2013	Protocol: A New Phase Began: Feedback Phase. loop is true
Tue Nov 26 16:53:51 EST 2013	---------- Beginning Feedback Phase at round 2 ----------
Tue Nov 26 16:53:51 EST 2013	Number of consecutive no movements for player 510 is 0
Tue Nov 26 16:53:51 EST 2013	TDPlayerPosition is(R:5,C:5)goal location 0(R:0,C:0)goal location 1(R:0,C:8)
Tue Nov 26 16:53:51 EST 2013	ended is false
Tue Nov 26 16:53:56 EST 2013	A Phase Ended: Feedback Phase
Tue Nov 26 16:53:56 EST 2013	 numberofMoves in round 2 is 1
Tue Nov 26 16:53:56 EST 2013	Swaping roles:
Tue Nov 26 16:53:56 EST 2013	Protocol: A New Phase Began: Communication Phase. loop is true
Tue Nov 26 16:53:56 EST 2013	---------- Beginning Communication Phase at round 3 ----------
Tue Nov 26 16:55:06 EST 2013	Received communication message 
Tue Nov 26 16:55:06 EST 2013	From player: 540
Tue Nov 26 16:55:06 EST 2013	To player: 510
Tue Nov 26 16:55:06 EST 2013	Chips to send by proposer: { chips  'CTRed':12 'CTPurple':2 'CTGreen':0 'grey78':0 'CTYellow':0 }
Tue Nov 26 16:55:06 EST 2013	Chips to send by responder: { chips  'CTRed':0 'CTPurple':0 'CTGreen':0 'grey78':0 'CTYellow':6 }
Tue Nov 26 16:55:44 EST 2013	Received communication message 
Tue Nov 26 16:55:44 EST 2013	From player: 520
Tue Nov 26 16:55:44 EST 2013	To player: 510
Tue Nov 26 16:55:44 EST 2013	Chips to send by proposer: { chips  'CTRed':0 'CTPurple':0 'CTGreen':0 'grey78':0 'CTYellow':0 }
Tue Nov 26 16:55:44 EST 2013	Chips to send by responder: { chips  'CTRed':0 'CTPurple':0 'CTGreen':0 'grey78':0 'CTYellow':0 }
Tue Nov 26 16:55:44 EST 2013	Received communication message 
Tue Nov 26 16:55:44 EST 2013	Proposer 0 accepted? false
Tue Nov 26 16:55:44 EST 2013	case that we had one reject, and one accept
Tue Nov 26 16:55:44 EST 2013	Received communication message 
Tue Nov 26 16:55:44 EST 2013	Proposer 1 accepted? false
Tue Nov 26 16:55:44 EST 2013	case that we had one reject, and one accept
Tue Nov 26 16:55:44 EST 2013	A Phase Ended: Communication Phase
Tue Nov 26 16:55:44 EST 2013	Protocol: A New Phase Began: Movement Phase. loop is true
Tue Nov 26 16:55:44 EST 2013	---------- Beginning Movement Phase at round 3 ----------
Tue Nov 26 16:56:28 EST 2013	A Phase Ended: Movement Phase
Tue Nov 26 16:56:28 EST 2013	Protocol: A New Phase Began: Feedback Phase. loop is true
Tue Nov 26 16:56:28 EST 2013	---------- Beginning Feedback Phase at round 3 ----------
Tue Nov 26 16:56:28 EST 2013	Number of consecutive no movements for player 510 is 1
Tue Nov 26 16:56:28 EST 2013	TDPlayerPosition is(R:5,C:5)goal location 0(R:0,C:0)goal location 1(R:0,C:8)
Tue Nov 26 16:56:28 EST 2013	ended is false
Tue Nov 26 16:56:33 EST 2013	A Phase Ended: Feedback Phase
Tue Nov 26 16:56:33 EST 2013	 numberofMoves in round 3 is 0
Tue Nov 26 16:56:33 EST 2013	Swaping roles:
Tue Nov 26 16:56:33 EST 2013	Protocol: A New Phase Began: Communication Phase. loop is true
Tue Nov 26 16:56:33 EST 2013	---------- Beginning Communication Phase at round 4 ----------
Tue Nov 26 16:56:36 EST 2013	Received communication message 
Tue Nov 26 16:56:36 EST 2013	From player: 510
Tue Nov 26 16:56:36 EST 2013	To player: 520
Tue Nov 26 16:56:36 EST 2013	Chips to send by proposer: { chips  'grey78':11 }
Tue Nov 26 16:56:36 EST 2013	Chips to send by responder: { chips  'CTRed':23 'CTPurple':7 'CTYellow':0 }
Tue Nov 26 16:56:59 EST 2013	Received communication message 
Tue Nov 26 16:56:59 EST 2013	Proposer 0 accepted? false
Tue Nov 26 16:56:59 EST 2013	case that we had one reject, and one accept
Tue Nov 26 16:56:59 EST 2013	A Phase Ended: Communication Phase
Tue Nov 26 16:56:59 EST 2013	Protocol: A New Phase Began: Movement Phase. loop is true
Tue Nov 26 16:56:59 EST 2013	---------- Beginning Movement Phase at round 4 ----------
Tue Nov 26 16:57:44 EST 2013	A Phase Ended: Movement Phase
Tue Nov 26 16:57:44 EST 2013	Protocol: A New Phase Began: Feedback Phase. loop is true
Tue Nov 26 16:57:44 EST 2013	---------- Beginning Feedback Phase at round 4 ----------
Tue Nov 26 16:57:44 EST 2013	Number of consecutive no movements for player 510 is 0
Tue Nov 26 16:57:44 EST 2013	TDPlayerPosition is(R:4,C:5)goal location 0(R:0,C:0)goal location 1(R:0,C:8)
Tue Nov 26 16:57:44 EST 2013	ended is false
Tue Nov 26 16:57:49 EST 2013	A Phase Ended: Feedback Phase
Tue Nov 26 16:57:49 EST 2013	 numberofMoves in round 4 is 1
Tue Nov 26 16:57:49 EST 2013	Swaping roles:
Tue Nov 26 16:57:49 EST 2013	Protocol: A New Phase Began: Communication Phase. loop is true
Tue Nov 26 16:57:49 EST 2013	---------- Beginning Communication Phase at round 5 ----------
Tue Nov 26 16:58:00 EST 2013	Received communication message 
Tue Nov 26 16:58:00 EST 2013	From player: 520
Tue Nov 26 16:58:00 EST 2013	To player: 510
Tue Nov 26 16:58:00 EST 2013	Chips to send by proposer: { chips  'CTRed':0 'CTPurple':0 'CTGreen':0 'grey78':0 'CTYellow':0 }
Tue Nov 26 16:58:00 EST 2013	Chips to send by responder: { chips  'CTRed':0 'CTPurple':0 'CTGreen':0 'grey78':0 'CTYellow':0 }
Tue Nov 26 16:58:47 EST 2013	Received communication message 
Tue Nov 26 16:58:47 EST 2013	From player: 540
Tue Nov 26 16:58:47 EST 2013	To player: 510
Tue Nov 26 16:58:47 EST 2013	Chips to send by proposer: { chips  'CTRed':13 'CTPurple':2 'CTGreen':0 'grey78':0 'CTYellow':0 }
Tue Nov 26 16:58:47 EST 2013	Chips to send by responder: { chips  'CTRed':0 'CTPurple':0 'CTGreen':0 'grey78':0 'CTYellow':5 }
Tue Nov 26 16:58:47 EST 2013	Received communication message 
Tue Nov 26 16:58:47 EST 2013	Proposer 1 accepted? true
Tue Nov 26 16:58:47 EST 2013	A Phase Ended: Communication Phase
Tue Nov 26 16:58:47 EST 2013	Protocol: A New Phase Began: Movement Phase. loop is true
Tue Nov 26 16:58:47 EST 2013	---------- Beginning Movement Phase at round 5 ----------
Tue Nov 26 16:58:47 EST 2013	Received communication message 
Tue Nov 26 16:58:47 EST 2013	Proposer 0 accepted? false
Tue Nov 26 16:59:32 EST 2013	A Phase Ended: Movement Phase
Tue Nov 26 16:59:32 EST 2013	Protocol: A New Phase Began: Feedback Phase. loop is true
Tue Nov 26 16:59:32 EST 2013	---------- Beginning Feedback Phase at round 5 ----------
Tue Nov 26 16:59:32 EST 2013	Number of consecutive no movements for player 510 is 1
Tue Nov 26 16:59:32 EST 2013	TDPlayerPosition is(R:4,C:5)goal location 0(R:0,C:0)goal location 1(R:0,C:8)
Tue Nov 26 16:59:32 EST 2013	ended is false
Tue Nov 26 16:59:37 EST 2013	A Phase Ended: Feedback Phase
Tue Nov 26 16:59:37 EST 2013	 numberofMoves in round 5 is 0
Tue Nov 26 16:59:37 EST 2013	Swaping roles:
Tue Nov 26 16:59:37 EST 2013	Protocol: A New Phase Began: Communication Phase. loop is true
Tue Nov 26 16:59:37 EST 2013	---------- Beginning Communication Phase at round 6 ----------
Tue Nov 26 16:59:40 EST 2013	Received communication message 
Tue Nov 26 16:59:40 EST 2013	From player: 510
Tue Nov 26 16:59:40 EST 2013	To player: 520
Tue Nov 26 16:59:40 EST 2013	Chips to send by proposer: { chips  'grey78':11 }
Tue Nov 26 16:59:40 EST 2013	Chips to send by responder: { chips  'CTRed':23 'CTPurple':7 'CTYellow':0 }
Tue Nov 26 17:00:07 EST 2013	Received communication message 
Tue Nov 26 17:00:07 EST 2013	Proposer 0 accepted? true
Tue Nov 26 17:00:07 EST 2013	A Phase Ended: Communication Phase
Tue Nov 26 17:00:07 EST 2013	Protocol: A New Phase Began: Movement Phase. loop is true
Tue Nov 26 17:00:07 EST 2013	---------- Beginning Movement Phase at round 6 ----------
Tue Nov 26 17:00:52 EST 2013	A Phase Ended: Movement Phase
Tue Nov 26 17:00:52 EST 2013	Protocol: A New Phase Began: Feedback Phase. loop is true
Tue Nov 26 17:00:52 EST 2013	---------- Beginning Feedback Phase at round 6 ----------
Tue Nov 26 17:00:52 EST 2013	The TD player reached the goal, end the game
Tue Nov 26 17:00:52 EST 2013	ended is true
Tue Nov 26 17:00:57 EST 2013	A Phase Ended: Feedback Phase
Tue Nov 26 17:00:57 EST 2013	 numberofMoves in round 6 is 7
Tue Nov 26 17:00:57 EST 2013	Loop status: false
Tue Nov 26 17:00:57 EST 2013	Player: 540 ,role: Responder score is: 150
Tue Nov 26 17:00:57 EST 2013	Player: 540Game Ended
Tue Nov 26 17:00:57 EST 2013	Player: 510 ,role: Proposer score is: 420
Tue Nov 26 17:00:57 EST 2013	Player: 510Game Ended
Tue Nov 26 17:00:57 EST 2013	Player: 520 ,role: Responder score is: 205
Tue Nov 26 17:00:57 EST 2013	Player: 520Game Ended
Tue Nov 26 17:00:57 EST 2013	Protocol: A New Phase Began: Communication Phase. loop is false
Tue Nov 26 17:00:57 EST 2013	---------- Beginning Communication Phase at round 6 ----------
