filename,round,propID,respID,IsPropCustomer,chipsToSend,chipsToReceive,accept,propCurrentScore,respCurrentScore,actualSent,ActualRcvd,propResultingScore,respResultingScore,#ofCustomerMovesInRound,customerRowPositionAfterMovePhase,customerColPositionAfterMovePhase,Player100ChipsAfterMovePhase,Player100ScoreAfterMovePhase,Player200ChipsAfterMovePhase,Player200ScoreAfterMovePhase,Player300ChipsAfterMovePhase,Player300ScoreAfterMovePhase,generosityLevel,ClientReachedGoal
3playersLog_1385502670646.csv,1,540,510,false,{ chips  'CTRed':6 'CTPurple':2 },{ chips  },TRUE,200,120,{ chips  'CTRed':6 'CTPurple':2 'CTGreen':0 'grey78':0 'CTYellow':0 },{ chips  'CTRed':0 'CTPurple':0 'CTGreen':0 'grey78':0 'CTYellow':0 },160,160,0,(R:5,C:4),{ chips  'CTRed':6 'CTGreen':0 'CTPurple':2 'grey78':12 'CTYellow':12 },160,{ chips  'CTRed':33 'CTGreen':0 'CTPurple':7 'grey78':0 'CTYellow':0 },200,{ chips  'CTRed':27 'CTGreen':0 'CTPurple':5 'grey78':0 'CTYellow':0 },160
3playersLog_1385502670646.csv,2,510,520,true,{ chips  'grey78':11 },{ chips  'CTRed':33 'CTPurple':7 },FALSE,160,200,,,,,1,(R:5,C:3),{ chips  'CTRed':6 'CTGreen':0 'CTPurple':2 'grey78':11 'CTYellow':12 },155,{ chips  'CTRed':33 'CTGreen':0 'CTPurple':7 'grey78':0 'CTYellow':0 },200,{ chips  'CTRed':27 'CTGreen':0 'CTPurple':5 'grey78':0 'CTYellow':0 },160
3playersLog_1385502670646.csv,3,520,510,false,{ chips  'CTRed':7 'CTPurple':2 },{ chips  'CTRed':2 'grey78':4 },TRUE,200,155,{ chips  'CTRed':7 'CTPurple':2 'CTGreen':0 'grey78':0 'CTYellow':0 },{ chips  'CTRed':2 'CTPurple':0 'CTGreen':0 'grey78':4 'CTYellow':0 },185,170,0,(R:5,C:3),{ chips  'CTRed':11 'CTGreen':0 'CTPurple':4 'grey78':7 'CTYellow':12 },170,{ chips  'CTRed':28 'CTGreen':0 'CTPurple':5 'grey78':4 'CTYellow':0 },185,{ chips  'CTRed':27 'CTGreen':0 'CTPurple':5 'grey78':0 'CTYellow':0 },160
3playersLog_1385502670646.csv,3,540,510,false,{ chips  'CTRed':6 },{ chips  'CTYellow':4 },IGNORED,160,155,,,,,0,(R:5,C:3),{ chips  'CTRed':11 'CTGreen':0 'CTPurple':4 'grey78':7 'CTYellow':12 },170,{ chips  'CTRed':28 'CTGreen':0 'CTPurple':5 'grey78':4 'CTYellow':0 },185,{ chips  'CTRed':27 'CTGreen':0 'CTPurple':5 'grey78':0 'CTYellow':0 },160
3playersLog_1385502670646.csv,4,510,540,true,{ chips  'CTYellow':11 },{ chips  'CTRed':27 'CTPurple':5 },FALSE,170,160,,,,,1,(R:4,C:3),{ chips  'CTRed':11 'CTGreen':0 'CTPurple':4 'grey78':6 'CTYellow':12 },165,{ chips  'CTRed':28 'CTGreen':0 'CTPurple':5 'grey78':4 'CTYellow':0 },185,{ chips  'CTRed':27 'CTGreen':0 'CTPurple':5 'grey78':0 'CTYellow':0 },160
3playersLog_1385502670646.csv,5,520,510,false,{ chips  'CTRed':3 'CTPurple':2 },{ chips  'grey78':4 },IGNORED,185,165,,,,,0,(R:4,C:3),{ chips  'CTRed':19 'CTGreen':0 'CTPurple':4 'grey78':6 'CTYellow':8 },185,{ chips  'CTRed':28 'CTGreen':0 'CTPurple':5 'grey78':4 'CTYellow':0 },185,{ chips  'CTRed':19 'CTGreen':0 'CTPurple':5 'grey78':0 'CTYellow':4 },140
3playersLog_1385502670646.csv,5,540,510,false,{ chips  'CTRed':8 },{ chips  'CTYellow':4 },TRUE,160,165,{ chips  'CTRed':8 'CTPurple':0 'CTGreen':0 'grey78':0 'CTYellow':0 },{ chips  'CTRed':0 'CTPurple':0 'CTGreen':0 'grey78':0 'CTYellow':4 },140,185,0,(R:4,C:3),{ chips  'CTRed':19 'CTGreen':0 'CTPurple':4 'grey78':6 'CTYellow':8 },185,{ chips  'CTRed':28 'CTGreen':0 'CTPurple':5 'grey78':4 'CTYellow':0 },185,{ chips  'CTRed':19 'CTGreen':0 'CTPurple':5 'grey78':0 'CTYellow':4 },140
3playersLog_1385502670646.csv,6,510,540,true,{ chips  'CTYellow':7 },{ chips  'CTRed':19 'CTPurple':5 },FALSE,185,140,,,,,1,(R:3,C:3),{ chips  'CTRed':19 'CTGreen':0 'CTPurple':3 'grey78':6 'CTYellow':8 },180,{ chips  'CTRed':28 'CTGreen':0 'CTPurple':5 'grey78':4 'CTYellow':0 },185,{ chips  'CTRed':19 'CTGreen':0 'CTPurple':5 'grey78':0 'CTYellow':4 },140
3playersLog_1385502670646.csv,7,520,510,false,{ chips  'CTRed':5 'CTPurple':3 },{ chips  'grey78':4 },TRUE,185,180,{ chips  'CTRed':5 'CTPurple':3 'CTGreen':0 'grey78':0 'CTYellow':0 },{ chips  'CTRed':0 'CTPurple':0 'CTGreen':0 'grey78':4 'CTYellow':0 },165,200,0,(R:3,C:3),{ chips  'CTRed':24 'CTGreen':0 'CTPurple':6 'grey78':2 'CTYellow':8 },200,{ chips  'CTRed':23 'CTGreen':0 'CTPurple':2 'grey78':8 'CTYellow':0 },165,{ chips  'CTRed':19 'CTGreen':0 'CTPurple':5 'grey78':0 'CTYellow':4 },140
3playersLog_1385502670646.csv,7,540,510,false,{ chips  'CTRed':1 },{ chips  'CTPurple':1 },IGNORED,140,180,,,,,0,(R:3,C:3),{ chips  'CTRed':24 'CTGreen':0 'CTPurple':6 'grey78':2 'CTYellow':8 },200,{ chips  'CTRed':23 'CTGreen':0 'CTPurple':2 'grey78':8 'CTYellow':0 },165,{ chips  'CTRed':19 'CTGreen':0 'CTPurple':5 'grey78':0 'CTYellow':4 },140
3playersLog_1385502670646.csv,8,510,520,true,{ chips  'grey78':1 },{ chips  'CTRed':23 'CTPurple':2 },FALSE,200,165,,,,,1,(R:3,C:4),{ chips  'CTRed':24 'CTGreen':0 'CTPurple':5 'grey78':2 'CTYellow':8 },195,{ chips  'CTRed':23 'CTGreen':0 'CTPurple':2 'grey78':8 'CTYellow':0 },165,{ chips  'CTRed':19 'CTGreen':0 'CTPurple':5 'grey78':0 'CTYellow':4 },140
3playersLog_1385502670646.csv,9,520,510,false,{ chips  'CTRed':7 },{ chips  'CTPurple':2 'grey78':1 },IGNORED,165,195,,,,,0,(R:3,C:4),{ chips  'CTRed':28 'CTGreen':0 'CTPurple':5 'grey78':2 'CTYellow':5 },200,{ chips  'CTRed':23 'CTGreen':0 'CTPurple':2 'grey78':8 'CTYellow':0 },165,{ chips  'CTRed':15 'CTGreen':0 'CTPurple':5 'grey78':0 'CTYellow':7 },135
3playersLog_1385502670646.csv,9,540,510,false,{ chips  'CTRed':4 },{ chips  'CTYellow':3 },TRUE,140,195,{ chips  'CTRed':4 'CTPurple':0 'CTGreen':0 'grey78':0 'CTYellow':0 },{ chips  'CTRed':0 'CTPurple':0 'CTGreen':0 'grey78':0 'CTYellow':3 },135,200,0,(R:3,C:4),{ chips  'CTRed':28 'CTGreen':0 'CTPurple':5 'grey78':2 'CTYellow':5 },200,{ chips  'CTRed':23 'CTGreen':0 'CTPurple':2 'grey78':8 'CTYellow':0 },165,{ chips  'CTRed':15 'CTGreen':0 'CTPurple':5 'grey78':0 'CTYellow':7 },135
3playersLog_1385502670646.csv,10,510,520,true,{ chips  'grey78':1 },{ chips  'CTRed':23 'CTPurple':2 },FALSE,200,165,,,,,1,(R:3,C:5),{ chips  'CTRed':28 'CTGreen':0 'CTPurple':4 'grey78':2 'CTYellow':5 },195,{ chips  'CTRed':23 'CTGreen':0 'CTPurple':2 'grey78':8 'CTYellow':0 },165,{ chips  'CTRed':15 'CTGreen':0 'CTPurple':5 'grey78':0 'CTYellow':7 },135
3playersLog_1385502670646.csv,11,520,510,false,{ chips  'CTPurple':2 },{ chips  'grey78':2 },IGNORED,165,195,,,,,0,(R:3,C:5),{ chips  'CTRed':28 'CTGreen':0 'CTPurple':4 'grey78':2 'CTYellow':5 },195,{ chips  'CTRed':23 'CTGreen':0 'CTPurple':2 'grey78':8 'CTYellow':0 },165,{ chips  'CTRed':15 'CTGreen':0 'CTPurple':5 'grey78':0 'CTYellow':7 },135
3playersLog_1385502670646.csv,11,540,510,false,{ chips  'CTPurple':1 },{ chips  'CTRed':4 'CTYellow':1 },IGNORED,135,195,,,,,0,(R:3,C:5),{ chips  'CTRed':28 'CTGreen':0 'CTPurple':4 'grey78':2 'CTYellow':5 },195,{ chips  'CTRed':23 'CTGreen':0 'CTPurple':2 'grey78':8 'CTYellow':0 },165,{ chips  'CTRed':15 'CTGreen':0 'CTPurple':5 'grey78':0 'CTYellow':7 },135
3playersLog_1385502670646.csv,12,510,520,true,{ chips  'grey78':1 },{ chips  'CTRed':23 'CTPurple':2 },FALSE,195,165,,,,,1,(R:3,C:6),{ chips  'CTRed':28 'CTGreen':0 'CTPurple':4 'grey78':2 'CTYellow':4 },190,{ chips  'CTRed':23 'CTGreen':0 'CTPurple':2 'grey78':8 'CTYellow':0 },165,{ chips  'CTRed':15 'CTGreen':0 'CTPurple':5 'grey78':0 'CTYellow':7 },135
3playersLog_1385502670646.csv,13,520,510,false,{ chips  'CTPurple':1 },{ chips  'CTRed':6 },FALSE,165,190,,,,,0,(R:3,C:6),{ chips  'CTRed':28 'CTGreen':0 'CTPurple':4 'grey78':2 'CTYellow':4 },190,{ chips  'CTRed':23 'CTGreen':0 'CTPurple':2 'grey78':8 'CTYellow':0 },165,{ chips  'CTRed':15 'CTGreen':0 'CTPurple':5 'grey78':0 'CTYellow':7 },135
3playersLog_1385502670646.csv,13,540,510,false,{ chips  'CTPurple':5 },{ chips  'CTRed':5 },FALSE,135,190,,,,,0,(R:3,C:6),{ chips  'CTRed':28 'CTGreen':0 'CTPurple':4 'grey78':2 'CTYellow':4 },190,{ chips  'CTRed':23 'CTGreen':0 'CTPurple':2 'grey78':8 'CTYellow':0 },165,{ chips  'CTRed':15 'CTGreen':0 'CTPurple':5 'grey78':0 'CTYellow':7 },135
3playersLog_1385502670646.csv,14,510,520,true,{ chips  'grey78':1 },{ chips  'CTRed':23 'CTPurple':2 },FALSE,190,165,,,,,1,(R:3,C:7),{ chips  'CTRed':28 'CTGreen':0 'CTPurple':4 'grey78':2 'CTYellow':3 },185,{ chips  'CTRed':23 'CTGreen':0 'CTPurple':2 'grey78':8 'CTYellow':0 },165,{ chips  'CTRed':15 'CTGreen':0 'CTPurple':5 'grey78':0 'CTYellow':7 },135
3playersLog_1385502670646.csv,15,520,510,false,{ chips  'CTPurple':1 },{ chips  'CTRed':4 },FALSE,165,185,,,,,0,(R:3,C:7),{ chips  'CTRed':28 'CTGreen':0 'CTPurple':4 'grey78':2 'CTYellow':3 },185,{ chips  'CTRed':23 'CTGreen':0 'CTPurple':2 'grey78':8 'CTYellow':0 },165,{ chips  'CTRed':15 'CTGreen':0 'CTPurple':5 'grey78':0 'CTYellow':7 },135
3playersLog_1385502670646.csv,15,540,510,false,{ chips  'CTPurple':5 },{ chips  'CTRed':2 'CTYellow':1 },FALSE,135,185,,,,,0,(R:3,C:7),{ chips  'CTRed':28 'CTGreen':0 'CTPurple':4 'grey78':2 'CTYellow':3 },185,{ chips  'CTRed':23 'CTGreen':0 'CTPurple':2 'grey78':8 'CTYellow':0 },165,{ chips  'CTRed':15 'CTGreen':0 'CTPurple':5 'grey78':0 'CTYellow':7 },135
3playersLog_1385502670646.csv,16,510,520,true,{ chips  'grey78':1 },{ chips  'CTRed':23 'CTPurple':2 },FALSE,185,165,,,,,1,(R:2,C:7),{ chips  'CTRed':28 'CTGreen':0 'CTPurple':4 'grey78':2 'CTYellow':2 },180,{ chips  'CTRed':23 'CTGreen':0 'CTPurple':2 'grey78':8 'CTYellow':0 },165,{ chips  'CTRed':15 'CTGreen':0 'CTPurple':5 'grey78':0 'CTYellow':7 },135
3playersLog_1385502670646.csv,17,520,510,false,{ chips  'CTPurple':1 },{ chips  'CTRed':5 },FALSE,165,180,,,,,0,(R:2,C:7),{ chips  'CTRed':28 'CTGreen':0 'CTPurple':4 'grey78':2 'CTYellow':2 },180,{ chips  'CTRed':23 'CTGreen':0 'CTPurple':2 'grey78':8 'CTYellow':0 },165,{ chips  'CTRed':15 'CTGreen':0 'CTPurple':5 'grey78':0 'CTYellow':7 },135
3playersLog_1385502670646.csv,17,540,510,false,{ chips  },{ chips  },FALSE,135,180,,,,,0,(R:2,C:7),{ chips  'CTRed':28 'CTGreen':0 'CTPurple':4 'grey78':2 'CTYellow':2 },180,{ chips  'CTRed':23 'CTGreen':0 'CTPurple':2 'grey78':8 'CTYellow':0 },165,{ chips  'CTRed':15 'CTGreen':0 'CTPurple':5 'grey78':0 'CTYellow':7 },135
3playersLog_1385502670646.csv,18,510,520,true,{ chips  'grey78':1 },{ chips  'CTRed':23 'CTPurple':2 },FALSE,180,165,,,,,1,(R:1,C:7),{ chips  'CTRed':28 'CTGreen':0 'CTPurple':3 'grey78':2 'CTYellow':2 },175,{ chips  'CTRed':23 'CTGreen':0 'CTPurple':2 'grey78':8 'CTYellow':0 },165,{ chips  'CTRed':15 'CTGreen':0 'CTPurple':5 'grey78':0 'CTYellow':7 },135
3playersLog_1385502670646.csv,19,520,510,false,{ chips  'CTPurple':1 },{ chips  'CTRed':3 'grey78':1 },FALSE,165,175,,,,,0,(R:1,C:7),{ chips  'CTRed':28 'CTGreen':0 'CTPurple':3 'grey78':2 'CTYellow':2 },175,{ chips  'CTRed':23 'CTGreen':0 'CTPurple':2 'grey78':8 'CTYellow':0 },165,{ chips  'CTRed':15 'CTGreen':0 'CTPurple':5 'grey78':0 'CTYellow':7 },135
3playersLog_1385502670646.csv,19,540,510,false,{ chips  'CTRed':3 'CTPurple':5 },{ chips  'CTYellow':2 },FALSE,135,175,,,,,0,(R:1,C:7),{ chips  'CTRed':28 'CTGreen':0 'CTPurple':3 'grey78':2 'CTYellow':2 },175,{ chips  'CTRed':23 'CTGreen':0 'CTPurple':2 'grey78':8 'CTYellow':0 },165,{ chips  'CTRed':15 'CTGreen':0 'CTPurple':5 'grey78':0 'CTYellow':7 },135
3playersLog_1385502670646.csv,20,510,520,true,{ chips  'grey78':1 },{ chips  'CTRed':23 'CTPurple':2 },FALSE,175,165,,,,,1,(R:1,C:8),{ chips  'CTRed':28 'CTGreen':0 'CTPurple':3 'grey78':2 'CTYellow':1 },170,{ chips  'CTRed':23 'CTGreen':0 'CTPurple':2 'grey78':8 'CTYellow':0 },165,{ chips  'CTRed':15 'CTGreen':0 'CTPurple':5 'grey78':0 'CTYellow':7 },135
3playersLog_1385502670646.csv,21,520,510,false,{ chips  'CTPurple':2 },{ chips  'CTRed':5 'grey78':1 },FALSE,165,170,,,,,0,(R:1,C:8),{ chips  'CTRed':28 'CTGreen':0 'CTPurple':3 'grey78':2 'CTYellow':1 },170,{ chips  'CTRed':23 'CTGreen':0 'CTPurple':2 'grey78':8 'CTYellow':0 },165,{ chips  'CTRed':15 'CTGreen':0 'CTPurple':5 'grey78':0 'CTYellow':7 },135
3playersLog_1385502670646.csv,21,540,510,false,{ chips  'CTRed':3 'CTPurple':5 },{ chips  'CTYellow':1 },FALSE,135,170,,,,,0,(R:1,C:8),{ chips  'CTRed':28 'CTGreen':0 'CTPurple':3 'grey78':2 'CTYellow':1 },170,{ chips  'CTRed':23 'CTGreen':0 'CTPurple':2 'grey78':8 'CTYellow':0 },165,{ chips  'CTRed':15 'CTGreen':0 'CTPurple':5 'grey78':0 'CTYellow':7 },135
3playersLog_1385502670646.csv,22,510,520,true,{ chips  'grey78':1 },{ chips  'CTRed':23 'CTPurple':2 },FALSE,170,165,,,,,1,(R:0,C:8),{ chips  'CTRed':28 'CTGreen':0 'CTPurple':3 'grey78':2 'CTYellow':0 },315,{ chips  'CTRed':23 'CTGreen':0 'CTPurple':2 'grey78':8 'CTYellow':0 },315,{ chips  'CTRed':15 'CTGreen':0 'CTPurple':5 'grey78':0 'CTYellow':7 },135
3playersLog_1385502670646.csv,,,,,,,,,,,,,,,,,,,,,,,,true
