Wed Sep 11 08:33:31 IST 2013	This is the CT debug logger; svn version 638; sep 27 09
Wed Sep 11 08:33:31 IST 2013	Wed Sep 11 08:33:31 IST 2013
Wed Sep 11 08:33:31 IST 2013	ThreePlayersAgentPlayer(): entering.
Wed Sep 11 08:33:42 IST 2013	phaseAdvanced(): entering.
Wed Sep 11 08:33:42 IST 2013	phaseAdvanced(): new phase is 'Strategy Prep Phase'.
Wed Sep 11 08:34:42 IST 2013	phaseAdvanced(): entering.
Wed Sep 11 08:34:42 IST 2013	phaseAdvanced(): new phase is 'Communication Phase'.
Wed Sep 11 08:35:04 IST 2013	onReceipt(): entering.
Wed Sep 11 08:35:04 IST 2013	phaseAdvanced(): entering.
Wed Sep 11 08:35:04 IST 2013	phaseAdvanced(): new phase is 'Movement Phase'.
Wed Sep 11 08:35:48 IST 2013	phaseAdvanced(): entering.
Wed Sep 11 08:35:48 IST 2013	phaseAdvanced(): new phase is 'Feedback Phase'.
Wed Sep 11 08:35:53 IST 2013	phaseAdvanced(): entering.
Wed Sep 11 08:35:53 IST 2013	phaseAdvanced(): new phase is 'Communication Phase'.
Wed Sep 11 08:36:53 IST 2013	phaseAdvanced(): entering.
Wed Sep 11 08:36:53 IST 2013	phaseAdvanced(): new phase is 'Movement Phase'.
Wed Sep 11 08:37:37 IST 2013	phaseAdvanced(): entering.
Wed Sep 11 08:37:37 IST 2013	phaseAdvanced(): new phase is 'Feedback Phase'.
Wed Sep 11 08:37:42 IST 2013	phaseAdvanced(): entering.
Wed Sep 11 08:37:42 IST 2013	phaseAdvanced(): new phase is 'Communication Phase'.
Wed Sep 11 08:38:13 IST 2013	phaseAdvanced(): entering.
Wed Sep 11 08:38:13 IST 2013	phaseAdvanced(): new phase is 'Movement Phase'.
Wed Sep 11 08:38:57 IST 2013	phaseAdvanced(): entering.
Wed Sep 11 08:38:57 IST 2013	phaseAdvanced(): new phase is 'Feedback Phase'.
Wed Sep 11 08:39:02 IST 2013	phaseAdvanced(): entering.
Wed Sep 11 08:39:02 IST 2013	phaseAdvanced(): new phase is 'Communication Phase'.
Wed Sep 11 08:39:36 IST 2013	phaseAdvanced(): entering.
Wed Sep 11 08:39:36 IST 2013	phaseAdvanced(): new phase is 'Movement Phase'.
Wed Sep 11 08:40:20 IST 2013	phaseAdvanced(): entering.
Wed Sep 11 08:40:20 IST 2013	phaseAdvanced(): new phase is 'Feedback Phase'.
Wed Sep 11 08:40:25 IST 2013	phaseAdvanced(): entering.
Wed Sep 11 08:40:25 IST 2013	phaseAdvanced(): new phase is 'Communication Phase'.
Wed Sep 11 08:41:09 IST 2013	phaseAdvanced(): entering.
Wed Sep 11 08:41:09 IST 2013	phaseAdvanced(): new phase is 'Movement Phase'.
Wed Sep 11 08:41:53 IST 2013	phaseAdvanced(): entering.
Wed Sep 11 08:41:53 IST 2013	phaseAdvanced(): new phase is 'Feedback Phase'.
Wed Sep 11 08:41:58 IST 2013	phaseAdvanced(): entering.
Wed Sep 11 08:41:58 IST 2013	phaseAdvanced(): new phase is 'Communication Phase'.
Wed Sep 11 08:42:42 IST 2013	phaseAdvanced(): entering.
Wed Sep 11 08:42:42 IST 2013	phaseAdvanced(): new phase is 'Movement Phase'.
Wed Sep 11 08:43:26 IST 2013	phaseAdvanced(): entering.
Wed Sep 11 08:43:26 IST 2013	phaseAdvanced(): new phase is 'Feedback Phase'.
Wed Sep 11 08:43:31 IST 2013	phaseAdvanced(): entering.
Wed Sep 11 08:43:31 IST 2013	phaseAdvanced(): new phase is 'Communication Phase'.
Wed Sep 11 08:44:19 IST 2013	onReceipt(): entering.
Wed Sep 11 08:44:19 IST 2013	phaseAdvanced(): entering.
Wed Sep 11 08:44:19 IST 2013	phaseAdvanced(): new phase is 'Movement Phase'.
Wed Sep 11 08:45:03 IST 2013	phaseAdvanced(): entering.
Wed Sep 11 08:45:03 IST 2013	phaseAdvanced(): new phase is 'Feedback Phase'.
