Wed Jul 18 01:35:47 IDT 2012	This is the CT debug logger; svn version 638; sep 27 09
Wed Jul 18 01:35:47 IDT 2012	Wed Jul 18 01:35:47 IDT 2012
Wed Jul 18 01:35:47 IDT 2012	A new Alternative Offers game has began
Wed Jul 18 01:35:47 IDT 2012	ID Number: 37158
Wed Jul 18 01:35:47 IDT 2012	Creating board
Wed Jul 18 01:35:47 IDT 2012	<colors>
Wed Jul 18 01:35:47 IDT 2012	{ GamePalette  'CTRed':0 'CTPurple':1 'CTGreen':2 'grey78':3 'CTYellow':4 }
Wed Jul 18 01:35:47 IDT 2012	<rows>
Wed Jul 18 01:35:47 IDT 2012	7
Wed Jul 18 01:35:47 IDT 2012	<columns>
Wed Jul 18 01:35:47 IDT 2012	5
Wed Jul 18 01:35:47 IDT 2012	<squaresColors>
Wed Jul 18 01:35:47 IDT 2012	CTPurple CTRed CTRed CTGreen CTPurple 
Wed Jul 18 01:35:47 IDT 2012	CTPurple grey78 CTPurple CTYellow CTPurple 
Wed Jul 18 01:35:47 IDT 2012	CTPurple CTRed CTPurple CTGreen CTPurple 
Wed Jul 18 01:35:47 IDT 2012	CTPurple grey78 CTPurple CTYellow CTPurple 
Wed Jul 18 01:35:47 IDT 2012	CTPurple CTRed CTPurple CTGreen CTPurple 
Wed Jul 18 01:35:47 IDT 2012	CTPurple grey78 CTPurple CTYellow CTPurple 
Wed Jul 18 01:35:47 IDT 2012	CTPurple CTRed CTPurple CTGreen CTPurple 
Wed Jul 18 01:35:47 IDT 2012	</squareColors>
Wed Jul 18 01:35:47 IDT 2012	<goalPosition>
Wed Jul 18 01:35:47 IDT 2012	Goal position: (R:0,C:2)
Wed Jul 18 01:35:47 IDT 2012	<numberOfPlayers>
Wed Jul 18 01:35:47 IDT 2012	2
Wed Jul 18 01:35:47 IDT 2012	<firstPlayerChips>
Wed Jul 18 01:35:47 IDT 2012	Setting chips for player: 999 id:0
Wed Jul 18 01:35:47 IDT 2012	{ chips  'CTRed':5 'CTGreen':10 'CTPurple':0 'grey78':0 'CTYellow':9 }
Wed Jul 18 01:35:47 IDT 2012	Player position: (R:6,C:0)
Wed Jul 18 01:35:47 IDT 2012	Setting chips for player: 337 id:1
Wed Jul 18 01:35:47 IDT 2012	{ chips  'CTRed':1 'CTGreen':13 'CTPurple':0 'grey78':10 'CTYellow':0 }
Wed Jul 18 01:35:47 IDT 2012	Player position: (R:6,C:4)
Wed Jul 18 01:35:47 IDT 2012	Protocol: A New Phase Began: Strategy Prep Phase
Wed Jul 18 01:35:47 IDT 2012	Protocol: Strategy Preparation phase, Round: 0
Wed Jul 18 01:35:47 IDT 2012	Maximum number of rounds with no consecutive movement is 3
Wed Jul 18 01:35:47 IDT 2012	In begin comm. phase, set counter offers count to: 0
Wed Jul 18 01:35:47 IDT 2012	In begin comm. phase, get counter offers returned: 0
Wed Jul 18 01:36:07 IDT 2012	A Phase Ended: Strategy Prep Phase
Wed Jul 18 01:36:07 IDT 2012	Protocol: A New Phase Began: Communication Phase
Wed Jul 18 01:36:07 IDT 2012	Protocol: Communication phase, Round: 0
Wed Jul 18 01:36:25 IDT 2012	Received communication message 
Wed Jul 18 01:36:25 IDT 2012	From player: 999
Wed Jul 18 01:36:25 IDT 2012	To player: 337
Wed Jul 18 01:36:25 IDT 2012	Message type: basicproposal
Wed Jul 18 01:36:25 IDT 2012	Chips to send by proposer: { chips  'CTRed':0 'CTPurple':0 'CTGreen':0 'grey78':0 'CTYellow':2 }
Wed Jul 18 01:36:25 IDT 2012	Chips to send by responder: { chips  'CTRed':0 'CTPurple':0 'CTGreen':0 'grey78':2 'CTYellow':0 }
Wed Jul 18 01:36:29 IDT 2012	Received communication message 
Wed Jul 18 01:36:29 IDT 2012	From player: 337
Wed Jul 18 01:36:29 IDT 2012	To player: 999
Wed Jul 18 01:36:29 IDT 2012	Message type: basicproposaldiscussion
Wed Jul 18 01:36:29 IDT 2012	Player 337 accepted offer
Wed Jul 18 01:36:29 IDT 2012	Prop accepted, set counter offers count to: 0
Wed Jul 18 01:36:29 IDT 2012	Prop accepted, get counter offers returned: 0
Wed Jul 18 01:36:29 IDT 2012	A Phase Ended: Communication Phase
Wed Jul 18 01:36:29 IDT 2012	Protocol: A New Phase Began: Exchange Phase
Wed Jul 18 01:36:29 IDT 2012	Protocol: Exchange phase, Round: 0
Wed Jul 18 01:36:29 IDT 2012	In begin exch.phase, get counter offers returned: 0
Wed Jul 18 01:36:29 IDT 2012	A Phase Ended: Exchange Phase
Wed Jul 18 01:36:29 IDT 2012	Proposer 999 sent: { chips  'CTRed':0 'CTPurple':0 'CTGreen':0 'grey78':0 'CTYellow':2 }
Wed Jul 18 01:36:29 IDT 2012	Responder 337 sent: { chips  'CTRed':0 'CTPurple':0 'CTGreen':0 'grey78':1 'CTYellow':0 }
Wed Jul 18 01:36:29 IDT 2012	Protocol: A New Phase Began: Movement Phase
Wed Jul 18 01:36:29 IDT 2012	Protocol: Movement phase, Round: 0
Wed Jul 18 01:36:48 IDT 2012	A Phase Ended: Movement Phase
Wed Jul 18 01:36:48 IDT 2012	Swaping roles:
Wed Jul 18 01:36:48 IDT 2012	Proposer is: 337
Wed Jul 18 01:36:48 IDT 2012	Responder is: 999
Wed Jul 18 01:36:48 IDT 2012	Protocol: A New Phase Began: Feedback Phase
Wed Jul 18 01:36:48 IDT 2012	Protocol: Feedback phase, Round: 0
Wed Jul 18 01:36:48 IDT 2012	Number of consecutive no movements for player 999 is 1
Wed Jul 18 01:36:48 IDT 2012	Number of consecutive no movements for player 337 is 1
Wed Jul 18 01:36:53 IDT 2012	A Phase Ended: Feedback Phase
Wed Jul 18 01:36:53 IDT 2012	Protocol: A New Phase Began: Communication Phase
Wed Jul 18 01:36:53 IDT 2012	Protocol: Communication phase, Round: 1
Wed Jul 18 01:36:55 IDT 2012	Received communication message 
Wed Jul 18 01:36:55 IDT 2012	From player: 337
Wed Jul 18 01:36:55 IDT 2012	To player: 999
Wed Jul 18 01:36:55 IDT 2012	Message type: basicproposal
Wed Jul 18 01:36:55 IDT 2012	Chips to send by proposer: { chips  'grey78':1 }
Wed Jul 18 01:36:55 IDT 2012	Chips to send by responder: { chips  'CTGreen':2 }
Wed Jul 18 01:37:02 IDT 2012	Received communication message 
Wed Jul 18 01:37:02 IDT 2012	From player: 999
Wed Jul 18 01:37:02 IDT 2012	To player: 337
Wed Jul 18 01:37:02 IDT 2012	Message type: basicproposaldiscussion
Wed Jul 18 01:37:02 IDT 2012	Player 999 rejected offer
Wed Jul 18 01:37:02 IDT 2012	Swaping roles:
Wed Jul 18 01:37:02 IDT 2012	Proposer is: 999
Wed Jul 18 01:37:02 IDT 2012	Responder is: 337
Wed Jul 18 01:37:02 IDT 2012	Prop rejected, set counter offers count to: 1
Wed Jul 18 01:37:02 IDT 2012	Prop rejected, get counter offers returned: 1
Wed Jul 18 01:37:06 IDT 2012	Slept 4 seconds
Wed Jul 18 01:37:06 IDT 2012	Sent role changed msgs
Wed Jul 18 01:37:22 IDT 2012	Received communication message 
Wed Jul 18 01:37:22 IDT 2012	From player: 999
Wed Jul 18 01:37:22 IDT 2012	To player: 337
Wed Jul 18 01:37:22 IDT 2012	Message type: basicproposal
Wed Jul 18 01:37:22 IDT 2012	Chips to send by proposer: { chips  'CTRed':0 'CTPurple':0 'CTGreen':0 'grey78':0 'CTYellow':2 }
Wed Jul 18 01:37:22 IDT 2012	Chips to send by responder: { chips  'CTRed':0 'CTPurple':0 'CTGreen':0 'grey78':2 'CTYellow':0 }
Wed Jul 18 01:37:23 IDT 2012	Received communication message 
Wed Jul 18 01:37:23 IDT 2012	From player: 337
Wed Jul 18 01:37:23 IDT 2012	To player: 999
Wed Jul 18 01:37:23 IDT 2012	Message type: basicproposaldiscussion
Wed Jul 18 01:37:23 IDT 2012	Player 337 rejected offer
Wed Jul 18 01:37:23 IDT 2012	Set counter offers count to: 0
Wed Jul 18 01:37:23 IDT 2012	A Phase Ended: Communication Phase
Wed Jul 18 01:37:23 IDT 2012	Protocol: A New Phase Began: Exchange Phase
Wed Jul 18 01:37:23 IDT 2012	Protocol: Exchange phase, Round: 1
Wed Jul 18 01:37:23 IDT 2012	In begin exch.phase, get counter offers returned: 0
Wed Jul 18 01:38:02 IDT 2012	A Phase Ended: Exchange Phase
Wed Jul 18 01:38:02 IDT 2012	Responder 337 sent: { chips  }
Wed Jul 18 01:38:02 IDT 2012	Protocol: A New Phase Began: Movement Phase
Wed Jul 18 01:38:02 IDT 2012	Protocol: Movement phase, Round: 1
Wed Jul 18 01:38:22 IDT 2012	A Phase Ended: Movement Phase
Wed Jul 18 01:38:22 IDT 2012	Protocol: A New Phase Began: Feedback Phase
Wed Jul 18 01:38:22 IDT 2012	Protocol: Feedback phase, Round: 1
Wed Jul 18 01:38:22 IDT 2012	Number of consecutive no movements for player 999 is 2
Wed Jul 18 01:38:22 IDT 2012	Number of consecutive no movements for player 337 is 2
Wed Jul 18 01:38:27 IDT 2012	A Phase Ended: Feedback Phase
Wed Jul 18 01:38:27 IDT 2012	Protocol: A New Phase Began: Communication Phase
Wed Jul 18 01:38:27 IDT 2012	Protocol: Communication phase, Round: 2
Wed Jul 18 01:38:41 IDT 2012	Received communication message 
Wed Jul 18 01:38:41 IDT 2012	From player: 999
Wed Jul 18 01:38:41 IDT 2012	To player: 337
Wed Jul 18 01:38:41 IDT 2012	Message type: basicproposal
Wed Jul 18 01:38:41 IDT 2012	Chips to send by proposer: { chips  'CTRed':0 'CTPurple':0 'CTGreen':1 'grey78':0 'CTYellow':1 }
Wed Jul 18 01:38:41 IDT 2012	Chips to send by responder: { chips  'CTRed':0 'CTPurple':0 'CTGreen':0 'grey78':2 'CTYellow':0 }
Wed Jul 18 01:38:45 IDT 2012	Received communication message 
Wed Jul 18 01:38:45 IDT 2012	From player: 337
Wed Jul 18 01:38:45 IDT 2012	To player: 999
Wed Jul 18 01:38:45 IDT 2012	Message type: basicproposaldiscussion
Wed Jul 18 01:38:46 IDT 2012	Player 337 accepted offer
Wed Jul 18 01:38:46 IDT 2012	Prop accepted, set counter offers count to: 0
Wed Jul 18 01:38:46 IDT 2012	Prop accepted, get counter offers returned: 0
Wed Jul 18 01:38:46 IDT 2012	A Phase Ended: Communication Phase
Wed Jul 18 01:38:46 IDT 2012	Protocol: A New Phase Began: Exchange Phase
Wed Jul 18 01:38:46 IDT 2012	Protocol: Exchange phase, Round: 2
Wed Jul 18 01:38:46 IDT 2012	In begin exch.phase, get counter offers returned: 0
Wed Jul 18 01:38:46 IDT 2012	A Phase Ended: Exchange Phase
Wed Jul 18 01:38:46 IDT 2012	Proposer 999 sent: { chips  'CTRed':0 'CTPurple':0 'CTGreen':1 'grey78':0 'CTYellow':1 }
Wed Jul 18 01:38:46 IDT 2012	Responder 337 sent: { chips  'CTRed':0 'CTPurple':0 'CTGreen':0 'grey78':0 'CTYellow':0 }
Wed Jul 18 01:38:46 IDT 2012	Protocol: A New Phase Began: Movement Phase
Wed Jul 18 01:38:46 IDT 2012	Protocol: Movement phase, Round: 2
Wed Jul 18 01:38:46 IDT 2012	Player 337 moved to (R:6,C:3)
Wed Jul 18 01:38:46 IDT 2012	Player 999 moved to (R:6,C:1)
Wed Jul 18 01:39:05 IDT 2012	A Phase Ended: Movement Phase
Wed Jul 18 01:39:05 IDT 2012	Swaping roles:
Wed Jul 18 01:39:05 IDT 2012	Proposer is: 337
Wed Jul 18 01:39:05 IDT 2012	Responder is: 999
Wed Jul 18 01:39:05 IDT 2012	Protocol: A New Phase Began: Feedback Phase
Wed Jul 18 01:39:05 IDT 2012	Protocol: Feedback phase, Round: 2
Wed Jul 18 01:39:05 IDT 2012	Number of consecutive no movements for player 999 is 0
Wed Jul 18 01:39:05 IDT 2012	Number of consecutive no movements for player 337 is 0
Wed Jul 18 01:39:10 IDT 2012	A Phase Ended: Feedback Phase
Wed Jul 18 01:39:10 IDT 2012	Protocol: A New Phase Began: Communication Phase
Wed Jul 18 01:39:10 IDT 2012	Protocol: Communication phase, Round: 3
Wed Jul 18 01:39:13 IDT 2012	Received communication message 
Wed Jul 18 01:39:13 IDT 2012	From player: 337
Wed Jul 18 01:39:13 IDT 2012	To player: 999
Wed Jul 18 01:39:13 IDT 2012	Message type: basicproposal
Wed Jul 18 01:39:13 IDT 2012	Chips to send by proposer: { chips  'grey78':1 }
Wed Jul 18 01:39:13 IDT 2012	Chips to send by responder: { chips  'CTYellow':2 }
Wed Jul 18 01:39:25 IDT 2012	Received communication message 
Wed Jul 18 01:39:25 IDT 2012	From player: 999
Wed Jul 18 01:39:25 IDT 2012	To player: 337
Wed Jul 18 01:39:25 IDT 2012	Message type: basicproposaldiscussion
Wed Jul 18 01:39:25 IDT 2012	Player 999 accepted offer
Wed Jul 18 01:39:25 IDT 2012	Prop accepted, set counter offers count to: 0
Wed Jul 18 01:39:25 IDT 2012	Prop accepted, get counter offers returned: 0
Wed Jul 18 01:39:25 IDT 2012	A Phase Ended: Communication Phase
Wed Jul 18 01:39:25 IDT 2012	Protocol: A New Phase Began: Exchange Phase
Wed Jul 18 01:39:25 IDT 2012	Protocol: Exchange phase, Round: 3
Wed Jul 18 01:39:25 IDT 2012	In begin exch.phase, get counter offers returned: 0
Wed Jul 18 01:40:04 IDT 2012	A Phase Ended: Exchange Phase
Wed Jul 18 01:40:04 IDT 2012	Proposer 337 sent: { chips  'CTRed':0 'CTPurple':0 'CTGreen':0 'grey78':0 'CTYellow':0 }
Wed Jul 18 01:40:04 IDT 2012	Protocol: A New Phase Began: Movement Phase
Wed Jul 18 01:40:04 IDT 2012	Protocol: Movement phase, Round: 3
Wed Jul 18 01:40:24 IDT 2012	A Phase Ended: Movement Phase
Wed Jul 18 01:40:24 IDT 2012	Swaping roles:
Wed Jul 18 01:40:24 IDT 2012	Proposer is: 999
Wed Jul 18 01:40:24 IDT 2012	Responder is: 337
Wed Jul 18 01:40:24 IDT 2012	Protocol: A New Phase Began: Feedback Phase
Wed Jul 18 01:40:24 IDT 2012	Protocol: Feedback phase, Round: 3
Wed Jul 18 01:40:24 IDT 2012	Number of consecutive no movements for player 999 is 1
Wed Jul 18 01:40:24 IDT 2012	Number of consecutive no movements for player 337 is 1
Wed Jul 18 01:40:29 IDT 2012	A Phase Ended: Feedback Phase
Wed Jul 18 01:40:29 IDT 2012	Protocol: A New Phase Began: Communication Phase
Wed Jul 18 01:40:29 IDT 2012	Protocol: Communication phase, Round: 4
Wed Jul 18 01:40:45 IDT 2012	Received communication message 
Wed Jul 18 01:40:45 IDT 2012	From player: 999
Wed Jul 18 01:40:45 IDT 2012	To player: 337
Wed Jul 18 01:40:45 IDT 2012	Message type: basicproposal
Wed Jul 18 01:40:45 IDT 2012	Chips to send by proposer: { chips  'CTRed':0 'CTPurple':0 'CTGreen':0 'grey78':0 'CTYellow':3 }
Wed Jul 18 01:40:45 IDT 2012	Chips to send by responder: { chips  'CTRed':0 'CTPurple':0 'CTGreen':0 'grey78':2 'CTYellow':0 }
Wed Jul 18 01:40:46 IDT 2012	Received communication message 
Wed Jul 18 01:40:46 IDT 2012	From player: 337
Wed Jul 18 01:40:46 IDT 2012	To player: 999
Wed Jul 18 01:40:46 IDT 2012	Message type: basicproposaldiscussion
Wed Jul 18 01:40:46 IDT 2012	Player 337 rejected offer
Wed Jul 18 01:40:46 IDT 2012	Swaping roles:
Wed Jul 18 01:40:46 IDT 2012	Proposer is: 337
Wed Jul 18 01:40:46 IDT 2012	Responder is: 999
Wed Jul 18 01:40:46 IDT 2012	Prop rejected, set counter offers count to: 1
Wed Jul 18 01:40:46 IDT 2012	Prop rejected, get counter offers returned: 1
Wed Jul 18 01:40:50 IDT 2012	Slept 4 seconds
Wed Jul 18 01:40:50 IDT 2012	Sent role changed msgs
Wed Jul 18 01:40:52 IDT 2012	Received communication message 
Wed Jul 18 01:40:52 IDT 2012	From player: 337
Wed Jul 18 01:40:52 IDT 2012	To player: 999
Wed Jul 18 01:40:52 IDT 2012	Message type: basicproposal
Wed Jul 18 01:40:52 IDT 2012	Chips to send by proposer: { chips  'CTRed':0 'CTPurple':0 'CTGreen':0 'grey78':1 'CTYellow':0 }
Wed Jul 18 01:40:52 IDT 2012	Chips to send by responder: { chips  'CTRed':0 'CTPurple':0 'CTGreen':1 'grey78':0 'CTYellow':1 }
Wed Jul 18 01:41:00 IDT 2012	Received communication message 
Wed Jul 18 01:41:00 IDT 2012	From player: 999
Wed Jul 18 01:41:00 IDT 2012	To player: 337
Wed Jul 18 01:41:00 IDT 2012	Message type: basicproposaldiscussion
Wed Jul 18 01:41:00 IDT 2012	Player 999 accepted offer
Wed Jul 18 01:41:00 IDT 2012	Prop accepted, set counter offers count to: 0
Wed Jul 18 01:41:00 IDT 2012	Prop accepted, get counter offers returned: 0
Wed Jul 18 01:41:00 IDT 2012	A Phase Ended: Communication Phase
Wed Jul 18 01:41:00 IDT 2012	Protocol: A New Phase Began: Exchange Phase
Wed Jul 18 01:41:00 IDT 2012	Protocol: Exchange phase, Round: 4
Wed Jul 18 01:41:00 IDT 2012	In begin exch.phase, get counter offers returned: 0
Wed Jul 18 01:41:00 IDT 2012	A Phase Ended: Exchange Phase
Wed Jul 18 01:41:00 IDT 2012	Proposer 337 sent: { chips  'CTRed':0 'CTPurple':0 'CTGreen':0 'grey78':0 'CTYellow':0 }
Wed Jul 18 01:41:00 IDT 2012	Responder 999 sent: { chips  'CTRed':0 'CTPurple':0 'CTGreen':1 'grey78':0 'CTYellow':1 }
Wed Jul 18 01:41:00 IDT 2012	Protocol: A New Phase Began: Movement Phase
Wed Jul 18 01:41:00 IDT 2012	Protocol: Movement phase, Round: 4
Wed Jul 18 01:41:19 IDT 2012	A Phase Ended: Movement Phase
Wed Jul 18 01:41:19 IDT 2012	Protocol: A New Phase Began: Feedback Phase
Wed Jul 18 01:41:19 IDT 2012	Protocol: Feedback phase, Round: 4
Wed Jul 18 01:41:19 IDT 2012	Number of consecutive no movements for player 999 is 2
Wed Jul 18 01:41:19 IDT 2012	Number of consecutive no movements for player 337 is 2
Wed Jul 18 01:41:24 IDT 2012	A Phase Ended: Feedback Phase
Wed Jul 18 01:41:24 IDT 2012	Protocol: A New Phase Began: Communication Phase
Wed Jul 18 01:41:24 IDT 2012	Protocol: Communication phase, Round: 5
Wed Jul 18 01:41:29 IDT 2012	Received communication message 
Wed Jul 18 01:41:29 IDT 2012	From player: 337
Wed Jul 18 01:41:29 IDT 2012	To player: 999
Wed Jul 18 01:41:29 IDT 2012	Message type: basicproposal
Wed Jul 18 01:41:29 IDT 2012	Chips to send by proposer: { chips  'grey78':1 }
Wed Jul 18 01:41:29 IDT 2012	Chips to send by responder: { chips  'CTGreen':2 }
Wed Jul 18 01:41:35 IDT 2012	Received communication message 
Wed Jul 18 01:41:35 IDT 2012	From player: 999
Wed Jul 18 01:41:35 IDT 2012	To player: 337
Wed Jul 18 01:41:35 IDT 2012	Message type: basicproposaldiscussion
Wed Jul 18 01:41:35 IDT 2012	Player 999 accepted offer
Wed Jul 18 01:41:35 IDT 2012	Prop accepted, set counter offers count to: 0
Wed Jul 18 01:41:35 IDT 2012	Prop accepted, get counter offers returned: 0
Wed Jul 18 01:41:35 IDT 2012	A Phase Ended: Communication Phase
Wed Jul 18 01:41:35 IDT 2012	Protocol: A New Phase Began: Exchange Phase
Wed Jul 18 01:41:35 IDT 2012	Protocol: Exchange phase, Round: 5
Wed Jul 18 01:41:35 IDT 2012	In begin exch.phase, get counter offers returned: 0
Wed Jul 18 01:42:14 IDT 2012	A Phase Ended: Exchange Phase
Wed Jul 18 01:42:15 IDT 2012	Proposer 337 sent: { chips  'CTRed':0 'CTPurple':0 'CTGreen':0 'grey78':0 'CTYellow':0 }
Wed Jul 18 01:42:15 IDT 2012	Player 337 moved to (R:5,C:3)
Wed Jul 18 01:42:15 IDT 2012	Protocol: A New Phase Began: Movement Phase
Wed Jul 18 01:42:15 IDT 2012	Protocol: Movement phase, Round: 5
Wed Jul 18 01:42:15 IDT 2012	Player 999 moved to (R:5,C:1)
Wed Jul 18 01:42:35 IDT 2012	A Phase Ended: Movement Phase
Wed Jul 18 01:42:35 IDT 2012	Swaping roles:
Wed Jul 18 01:42:35 IDT 2012	Proposer is: 999
Wed Jul 18 01:42:35 IDT 2012	Responder is: 337
Wed Jul 18 01:42:35 IDT 2012	Protocol: A New Phase Began: Feedback Phase
Wed Jul 18 01:42:35 IDT 2012	Protocol: Feedback phase, Round: 5
Wed Jul 18 01:42:35 IDT 2012	Number of consecutive no movements for player 999 is 0
Wed Jul 18 01:42:35 IDT 2012	Number of consecutive no movements for player 337 is 0
Wed Jul 18 01:42:40 IDT 2012	A Phase Ended: Feedback Phase
Wed Jul 18 01:42:40 IDT 2012	Protocol: A New Phase Began: Communication Phase
Wed Jul 18 01:42:40 IDT 2012	Protocol: Communication phase, Round: 6
Wed Jul 18 01:42:59 IDT 2012	Received communication message 
Wed Jul 18 01:42:59 IDT 2012	From player: 999
Wed Jul 18 01:42:59 IDT 2012	To player: 337
Wed Jul 18 01:42:59 IDT 2012	Message type: basicproposal
Wed Jul 18 01:42:59 IDT 2012	Chips to send by proposer: { chips  'CTRed':0 'CTPurple':0 'CTGreen':2 'grey78':0 'CTYellow':3 }
Wed Jul 18 01:42:59 IDT 2012	Chips to send by responder: { chips  'CTRed':0 'CTPurple':0 'CTGreen':0 'grey78':2 'CTYellow':0 }
Wed Jul 18 01:43:01 IDT 2012	Received communication message 
Wed Jul 18 01:43:01 IDT 2012	From player: 337
Wed Jul 18 01:43:01 IDT 2012	To player: 999
Wed Jul 18 01:43:01 IDT 2012	Message type: basicproposaldiscussion
Wed Jul 18 01:43:01 IDT 2012	Player 337 rejected offer
Wed Jul 18 01:43:01 IDT 2012	Swaping roles:
Wed Jul 18 01:43:01 IDT 2012	Proposer is: 337
Wed Jul 18 01:43:01 IDT 2012	Responder is: 999
Wed Jul 18 01:43:01 IDT 2012	Prop rejected, set counter offers count to: 1
Wed Jul 18 01:43:01 IDT 2012	Prop rejected, get counter offers returned: 1
Wed Jul 18 01:43:05 IDT 2012	Slept 4 seconds
Wed Jul 18 01:43:05 IDT 2012	Sent role changed msgs
Wed Jul 18 01:43:07 IDT 2012	Received communication message 
Wed Jul 18 01:43:07 IDT 2012	From player: 337
Wed Jul 18 01:43:07 IDT 2012	To player: 999
Wed Jul 18 01:43:07 IDT 2012	Message type: basicproposal
Wed Jul 18 01:43:07 IDT 2012	Chips to send by proposer: { chips  'CTRed':0 'CTPurple':0 'CTGreen':0 'grey78':1 'CTYellow':0 }
Wed Jul 18 01:43:07 IDT 2012	Chips to send by responder: { chips  'CTRed':0 'CTPurple':0 'CTGreen':1 'grey78':0 'CTYellow':1 }
Wed Jul 18 01:43:13 IDT 2012	Received communication message 
Wed Jul 18 01:43:13 IDT 2012	From player: 999
Wed Jul 18 01:43:13 IDT 2012	To player: 337
Wed Jul 18 01:43:13 IDT 2012	Message type: basicproposaldiscussion
Wed Jul 18 01:43:13 IDT 2012	Player 999 accepted offer
Wed Jul 18 01:43:13 IDT 2012	Prop accepted, set counter offers count to: 0
Wed Jul 18 01:43:13 IDT 2012	Prop accepted, get counter offers returned: 0
Wed Jul 18 01:43:13 IDT 2012	A Phase Ended: Communication Phase
Wed Jul 18 01:43:13 IDT 2012	Protocol: A New Phase Began: Exchange Phase
Wed Jul 18 01:43:13 IDT 2012	Protocol: Exchange phase, Round: 6
Wed Jul 18 01:43:13 IDT 2012	In begin exch.phase, get counter offers returned: 0
Wed Jul 18 01:43:13 IDT 2012	A Phase Ended: Exchange Phase
Wed Jul 18 01:43:13 IDT 2012	Proposer 337 sent: { chips  'CTRed':0 'CTPurple':0 'CTGreen':0 'grey78':0 'CTYellow':0 }
Wed Jul 18 01:43:13 IDT 2012	Responder 999 sent: { chips  'CTRed':0 'CTPurple':0 'CTGreen':1 'grey78':0 'CTYellow':1 }
Wed Jul 18 01:43:13 IDT 2012	Protocol: A New Phase Began: Movement Phase
Wed Jul 18 01:43:13 IDT 2012	Protocol: Movement phase, Round: 6
Wed Jul 18 01:43:33 IDT 2012	A Phase Ended: Movement Phase
Wed Jul 18 01:43:33 IDT 2012	Protocol: A New Phase Began: Feedback Phase
Wed Jul 18 01:43:33 IDT 2012	Protocol: Feedback phase, Round: 6
Wed Jul 18 01:43:33 IDT 2012	Number of consecutive no movements for player 999 is 1
Wed Jul 18 01:43:33 IDT 2012	Number of consecutive no movements for player 337 is 1
Wed Jul 18 01:43:38 IDT 2012	A Phase Ended: Feedback Phase
Wed Jul 18 01:43:38 IDT 2012	Protocol: A New Phase Began: Communication Phase
Wed Jul 18 01:43:38 IDT 2012	Protocol: Communication phase, Round: 7
Wed Jul 18 01:43:39 IDT 2012	Received communication message 
Wed Jul 18 01:43:39 IDT 2012	From player: 337
Wed Jul 18 01:43:39 IDT 2012	To player: 999
Wed Jul 18 01:43:39 IDT 2012	Message type: basicproposal
Wed Jul 18 01:43:39 IDT 2012	Chips to send by proposer: { chips  'grey78':1 }
Wed Jul 18 01:43:39 IDT 2012	Chips to send by responder: { chips  'CTGreen':2 }
Wed Jul 18 01:43:49 IDT 2012	Received communication message 
Wed Jul 18 01:43:49 IDT 2012	From player: 999
Wed Jul 18 01:43:49 IDT 2012	To player: 337
Wed Jul 18 01:43:49 IDT 2012	Message type: basicproposaldiscussion
Wed Jul 18 01:43:49 IDT 2012	Player 999 accepted offer
Wed Jul 18 01:43:49 IDT 2012	Prop accepted, set counter offers count to: 0
Wed Jul 18 01:43:49 IDT 2012	Prop accepted, get counter offers returned: 0
Wed Jul 18 01:43:49 IDT 2012	A Phase Ended: Communication Phase
Wed Jul 18 01:43:49 IDT 2012	Protocol: A New Phase Began: Exchange Phase
Wed Jul 18 01:43:49 IDT 2012	Protocol: Exchange phase, Round: 7
Wed Jul 18 01:43:49 IDT 2012	In begin exch.phase, get counter offers returned: 0
Wed Jul 18 01:44:29 IDT 2012	A Phase Ended: Exchange Phase
Wed Jul 18 01:44:29 IDT 2012	Proposer 337 sent: { chips  'CTRed':0 'CTPurple':0 'CTGreen':0 'grey78':0 'CTYellow':0 }
Wed Jul 18 01:44:29 IDT 2012	Protocol: A New Phase Began: Movement Phase
Wed Jul 18 01:44:29 IDT 2012	Protocol: Movement phase, Round: 7
Wed Jul 18 01:44:49 IDT 2012	A Phase Ended: Movement Phase
Wed Jul 18 01:44:49 IDT 2012	Swaping roles:
Wed Jul 18 01:44:49 IDT 2012	Proposer is: 999
Wed Jul 18 01:44:49 IDT 2012	Responder is: 337
Wed Jul 18 01:44:49 IDT 2012	Protocol: A New Phase Began: Feedback Phase
Wed Jul 18 01:44:49 IDT 2012	Protocol: Feedback phase, Round: 7
Wed Jul 18 01:44:49 IDT 2012	Number of consecutive no movements for player 999 is 2
Wed Jul 18 01:44:49 IDT 2012	Number of consecutive no movements for player 337 is 2
Wed Jul 18 01:44:54 IDT 2012	A Phase Ended: Feedback Phase
Wed Jul 18 01:44:54 IDT 2012	Protocol: A New Phase Began: Communication Phase
Wed Jul 18 01:44:54 IDT 2012	Protocol: Communication phase, Round: 8
Wed Jul 18 01:45:08 IDT 2012	Received communication message 
Wed Jul 18 01:45:08 IDT 2012	From player: 999
Wed Jul 18 01:45:08 IDT 2012	To player: 337
Wed Jul 18 01:45:08 IDT 2012	Message type: basicproposal
Wed Jul 18 01:45:08 IDT 2012	Chips to send by proposer: { chips  'CTRed':0 'CTPurple':0 'CTGreen':3 'grey78':0 'CTYellow':1 }
Wed Jul 18 01:45:08 IDT 2012	Chips to send by responder: { chips  'CTRed':0 'CTPurple':0 'CTGreen':0 'grey78':2 'CTYellow':0 }
Wed Jul 18 01:45:12 IDT 2012	Received communication message 
Wed Jul 18 01:45:12 IDT 2012	From player: 337
Wed Jul 18 01:45:12 IDT 2012	To player: 999
Wed Jul 18 01:45:12 IDT 2012	Message type: basicproposaldiscussion
Wed Jul 18 01:45:12 IDT 2012	Player 337 accepted offer
Wed Jul 18 01:45:12 IDT 2012	Prop accepted, set counter offers count to: 0
Wed Jul 18 01:45:12 IDT 2012	Prop accepted, get counter offers returned: 0
Wed Jul 18 01:45:12 IDT 2012	A Phase Ended: Communication Phase
Wed Jul 18 01:45:12 IDT 2012	Protocol: A New Phase Began: Exchange Phase
Wed Jul 18 01:45:12 IDT 2012	Protocol: Exchange phase, Round: 8
Wed Jul 18 01:45:12 IDT 2012	In begin exch.phase, get counter offers returned: 0
Wed Jul 18 01:45:12 IDT 2012	A Phase Ended: Exchange Phase
Wed Jul 18 01:45:12 IDT 2012	Proposer 999 sent: { chips  'CTRed':0 'CTPurple':0 'CTGreen':3 'grey78':0 'CTYellow':1 }
Wed Jul 18 01:45:12 IDT 2012	Responder 337 sent: { chips  'CTRed':0 'CTPurple':0 'CTGreen':0 'grey78':2 'CTYellow':0 }
Wed Jul 18 01:45:12 IDT 2012	Protocol: A New Phase Began: Movement Phase
Wed Jul 18 01:45:12 IDT 2012	Protocol: Movement phase, Round: 8
Wed Jul 18 01:45:12 IDT 2012	Player 337 moved to (R:4,C:3)
Wed Jul 18 01:45:12 IDT 2012	Player 999 moved to (R:4,C:1)
Wed Jul 18 01:45:31 IDT 2012	A Phase Ended: Movement Phase
Wed Jul 18 01:45:31 IDT 2012	Swaping roles:
Wed Jul 18 01:45:31 IDT 2012	Proposer is: 337
Wed Jul 18 01:45:31 IDT 2012	Responder is: 999
Wed Jul 18 01:45:31 IDT 2012	Protocol: A New Phase Began: Feedback Phase
Wed Jul 18 01:45:31 IDT 2012	Protocol: Feedback phase, Round: 8
Wed Jul 18 01:45:31 IDT 2012	Number of consecutive no movements for player 999 is 0
Wed Jul 18 01:45:31 IDT 2012	Number of consecutive no movements for player 337 is 0
Wed Jul 18 01:45:31 IDT 2012	All players have all needed chips to get to goal, end the game
Wed Jul 18 01:45:31 IDT 2012	Player: 999 ,role: Responder score is: 135
Wed Jul 18 01:45:31 IDT 2012	Player: 337 ,role: Proposer score is: 225
