Thu Jul 19 02:42:54 IDT 2012	This is the CT debug logger; svn version 638; sep 27 09
Thu Jul 19 02:42:54 IDT 2012	Thu Jul 19 02:42:54 IDT 2012
Thu Jul 19 02:42:54 IDT 2012	A new Alternative Offers game has began
Thu Jul 19 02:42:54 IDT 2012	ID Number: 34109
Thu Jul 19 02:42:54 IDT 2012	Creating board
Thu Jul 19 02:42:54 IDT 2012	<colors>
Thu Jul 19 02:42:54 IDT 2012	{ GamePalette  'CTRed':0 'CTPurple':1 'CTGreen':2 'grey78':3 'CTYellow':4 }
Thu Jul 19 02:42:54 IDT 2012	<rows>
Thu Jul 19 02:42:54 IDT 2012	7
Thu Jul 19 02:42:54 IDT 2012	<columns>
Thu Jul 19 02:42:54 IDT 2012	5
Thu Jul 19 02:42:54 IDT 2012	<squaresColors>
Thu Jul 19 02:42:54 IDT 2012	CTPurple CTRed CTRed CTGreen CTPurple 
Thu Jul 19 02:42:54 IDT 2012	CTPurple grey78 CTPurple CTYellow CTPurple 
Thu Jul 19 02:42:54 IDT 2012	CTPurple CTRed CTPurple CTGreen CTPurple 
Thu Jul 19 02:42:54 IDT 2012	CTPurple grey78 CTPurple CTYellow CTPurple 
Thu Jul 19 02:42:54 IDT 2012	CTPurple CTRed CTPurple CTGreen CTPurple 
Thu Jul 19 02:42:54 IDT 2012	CTPurple grey78 CTPurple CTYellow CTPurple 
Thu Jul 19 02:42:54 IDT 2012	CTPurple CTRed CTPurple CTGreen CTPurple 
Thu Jul 19 02:42:54 IDT 2012	</squareColors>
Thu Jul 19 02:42:54 IDT 2012	<goalPosition>
Thu Jul 19 02:42:54 IDT 2012	Goal position: (R:0,C:2)
Thu Jul 19 02:42:54 IDT 2012	<numberOfPlayers>
Thu Jul 19 02:42:54 IDT 2012	2
Thu Jul 19 02:42:54 IDT 2012	<firstPlayerChips>
Thu Jul 19 02:42:54 IDT 2012	Setting chips for player: 999 id:0
Thu Jul 19 02:42:54 IDT 2012	{ chips  'CTRed':5 'CTGreen':10 'CTPurple':0 'grey78':0 'CTYellow':9 }
Thu Jul 19 02:42:54 IDT 2012	Player position: (R:6,C:0)
Thu Jul 19 02:42:54 IDT 2012	Setting chips for player: 337 id:1
Thu Jul 19 02:42:54 IDT 2012	{ chips  'CTRed':1 'CTGreen':13 'CTPurple':0 'grey78':10 'CTYellow':0 }
Thu Jul 19 02:42:54 IDT 2012	Player position: (R:6,C:4)
Thu Jul 19 02:42:54 IDT 2012	Protocol: A New Phase Began: Strategy Prep Phase
Thu Jul 19 02:42:54 IDT 2012	Protocol: Strategy Preparation phase, Round: 0
Thu Jul 19 02:42:54 IDT 2012	Maximum number of rounds with no consecutive movement is 3
Thu Jul 19 02:42:54 IDT 2012	In begin comm. phase, set counter offers count to: 0
Thu Jul 19 02:42:54 IDT 2012	In begin comm. phase, get counter offers returned: 0
Thu Jul 19 02:43:14 IDT 2012	A Phase Ended: Strategy Prep Phase
Thu Jul 19 02:43:14 IDT 2012	Protocol: A New Phase Began: Communication Phase
Thu Jul 19 02:43:14 IDT 2012	Protocol: Communication phase, Round: 0
Thu Jul 19 02:43:27 IDT 2012	Received communication message 
Thu Jul 19 02:43:27 IDT 2012	From player: 999
Thu Jul 19 02:43:27 IDT 2012	To player: 337
Thu Jul 19 02:43:27 IDT 2012	Message type: basicproposal
Thu Jul 19 02:43:27 IDT 2012	Chips to send by proposer: { chips  'CTRed':0 'CTPurple':0 'CTGreen':0 'grey78':0 'CTYellow':2 }
Thu Jul 19 02:43:27 IDT 2012	Chips to send by responder: { chips  'CTRed':0 'CTPurple':0 'CTGreen':0 'grey78':2 'CTYellow':0 }
Thu Jul 19 02:43:31 IDT 2012	Received communication message 
Thu Jul 19 02:43:31 IDT 2012	From player: 337
Thu Jul 19 02:43:31 IDT 2012	To player: 999
Thu Jul 19 02:43:31 IDT 2012	Message type: basicproposaldiscussion
Thu Jul 19 02:43:31 IDT 2012	Player 337 accepted offer
Thu Jul 19 02:43:31 IDT 2012	Prop accepted, set counter offers count to: 0
Thu Jul 19 02:43:31 IDT 2012	Prop accepted, get counter offers returned: 0
Thu Jul 19 02:43:31 IDT 2012	A Phase Ended: Communication Phase
Thu Jul 19 02:43:31 IDT 2012	Protocol: A New Phase Began: Exchange Phase
Thu Jul 19 02:43:31 IDT 2012	Protocol: Exchange phase, Round: 0
Thu Jul 19 02:43:31 IDT 2012	In begin exch.phase, get counter offers returned: 0
Thu Jul 19 02:43:31 IDT 2012	A Phase Ended: Exchange Phase
Thu Jul 19 02:43:31 IDT 2012	Proposer 999 sent: { chips  'CTRed':0 'CTPurple':0 'CTGreen':0 'grey78':0 'CTYellow':2 }
Thu Jul 19 02:43:31 IDT 2012	Responder 337 sent: { chips  'CTRed':0 'CTPurple':0 'CTGreen':0 'grey78':0 'CTYellow':0 }
Thu Jul 19 02:43:31 IDT 2012	Protocol: A New Phase Began: Movement Phase
Thu Jul 19 02:43:31 IDT 2012	Protocol: Movement phase, Round: 0
Thu Jul 19 02:43:51 IDT 2012	A Phase Ended: Movement Phase
Thu Jul 19 02:43:51 IDT 2012	Swaping roles:
Thu Jul 19 02:43:51 IDT 2012	Proposer is: 337
Thu Jul 19 02:43:51 IDT 2012	Responder is: 999
Thu Jul 19 02:43:51 IDT 2012	Protocol: A New Phase Began: Feedback Phase
Thu Jul 19 02:43:51 IDT 2012	Protocol: Feedback phase, Round: 0
Thu Jul 19 02:43:51 IDT 2012	Number of consecutive no movements for player 999 is 1
Thu Jul 19 02:43:51 IDT 2012	Number of consecutive no movements for player 337 is 1
Thu Jul 19 02:43:56 IDT 2012	A Phase Ended: Feedback Phase
Thu Jul 19 02:43:56 IDT 2012	Protocol: A New Phase Began: Communication Phase
Thu Jul 19 02:43:56 IDT 2012	Protocol: Communication phase, Round: 1
Thu Jul 19 02:43:57 IDT 2012	Received communication message 
Thu Jul 19 02:43:57 IDT 2012	From player: 337
Thu Jul 19 02:43:57 IDT 2012	To player: 999
Thu Jul 19 02:43:57 IDT 2012	Message type: basicproposal
Thu Jul 19 02:43:57 IDT 2012	Chips to send by proposer: { chips  'grey78':1 }
Thu Jul 19 02:43:57 IDT 2012	Chips to send by responder: { chips  'CTGreen':1 'CTYellow':1 }
Thu Jul 19 02:44:07 IDT 2012	Received communication message 
Thu Jul 19 02:44:07 IDT 2012	From player: 999
Thu Jul 19 02:44:07 IDT 2012	To player: 337
Thu Jul 19 02:44:07 IDT 2012	Message type: basicproposaldiscussion
Thu Jul 19 02:44:07 IDT 2012	Player 999 rejected offer
Thu Jul 19 02:44:07 IDT 2012	Swaping roles:
Thu Jul 19 02:44:07 IDT 2012	Proposer is: 999
Thu Jul 19 02:44:07 IDT 2012	Responder is: 337
Thu Jul 19 02:44:07 IDT 2012	Prop rejected, set counter offers count to: 1
Thu Jul 19 02:44:07 IDT 2012	Prop rejected, get counter offers returned: 1
Thu Jul 19 02:44:11 IDT 2012	Slept 4 seconds
Thu Jul 19 02:44:11 IDT 2012	Sent role changed msgs
Thu Jul 19 02:44:31 IDT 2012	Received communication message 
Thu Jul 19 02:44:31 IDT 2012	From player: 999
Thu Jul 19 02:44:31 IDT 2012	To player: 337
Thu Jul 19 02:44:31 IDT 2012	Message type: basicproposal
Thu Jul 19 02:44:31 IDT 2012	Chips to send by proposer: { chips  'CTRed':0 'CTPurple':0 'CTGreen':1 'grey78':0 'CTYellow':2 }
Thu Jul 19 02:44:31 IDT 2012	Chips to send by responder: { chips  'CTRed':0 'CTPurple':0 'CTGreen':0 'grey78':3 'CTYellow':0 }
Thu Jul 19 02:44:32 IDT 2012	Received communication message 
Thu Jul 19 02:44:32 IDT 2012	From player: 337
Thu Jul 19 02:44:32 IDT 2012	To player: 999
Thu Jul 19 02:44:32 IDT 2012	Message type: basicproposaldiscussion
Thu Jul 19 02:44:32 IDT 2012	Player 337 rejected offer
Thu Jul 19 02:44:32 IDT 2012	Set counter offers count to: 0
Thu Jul 19 02:44:32 IDT 2012	A Phase Ended: Communication Phase
Thu Jul 19 02:44:32 IDT 2012	Protocol: A New Phase Began: Exchange Phase
Thu Jul 19 02:44:32 IDT 2012	Protocol: Exchange phase, Round: 1
Thu Jul 19 02:44:32 IDT 2012	In begin exch.phase, get counter offers returned: 0
Thu Jul 19 02:45:13 IDT 2012	A Phase Ended: Exchange Phase
Thu Jul 19 02:45:13 IDT 2012	Responder 337 sent: { chips  }
Thu Jul 19 02:45:13 IDT 2012	Protocol: A New Phase Began: Movement Phase
Thu Jul 19 02:45:13 IDT 2012	Protocol: Movement phase, Round: 1
Thu Jul 19 02:45:33 IDT 2012	A Phase Ended: Movement Phase
Thu Jul 19 02:45:33 IDT 2012	Protocol: A New Phase Began: Feedback Phase
Thu Jul 19 02:45:33 IDT 2012	Protocol: Feedback phase, Round: 1
Thu Jul 19 02:45:33 IDT 2012	Number of consecutive no movements for player 999 is 2
Thu Jul 19 02:45:33 IDT 2012	Number of consecutive no movements for player 337 is 2
Thu Jul 19 02:45:38 IDT 2012	A Phase Ended: Feedback Phase
Thu Jul 19 02:45:38 IDT 2012	Protocol: A New Phase Began: Communication Phase
Thu Jul 19 02:45:38 IDT 2012	Protocol: Communication phase, Round: 2
Thu Jul 19 02:45:51 IDT 2012	Received communication message 
Thu Jul 19 02:45:51 IDT 2012	From player: 999
Thu Jul 19 02:45:51 IDT 2012	To player: 337
Thu Jul 19 02:45:51 IDT 2012	Message type: basicproposal
Thu Jul 19 02:45:51 IDT 2012	Chips to send by proposer: { chips  'CTRed':0 'CTPurple':0 'CTGreen':2 'grey78':0 'CTYellow':1 }
Thu Jul 19 02:45:51 IDT 2012	Chips to send by responder: { chips  'CTRed':0 'CTPurple':0 'CTGreen':0 'grey78':3 'CTYellow':0 }
Thu Jul 19 02:45:55 IDT 2012	Received communication message 
Thu Jul 19 02:45:55 IDT 2012	From player: 337
Thu Jul 19 02:45:55 IDT 2012	To player: 999
Thu Jul 19 02:45:55 IDT 2012	Message type: basicproposaldiscussion
Thu Jul 19 02:45:55 IDT 2012	Player 337 accepted offer
Thu Jul 19 02:45:55 IDT 2012	Prop accepted, set counter offers count to: 0
Thu Jul 19 02:45:55 IDT 2012	Prop accepted, get counter offers returned: 0
Thu Jul 19 02:45:55 IDT 2012	A Phase Ended: Communication Phase
Thu Jul 19 02:45:55 IDT 2012	Protocol: A New Phase Began: Exchange Phase
Thu Jul 19 02:45:55 IDT 2012	Protocol: Exchange phase, Round: 2
Thu Jul 19 02:45:55 IDT 2012	In begin exch.phase, get counter offers returned: 0
Thu Jul 19 02:46:36 IDT 2012	A Phase Ended: Exchange Phase
Thu Jul 19 02:46:36 IDT 2012	Responder 337 sent: { chips  'CTRed':0 'CTPurple':0 'CTGreen':0 'grey78':2 'CTYellow':0 }
Thu Jul 19 02:46:36 IDT 2012	Protocol: A New Phase Began: Movement Phase
Thu Jul 19 02:46:36 IDT 2012	Protocol: Movement phase, Round: 2
Thu Jul 19 02:46:36 IDT 2012	Player 337 moved to (R:6,C:3)
Thu Jul 19 02:46:36 IDT 2012	Player 999 moved to (R:6,C:1)
Thu Jul 19 02:46:56 IDT 2012	A Phase Ended: Movement Phase
Thu Jul 19 02:46:56 IDT 2012	Swaping roles:
Thu Jul 19 02:46:56 IDT 2012	Proposer is: 337
Thu Jul 19 02:46:56 IDT 2012	Responder is: 999
Thu Jul 19 02:46:56 IDT 2012	Protocol: A New Phase Began: Feedback Phase
Thu Jul 19 02:46:56 IDT 2012	Protocol: Feedback phase, Round: 2
Thu Jul 19 02:46:56 IDT 2012	Number of consecutive no movements for player 999 is 0
Thu Jul 19 02:46:56 IDT 2012	Number of consecutive no movements for player 337 is 0
Thu Jul 19 02:47:01 IDT 2012	A Phase Ended: Feedback Phase
Thu Jul 19 02:47:01 IDT 2012	Protocol: A New Phase Began: Communication Phase
Thu Jul 19 02:47:01 IDT 2012	Protocol: Communication phase, Round: 3
Thu Jul 19 02:47:04 IDT 2012	Received communication message 
Thu Jul 19 02:47:04 IDT 2012	From player: 337
Thu Jul 19 02:47:04 IDT 2012	To player: 999
Thu Jul 19 02:47:04 IDT 2012	Message type: basicproposal
Thu Jul 19 02:47:04 IDT 2012	Chips to send by proposer: { chips  'grey78':1 }
Thu Jul 19 02:47:04 IDT 2012	Chips to send by responder: { chips  'CTYellow':2 }
Thu Jul 19 02:47:17 IDT 2012	Received communication message 
Thu Jul 19 02:47:17 IDT 2012	From player: 999
Thu Jul 19 02:47:17 IDT 2012	To player: 337
Thu Jul 19 02:47:17 IDT 2012	Message type: basicproposaldiscussion
Thu Jul 19 02:47:17 IDT 2012	Player 999 accepted offer
Thu Jul 19 02:47:17 IDT 2012	Prop accepted, set counter offers count to: 0
Thu Jul 19 02:47:17 IDT 2012	Prop accepted, get counter offers returned: 0
Thu Jul 19 02:47:17 IDT 2012	A Phase Ended: Communication Phase
Thu Jul 19 02:47:17 IDT 2012	Protocol: A New Phase Began: Exchange Phase
Thu Jul 19 02:47:17 IDT 2012	Protocol: Exchange phase, Round: 3
Thu Jul 19 02:47:17 IDT 2012	In begin exch.phase, get counter offers returned: 0
Thu Jul 19 02:47:17 IDT 2012	A Phase Ended: Exchange Phase
Thu Jul 19 02:47:17 IDT 2012	Proposer 337 sent: { chips  'CTRed':0 'CTPurple':0 'CTGreen':0 'grey78':0 'CTYellow':0 }
Thu Jul 19 02:47:17 IDT 2012	Responder 999 sent: { chips  'CTYellow':2 }
Thu Jul 19 02:47:17 IDT 2012	Protocol: A New Phase Began: Movement Phase
Thu Jul 19 02:47:17 IDT 2012	Protocol: Movement phase, Round: 3
Thu Jul 19 02:47:37 IDT 2012	A Phase Ended: Movement Phase
Thu Jul 19 02:47:37 IDT 2012	Swaping roles:
Thu Jul 19 02:47:37 IDT 2012	Proposer is: 999
Thu Jul 19 02:47:37 IDT 2012	Responder is: 337
Thu Jul 19 02:47:37 IDT 2012	Protocol: A New Phase Began: Feedback Phase
Thu Jul 19 02:47:37 IDT 2012	Protocol: Feedback phase, Round: 3
Thu Jul 19 02:47:37 IDT 2012	Number of consecutive no movements for player 999 is 1
Thu Jul 19 02:47:37 IDT 2012	Number of consecutive no movements for player 337 is 1
Thu Jul 19 02:47:42 IDT 2012	A Phase Ended: Feedback Phase
Thu Jul 19 02:47:42 IDT 2012	Protocol: A New Phase Began: Communication Phase
Thu Jul 19 02:47:42 IDT 2012	Protocol: Communication phase, Round: 4
Thu Jul 19 02:48:02 IDT 2012	Received communication message 
Thu Jul 19 02:48:02 IDT 2012	From player: 999
Thu Jul 19 02:48:02 IDT 2012	To player: 337
Thu Jul 19 02:48:02 IDT 2012	Message type: basicproposal
Thu Jul 19 02:48:02 IDT 2012	Chips to send by proposer: { chips  'CTRed':0 'CTPurple':0 'CTGreen':3 'grey78':0 'CTYellow':2 }
Thu Jul 19 02:48:02 IDT 2012	Chips to send by responder: { chips  'CTRed':0 'CTPurple':0 'CTGreen':0 'grey78':1 'CTYellow':0 }
Thu Jul 19 02:48:03 IDT 2012	Received communication message 
Thu Jul 19 02:48:03 IDT 2012	From player: 337
Thu Jul 19 02:48:03 IDT 2012	To player: 999
Thu Jul 19 02:48:03 IDT 2012	Message type: basicproposaldiscussion
Thu Jul 19 02:48:03 IDT 2012	Player 337 accepted offer
Thu Jul 19 02:48:03 IDT 2012	Prop accepted, set counter offers count to: 0
Thu Jul 19 02:48:03 IDT 2012	Prop accepted, get counter offers returned: 0
Thu Jul 19 02:48:03 IDT 2012	A Phase Ended: Communication Phase
Thu Jul 19 02:48:03 IDT 2012	Protocol: A New Phase Began: Exchange Phase
Thu Jul 19 02:48:03 IDT 2012	Protocol: Exchange phase, Round: 4
Thu Jul 19 02:48:03 IDT 2012	In begin exch.phase, get counter offers returned: 0
Thu Jul 19 02:48:43 IDT 2012	A Phase Ended: Exchange Phase
Thu Jul 19 02:48:43 IDT 2012	Responder 337 sent: { chips  'CTRed':0 'CTPurple':0 'CTGreen':0 'grey78':0 'CTYellow':0 }
Thu Jul 19 02:48:43 IDT 2012	Protocol: A New Phase Began: Movement Phase
Thu Jul 19 02:48:43 IDT 2012	Protocol: Movement phase, Round: 4
Thu Jul 19 02:49:03 IDT 2012	A Phase Ended: Movement Phase
Thu Jul 19 02:49:03 IDT 2012	Swaping roles:
Thu Jul 19 02:49:03 IDT 2012	Proposer is: 337
Thu Jul 19 02:49:03 IDT 2012	Responder is: 999
Thu Jul 19 02:49:03 IDT 2012	Protocol: A New Phase Began: Feedback Phase
Thu Jul 19 02:49:03 IDT 2012	Protocol: Feedback phase, Round: 4
Thu Jul 19 02:49:03 IDT 2012	Number of consecutive no movements for player 999 is 2
Thu Jul 19 02:49:03 IDT 2012	Number of consecutive no movements for player 337 is 2
Thu Jul 19 02:49:08 IDT 2012	A Phase Ended: Feedback Phase
Thu Jul 19 02:49:08 IDT 2012	Protocol: A New Phase Began: Communication Phase
Thu Jul 19 02:49:08 IDT 2012	Protocol: Communication phase, Round: 5
Thu Jul 19 02:49:12 IDT 2012	Received communication message 
Thu Jul 19 02:49:12 IDT 2012	From player: 337
Thu Jul 19 02:49:12 IDT 2012	To player: 999
Thu Jul 19 02:49:12 IDT 2012	Message type: basicproposal
Thu Jul 19 02:49:12 IDT 2012	Chips to send by proposer: { chips  'grey78':1 }
Thu Jul 19 02:49:12 IDT 2012	Chips to send by responder: { chips  'CTYellow':2 }
Thu Jul 19 02:49:23 IDT 2012	Received communication message 
Thu Jul 19 02:49:23 IDT 2012	From player: 999
Thu Jul 19 02:49:23 IDT 2012	To player: 337
Thu Jul 19 02:49:23 IDT 2012	Message type: basicproposaldiscussion
Thu Jul 19 02:49:23 IDT 2012	Player 999 accepted offer
Thu Jul 19 02:49:23 IDT 2012	Prop accepted, set counter offers count to: 0
Thu Jul 19 02:49:23 IDT 2012	Prop accepted, get counter offers returned: 0
Thu Jul 19 02:49:23 IDT 2012	A Phase Ended: Communication Phase
Thu Jul 19 02:49:23 IDT 2012	Protocol: A New Phase Began: Exchange Phase
Thu Jul 19 02:49:23 IDT 2012	Protocol: Exchange phase, Round: 5
Thu Jul 19 02:49:23 IDT 2012	In begin exch.phase, get counter offers returned: 0
Thu Jul 19 02:49:23 IDT 2012	A Phase Ended: Exchange Phase
Thu Jul 19 02:49:23 IDT 2012	Proposer 337 sent: { chips  'CTRed':0 'CTPurple':0 'CTGreen':0 'grey78':0 'CTYellow':0 }
Thu Jul 19 02:49:23 IDT 2012	Responder 999 sent: { chips  'CTYellow':2 }
Thu Jul 19 02:49:23 IDT 2012	Protocol: A New Phase Began: Movement Phase
Thu Jul 19 02:49:23 IDT 2012	Protocol: Movement phase, Round: 5
Thu Jul 19 02:49:23 IDT 2012	Player 999 moved to (R:5,C:1)
Thu Jul 19 02:49:23 IDT 2012	Player 337 moved to (R:5,C:3)
Thu Jul 19 02:49:43 IDT 2012	A Phase Ended: Movement Phase
Thu Jul 19 02:49:43 IDT 2012	Swaping roles:
Thu Jul 19 02:49:43 IDT 2012	Proposer is: 999
Thu Jul 19 02:49:43 IDT 2012	Responder is: 337
Thu Jul 19 02:49:43 IDT 2012	Protocol: A New Phase Began: Feedback Phase
Thu Jul 19 02:49:43 IDT 2012	Protocol: Feedback phase, Round: 5
Thu Jul 19 02:49:43 IDT 2012	Number of consecutive no movements for player 999 is 0
Thu Jul 19 02:49:43 IDT 2012	Number of consecutive no movements for player 337 is 0
Thu Jul 19 02:49:48 IDT 2012	A Phase Ended: Feedback Phase
Thu Jul 19 02:49:48 IDT 2012	Protocol: A New Phase Began: Communication Phase
Thu Jul 19 02:49:48 IDT 2012	Protocol: Communication phase, Round: 6
Thu Jul 19 02:50:08 IDT 2012	Received communication message 
Thu Jul 19 02:50:08 IDT 2012	From player: 999
Thu Jul 19 02:50:08 IDT 2012	To player: 337
Thu Jul 19 02:50:08 IDT 2012	Message type: basicproposal
Thu Jul 19 02:50:08 IDT 2012	Chips to send by proposer: { chips  'CTRed':0 'CTPurple':0 'CTGreen':0 'grey78':0 'CTYellow':0 }
Thu Jul 19 02:50:08 IDT 2012	Chips to send by responder: { chips  'CTRed':0 'CTPurple':0 'CTGreen':0 'grey78':0 'CTYellow':0 }
Thu Jul 19 02:50:10 IDT 2012	Received communication message 
Thu Jul 19 02:50:10 IDT 2012	From player: 337
Thu Jul 19 02:50:10 IDT 2012	To player: 999
Thu Jul 19 02:50:10 IDT 2012	Message type: basicproposaldiscussion
Thu Jul 19 02:50:10 IDT 2012	Player 337 accepted offer
Thu Jul 19 02:50:10 IDT 2012	Prop accepted, set counter offers count to: 0
Thu Jul 19 02:50:10 IDT 2012	Prop accepted, get counter offers returned: 0
Thu Jul 19 02:50:10 IDT 2012	A Phase Ended: Communication Phase
Thu Jul 19 02:50:10 IDT 2012	Protocol: A New Phase Began: Exchange Phase
Thu Jul 19 02:50:10 IDT 2012	Protocol: Exchange phase, Round: 6
Thu Jul 19 02:50:10 IDT 2012	In begin exch.phase, get counter offers returned: 0
Thu Jul 19 02:50:50 IDT 2012	A Phase Ended: Exchange Phase
Thu Jul 19 02:50:50 IDT 2012	Responder 337 sent: { chips  'CTRed':0 'CTPurple':0 'CTGreen':0 'grey78':0 'CTYellow':0 }
Thu Jul 19 02:50:50 IDT 2012	Protocol: A New Phase Began: Movement Phase
Thu Jul 19 02:50:50 IDT 2012	Protocol: Movement phase, Round: 6
Thu Jul 19 02:51:11 IDT 2012	A Phase Ended: Movement Phase
Thu Jul 19 02:51:11 IDT 2012	Swaping roles:
Thu Jul 19 02:51:11 IDT 2012	Proposer is: 337
Thu Jul 19 02:51:11 IDT 2012	Responder is: 999
Thu Jul 19 02:51:11 IDT 2012	Protocol: A New Phase Began: Feedback Phase
Thu Jul 19 02:51:11 IDT 2012	Protocol: Feedback phase, Round: 6
Thu Jul 19 02:51:11 IDT 2012	Number of consecutive no movements for player 999 is 1
Thu Jul 19 02:51:11 IDT 2012	Number of consecutive no movements for player 337 is 1
Thu Jul 19 02:51:16 IDT 2012	A Phase Ended: Feedback Phase
Thu Jul 19 02:51:16 IDT 2012	Protocol: A New Phase Began: Communication Phase
Thu Jul 19 02:51:16 IDT 2012	Protocol: Communication phase, Round: 7
Thu Jul 19 02:51:17 IDT 2012	Received communication message 
Thu Jul 19 02:51:17 IDT 2012	From player: 337
Thu Jul 19 02:51:17 IDT 2012	To player: 999
Thu Jul 19 02:51:17 IDT 2012	Message type: basicproposal
Thu Jul 19 02:51:17 IDT 2012	Chips to send by proposer: { chips  'grey78':1 }
Thu Jul 19 02:51:17 IDT 2012	Chips to send by responder: { chips  'CTGreen':1 'CTYellow':1 }
Thu Jul 19 02:51:25 IDT 2012	Received communication message 
Thu Jul 19 02:51:25 IDT 2012	From player: 999
Thu Jul 19 02:51:25 IDT 2012	To player: 337
Thu Jul 19 02:51:25 IDT 2012	Message type: basicproposaldiscussion
Thu Jul 19 02:51:25 IDT 2012	Player 999 accepted offer
Thu Jul 19 02:51:25 IDT 2012	Prop accepted, set counter offers count to: 0
Thu Jul 19 02:51:25 IDT 2012	Prop accepted, get counter offers returned: 0
Thu Jul 19 02:51:25 IDT 2012	A Phase Ended: Communication Phase
Thu Jul 19 02:51:25 IDT 2012	Protocol: A New Phase Began: Exchange Phase
Thu Jul 19 02:51:25 IDT 2012	Protocol: Exchange phase, Round: 7
Thu Jul 19 02:51:25 IDT 2012	In begin exch.phase, get counter offers returned: 0
Thu Jul 19 02:51:25 IDT 2012	A Phase Ended: Exchange Phase
Thu Jul 19 02:51:25 IDT 2012	Proposer 337 sent: { chips  'CTRed':0 'CTPurple':0 'CTGreen':0 'grey78':0 'CTYellow':0 }
Thu Jul 19 02:51:25 IDT 2012	Responder 999 sent: { chips  'CTGreen':1 'CTYellow':1 }
Thu Jul 19 02:51:25 IDT 2012	Protocol: A New Phase Began: Movement Phase
Thu Jul 19 02:51:25 IDT 2012	Protocol: Movement phase, Round: 7
Thu Jul 19 02:51:45 IDT 2012	A Phase Ended: Movement Phase
Thu Jul 19 02:51:45 IDT 2012	Swaping roles:
Thu Jul 19 02:51:45 IDT 2012	Proposer is: 999
Thu Jul 19 02:51:45 IDT 2012	Responder is: 337
Thu Jul 19 02:51:45 IDT 2012	Protocol: A New Phase Began: Feedback Phase
Thu Jul 19 02:51:45 IDT 2012	Protocol: Feedback phase, Round: 7
Thu Jul 19 02:51:45 IDT 2012	Number of consecutive no movements for player 999 is 2
Thu Jul 19 02:51:45 IDT 2012	Number of consecutive no movements for player 337 is 2
Thu Jul 19 02:51:50 IDT 2012	A Phase Ended: Feedback Phase
Thu Jul 19 02:51:50 IDT 2012	Protocol: A New Phase Began: Communication Phase
Thu Jul 19 02:51:50 IDT 2012	Protocol: Communication phase, Round: 8
Thu Jul 19 02:52:03 IDT 2012	Received communication message 
Thu Jul 19 02:52:03 IDT 2012	From player: 999
Thu Jul 19 02:52:03 IDT 2012	To player: 337
Thu Jul 19 02:52:03 IDT 2012	Message type: basicproposal
Thu Jul 19 02:52:03 IDT 2012	Chips to send by proposer: { chips  'CTRed':0 'CTPurple':0 'CTGreen':0 'grey78':0 'CTYellow':0 }
Thu Jul 19 02:52:03 IDT 2012	Chips to send by responder: { chips  'CTRed':0 'CTPurple':0 'CTGreen':0 'grey78':0 'CTYellow':0 }
Thu Jul 19 02:52:07 IDT 2012	Received communication message 
Thu Jul 19 02:52:07 IDT 2012	From player: 337
Thu Jul 19 02:52:07 IDT 2012	To player: 999
Thu Jul 19 02:52:07 IDT 2012	Message type: basicproposaldiscussion
Thu Jul 19 02:52:07 IDT 2012	Player 337 accepted offer
Thu Jul 19 02:52:07 IDT 2012	Prop accepted, set counter offers count to: 0
Thu Jul 19 02:52:07 IDT 2012	Prop accepted, get counter offers returned: 0
Thu Jul 19 02:52:07 IDT 2012	A Phase Ended: Communication Phase
Thu Jul 19 02:52:07 IDT 2012	Protocol: A New Phase Began: Exchange Phase
Thu Jul 19 02:52:07 IDT 2012	Protocol: Exchange phase, Round: 8
Thu Jul 19 02:52:07 IDT 2012	In begin exch.phase, get counter offers returned: 0
Thu Jul 19 02:52:47 IDT 2012	A Phase Ended: Exchange Phase
Thu Jul 19 02:52:47 IDT 2012	Responder 337 sent: { chips  'CTRed':0 'CTPurple':0 'CTGreen':0 'grey78':0 'CTYellow':0 }
Thu Jul 19 02:52:47 IDT 2012	Protocol: A New Phase Began: Movement Phase
Thu Jul 19 02:52:47 IDT 2012	Protocol: Movement phase, Round: 8
Thu Jul 19 02:52:47 IDT 2012	Player 999 moved to (R:4,C:1)
Thu Jul 19 02:52:47 IDT 2012	Player 337 moved to (R:4,C:3)
Thu Jul 19 02:53:07 IDT 2012	A Phase Ended: Movement Phase
Thu Jul 19 02:53:07 IDT 2012	Swaping roles:
Thu Jul 19 02:53:07 IDT 2012	Proposer is: 337
Thu Jul 19 02:53:07 IDT 2012	Responder is: 999
Thu Jul 19 02:53:07 IDT 2012	Protocol: A New Phase Began: Feedback Phase
Thu Jul 19 02:53:07 IDT 2012	Protocol: Feedback phase, Round: 8
Thu Jul 19 02:53:07 IDT 2012	Number of consecutive no movements for player 999 is 0
Thu Jul 19 02:53:07 IDT 2012	Number of consecutive no movements for player 337 is 0
Thu Jul 19 02:53:12 IDT 2012	A Phase Ended: Feedback Phase
Thu Jul 19 02:53:12 IDT 2012	Protocol: A New Phase Began: Communication Phase
Thu Jul 19 02:53:12 IDT 2012	Protocol: Communication phase, Round: 9
Thu Jul 19 02:53:15 IDT 2012	Received communication message 
Thu Jul 19 02:53:15 IDT 2012	From player: 337
Thu Jul 19 02:53:15 IDT 2012	To player: 999
Thu Jul 19 02:53:15 IDT 2012	Message type: basicproposal
Thu Jul 19 02:53:15 IDT 2012	Chips to send by proposer: { chips  'grey78':1 }
Thu Jul 19 02:53:15 IDT 2012	Chips to send by responder: { chips  'CTYellow':2 }
Thu Jul 19 02:53:24 IDT 2012	Received communication message 
Thu Jul 19 02:53:24 IDT 2012	From player: 999
Thu Jul 19 02:53:24 IDT 2012	To player: 337
Thu Jul 19 02:53:24 IDT 2012	Message type: basicproposaldiscussion
Thu Jul 19 02:53:24 IDT 2012	Player 999 accepted offer
Thu Jul 19 02:53:24 IDT 2012	Prop accepted, set counter offers count to: 0
Thu Jul 19 02:53:24 IDT 2012	Prop accepted, get counter offers returned: 0
Thu Jul 19 02:53:24 IDT 2012	A Phase Ended: Communication Phase
Thu Jul 19 02:53:24 IDT 2012	Protocol: A New Phase Began: Exchange Phase
Thu Jul 19 02:53:24 IDT 2012	Protocol: Exchange phase, Round: 9
Thu Jul 19 02:53:24 IDT 2012	In begin exch.phase, get counter offers returned: 0
Thu Jul 19 02:53:24 IDT 2012	A Phase Ended: Exchange Phase
Thu Jul 19 02:53:24 IDT 2012	Proposer 337 sent: { chips  'CTRed':0 'CTPurple':0 'CTGreen':0 'grey78':0 'CTYellow':0 }
Thu Jul 19 02:53:24 IDT 2012	Responder 999 sent: { chips  'CTYellow':2 }
Thu Jul 19 02:53:24 IDT 2012	Protocol: A New Phase Began: Movement Phase
Thu Jul 19 02:53:24 IDT 2012	Protocol: Movement phase, Round: 9
Thu Jul 19 02:53:44 IDT 2012	A Phase Ended: Movement Phase
Thu Jul 19 02:53:44 IDT 2012	Swaping roles:
Thu Jul 19 02:53:44 IDT 2012	Proposer is: 999
Thu Jul 19 02:53:44 IDT 2012	Responder is: 337
Thu Jul 19 02:53:44 IDT 2012	Protocol: A New Phase Began: Feedback Phase
Thu Jul 19 02:53:44 IDT 2012	Protocol: Feedback phase, Round: 9
Thu Jul 19 02:53:44 IDT 2012	Number of consecutive no movements for player 999 is 1
Thu Jul 19 02:53:44 IDT 2012	Number of consecutive no movements for player 337 is 1
Thu Jul 19 02:53:49 IDT 2012	A Phase Ended: Feedback Phase
Thu Jul 19 02:53:49 IDT 2012	Protocol: A New Phase Began: Communication Phase
Thu Jul 19 02:53:49 IDT 2012	Protocol: Communication phase, Round: 10
Thu Jul 19 02:54:01 IDT 2012	Received communication message 
Thu Jul 19 02:54:01 IDT 2012	From player: 999
Thu Jul 19 02:54:01 IDT 2012	To player: 337
Thu Jul 19 02:54:01 IDT 2012	Message type: basicproposal
Thu Jul 19 02:54:01 IDT 2012	Chips to send by proposer: { chips  'CTRed':0 'CTPurple':0 'CTGreen':0 'grey78':0 'CTYellow':0 }
Thu Jul 19 02:54:01 IDT 2012	Chips to send by responder: { chips  'CTRed':0 'CTPurple':0 'CTGreen':0 'grey78':0 'CTYellow':0 }
Thu Jul 19 02:54:02 IDT 2012	Received communication message 
Thu Jul 19 02:54:02 IDT 2012	From player: 337
Thu Jul 19 02:54:02 IDT 2012	To player: 999
Thu Jul 19 02:54:02 IDT 2012	Message type: basicproposaldiscussion
Thu Jul 19 02:54:02 IDT 2012	Player 337 accepted offer
Thu Jul 19 02:54:02 IDT 2012	Prop accepted, set counter offers count to: 0
Thu Jul 19 02:54:02 IDT 2012	Prop accepted, get counter offers returned: 0
Thu Jul 19 02:54:02 IDT 2012	A Phase Ended: Communication Phase
Thu Jul 19 02:54:02 IDT 2012	Protocol: A New Phase Began: Exchange Phase
Thu Jul 19 02:54:02 IDT 2012	Protocol: Exchange phase, Round: 10
Thu Jul 19 02:54:02 IDT 2012	In begin exch.phase, get counter offers returned: 0
Thu Jul 19 02:54:42 IDT 2012	A Phase Ended: Exchange Phase
Thu Jul 19 02:54:42 IDT 2012	Responder 337 sent: { chips  'CTRed':0 'CTPurple':0 'CTGreen':0 'grey78':0 'CTYellow':0 }
Thu Jul 19 02:54:42 IDT 2012	Protocol: A New Phase Began: Movement Phase
Thu Jul 19 02:54:42 IDT 2012	Protocol: Movement phase, Round: 10
Thu Jul 19 02:55:02 IDT 2012	A Phase Ended: Movement Phase
Thu Jul 19 02:55:02 IDT 2012	Swaping roles:
Thu Jul 19 02:55:02 IDT 2012	Proposer is: 337
Thu Jul 19 02:55:02 IDT 2012	Responder is: 999
Thu Jul 19 02:55:02 IDT 2012	Protocol: A New Phase Began: Feedback Phase
Thu Jul 19 02:55:02 IDT 2012	Protocol: Feedback phase, Round: 10
Thu Jul 19 02:55:02 IDT 2012	Number of consecutive no movements for player 999 is 2
Thu Jul 19 02:55:02 IDT 2012	Number of consecutive no movements for player 337 is 2
Thu Jul 19 02:55:07 IDT 2012	A Phase Ended: Feedback Phase
Thu Jul 19 02:55:07 IDT 2012	Protocol: A New Phase Began: Communication Phase
Thu Jul 19 02:55:07 IDT 2012	Protocol: Communication phase, Round: 11
Thu Jul 19 02:55:11 IDT 2012	Received communication message 
Thu Jul 19 02:55:11 IDT 2012	From player: 337
Thu Jul 19 02:55:11 IDT 2012	To player: 999
Thu Jul 19 02:55:11 IDT 2012	Message type: basicproposal
Thu Jul 19 02:55:11 IDT 2012	Chips to send by proposer: { chips  'grey78':1 }
Thu Jul 19 02:55:11 IDT 2012	Chips to send by responder: { chips  'CTGreen':2 }
Thu Jul 19 02:55:20 IDT 2012	Received communication message 
Thu Jul 19 02:55:20 IDT 2012	From player: 999
Thu Jul 19 02:55:20 IDT 2012	To player: 337
Thu Jul 19 02:55:20 IDT 2012	Message type: basicproposaldiscussion
Thu Jul 19 02:55:20 IDT 2012	Player 999 accepted offer
Thu Jul 19 02:55:20 IDT 2012	Prop accepted, set counter offers count to: 0
Thu Jul 19 02:55:20 IDT 2012	Prop accepted, get counter offers returned: 0
Thu Jul 19 02:55:20 IDT 2012	A Phase Ended: Communication Phase
Thu Jul 19 02:55:20 IDT 2012	Protocol: A New Phase Began: Exchange Phase
Thu Jul 19 02:55:20 IDT 2012	Protocol: Exchange phase, Round: 11
Thu Jul 19 02:55:20 IDT 2012	In begin exch.phase, get counter offers returned: 0
Thu Jul 19 02:55:20 IDT 2012	A Phase Ended: Exchange Phase
Thu Jul 19 02:55:20 IDT 2012	Proposer 337 sent: { chips  'CTRed':0 'CTPurple':0 'CTGreen':0 'grey78':0 'CTYellow':0 }
Thu Jul 19 02:55:20 IDT 2012	Responder 999 sent: { chips  'CTGreen':2 }
Thu Jul 19 02:55:20 IDT 2012	Protocol: A New Phase Began: Movement Phase
Thu Jul 19 02:55:20 IDT 2012	Protocol: Movement phase, Round: 11
Thu Jul 19 02:55:20 IDT 2012	Player 337 moved to (R:3,C:3)
Thu Jul 19 02:55:20 IDT 2012	Player 999 moved to (R:3,C:1)
Thu Jul 19 02:55:40 IDT 2012	A Phase Ended: Movement Phase
Thu Jul 19 02:55:40 IDT 2012	Swaping roles:
Thu Jul 19 02:55:40 IDT 2012	Proposer is: 999
Thu Jul 19 02:55:40 IDT 2012	Responder is: 337
Thu Jul 19 02:55:40 IDT 2012	Protocol: A New Phase Began: Feedback Phase
Thu Jul 19 02:55:40 IDT 2012	Protocol: Feedback phase, Round: 11
Thu Jul 19 02:55:40 IDT 2012	Number of consecutive no movements for player 999 is 0
Thu Jul 19 02:55:40 IDT 2012	Number of consecutive no movements for player 337 is 0
Thu Jul 19 02:55:45 IDT 2012	A Phase Ended: Feedback Phase
Thu Jul 19 02:55:45 IDT 2012	Protocol: A New Phase Began: Communication Phase
Thu Jul 19 02:55:45 IDT 2012	Protocol: Communication phase, Round: 12
Thu Jul 19 02:56:00 IDT 2012	Received communication message 
Thu Jul 19 02:56:00 IDT 2012	From player: 999
Thu Jul 19 02:56:00 IDT 2012	To player: 337
Thu Jul 19 02:56:00 IDT 2012	Message type: basicproposal
Thu Jul 19 02:56:00 IDT 2012	Chips to send by proposer: { chips  'CTRed':0 'CTPurple':0 'CTGreen':0 'grey78':0 'CTYellow':0 }
Thu Jul 19 02:56:00 IDT 2012	Chips to send by responder: { chips  'CTRed':0 'CTPurple':0 'CTGreen':0 'grey78':0 'CTYellow':0 }
Thu Jul 19 02:56:03 IDT 2012	Received communication message 
Thu Jul 19 02:56:03 IDT 2012	From player: 337
Thu Jul 19 02:56:03 IDT 2012	To player: 999
Thu Jul 19 02:56:03 IDT 2012	Message type: basicproposaldiscussion
Thu Jul 19 02:56:03 IDT 2012	Player 337 accepted offer
Thu Jul 19 02:56:03 IDT 2012	Prop accepted, set counter offers count to: 0
Thu Jul 19 02:56:03 IDT 2012	Prop accepted, get counter offers returned: 0
Thu Jul 19 02:56:03 IDT 2012	A Phase Ended: Communication Phase
Thu Jul 19 02:56:03 IDT 2012	Protocol: A New Phase Began: Exchange Phase
Thu Jul 19 02:56:03 IDT 2012	Protocol: Exchange phase, Round: 12
Thu Jul 19 02:56:03 IDT 2012	In begin exch.phase, get counter offers returned: 0
Thu Jul 19 02:56:42 IDT 2012	A Phase Ended: Exchange Phase
Thu Jul 19 02:56:42 IDT 2012	Responder 337 sent: { chips  'CTRed':0 'CTPurple':0 'CTGreen':0 'grey78':0 'CTYellow':0 }
Thu Jul 19 02:56:42 IDT 2012	Protocol: A New Phase Began: Movement Phase
Thu Jul 19 02:56:42 IDT 2012	Protocol: Movement phase, Round: 12
Thu Jul 19 02:57:02 IDT 2012	A Phase Ended: Movement Phase
Thu Jul 19 02:57:02 IDT 2012	Swaping roles:
Thu Jul 19 02:57:02 IDT 2012	Proposer is: 337
Thu Jul 19 02:57:02 IDT 2012	Responder is: 999
Thu Jul 19 02:57:03 IDT 2012	Protocol: A New Phase Began: Feedback Phase
Thu Jul 19 02:57:03 IDT 2012	Protocol: Feedback phase, Round: 12
Thu Jul 19 02:57:03 IDT 2012	Number of consecutive no movements for player 999 is 1
Thu Jul 19 02:57:03 IDT 2012	Number of consecutive no movements for player 337 is 1
Thu Jul 19 02:57:08 IDT 2012	A Phase Ended: Feedback Phase
Thu Jul 19 02:57:08 IDT 2012	Protocol: A New Phase Began: Communication Phase
Thu Jul 19 02:57:08 IDT 2012	Protocol: Communication phase, Round: 13
Thu Jul 19 02:57:09 IDT 2012	Received communication message 
Thu Jul 19 02:57:09 IDT 2012	From player: 337
Thu Jul 19 02:57:09 IDT 2012	To player: 999
Thu Jul 19 02:57:09 IDT 2012	Message type: basicproposal
Thu Jul 19 02:57:09 IDT 2012	Chips to send by proposer: { chips  'grey78':1 }
Thu Jul 19 02:57:09 IDT 2012	Chips to send by responder: { chips  'CTGreen':2 }
Thu Jul 19 02:57:15 IDT 2012	Received communication message 
Thu Jul 19 02:57:15 IDT 2012	From player: 999
Thu Jul 19 02:57:15 IDT 2012	To player: 337
Thu Jul 19 02:57:15 IDT 2012	Message type: basicproposaldiscussion
Thu Jul 19 02:57:15 IDT 2012	Player 999 accepted offer
Thu Jul 19 02:57:15 IDT 2012	Prop accepted, set counter offers count to: 0
Thu Jul 19 02:57:15 IDT 2012	Prop accepted, get counter offers returned: 0
Thu Jul 19 02:57:15 IDT 2012	A Phase Ended: Communication Phase
Thu Jul 19 02:57:15 IDT 2012	Protocol: A New Phase Began: Exchange Phase
Thu Jul 19 02:57:15 IDT 2012	Protocol: Exchange phase, Round: 13
Thu Jul 19 02:57:15 IDT 2012	In begin exch.phase, get counter offers returned: 0
Thu Jul 19 02:57:15 IDT 2012	A Phase Ended: Exchange Phase
Thu Jul 19 02:57:15 IDT 2012	Proposer 337 sent: { chips  'CTRed':0 'CTPurple':0 'CTGreen':0 'grey78':0 'CTYellow':0 }
Thu Jul 19 02:57:15 IDT 2012	Responder 999 sent: { chips  'CTGreen':2 }
Thu Jul 19 02:57:15 IDT 2012	Protocol: A New Phase Began: Movement Phase
Thu Jul 19 02:57:15 IDT 2012	Protocol: Movement phase, Round: 13
Thu Jul 19 02:57:35 IDT 2012	A Phase Ended: Movement Phase
Thu Jul 19 02:57:35 IDT 2012	Swaping roles:
Thu Jul 19 02:57:35 IDT 2012	Proposer is: 999
Thu Jul 19 02:57:35 IDT 2012	Responder is: 337
Thu Jul 19 02:57:35 IDT 2012	Protocol: A New Phase Began: Feedback Phase
Thu Jul 19 02:57:35 IDT 2012	Protocol: Feedback phase, Round: 13
Thu Jul 19 02:57:35 IDT 2012	Number of consecutive no movements for player 999 is 2
Thu Jul 19 02:57:35 IDT 2012	Number of consecutive no movements for player 337 is 2
Thu Jul 19 02:57:40 IDT 2012	A Phase Ended: Feedback Phase
Thu Jul 19 02:57:40 IDT 2012	Protocol: A New Phase Began: Communication Phase
Thu Jul 19 02:57:40 IDT 2012	Protocol: Communication phase, Round: 14
Thu Jul 19 02:57:52 IDT 2012	Received communication message 
Thu Jul 19 02:57:52 IDT 2012	From player: 999
Thu Jul 19 02:57:52 IDT 2012	To player: 337
Thu Jul 19 02:57:52 IDT 2012	Message type: basicproposal
Thu Jul 19 02:57:52 IDT 2012	Chips to send by proposer: { chips  'CTRed':0 'CTPurple':0 'CTGreen':0 'grey78':0 'CTYellow':0 }
Thu Jul 19 02:57:52 IDT 2012	Chips to send by responder: { chips  'CTRed':0 'CTPurple':0 'CTGreen':0 'grey78':0 'CTYellow':0 }
Thu Jul 19 02:57:56 IDT 2012	Received communication message 
Thu Jul 19 02:57:56 IDT 2012	From player: 337
Thu Jul 19 02:57:56 IDT 2012	To player: 999
Thu Jul 19 02:57:56 IDT 2012	Message type: basicproposaldiscussion
Thu Jul 19 02:57:56 IDT 2012	Player 337 accepted offer
Thu Jul 19 02:57:56 IDT 2012	Prop accepted, set counter offers count to: 0
Thu Jul 19 02:57:56 IDT 2012	Prop accepted, get counter offers returned: 0
Thu Jul 19 02:57:56 IDT 2012	A Phase Ended: Communication Phase
Thu Jul 19 02:57:56 IDT 2012	Protocol: A New Phase Began: Exchange Phase
Thu Jul 19 02:57:56 IDT 2012	Protocol: Exchange phase, Round: 14
Thu Jul 19 02:57:56 IDT 2012	In begin exch.phase, get counter offers returned: 0
Thu Jul 19 02:58:36 IDT 2012	A Phase Ended: Exchange Phase
Thu Jul 19 02:58:36 IDT 2012	Responder 337 sent: { chips  'CTRed':0 'CTPurple':0 'CTGreen':0 'grey78':0 'CTYellow':0 }
Thu Jul 19 02:58:36 IDT 2012	Protocol: A New Phase Began: Movement Phase
Thu Jul 19 02:58:36 IDT 2012	Protocol: Movement phase, Round: 14
Thu Jul 19 02:58:36 IDT 2012	Player 337 moved to (R:2,C:3)
Thu Jul 19 02:58:36 IDT 2012	Player 999 moved to (R:2,C:1)
Thu Jul 19 02:58:56 IDT 2012	A Phase Ended: Movement Phase
Thu Jul 19 02:58:56 IDT 2012	Swaping roles:
Thu Jul 19 02:58:56 IDT 2012	Proposer is: 337
Thu Jul 19 02:58:56 IDT 2012	Responder is: 999
Thu Jul 19 02:58:56 IDT 2012	Protocol: A New Phase Began: Feedback Phase
Thu Jul 19 02:58:56 IDT 2012	Protocol: Feedback phase, Round: 14
Thu Jul 19 02:58:56 IDT 2012	Number of consecutive no movements for player 999 is 0
Thu Jul 19 02:58:56 IDT 2012	Number of consecutive no movements for player 337 is 0
Thu Jul 19 02:59:01 IDT 2012	A Phase Ended: Feedback Phase
Thu Jul 19 02:59:01 IDT 2012	Protocol: A New Phase Began: Communication Phase
Thu Jul 19 02:59:01 IDT 2012	Protocol: Communication phase, Round: 15
Thu Jul 19 02:59:03 IDT 2012	Received communication message 
Thu Jul 19 02:59:03 IDT 2012	From player: 337
Thu Jul 19 02:59:03 IDT 2012	To player: 999
Thu Jul 19 02:59:03 IDT 2012	Message type: basicproposal
Thu Jul 19 02:59:03 IDT 2012	Chips to send by proposer: { chips  'grey78':1 }
Thu Jul 19 02:59:03 IDT 2012	Chips to send by responder: { chips  'CTGreen':2 }
Thu Jul 19 02:59:16 IDT 2012	Received communication message 
Thu Jul 19 02:59:16 IDT 2012	From player: 999
Thu Jul 19 02:59:16 IDT 2012	To player: 337
Thu Jul 19 02:59:16 IDT 2012	Message type: basicproposaldiscussion
Thu Jul 19 02:59:16 IDT 2012	Player 999 accepted offer
Thu Jul 19 02:59:16 IDT 2012	Prop accepted, set counter offers count to: 0
Thu Jul 19 02:59:16 IDT 2012	Prop accepted, get counter offers returned: 0
Thu Jul 19 02:59:16 IDT 2012	A Phase Ended: Communication Phase
Thu Jul 19 02:59:16 IDT 2012	Protocol: A New Phase Began: Exchange Phase
Thu Jul 19 02:59:16 IDT 2012	Protocol: Exchange phase, Round: 15
Thu Jul 19 02:59:16 IDT 2012	In begin exch.phase, get counter offers returned: 0
Thu Jul 19 02:59:16 IDT 2012	A Phase Ended: Exchange Phase
Thu Jul 19 02:59:16 IDT 2012	Proposer 337 sent: { chips  'CTRed':0 'CTPurple':0 'CTGreen':0 'grey78':0 'CTYellow':0 }
Thu Jul 19 02:59:16 IDT 2012	Responder 999 sent: { chips  'CTGreen':2 }
Thu Jul 19 02:59:16 IDT 2012	Protocol: A New Phase Began: Movement Phase
Thu Jul 19 02:59:16 IDT 2012	Protocol: Movement phase, Round: 15
Thu Jul 19 02:59:36 IDT 2012	A Phase Ended: Movement Phase
Thu Jul 19 02:59:36 IDT 2012	Swaping roles:
Thu Jul 19 02:59:36 IDT 2012	Proposer is: 999
Thu Jul 19 02:59:36 IDT 2012	Responder is: 337
Thu Jul 19 02:59:36 IDT 2012	Protocol: A New Phase Began: Feedback Phase
Thu Jul 19 02:59:36 IDT 2012	Protocol: Feedback phase, Round: 15
Thu Jul 19 02:59:36 IDT 2012	Number of consecutive no movements for player 999 is 1
Thu Jul 19 02:59:36 IDT 2012	Number of consecutive no movements for player 337 is 1
Thu Jul 19 02:59:41 IDT 2012	A Phase Ended: Feedback Phase
Thu Jul 19 02:59:41 IDT 2012	Protocol: A New Phase Began: Communication Phase
Thu Jul 19 02:59:41 IDT 2012	Protocol: Communication phase, Round: 16
Thu Jul 19 02:59:54 IDT 2012	Received communication message 
Thu Jul 19 02:59:54 IDT 2012	From player: 999
Thu Jul 19 02:59:54 IDT 2012	To player: 337
Thu Jul 19 02:59:54 IDT 2012	Message type: basicproposal
Thu Jul 19 02:59:54 IDT 2012	Chips to send by proposer: { chips  'CTRed':0 'CTPurple':0 'CTGreen':0 'grey78':0 'CTYellow':0 }
Thu Jul 19 02:59:54 IDT 2012	Chips to send by responder: { chips  'CTRed':0 'CTPurple':0 'CTGreen':0 'grey78':0 'CTYellow':0 }
Thu Jul 19 02:59:55 IDT 2012	Received communication message 
Thu Jul 19 02:59:55 IDT 2012	From player: 337
Thu Jul 19 02:59:55 IDT 2012	To player: 999
Thu Jul 19 02:59:55 IDT 2012	Message type: basicproposaldiscussion
Thu Jul 19 02:59:55 IDT 2012	Player 337 accepted offer
Thu Jul 19 02:59:55 IDT 2012	Prop accepted, set counter offers count to: 0
Thu Jul 19 02:59:55 IDT 2012	Prop accepted, get counter offers returned: 0
Thu Jul 19 02:59:55 IDT 2012	A Phase Ended: Communication Phase
Thu Jul 19 02:59:55 IDT 2012	Protocol: A New Phase Began: Exchange Phase
Thu Jul 19 02:59:55 IDT 2012	Protocol: Exchange phase, Round: 16
Thu Jul 19 02:59:55 IDT 2012	In begin exch.phase, get counter offers returned: 0
Thu Jul 19 03:00:34 IDT 2012	A Phase Ended: Exchange Phase
Thu Jul 19 03:00:34 IDT 2012	Responder 337 sent: { chips  'CTRed':0 'CTPurple':0 'CTGreen':0 'grey78':0 'CTYellow':0 }
Thu Jul 19 03:00:34 IDT 2012	Protocol: A New Phase Began: Movement Phase
Thu Jul 19 03:00:34 IDT 2012	Protocol: Movement phase, Round: 16
Thu Jul 19 03:00:55 IDT 2012	A Phase Ended: Movement Phase
Thu Jul 19 03:00:55 IDT 2012	Swaping roles:
Thu Jul 19 03:00:55 IDT 2012	Proposer is: 337
Thu Jul 19 03:00:55 IDT 2012	Responder is: 999
Thu Jul 19 03:00:55 IDT 2012	Protocol: A New Phase Began: Feedback Phase
Thu Jul 19 03:00:55 IDT 2012	Protocol: Feedback phase, Round: 16
Thu Jul 19 03:00:55 IDT 2012	Number of consecutive no movements for player 999 is 2
Thu Jul 19 03:00:55 IDT 2012	Number of consecutive no movements for player 337 is 2
Thu Jul 19 03:01:00 IDT 2012	A Phase Ended: Feedback Phase
Thu Jul 19 03:01:00 IDT 2012	Protocol: A New Phase Began: Communication Phase
Thu Jul 19 03:01:00 IDT 2012	Protocol: Communication phase, Round: 17
Thu Jul 19 03:01:06 IDT 2012	Received communication message 
Thu Jul 19 03:01:06 IDT 2012	From player: 337
Thu Jul 19 03:01:06 IDT 2012	To player: 999
Thu Jul 19 03:01:06 IDT 2012	Message type: basicproposal
Thu Jul 19 03:01:06 IDT 2012	Chips to send by proposer: { chips  'grey78':1 }
Thu Jul 19 03:01:06 IDT 2012	Chips to send by responder: { chips  'CTGreen':1 }
Thu Jul 19 03:01:20 IDT 2012	Received communication message 
Thu Jul 19 03:01:20 IDT 2012	From player: 999
Thu Jul 19 03:01:20 IDT 2012	To player: 337
Thu Jul 19 03:01:20 IDT 2012	Message type: basicproposaldiscussion
Thu Jul 19 03:01:20 IDT 2012	Player 999 accepted offer
Thu Jul 19 03:01:20 IDT 2012	Prop accepted, set counter offers count to: 0
Thu Jul 19 03:01:20 IDT 2012	Prop accepted, get counter offers returned: 0
Thu Jul 19 03:01:20 IDT 2012	A Phase Ended: Communication Phase
Thu Jul 19 03:01:20 IDT 2012	Protocol: A New Phase Began: Exchange Phase
Thu Jul 19 03:01:20 IDT 2012	Protocol: Exchange phase, Round: 17
Thu Jul 19 03:01:20 IDT 2012	In begin exch.phase, get counter offers returned: 0
Thu Jul 19 03:01:20 IDT 2012	A Phase Ended: Exchange Phase
Thu Jul 19 03:01:20 IDT 2012	Proposer 337 sent: { chips  'CTRed':0 'CTPurple':0 'CTGreen':0 'grey78':0 'CTYellow':0 }
Thu Jul 19 03:01:20 IDT 2012	Responder 999 sent: { chips  'CTGreen':1 }
Thu Jul 19 03:01:20 IDT 2012	Protocol: A New Phase Began: Movement Phase
Thu Jul 19 03:01:20 IDT 2012	Protocol: Movement phase, Round: 17
Thu Jul 19 03:01:20 IDT 2012	Player 337 moved to (R:1,C:3)
Thu Jul 19 03:01:39 IDT 2012	A Phase Ended: Movement Phase
Thu Jul 19 03:01:39 IDT 2012	Swaping roles:
Thu Jul 19 03:01:39 IDT 2012	Proposer is: 999
Thu Jul 19 03:01:39 IDT 2012	Responder is: 337
Thu Jul 19 03:01:39 IDT 2012	Protocol: A New Phase Began: Feedback Phase
Thu Jul 19 03:01:39 IDT 2012	Protocol: Feedback phase, Round: 17
Thu Jul 19 03:01:39 IDT 2012	Number of consecutive no movements for player 999 is 3
Thu Jul 19 03:01:39 IDT 2012	Number of consecutive no movements for player 337 is 0
Thu Jul 19 03:01:39 IDT 2012	Ending game, all players move as much as they can towards goal
Thu Jul 19 03:01:39 IDT 2012	Player: 999 ,role: Proposer score is: -10
Thu Jul 19 03:01:39 IDT 2012	Player: 337 ,role: Responder score is: 255
