Thu Jul 19 10:25:21 IDT 2012	This is the CT debug logger; svn version 638; sep 27 09
Thu Jul 19 10:25:21 IDT 2012	Thu Jul 19 10:25:21 IDT 2012
Thu Jul 19 10:25:21 IDT 2012	A new Alternative Offers game has began
Thu Jul 19 10:25:22 IDT 2012	ID Number: 32045
Thu Jul 19 10:25:22 IDT 2012	Creating board
Thu Jul 19 10:25:22 IDT 2012	<colors>
Thu Jul 19 10:25:22 IDT 2012	{ GamePalette  'CTRed':0 'CTPurple':1 'CTGreen':2 'grey78':3 'CTYellow':4 }
Thu Jul 19 10:25:22 IDT 2012	<rows>
Thu Jul 19 10:25:22 IDT 2012	7
Thu Jul 19 10:25:22 IDT 2012	<columns>
Thu Jul 19 10:25:22 IDT 2012	5
Thu Jul 19 10:25:22 IDT 2012	<squaresColors>
Thu Jul 19 10:25:22 IDT 2012	CTPurple CTRed CTRed CTGreen CTPurple 
Thu Jul 19 10:25:22 IDT 2012	CTPurple grey78 CTPurple CTYellow CTPurple 
Thu Jul 19 10:25:22 IDT 2012	CTPurple CTRed CTPurple CTGreen CTPurple 
Thu Jul 19 10:25:22 IDT 2012	CTPurple grey78 CTPurple CTYellow CTPurple 
Thu Jul 19 10:25:22 IDT 2012	CTPurple CTRed CTPurple CTGreen CTPurple 
Thu Jul 19 10:25:22 IDT 2012	CTPurple grey78 CTPurple CTYellow CTPurple 
Thu Jul 19 10:25:22 IDT 2012	CTPurple CTRed CTPurple CTGreen CTPurple 
Thu Jul 19 10:25:22 IDT 2012	</squareColors>
Thu Jul 19 10:25:22 IDT 2012	<goalPosition>
Thu Jul 19 10:25:22 IDT 2012	Goal position: (R:0,C:2)
Thu Jul 19 10:25:22 IDT 2012	<numberOfPlayers>
Thu Jul 19 10:25:22 IDT 2012	2
Thu Jul 19 10:25:22 IDT 2012	<firstPlayerChips>
Thu Jul 19 10:25:22 IDT 2012	Setting chips for player: 999 id:0
Thu Jul 19 10:25:22 IDT 2012	{ chips  'CTRed':5 'CTGreen':10 'CTPurple':0 'grey78':0 'CTYellow':9 }
Thu Jul 19 10:25:22 IDT 2012	Player position: (R:6,C:0)
Thu Jul 19 10:25:22 IDT 2012	Setting chips for player: 337 id:1
Thu Jul 19 10:25:22 IDT 2012	{ chips  'CTRed':1 'CTGreen':13 'CTPurple':0 'grey78':10 'CTYellow':0 }
Thu Jul 19 10:25:22 IDT 2012	Player position: (R:6,C:4)
Thu Jul 19 10:25:22 IDT 2012	Protocol: A New Phase Began: Strategy Prep Phase
Thu Jul 19 10:25:22 IDT 2012	Protocol: Strategy Preparation phase, Round: 0
Thu Jul 19 10:25:22 IDT 2012	Maximum number of rounds with no consecutive movement is 3
Thu Jul 19 10:25:22 IDT 2012	In begin comm. phase, set counter offers count to: 0
Thu Jul 19 10:25:22 IDT 2012	In begin comm. phase, get counter offers returned: 0
Thu Jul 19 10:25:42 IDT 2012	A Phase Ended: Strategy Prep Phase
Thu Jul 19 10:25:42 IDT 2012	Protocol: A New Phase Began: Communication Phase
Thu Jul 19 10:25:42 IDT 2012	Protocol: Communication phase, Round: 0
Thu Jul 19 10:25:58 IDT 2012	Received communication message 
Thu Jul 19 10:25:58 IDT 2012	From player: 999
Thu Jul 19 10:25:58 IDT 2012	To player: 337
Thu Jul 19 10:25:58 IDT 2012	Message type: basicproposal
Thu Jul 19 10:25:58 IDT 2012	Chips to send by proposer: { chips  'CTRed':0 'CTPurple':0 'CTGreen':0 'grey78':0 'CTYellow':2 }
Thu Jul 19 10:25:58 IDT 2012	Chips to send by responder: { chips  'CTRed':0 'CTPurple':0 'CTGreen':0 'grey78':2 'CTYellow':0 }
Thu Jul 19 10:26:02 IDT 2012	Received communication message 
Thu Jul 19 10:26:02 IDT 2012	From player: 337
Thu Jul 19 10:26:02 IDT 2012	To player: 999
Thu Jul 19 10:26:02 IDT 2012	Message type: basicproposaldiscussion
Thu Jul 19 10:26:02 IDT 2012	Player 337 accepted offer
Thu Jul 19 10:26:02 IDT 2012	Prop accepted, set counter offers count to: 0
Thu Jul 19 10:26:02 IDT 2012	Prop accepted, get counter offers returned: 0
Thu Jul 19 10:26:02 IDT 2012	A Phase Ended: Communication Phase
Thu Jul 19 10:26:02 IDT 2012	Protocol: A New Phase Began: Exchange Phase
Thu Jul 19 10:26:02 IDT 2012	Protocol: Exchange phase, Round: 0
Thu Jul 19 10:26:02 IDT 2012	In begin exch.phase, get counter offers returned: 0
Thu Jul 19 10:26:02 IDT 2012	A Phase Ended: Exchange Phase
Thu Jul 19 10:26:02 IDT 2012	Proposer 999 sent: { chips  'CTRed':0 'CTPurple':0 'CTGreen':0 'grey78':0 'CTYellow':2 }
Thu Jul 19 10:26:02 IDT 2012	Responder 337 sent: { chips  'CTRed':0 'CTPurple':0 'CTGreen':0 'grey78':1 'CTYellow':0 }
Thu Jul 19 10:26:02 IDT 2012	Protocol: A New Phase Began: Movement Phase
Thu Jul 19 10:26:02 IDT 2012	Protocol: Movement phase, Round: 0
Thu Jul 19 10:26:21 IDT 2012	A Phase Ended: Movement Phase
Thu Jul 19 10:26:22 IDT 2012	Swaping roles:
Thu Jul 19 10:26:22 IDT 2012	Proposer is: 337
Thu Jul 19 10:26:22 IDT 2012	Responder is: 999
Thu Jul 19 10:26:22 IDT 2012	Protocol: A New Phase Began: Feedback Phase
Thu Jul 19 10:26:22 IDT 2012	Protocol: Feedback phase, Round: 0
Thu Jul 19 10:26:22 IDT 2012	Number of consecutive no movements for player 999 is 1
Thu Jul 19 10:26:22 IDT 2012	Number of consecutive no movements for player 337 is 1
Thu Jul 19 10:26:27 IDT 2012	A Phase Ended: Feedback Phase
Thu Jul 19 10:26:27 IDT 2012	Protocol: A New Phase Began: Communication Phase
Thu Jul 19 10:26:27 IDT 2012	Protocol: Communication phase, Round: 1
Thu Jul 19 10:26:28 IDT 2012	Received communication message 
Thu Jul 19 10:26:28 IDT 2012	From player: 337
Thu Jul 19 10:26:28 IDT 2012	To player: 999
Thu Jul 19 10:26:28 IDT 2012	Message type: basicproposal
Thu Jul 19 10:26:28 IDT 2012	Chips to send by proposer: { chips  'grey78':1 }
Thu Jul 19 10:26:28 IDT 2012	Chips to send by responder: { chips  'CTGreen':2 }
Thu Jul 19 10:26:42 IDT 2012	Received communication message 
Thu Jul 19 10:26:42 IDT 2012	From player: 999
Thu Jul 19 10:26:42 IDT 2012	To player: 337
Thu Jul 19 10:26:42 IDT 2012	Message type: basicproposaldiscussion
Thu Jul 19 10:26:42 IDT 2012	Player 999 rejected offer
Thu Jul 19 10:26:42 IDT 2012	Swaping roles:
Thu Jul 19 10:26:42 IDT 2012	Proposer is: 999
Thu Jul 19 10:26:42 IDT 2012	Responder is: 337
Thu Jul 19 10:26:42 IDT 2012	Prop rejected, set counter offers count to: 1
Thu Jul 19 10:26:42 IDT 2012	Prop rejected, get counter offers returned: 1
Thu Jul 19 10:26:46 IDT 2012	Slept 4 seconds
Thu Jul 19 10:26:46 IDT 2012	Sent role changed msgs
Thu Jul 19 10:27:00 IDT 2012	Received communication message 
Thu Jul 19 10:27:00 IDT 2012	From player: 999
Thu Jul 19 10:27:00 IDT 2012	To player: 337
Thu Jul 19 10:27:00 IDT 2012	Message type: basicproposal
Thu Jul 19 10:27:00 IDT 2012	Chips to send by proposer: { chips  'CTRed':0 'CTPurple':0 'CTGreen':0 'grey78':0 'CTYellow':2 }
Thu Jul 19 10:27:00 IDT 2012	Chips to send by responder: { chips  'CTRed':0 'CTPurple':0 'CTGreen':0 'grey78':2 'CTYellow':0 }
Thu Jul 19 10:27:01 IDT 2012	Received communication message 
Thu Jul 19 10:27:01 IDT 2012	From player: 337
Thu Jul 19 10:27:01 IDT 2012	To player: 999
Thu Jul 19 10:27:01 IDT 2012	Message type: basicproposaldiscussion
Thu Jul 19 10:27:01 IDT 2012	Player 337 accepted offer
Thu Jul 19 10:27:01 IDT 2012	Prop accepted, set counter offers count to: 0
Thu Jul 19 10:27:01 IDT 2012	Prop accepted, get counter offers returned: 0
Thu Jul 19 10:27:01 IDT 2012	A Phase Ended: Communication Phase
Thu Jul 19 10:27:01 IDT 2012	Protocol: A New Phase Began: Exchange Phase
Thu Jul 19 10:27:01 IDT 2012	Protocol: Exchange phase, Round: 1
Thu Jul 19 10:27:01 IDT 2012	In begin exch.phase, get counter offers returned: 0
Thu Jul 19 10:27:01 IDT 2012	A Phase Ended: Exchange Phase
Thu Jul 19 10:27:01 IDT 2012	Proposer 999 sent: { chips  'CTRed':0 'CTPurple':0 'CTGreen':0 'grey78':0 'CTYellow':2 }
Thu Jul 19 10:27:01 IDT 2012	Responder 337 sent: { chips  'CTRed':0 'CTPurple':0 'CTGreen':0 'grey78':0 'CTYellow':0 }
Thu Jul 19 10:27:01 IDT 2012	Protocol: A New Phase Began: Movement Phase
Thu Jul 19 10:27:01 IDT 2012	Protocol: Movement phase, Round: 1
Thu Jul 19 10:27:21 IDT 2012	A Phase Ended: Movement Phase
Thu Jul 19 10:27:21 IDT 2012	Protocol: A New Phase Began: Feedback Phase
Thu Jul 19 10:27:21 IDT 2012	Protocol: Feedback phase, Round: 1
Thu Jul 19 10:27:21 IDT 2012	Number of consecutive no movements for player 999 is 2
Thu Jul 19 10:27:21 IDT 2012	Number of consecutive no movements for player 337 is 2
Thu Jul 19 10:27:26 IDT 2012	A Phase Ended: Feedback Phase
Thu Jul 19 10:27:26 IDT 2012	Protocol: A New Phase Began: Communication Phase
Thu Jul 19 10:27:26 IDT 2012	Protocol: Communication phase, Round: 2
Thu Jul 19 10:27:44 IDT 2012	Received communication message 
Thu Jul 19 10:27:44 IDT 2012	From player: 999
Thu Jul 19 10:27:44 IDT 2012	To player: 337
Thu Jul 19 10:27:44 IDT 2012	Message type: basicproposal
Thu Jul 19 10:27:44 IDT 2012	Chips to send by proposer: { chips  'CTRed':0 'CTPurple':0 'CTGreen':0 'grey78':0 'CTYellow':1 }
Thu Jul 19 10:27:44 IDT 2012	Chips to send by responder: { chips  'CTRed':0 'CTPurple':0 'CTGreen':0 'grey78':2 'CTYellow':0 }
Thu Jul 19 10:27:49 IDT 2012	Received communication message 
Thu Jul 19 10:27:49 IDT 2012	From player: 337
Thu Jul 19 10:27:49 IDT 2012	To player: 999
Thu Jul 19 10:27:49 IDT 2012	Message type: basicproposaldiscussion
Thu Jul 19 10:27:49 IDT 2012	Player 337 accepted offer
Thu Jul 19 10:27:49 IDT 2012	Prop accepted, set counter offers count to: 0
Thu Jul 19 10:27:49 IDT 2012	Prop accepted, get counter offers returned: 0
Thu Jul 19 10:27:49 IDT 2012	A Phase Ended: Communication Phase
Thu Jul 19 10:27:49 IDT 2012	Protocol: A New Phase Began: Exchange Phase
Thu Jul 19 10:27:49 IDT 2012	Protocol: Exchange phase, Round: 2
Thu Jul 19 10:27:49 IDT 2012	In begin exch.phase, get counter offers returned: 0
Thu Jul 19 10:28:29 IDT 2012	A Phase Ended: Exchange Phase
Thu Jul 19 10:28:29 IDT 2012	Responder 337 sent: { chips  'CTRed':0 'CTPurple':0 'CTGreen':0 'grey78':1 'CTYellow':0 }
Thu Jul 19 10:28:29 IDT 2012	Protocol: A New Phase Began: Movement Phase
Thu Jul 19 10:28:29 IDT 2012	Protocol: Movement phase, Round: 2
Thu Jul 19 10:28:29 IDT 2012	Player 337 moved to (R:6,C:3)
Thu Jul 19 10:28:29 IDT 2012	Player 999 moved to (R:6,C:1)
Thu Jul 19 10:28:50 IDT 2012	A Phase Ended: Movement Phase
Thu Jul 19 10:28:50 IDT 2012	Swaping roles:
Thu Jul 19 10:28:50 IDT 2012	Proposer is: 337
Thu Jul 19 10:28:50 IDT 2012	Responder is: 999
Thu Jul 19 10:28:50 IDT 2012	Protocol: A New Phase Began: Feedback Phase
Thu Jul 19 10:28:50 IDT 2012	Protocol: Feedback phase, Round: 2
Thu Jul 19 10:28:50 IDT 2012	Number of consecutive no movements for player 999 is 0
Thu Jul 19 10:28:50 IDT 2012	Number of consecutive no movements for player 337 is 0
Thu Jul 19 10:28:55 IDT 2012	A Phase Ended: Feedback Phase
Thu Jul 19 10:28:55 IDT 2012	Protocol: A New Phase Began: Communication Phase
Thu Jul 19 10:28:55 IDT 2012	Protocol: Communication phase, Round: 3
Thu Jul 19 10:28:57 IDT 2012	Received communication message 
Thu Jul 19 10:28:57 IDT 2012	From player: 337
Thu Jul 19 10:28:57 IDT 2012	To player: 999
Thu Jul 19 10:28:57 IDT 2012	Message type: basicproposal
Thu Jul 19 10:28:57 IDT 2012	Chips to send by proposer: { chips  'grey78':1 }
Thu Jul 19 10:28:57 IDT 2012	Chips to send by responder: { chips  'CTYellow':2 }
Thu Jul 19 10:29:04 IDT 2012	Received communication message 
Thu Jul 19 10:29:04 IDT 2012	From player: 999
Thu Jul 19 10:29:04 IDT 2012	To player: 337
Thu Jul 19 10:29:04 IDT 2012	Message type: basicproposaldiscussion
Thu Jul 19 10:29:04 IDT 2012	Player 999 accepted offer
Thu Jul 19 10:29:04 IDT 2012	Prop accepted, set counter offers count to: 0
Thu Jul 19 10:29:04 IDT 2012	Prop accepted, get counter offers returned: 0
Thu Jul 19 10:29:04 IDT 2012	A Phase Ended: Communication Phase
Thu Jul 19 10:29:04 IDT 2012	Protocol: A New Phase Began: Exchange Phase
Thu Jul 19 10:29:04 IDT 2012	Protocol: Exchange phase, Round: 3
Thu Jul 19 10:29:04 IDT 2012	In begin exch.phase, get counter offers returned: 0
Thu Jul 19 10:29:04 IDT 2012	A Phase Ended: Exchange Phase
Thu Jul 19 10:29:04 IDT 2012	Proposer 337 sent: { chips  'CTRed':0 'CTPurple':0 'CTGreen':0 'grey78':0 'CTYellow':0 }
Thu Jul 19 10:29:04 IDT 2012	Responder 999 sent: { chips  'CTYellow':2 }
Thu Jul 19 10:29:04 IDT 2012	Protocol: A New Phase Began: Movement Phase
Thu Jul 19 10:29:04 IDT 2012	Protocol: Movement phase, Round: 3
Thu Jul 19 10:29:24 IDT 2012	A Phase Ended: Movement Phase
Thu Jul 19 10:29:24 IDT 2012	Swaping roles:
Thu Jul 19 10:29:24 IDT 2012	Proposer is: 999
Thu Jul 19 10:29:24 IDT 2012	Responder is: 337
Thu Jul 19 10:29:24 IDT 2012	Protocol: A New Phase Began: Feedback Phase
Thu Jul 19 10:29:24 IDT 2012	Protocol: Feedback phase, Round: 3
Thu Jul 19 10:29:24 IDT 2012	Number of consecutive no movements for player 999 is 1
Thu Jul 19 10:29:24 IDT 2012	Number of consecutive no movements for player 337 is 1
Thu Jul 19 10:29:29 IDT 2012	A Phase Ended: Feedback Phase
Thu Jul 19 10:29:29 IDT 2012	Protocol: A New Phase Began: Communication Phase
Thu Jul 19 10:29:29 IDT 2012	Protocol: Communication phase, Round: 4
Thu Jul 19 10:29:41 IDT 2012	Received communication message 
Thu Jul 19 10:29:41 IDT 2012	From player: 999
Thu Jul 19 10:29:41 IDT 2012	To player: 337
Thu Jul 19 10:29:41 IDT 2012	Message type: basicproposal
Thu Jul 19 10:29:41 IDT 2012	Chips to send by proposer: { chips  'CTRed':0 'CTPurple':0 'CTGreen':0 'grey78':0 'CTYellow':0 }
Thu Jul 19 10:29:41 IDT 2012	Chips to send by responder: { chips  'CTRed':0 'CTPurple':0 'CTGreen':0 'grey78':0 'CTYellow':0 }
Thu Jul 19 10:29:42 IDT 2012	Received communication message 
Thu Jul 19 10:29:42 IDT 2012	From player: 337
Thu Jul 19 10:29:42 IDT 2012	To player: 999
Thu Jul 19 10:29:42 IDT 2012	Message type: basicproposaldiscussion
Thu Jul 19 10:29:42 IDT 2012	Player 337 accepted offer
Thu Jul 19 10:29:42 IDT 2012	Prop accepted, set counter offers count to: 0
Thu Jul 19 10:29:42 IDT 2012	Prop accepted, get counter offers returned: 0
Thu Jul 19 10:29:42 IDT 2012	A Phase Ended: Communication Phase
Thu Jul 19 10:29:42 IDT 2012	Protocol: A New Phase Began: Exchange Phase
Thu Jul 19 10:29:42 IDT 2012	Protocol: Exchange phase, Round: 4
Thu Jul 19 10:29:42 IDT 2012	In begin exch.phase, get counter offers returned: 0
Thu Jul 19 10:30:22 IDT 2012	A Phase Ended: Exchange Phase
Thu Jul 19 10:30:22 IDT 2012	Responder 337 sent: { chips  'CTRed':0 'CTPurple':0 'CTGreen':0 'grey78':0 'CTYellow':0 }
Thu Jul 19 10:30:22 IDT 2012	Protocol: A New Phase Began: Movement Phase
Thu Jul 19 10:30:22 IDT 2012	Protocol: Movement phase, Round: 4
Thu Jul 19 10:30:42 IDT 2012	A Phase Ended: Movement Phase
Thu Jul 19 10:30:42 IDT 2012	Swaping roles:
Thu Jul 19 10:30:42 IDT 2012	Proposer is: 337
Thu Jul 19 10:30:42 IDT 2012	Responder is: 999
Thu Jul 19 10:30:42 IDT 2012	Protocol: A New Phase Began: Feedback Phase
Thu Jul 19 10:30:42 IDT 2012	Protocol: Feedback phase, Round: 4
Thu Jul 19 10:30:42 IDT 2012	Number of consecutive no movements for player 999 is 2
Thu Jul 19 10:30:42 IDT 2012	Number of consecutive no movements for player 337 is 2
Thu Jul 19 10:30:47 IDT 2012	A Phase Ended: Feedback Phase
Thu Jul 19 10:30:47 IDT 2012	Protocol: A New Phase Began: Communication Phase
Thu Jul 19 10:30:47 IDT 2012	Protocol: Communication phase, Round: 5
Thu Jul 19 10:30:52 IDT 2012	Received communication message 
Thu Jul 19 10:30:52 IDT 2012	From player: 337
Thu Jul 19 10:30:52 IDT 2012	To player: 999
Thu Jul 19 10:30:52 IDT 2012	Message type: basicproposal
Thu Jul 19 10:30:52 IDT 2012	Chips to send by proposer: { chips  'grey78':1 }
Thu Jul 19 10:30:52 IDT 2012	Chips to send by responder: { chips  'CTGreen':2 }
Thu Jul 19 10:31:06 IDT 2012	Received communication message 
Thu Jul 19 10:31:06 IDT 2012	From player: 999
Thu Jul 19 10:31:06 IDT 2012	To player: 337
Thu Jul 19 10:31:06 IDT 2012	Message type: basicproposaldiscussion
Thu Jul 19 10:31:06 IDT 2012	Player 999 accepted offer
Thu Jul 19 10:31:06 IDT 2012	Prop accepted, set counter offers count to: 0
Thu Jul 19 10:31:06 IDT 2012	Prop accepted, get counter offers returned: 0
Thu Jul 19 10:31:06 IDT 2012	A Phase Ended: Communication Phase
Thu Jul 19 10:31:06 IDT 2012	Protocol: A New Phase Began: Exchange Phase
Thu Jul 19 10:31:06 IDT 2012	Protocol: Exchange phase, Round: 5
Thu Jul 19 10:31:06 IDT 2012	In begin exch.phase, get counter offers returned: 0
Thu Jul 19 10:31:06 IDT 2012	A Phase Ended: Exchange Phase
Thu Jul 19 10:31:06 IDT 2012	Proposer 337 sent: { chips  'CTRed':0 'CTPurple':0 'CTGreen':0 'grey78':0 'CTYellow':0 }
Thu Jul 19 10:31:06 IDT 2012	Responder 999 sent: { chips  'CTGreen':2 }
Thu Jul 19 10:31:06 IDT 2012	Protocol: A New Phase Began: Movement Phase
Thu Jul 19 10:31:06 IDT 2012	Protocol: Movement phase, Round: 5
Thu Jul 19 10:31:06 IDT 2012	Player 999 moved to (R:5,C:1)
Thu Jul 19 10:31:06 IDT 2012	Player 337 moved to (R:5,C:3)
Thu Jul 19 10:31:26 IDT 2012	A Phase Ended: Movement Phase
Thu Jul 19 10:31:26 IDT 2012	Swaping roles:
Thu Jul 19 10:31:26 IDT 2012	Proposer is: 999
Thu Jul 19 10:31:26 IDT 2012	Responder is: 337
Thu Jul 19 10:31:26 IDT 2012	Protocol: A New Phase Began: Feedback Phase
Thu Jul 19 10:31:26 IDT 2012	Protocol: Feedback phase, Round: 5
Thu Jul 19 10:31:26 IDT 2012	Number of consecutive no movements for player 999 is 0
Thu Jul 19 10:31:26 IDT 2012	Number of consecutive no movements for player 337 is 0
Thu Jul 19 10:31:31 IDT 2012	A Phase Ended: Feedback Phase
Thu Jul 19 10:31:31 IDT 2012	Protocol: A New Phase Began: Communication Phase
Thu Jul 19 10:31:31 IDT 2012	Protocol: Communication phase, Round: 6
Thu Jul 19 10:31:48 IDT 2012	Received communication message 
Thu Jul 19 10:31:48 IDT 2012	From player: 999
Thu Jul 19 10:31:48 IDT 2012	To player: 337
Thu Jul 19 10:31:48 IDT 2012	Message type: basicproposal
Thu Jul 19 10:31:48 IDT 2012	Chips to send by proposer: { chips  'CTRed':0 'CTPurple':0 'CTGreen':0 'grey78':0 'CTYellow':0 }
Thu Jul 19 10:31:48 IDT 2012	Chips to send by responder: { chips  'CTRed':0 'CTPurple':0 'CTGreen':0 'grey78':0 'CTYellow':0 }
Thu Jul 19 10:31:50 IDT 2012	Received communication message 
Thu Jul 19 10:31:50 IDT 2012	From player: 337
Thu Jul 19 10:31:50 IDT 2012	To player: 999
Thu Jul 19 10:31:50 IDT 2012	Message type: basicproposaldiscussion
Thu Jul 19 10:31:50 IDT 2012	Player 337 accepted offer
Thu Jul 19 10:31:50 IDT 2012	Prop accepted, set counter offers count to: 0
Thu Jul 19 10:31:50 IDT 2012	Prop accepted, get counter offers returned: 0
Thu Jul 19 10:31:50 IDT 2012	A Phase Ended: Communication Phase
Thu Jul 19 10:31:50 IDT 2012	Protocol: A New Phase Began: Exchange Phase
Thu Jul 19 10:31:50 IDT 2012	Protocol: Exchange phase, Round: 6
Thu Jul 19 10:31:50 IDT 2012	In begin exch.phase, get counter offers returned: 0
Thu Jul 19 10:32:31 IDT 2012	A Phase Ended: Exchange Phase
Thu Jul 19 10:32:31 IDT 2012	Responder 337 sent: { chips  'CTRed':0 'CTPurple':0 'CTGreen':0 'grey78':0 'CTYellow':0 }
Thu Jul 19 10:32:31 IDT 2012	Protocol: A New Phase Began: Movement Phase
Thu Jul 19 10:32:31 IDT 2012	Protocol: Movement phase, Round: 6
Thu Jul 19 10:32:51 IDT 2012	A Phase Ended: Movement Phase
Thu Jul 19 10:32:51 IDT 2012	Swaping roles:
Thu Jul 19 10:32:51 IDT 2012	Proposer is: 337
Thu Jul 19 10:32:51 IDT 2012	Responder is: 999
Thu Jul 19 10:32:51 IDT 2012	Protocol: A New Phase Began: Feedback Phase
Thu Jul 19 10:32:51 IDT 2012	Protocol: Feedback phase, Round: 6
Thu Jul 19 10:32:51 IDT 2012	Number of consecutive no movements for player 999 is 1
Thu Jul 19 10:32:51 IDT 2012	Number of consecutive no movements for player 337 is 1
Thu Jul 19 10:32:56 IDT 2012	A Phase Ended: Feedback Phase
Thu Jul 19 10:32:56 IDT 2012	Protocol: A New Phase Began: Communication Phase
Thu Jul 19 10:32:56 IDT 2012	Protocol: Communication phase, Round: 7
Thu Jul 19 10:32:57 IDT 2012	Received communication message 
Thu Jul 19 10:32:57 IDT 2012	From player: 337
Thu Jul 19 10:32:57 IDT 2012	To player: 999
Thu Jul 19 10:32:57 IDT 2012	Message type: basicproposal
Thu Jul 19 10:32:57 IDT 2012	Chips to send by proposer: { chips  'grey78':1 }
Thu Jul 19 10:32:57 IDT 2012	Chips to send by responder: { chips  'CTGreen':1 'CTYellow':1 }
Thu Jul 19 10:33:10 IDT 2012	Received communication message 
Thu Jul 19 10:33:10 IDT 2012	From player: 999
Thu Jul 19 10:33:10 IDT 2012	To player: 337
Thu Jul 19 10:33:10 IDT 2012	Message type: basicproposaldiscussion
Thu Jul 19 10:33:10 IDT 2012	Player 999 accepted offer
Thu Jul 19 10:33:10 IDT 2012	Prop accepted, set counter offers count to: 0
Thu Jul 19 10:33:10 IDT 2012	Prop accepted, get counter offers returned: 0
Thu Jul 19 10:33:10 IDT 2012	A Phase Ended: Communication Phase
Thu Jul 19 10:33:10 IDT 2012	Protocol: A New Phase Began: Exchange Phase
Thu Jul 19 10:33:10 IDT 2012	Protocol: Exchange phase, Round: 7
Thu Jul 19 10:33:10 IDT 2012	In begin exch.phase, get counter offers returned: 0
Thu Jul 19 10:33:11 IDT 2012	A Phase Ended: Exchange Phase
Thu Jul 19 10:33:11 IDT 2012	Proposer 337 sent: { chips  'CTRed':0 'CTPurple':0 'CTGreen':0 'grey78':0 'CTYellow':0 }
Thu Jul 19 10:33:11 IDT 2012	Responder 999 sent: { chips  'CTGreen':1 'CTYellow':1 }
Thu Jul 19 10:33:11 IDT 2012	Protocol: A New Phase Began: Movement Phase
Thu Jul 19 10:33:11 IDT 2012	Protocol: Movement phase, Round: 7
Thu Jul 19 10:33:30 IDT 2012	A Phase Ended: Movement Phase
Thu Jul 19 10:33:30 IDT 2012	Swaping roles:
Thu Jul 19 10:33:30 IDT 2012	Proposer is: 999
Thu Jul 19 10:33:30 IDT 2012	Responder is: 337
Thu Jul 19 10:33:30 IDT 2012	Protocol: A New Phase Began: Feedback Phase
Thu Jul 19 10:33:30 IDT 2012	Protocol: Feedback phase, Round: 7
Thu Jul 19 10:33:30 IDT 2012	Number of consecutive no movements for player 999 is 2
Thu Jul 19 10:33:30 IDT 2012	Number of consecutive no movements for player 337 is 2
Thu Jul 19 10:33:36 IDT 2012	A Phase Ended: Feedback Phase
Thu Jul 19 10:33:36 IDT 2012	Protocol: A New Phase Began: Communication Phase
Thu Jul 19 10:33:36 IDT 2012	Protocol: Communication phase, Round: 8
Thu Jul 19 10:33:48 IDT 2012	Received communication message 
Thu Jul 19 10:33:48 IDT 2012	From player: 999
Thu Jul 19 10:33:48 IDT 2012	To player: 337
Thu Jul 19 10:33:48 IDT 2012	Message type: basicproposal
Thu Jul 19 10:33:48 IDT 2012	Chips to send by proposer: { chips  'CTRed':0 'CTPurple':0 'CTGreen':0 'grey78':0 'CTYellow':0 }
Thu Jul 19 10:33:48 IDT 2012	Chips to send by responder: { chips  'CTRed':0 'CTPurple':0 'CTGreen':0 'grey78':0 'CTYellow':0 }
Thu Jul 19 10:33:51 IDT 2012	Received communication message 
Thu Jul 19 10:33:51 IDT 2012	From player: 337
Thu Jul 19 10:33:51 IDT 2012	To player: 999
Thu Jul 19 10:33:51 IDT 2012	Message type: basicproposaldiscussion
Thu Jul 19 10:33:51 IDT 2012	Player 337 accepted offer
Thu Jul 19 10:33:51 IDT 2012	Prop accepted, set counter offers count to: 0
Thu Jul 19 10:33:51 IDT 2012	Prop accepted, get counter offers returned: 0
Thu Jul 19 10:33:51 IDT 2012	A Phase Ended: Communication Phase
Thu Jul 19 10:33:51 IDT 2012	Protocol: A New Phase Began: Exchange Phase
Thu Jul 19 10:33:51 IDT 2012	Protocol: Exchange phase, Round: 8
Thu Jul 19 10:33:51 IDT 2012	In begin exch.phase, get counter offers returned: 0
Thu Jul 19 10:34:31 IDT 2012	A Phase Ended: Exchange Phase
Thu Jul 19 10:34:31 IDT 2012	Responder 337 sent: { chips  'CTRed':0 'CTPurple':0 'CTGreen':0 'grey78':0 'CTYellow':0 }
Thu Jul 19 10:34:31 IDT 2012	Protocol: A New Phase Began: Movement Phase
Thu Jul 19 10:34:31 IDT 2012	Protocol: Movement phase, Round: 8
Thu Jul 19 10:34:31 IDT 2012	Player 337 moved to (R:4,C:3)
Thu Jul 19 10:34:31 IDT 2012	Player 999 moved to (R:4,C:1)
Thu Jul 19 10:34:52 IDT 2012	A Phase Ended: Movement Phase
Thu Jul 19 10:34:52 IDT 2012	Swaping roles:
Thu Jul 19 10:34:52 IDT 2012	Proposer is: 337
Thu Jul 19 10:34:52 IDT 2012	Responder is: 999
Thu Jul 19 10:34:52 IDT 2012	Protocol: A New Phase Began: Feedback Phase
Thu Jul 19 10:34:52 IDT 2012	Protocol: Feedback phase, Round: 8
Thu Jul 19 10:34:52 IDT 2012	Number of consecutive no movements for player 999 is 0
Thu Jul 19 10:34:52 IDT 2012	Number of consecutive no movements for player 337 is 0
Thu Jul 19 10:34:57 IDT 2012	A Phase Ended: Feedback Phase
Thu Jul 19 10:34:57 IDT 2012	Protocol: A New Phase Began: Communication Phase
Thu Jul 19 10:34:57 IDT 2012	Protocol: Communication phase, Round: 9
Thu Jul 19 10:34:59 IDT 2012	Received communication message 
Thu Jul 19 10:34:59 IDT 2012	From player: 337
Thu Jul 19 10:34:59 IDT 2012	To player: 999
Thu Jul 19 10:34:59 IDT 2012	Message type: basicproposal
Thu Jul 19 10:34:59 IDT 2012	Chips to send by proposer: { chips  'grey78':1 }
Thu Jul 19 10:34:59 IDT 2012	Chips to send by responder: { chips  'CTGreen':2 }
Thu Jul 19 10:35:07 IDT 2012	Received communication message 
Thu Jul 19 10:35:07 IDT 2012	From player: 999
Thu Jul 19 10:35:07 IDT 2012	To player: 337
Thu Jul 19 10:35:07 IDT 2012	Message type: basicproposaldiscussion
Thu Jul 19 10:35:07 IDT 2012	Player 999 accepted offer
Thu Jul 19 10:35:07 IDT 2012	Prop accepted, set counter offers count to: 0
Thu Jul 19 10:35:07 IDT 2012	Prop accepted, get counter offers returned: 0
Thu Jul 19 10:35:07 IDT 2012	A Phase Ended: Communication Phase
Thu Jul 19 10:35:07 IDT 2012	Protocol: A New Phase Began: Exchange Phase
Thu Jul 19 10:35:07 IDT 2012	Protocol: Exchange phase, Round: 9
Thu Jul 19 10:35:07 IDT 2012	In begin exch.phase, get counter offers returned: 0
Thu Jul 19 10:35:07 IDT 2012	A Phase Ended: Exchange Phase
Thu Jul 19 10:35:07 IDT 2012	Proposer 337 sent: { chips  'CTRed':0 'CTPurple':0 'CTGreen':0 'grey78':0 'CTYellow':0 }
Thu Jul 19 10:35:07 IDT 2012	Responder 999 sent: { chips  'CTGreen':2 }
Thu Jul 19 10:35:07 IDT 2012	Protocol: A New Phase Began: Movement Phase
Thu Jul 19 10:35:07 IDT 2012	Protocol: Movement phase, Round: 9
Thu Jul 19 10:35:27 IDT 2012	A Phase Ended: Movement Phase
Thu Jul 19 10:35:27 IDT 2012	Swaping roles:
Thu Jul 19 10:35:27 IDT 2012	Proposer is: 999
Thu Jul 19 10:35:27 IDT 2012	Responder is: 337
Thu Jul 19 10:35:27 IDT 2012	Protocol: A New Phase Began: Feedback Phase
Thu Jul 19 10:35:27 IDT 2012	Protocol: Feedback phase, Round: 9
Thu Jul 19 10:35:27 IDT 2012	Number of consecutive no movements for player 999 is 1
Thu Jul 19 10:35:27 IDT 2012	Number of consecutive no movements for player 337 is 1
Thu Jul 19 10:35:32 IDT 2012	A Phase Ended: Feedback Phase
Thu Jul 19 10:35:32 IDT 2012	Protocol: A New Phase Began: Communication Phase
Thu Jul 19 10:35:32 IDT 2012	Protocol: Communication phase, Round: 10
Thu Jul 19 10:35:44 IDT 2012	Received communication message 
Thu Jul 19 10:35:44 IDT 2012	From player: 999
Thu Jul 19 10:35:44 IDT 2012	To player: 337
Thu Jul 19 10:35:44 IDT 2012	Message type: basicproposal
Thu Jul 19 10:35:44 IDT 2012	Chips to send by proposer: { chips  'CTRed':0 'CTPurple':0 'CTGreen':0 'grey78':0 'CTYellow':0 }
Thu Jul 19 10:35:44 IDT 2012	Chips to send by responder: { chips  'CTRed':0 'CTPurple':0 'CTGreen':0 'grey78':0 'CTYellow':0 }
Thu Jul 19 10:35:45 IDT 2012	Received communication message 
Thu Jul 19 10:35:45 IDT 2012	From player: 337
Thu Jul 19 10:35:45 IDT 2012	To player: 999
Thu Jul 19 10:35:45 IDT 2012	Message type: basicproposaldiscussion
Thu Jul 19 10:35:45 IDT 2012	Player 337 accepted offer
Thu Jul 19 10:35:45 IDT 2012	Prop accepted, set counter offers count to: 0
Thu Jul 19 10:35:45 IDT 2012	Prop accepted, get counter offers returned: 0
Thu Jul 19 10:35:45 IDT 2012	A Phase Ended: Communication Phase
Thu Jul 19 10:35:45 IDT 2012	Protocol: A New Phase Began: Exchange Phase
Thu Jul 19 10:35:45 IDT 2012	Protocol: Exchange phase, Round: 10
Thu Jul 19 10:35:45 IDT 2012	In begin exch.phase, get counter offers returned: 0
Thu Jul 19 10:36:25 IDT 2012	A Phase Ended: Exchange Phase
Thu Jul 19 10:36:25 IDT 2012	Responder 337 sent: { chips  'CTRed':0 'CTPurple':0 'CTGreen':0 'grey78':0 'CTYellow':0 }
Thu Jul 19 10:36:25 IDT 2012	Protocol: A New Phase Began: Movement Phase
Thu Jul 19 10:36:25 IDT 2012	Protocol: Movement phase, Round: 10
Thu Jul 19 10:36:45 IDT 2012	A Phase Ended: Movement Phase
Thu Jul 19 10:36:45 IDT 2012	Swaping roles:
Thu Jul 19 10:36:45 IDT 2012	Proposer is: 337
Thu Jul 19 10:36:45 IDT 2012	Responder is: 999
Thu Jul 19 10:36:45 IDT 2012	Protocol: A New Phase Began: Feedback Phase
Thu Jul 19 10:36:45 IDT 2012	Protocol: Feedback phase, Round: 10
Thu Jul 19 10:36:45 IDT 2012	Number of consecutive no movements for player 999 is 2
Thu Jul 19 10:36:45 IDT 2012	Number of consecutive no movements for player 337 is 2
Thu Jul 19 10:36:50 IDT 2012	A Phase Ended: Feedback Phase
Thu Jul 19 10:36:50 IDT 2012	Protocol: A New Phase Began: Communication Phase
Thu Jul 19 10:36:50 IDT 2012	Protocol: Communication phase, Round: 11
Thu Jul 19 10:36:55 IDT 2012	Received communication message 
Thu Jul 19 10:36:55 IDT 2012	From player: 337
Thu Jul 19 10:36:55 IDT 2012	To player: 999
Thu Jul 19 10:36:55 IDT 2012	Message type: basicproposal
Thu Jul 19 10:36:55 IDT 2012	Chips to send by proposer: { chips  'grey78':1 }
Thu Jul 19 10:36:55 IDT 2012	Chips to send by responder: { chips  'CTGreen':2 }
Thu Jul 19 10:37:07 IDT 2012	Received communication message 
Thu Jul 19 10:37:07 IDT 2012	From player: 999
Thu Jul 19 10:37:07 IDT 2012	To player: 337
Thu Jul 19 10:37:07 IDT 2012	Message type: basicproposaldiscussion
Thu Jul 19 10:37:07 IDT 2012	Player 999 accepted offer
Thu Jul 19 10:37:07 IDT 2012	Prop accepted, set counter offers count to: 0
Thu Jul 19 10:37:07 IDT 2012	Prop accepted, get counter offers returned: 0
Thu Jul 19 10:37:07 IDT 2012	A Phase Ended: Communication Phase
Thu Jul 19 10:37:07 IDT 2012	Protocol: A New Phase Began: Exchange Phase
Thu Jul 19 10:37:07 IDT 2012	Protocol: Exchange phase, Round: 11
Thu Jul 19 10:37:07 IDT 2012	In begin exch.phase, get counter offers returned: 0
Thu Jul 19 10:37:07 IDT 2012	A Phase Ended: Exchange Phase
Thu Jul 19 10:37:07 IDT 2012	Proposer 337 sent: { chips  'CTRed':0 'CTPurple':0 'CTGreen':0 'grey78':0 'CTYellow':0 }
Thu Jul 19 10:37:07 IDT 2012	Responder 999 sent: { chips  'CTGreen':2 }
Thu Jul 19 10:37:07 IDT 2012	Protocol: A New Phase Began: Movement Phase
Thu Jul 19 10:37:07 IDT 2012	Protocol: Movement phase, Round: 11
Thu Jul 19 10:37:07 IDT 2012	Player 337 moved to (R:3,C:3)
Thu Jul 19 10:37:07 IDT 2012	Player 999 moved to (R:3,C:1)
Thu Jul 19 10:37:27 IDT 2012	A Phase Ended: Movement Phase
Thu Jul 19 10:37:27 IDT 2012	Swaping roles:
Thu Jul 19 10:37:27 IDT 2012	Proposer is: 999
Thu Jul 19 10:37:27 IDT 2012	Responder is: 337
Thu Jul 19 10:37:27 IDT 2012	Protocol: A New Phase Began: Feedback Phase
Thu Jul 19 10:37:27 IDT 2012	Protocol: Feedback phase, Round: 11
Thu Jul 19 10:37:27 IDT 2012	Number of consecutive no movements for player 999 is 0
Thu Jul 19 10:37:27 IDT 2012	Number of consecutive no movements for player 337 is 0
Thu Jul 19 10:37:32 IDT 2012	A Phase Ended: Feedback Phase
Thu Jul 19 10:37:32 IDT 2012	Protocol: A New Phase Began: Communication Phase
Thu Jul 19 10:37:32 IDT 2012	Protocol: Communication phase, Round: 12
Thu Jul 19 10:37:51 IDT 2012	Received communication message 
Thu Jul 19 10:37:51 IDT 2012	From player: 999
Thu Jul 19 10:37:51 IDT 2012	To player: 337
Thu Jul 19 10:37:51 IDT 2012	Message type: basicproposal
Thu Jul 19 10:37:51 IDT 2012	Chips to send by proposer: { chips  'CTRed':0 'CTPurple':0 'CTGreen':0 'grey78':0 'CTYellow':0 }
Thu Jul 19 10:37:51 IDT 2012	Chips to send by responder: { chips  'CTRed':0 'CTPurple':0 'CTGreen':0 'grey78':0 'CTYellow':0 }
Thu Jul 19 10:37:53 IDT 2012	Received communication message 
Thu Jul 19 10:37:53 IDT 2012	From player: 337
Thu Jul 19 10:37:53 IDT 2012	To player: 999
Thu Jul 19 10:37:53 IDT 2012	Message type: basicproposaldiscussion
Thu Jul 19 10:37:53 IDT 2012	Player 337 accepted offer
Thu Jul 19 10:37:53 IDT 2012	Prop accepted, set counter offers count to: 0
Thu Jul 19 10:37:53 IDT 2012	Prop accepted, get counter offers returned: 0
Thu Jul 19 10:37:53 IDT 2012	A Phase Ended: Communication Phase
Thu Jul 19 10:37:53 IDT 2012	Protocol: A New Phase Began: Exchange Phase
Thu Jul 19 10:37:53 IDT 2012	Protocol: Exchange phase, Round: 12
Thu Jul 19 10:37:53 IDT 2012	In begin exch.phase, get counter offers returned: 0
Thu Jul 19 10:38:33 IDT 2012	A Phase Ended: Exchange Phase
Thu Jul 19 10:38:33 IDT 2012	Responder 337 sent: { chips  'CTRed':0 'CTPurple':0 'CTGreen':0 'grey78':0 'CTYellow':0 }
Thu Jul 19 10:38:33 IDT 2012	Protocol: A New Phase Began: Movement Phase
Thu Jul 19 10:38:33 IDT 2012	Protocol: Movement phase, Round: 12
Thu Jul 19 10:38:53 IDT 2012	A Phase Ended: Movement Phase
Thu Jul 19 10:38:53 IDT 2012	Swaping roles:
Thu Jul 19 10:38:53 IDT 2012	Proposer is: 337
Thu Jul 19 10:38:53 IDT 2012	Responder is: 999
Thu Jul 19 10:38:53 IDT 2012	Protocol: A New Phase Began: Feedback Phase
Thu Jul 19 10:38:53 IDT 2012	Protocol: Feedback phase, Round: 12
Thu Jul 19 10:38:53 IDT 2012	Number of consecutive no movements for player 999 is 1
Thu Jul 19 10:38:53 IDT 2012	Number of consecutive no movements for player 337 is 1
Thu Jul 19 10:38:58 IDT 2012	A Phase Ended: Feedback Phase
Thu Jul 19 10:38:58 IDT 2012	Protocol: A New Phase Began: Communication Phase
Thu Jul 19 10:38:58 IDT 2012	Protocol: Communication phase, Round: 13
Thu Jul 19 10:38:59 IDT 2012	Received communication message 
Thu Jul 19 10:38:59 IDT 2012	From player: 337
Thu Jul 19 10:38:59 IDT 2012	To player: 999
Thu Jul 19 10:38:59 IDT 2012	Message type: basicproposal
Thu Jul 19 10:38:59 IDT 2012	Chips to send by proposer: { chips  'grey78':1 }
Thu Jul 19 10:38:59 IDT 2012	Chips to send by responder: { chips  'CTGreen':1 'CTYellow':1 }
Thu Jul 19 10:39:06 IDT 2012	Received communication message 
Thu Jul 19 10:39:06 IDT 2012	From player: 999
Thu Jul 19 10:39:06 IDT 2012	To player: 337
Thu Jul 19 10:39:06 IDT 2012	Message type: basicproposaldiscussion
Thu Jul 19 10:39:06 IDT 2012	Player 999 accepted offer
Thu Jul 19 10:39:06 IDT 2012	Prop accepted, set counter offers count to: 0
Thu Jul 19 10:39:06 IDT 2012	Prop accepted, get counter offers returned: 0
Thu Jul 19 10:39:06 IDT 2012	A Phase Ended: Communication Phase
Thu Jul 19 10:39:06 IDT 2012	Protocol: A New Phase Began: Exchange Phase
Thu Jul 19 10:39:06 IDT 2012	Protocol: Exchange phase, Round: 13
Thu Jul 19 10:39:06 IDT 2012	In begin exch.phase, get counter offers returned: 0
Thu Jul 19 10:39:06 IDT 2012	A Phase Ended: Exchange Phase
Thu Jul 19 10:39:06 IDT 2012	Proposer 337 sent: { chips  'CTRed':0 'CTPurple':0 'CTGreen':0 'grey78':0 'CTYellow':0 }
Thu Jul 19 10:39:06 IDT 2012	Responder 999 sent: { chips  'CTGreen':1 'CTYellow':1 }
Thu Jul 19 10:39:06 IDT 2012	Protocol: A New Phase Began: Movement Phase
Thu Jul 19 10:39:06 IDT 2012	Protocol: Movement phase, Round: 13
Thu Jul 19 10:39:26 IDT 2012	A Phase Ended: Movement Phase
Thu Jul 19 10:39:26 IDT 2012	Swaping roles:
Thu Jul 19 10:39:26 IDT 2012	Proposer is: 999
Thu Jul 19 10:39:26 IDT 2012	Responder is: 337
Thu Jul 19 10:39:26 IDT 2012	Protocol: A New Phase Began: Feedback Phase
Thu Jul 19 10:39:26 IDT 2012	Protocol: Feedback phase, Round: 13
Thu Jul 19 10:39:26 IDT 2012	Number of consecutive no movements for player 999 is 2
Thu Jul 19 10:39:26 IDT 2012	Number of consecutive no movements for player 337 is 2
Thu Jul 19 10:39:31 IDT 2012	A Phase Ended: Feedback Phase
Thu Jul 19 10:39:31 IDT 2012	Protocol: A New Phase Began: Communication Phase
Thu Jul 19 10:39:31 IDT 2012	Protocol: Communication phase, Round: 14
Thu Jul 19 10:39:51 IDT 2012	Received communication message 
Thu Jul 19 10:39:51 IDT 2012	From player: 999
Thu Jul 19 10:39:51 IDT 2012	To player: 337
Thu Jul 19 10:39:51 IDT 2012	Message type: basicproposal
Thu Jul 19 10:39:51 IDT 2012	Chips to send by proposer: { chips  'CTRed':0 'CTPurple':0 'CTGreen':0 'grey78':0 'CTYellow':0 }
Thu Jul 19 10:39:51 IDT 2012	Chips to send by responder: { chips  'CTRed':0 'CTPurple':0 'CTGreen':0 'grey78':0 'CTYellow':0 }
Thu Jul 19 10:39:55 IDT 2012	Received communication message 
Thu Jul 19 10:39:55 IDT 2012	From player: 337
Thu Jul 19 10:39:55 IDT 2012	To player: 999
Thu Jul 19 10:39:55 IDT 2012	Message type: basicproposaldiscussion
Thu Jul 19 10:39:55 IDT 2012	Player 337 accepted offer
Thu Jul 19 10:39:55 IDT 2012	Prop accepted, set counter offers count to: 0
Thu Jul 19 10:39:55 IDT 2012	Prop accepted, get counter offers returned: 0
Thu Jul 19 10:39:55 IDT 2012	A Phase Ended: Communication Phase
Thu Jul 19 10:39:55 IDT 2012	Protocol: A New Phase Began: Exchange Phase
Thu Jul 19 10:39:55 IDT 2012	Protocol: Exchange phase, Round: 14
Thu Jul 19 10:39:55 IDT 2012	In begin exch.phase, get counter offers returned: 0
Thu Jul 19 10:40:35 IDT 2012	A Phase Ended: Exchange Phase
Thu Jul 19 10:40:35 IDT 2012	Responder 337 sent: { chips  'CTRed':0 'CTPurple':0 'CTGreen':0 'grey78':0 'CTYellow':0 }
Thu Jul 19 10:40:35 IDT 2012	Protocol: A New Phase Began: Movement Phase
Thu Jul 19 10:40:35 IDT 2012	Protocol: Movement phase, Round: 14
Thu Jul 19 10:40:35 IDT 2012	Player 337 moved to (R:2,C:3)
Thu Jul 19 10:40:35 IDT 2012	Player 999 moved to (R:2,C:1)
Thu Jul 19 10:40:56 IDT 2012	A Phase Ended: Movement Phase
Thu Jul 19 10:40:56 IDT 2012	Swaping roles:
Thu Jul 19 10:40:56 IDT 2012	Proposer is: 337
Thu Jul 19 10:40:56 IDT 2012	Responder is: 999
Thu Jul 19 10:40:56 IDT 2012	Protocol: A New Phase Began: Feedback Phase
Thu Jul 19 10:40:56 IDT 2012	Protocol: Feedback phase, Round: 14
Thu Jul 19 10:40:56 IDT 2012	Number of consecutive no movements for player 999 is 0
Thu Jul 19 10:40:56 IDT 2012	Number of consecutive no movements for player 337 is 0
Thu Jul 19 10:41:01 IDT 2012	A Phase Ended: Feedback Phase
Thu Jul 19 10:41:01 IDT 2012	Protocol: A New Phase Began: Communication Phase
Thu Jul 19 10:41:01 IDT 2012	Protocol: Communication phase, Round: 15
Thu Jul 19 10:41:03 IDT 2012	Received communication message 
Thu Jul 19 10:41:03 IDT 2012	From player: 337
Thu Jul 19 10:41:03 IDT 2012	To player: 999
Thu Jul 19 10:41:03 IDT 2012	Message type: basicproposal
Thu Jul 19 10:41:03 IDT 2012	Chips to send by proposer: { chips  'grey78':1 }
Thu Jul 19 10:41:03 IDT 2012	Chips to send by responder: { chips  'CTGreen':1 'CTYellow':1 }
Thu Jul 19 10:41:09 IDT 2012	Received communication message 
Thu Jul 19 10:41:09 IDT 2012	From player: 999
Thu Jul 19 10:41:09 IDT 2012	To player: 337
Thu Jul 19 10:41:09 IDT 2012	Message type: basicproposaldiscussion
Thu Jul 19 10:41:09 IDT 2012	Player 999 accepted offer
Thu Jul 19 10:41:09 IDT 2012	Prop accepted, set counter offers count to: 0
Thu Jul 19 10:41:09 IDT 2012	Prop accepted, get counter offers returned: 0
Thu Jul 19 10:41:09 IDT 2012	A Phase Ended: Communication Phase
Thu Jul 19 10:41:09 IDT 2012	Protocol: A New Phase Began: Exchange Phase
Thu Jul 19 10:41:09 IDT 2012	Protocol: Exchange phase, Round: 15
Thu Jul 19 10:41:09 IDT 2012	In begin exch.phase, get counter offers returned: 0
Thu Jul 19 10:41:09 IDT 2012	A Phase Ended: Exchange Phase
Thu Jul 19 10:41:09 IDT 2012	Proposer 337 sent: { chips  'CTRed':0 'CTPurple':0 'CTGreen':0 'grey78':0 'CTYellow':0 }
Thu Jul 19 10:41:09 IDT 2012	Responder 999 sent: { chips  'CTGreen':1 'CTYellow':1 }
Thu Jul 19 10:41:09 IDT 2012	Protocol: A New Phase Began: Movement Phase
Thu Jul 19 10:41:09 IDT 2012	Protocol: Movement phase, Round: 15
Thu Jul 19 10:41:29 IDT 2012	A Phase Ended: Movement Phase
Thu Jul 19 10:41:29 IDT 2012	Swaping roles:
Thu Jul 19 10:41:29 IDT 2012	Proposer is: 999
Thu Jul 19 10:41:29 IDT 2012	Responder is: 337
Thu Jul 19 10:41:29 IDT 2012	Protocol: A New Phase Began: Feedback Phase
Thu Jul 19 10:41:29 IDT 2012	Protocol: Feedback phase, Round: 15
Thu Jul 19 10:41:29 IDT 2012	Number of consecutive no movements for player 999 is 1
Thu Jul 19 10:41:29 IDT 2012	Number of consecutive no movements for player 337 is 1
Thu Jul 19 10:41:34 IDT 2012	A Phase Ended: Feedback Phase
Thu Jul 19 10:41:34 IDT 2012	Protocol: A New Phase Began: Communication Phase
Thu Jul 19 10:41:34 IDT 2012	Protocol: Communication phase, Round: 16
Thu Jul 19 10:41:47 IDT 2012	Received communication message 
Thu Jul 19 10:41:47 IDT 2012	From player: 999
Thu Jul 19 10:41:47 IDT 2012	To player: 337
Thu Jul 19 10:41:47 IDT 2012	Message type: basicproposal
Thu Jul 19 10:41:47 IDT 2012	Chips to send by proposer: { chips  'CTRed':0 'CTPurple':0 'CTGreen':0 'grey78':0 'CTYellow':0 }
Thu Jul 19 10:41:47 IDT 2012	Chips to send by responder: { chips  'CTRed':0 'CTPurple':0 'CTGreen':0 'grey78':0 'CTYellow':0 }
Thu Jul 19 10:41:48 IDT 2012	Received communication message 
Thu Jul 19 10:41:48 IDT 2012	From player: 337
Thu Jul 19 10:41:48 IDT 2012	To player: 999
Thu Jul 19 10:41:48 IDT 2012	Message type: basicproposaldiscussion
Thu Jul 19 10:41:48 IDT 2012	Player 337 accepted offer
Thu Jul 19 10:41:48 IDT 2012	Prop accepted, set counter offers count to: 0
Thu Jul 19 10:41:48 IDT 2012	Prop accepted, get counter offers returned: 0
Thu Jul 19 10:41:48 IDT 2012	A Phase Ended: Communication Phase
Thu Jul 19 10:41:48 IDT 2012	Protocol: A New Phase Began: Exchange Phase
Thu Jul 19 10:41:48 IDT 2012	Protocol: Exchange phase, Round: 16
Thu Jul 19 10:41:48 IDT 2012	In begin exch.phase, get counter offers returned: 0
Thu Jul 19 10:42:28 IDT 2012	A Phase Ended: Exchange Phase
Thu Jul 19 10:42:28 IDT 2012	Responder 337 sent: { chips  'CTRed':0 'CTPurple':0 'CTGreen':0 'grey78':0 'CTYellow':0 }
Thu Jul 19 10:42:28 IDT 2012	Protocol: A New Phase Began: Movement Phase
Thu Jul 19 10:42:28 IDT 2012	Protocol: Movement phase, Round: 16
Thu Jul 19 10:42:48 IDT 2012	A Phase Ended: Movement Phase
Thu Jul 19 10:42:48 IDT 2012	Swaping roles:
Thu Jul 19 10:42:48 IDT 2012	Proposer is: 337
Thu Jul 19 10:42:48 IDT 2012	Responder is: 999
Thu Jul 19 10:42:48 IDT 2012	Protocol: A New Phase Began: Feedback Phase
Thu Jul 19 10:42:48 IDT 2012	Protocol: Feedback phase, Round: 16
Thu Jul 19 10:42:48 IDT 2012	Number of consecutive no movements for player 999 is 2
Thu Jul 19 10:42:48 IDT 2012	Number of consecutive no movements for player 337 is 2
Thu Jul 19 10:42:53 IDT 2012	A Phase Ended: Feedback Phase
Thu Jul 19 10:42:53 IDT 2012	Protocol: A New Phase Began: Communication Phase
Thu Jul 19 10:42:53 IDT 2012	Protocol: Communication phase, Round: 17
Thu Jul 19 10:42:59 IDT 2012	Received communication message 
Thu Jul 19 10:42:59 IDT 2012	From player: 337
Thu Jul 19 10:42:59 IDT 2012	To player: 999
Thu Jul 19 10:42:59 IDT 2012	Message type: basicproposal
Thu Jul 19 10:42:59 IDT 2012	Chips to send by proposer: { chips  'grey78':1 }
Thu Jul 19 10:42:59 IDT 2012	Chips to send by responder: { chips  'CTGreen':1 }
Thu Jul 19 10:43:12 IDT 2012	Received communication message 
Thu Jul 19 10:43:12 IDT 2012	From player: 999
Thu Jul 19 10:43:12 IDT 2012	To player: 337
Thu Jul 19 10:43:12 IDT 2012	Message type: basicproposaldiscussion
Thu Jul 19 10:43:12 IDT 2012	Player 999 accepted offer
Thu Jul 19 10:43:12 IDT 2012	Prop accepted, set counter offers count to: 0
Thu Jul 19 10:43:12 IDT 2012	Prop accepted, get counter offers returned: 0
Thu Jul 19 10:43:12 IDT 2012	A Phase Ended: Communication Phase
Thu Jul 19 10:43:12 IDT 2012	Protocol: A New Phase Began: Exchange Phase
Thu Jul 19 10:43:12 IDT 2012	Protocol: Exchange phase, Round: 17
Thu Jul 19 10:43:12 IDT 2012	In begin exch.phase, get counter offers returned: 0
Thu Jul 19 10:43:12 IDT 2012	A Phase Ended: Exchange Phase
Thu Jul 19 10:43:12 IDT 2012	Proposer 337 sent: { chips  'CTRed':0 'CTPurple':0 'CTGreen':0 'grey78':0 'CTYellow':0 }
Thu Jul 19 10:43:12 IDT 2012	Responder 999 sent: { chips  'CTGreen':1 }
Thu Jul 19 10:43:12 IDT 2012	Protocol: A New Phase Began: Movement Phase
Thu Jul 19 10:43:12 IDT 2012	Protocol: Movement phase, Round: 17
Thu Jul 19 10:43:12 IDT 2012	Player 337 moved to (R:1,C:3)
Thu Jul 19 10:43:32 IDT 2012	A Phase Ended: Movement Phase
Thu Jul 19 10:43:32 IDT 2012	Swaping roles:
Thu Jul 19 10:43:32 IDT 2012	Proposer is: 999
Thu Jul 19 10:43:32 IDT 2012	Responder is: 337
Thu Jul 19 10:43:32 IDT 2012	Protocol: A New Phase Began: Feedback Phase
Thu Jul 19 10:43:32 IDT 2012	Protocol: Feedback phase, Round: 17
Thu Jul 19 10:43:32 IDT 2012	Number of consecutive no movements for player 999 is 3
Thu Jul 19 10:43:32 IDT 2012	Number of consecutive no movements for player 337 is 0
Thu Jul 19 10:43:32 IDT 2012	Ending game, all players move as much as they can towards goal
Thu Jul 19 10:43:32 IDT 2012	Player: 337 ,role: Responder score is: 265
Thu Jul 19 10:43:32 IDT 2012	Player: 999 ,role: Proposer score is: -20
