Thu Jul 19 14:47:53 IDT 2012	This is the CT debug logger; svn version 638; sep 27 09
Thu Jul 19 14:47:53 IDT 2012	Thu Jul 19 14:47:53 IDT 2012
Thu Jul 19 14:47:53 IDT 2012	A new Alternative Offers game has began
Thu Jul 19 14:47:53 IDT 2012	ID Number: 33457
Thu Jul 19 14:47:53 IDT 2012	Creating board
Thu Jul 19 14:47:53 IDT 2012	<colors>
Thu Jul 19 14:47:53 IDT 2012	{ GamePalette  'CTRed':0 'CTPurple':1 'CTGreen':2 'grey78':3 'CTYellow':4 }
Thu Jul 19 14:47:53 IDT 2012	<rows>
Thu Jul 19 14:47:53 IDT 2012	7
Thu Jul 19 14:47:53 IDT 2012	<columns>
Thu Jul 19 14:47:53 IDT 2012	5
Thu Jul 19 14:47:53 IDT 2012	<squaresColors>
Thu Jul 19 14:47:53 IDT 2012	CTPurple CTRed CTRed CTGreen CTPurple 
Thu Jul 19 14:47:53 IDT 2012	CTPurple grey78 CTPurple CTYellow CTPurple 
Thu Jul 19 14:47:53 IDT 2012	CTPurple CTRed CTPurple CTGreen CTPurple 
Thu Jul 19 14:47:53 IDT 2012	CTPurple grey78 CTPurple CTYellow CTPurple 
Thu Jul 19 14:47:53 IDT 2012	CTPurple CTRed CTPurple CTGreen CTPurple 
Thu Jul 19 14:47:53 IDT 2012	CTPurple grey78 CTPurple CTYellow CTPurple 
Thu Jul 19 14:47:53 IDT 2012	CTPurple CTRed CTPurple CTGreen CTPurple 
Thu Jul 19 14:47:53 IDT 2012	</squareColors>
Thu Jul 19 14:47:53 IDT 2012	<goalPosition>
Thu Jul 19 14:47:53 IDT 2012	Goal position: (R:0,C:2)
Thu Jul 19 14:47:53 IDT 2012	<numberOfPlayers>
Thu Jul 19 14:47:53 IDT 2012	2
Thu Jul 19 14:47:53 IDT 2012	<firstPlayerChips>
Thu Jul 19 14:47:53 IDT 2012	Setting chips for player: 999 id:0
Thu Jul 19 14:47:53 IDT 2012	{ chips  'CTRed':5 'CTGreen':10 'CTPurple':0 'grey78':0 'CTYellow':9 }
Thu Jul 19 14:47:53 IDT 2012	Player position: (R:6,C:0)
Thu Jul 19 14:47:53 IDT 2012	Setting chips for player: 337 id:1
Thu Jul 19 14:47:53 IDT 2012	{ chips  'CTRed':1 'CTGreen':13 'CTPurple':0 'grey78':10 'CTYellow':0 }
Thu Jul 19 14:47:53 IDT 2012	Player position: (R:6,C:4)
Thu Jul 19 14:47:53 IDT 2012	Protocol: A New Phase Began: Strategy Prep Phase
Thu Jul 19 14:47:53 IDT 2012	Protocol: Strategy Preparation phase, Round: 0
Thu Jul 19 14:47:53 IDT 2012	Maximum number of rounds with no consecutive movement is 3
Thu Jul 19 14:47:53 IDT 2012	In begin comm. phase, set counter offers count to: 0
Thu Jul 19 14:47:53 IDT 2012	In begin comm. phase, get counter offers returned: 0
Thu Jul 19 14:48:13 IDT 2012	A Phase Ended: Strategy Prep Phase
Thu Jul 19 14:48:13 IDT 2012	Protocol: A New Phase Began: Communication Phase
Thu Jul 19 14:48:13 IDT 2012	Protocol: Communication phase, Round: 0
Thu Jul 19 14:48:31 IDT 2012	Received communication message 
Thu Jul 19 14:48:31 IDT 2012	From player: 999
Thu Jul 19 14:48:31 IDT 2012	To player: 337
Thu Jul 19 14:48:31 IDT 2012	Message type: basicproposal
Thu Jul 19 14:48:31 IDT 2012	Chips to send by proposer: { chips  'CTRed':0 'CTPurple':0 'CTGreen':0 'grey78':0 'CTYellow':2 }
Thu Jul 19 14:48:31 IDT 2012	Chips to send by responder: { chips  'CTRed':0 'CTPurple':0 'CTGreen':0 'grey78':2 'CTYellow':0 }
Thu Jul 19 14:48:34 IDT 2012	Received communication message 
Thu Jul 19 14:48:34 IDT 2012	From player: 337
Thu Jul 19 14:48:34 IDT 2012	To player: 999
Thu Jul 19 14:48:34 IDT 2012	Message type: basicproposaldiscussion
Thu Jul 19 14:48:34 IDT 2012	Player 337 accepted offer
Thu Jul 19 14:48:34 IDT 2012	Prop accepted, set counter offers count to: 0
Thu Jul 19 14:48:34 IDT 2012	Prop accepted, get counter offers returned: 0
Thu Jul 19 14:48:34 IDT 2012	A Phase Ended: Communication Phase
Thu Jul 19 14:48:34 IDT 2012	Protocol: A New Phase Began: Exchange Phase
Thu Jul 19 14:48:34 IDT 2012	Protocol: Exchange phase, Round: 0
Thu Jul 19 14:48:34 IDT 2012	In begin exch.phase, get counter offers returned: 0
Thu Jul 19 14:48:34 IDT 2012	A Phase Ended: Exchange Phase
Thu Jul 19 14:48:34 IDT 2012	Proposer 999 sent: { chips  'CTRed':0 'CTPurple':0 'CTGreen':0 'grey78':0 'CTYellow':2 }
Thu Jul 19 14:48:34 IDT 2012	Responder 337 sent: { chips  'CTRed':0 'CTPurple':0 'CTGreen':0 'grey78':1 'CTYellow':0 }
Thu Jul 19 14:48:34 IDT 2012	Protocol: A New Phase Began: Movement Phase
Thu Jul 19 14:48:34 IDT 2012	Protocol: Movement phase, Round: 0
Thu Jul 19 14:48:54 IDT 2012	A Phase Ended: Movement Phase
Thu Jul 19 14:48:54 IDT 2012	Swaping roles:
Thu Jul 19 14:48:54 IDT 2012	Proposer is: 337
Thu Jul 19 14:48:54 IDT 2012	Responder is: 999
Thu Jul 19 14:48:54 IDT 2012	Protocol: A New Phase Began: Feedback Phase
Thu Jul 19 14:48:54 IDT 2012	Protocol: Feedback phase, Round: 0
Thu Jul 19 14:48:54 IDT 2012	Number of consecutive no movements for player 999 is 1
Thu Jul 19 14:48:54 IDT 2012	Number of consecutive no movements for player 337 is 1
Thu Jul 19 14:48:59 IDT 2012	A Phase Ended: Feedback Phase
Thu Jul 19 14:48:59 IDT 2012	Protocol: A New Phase Began: Communication Phase
Thu Jul 19 14:48:59 IDT 2012	Protocol: Communication phase, Round: 1
Thu Jul 19 14:49:01 IDT 2012	Received communication message 
Thu Jul 19 14:49:01 IDT 2012	From player: 337
Thu Jul 19 14:49:01 IDT 2012	To player: 999
Thu Jul 19 14:49:01 IDT 2012	Message type: basicproposal
Thu Jul 19 14:49:01 IDT 2012	Chips to send by proposer: { chips  'grey78':1 }
Thu Jul 19 14:49:01 IDT 2012	Chips to send by responder: { chips  'CTYellow':2 }
Thu Jul 19 14:49:11 IDT 2012	Received communication message 
Thu Jul 19 14:49:11 IDT 2012	From player: 999
Thu Jul 19 14:49:11 IDT 2012	To player: 337
Thu Jul 19 14:49:11 IDT 2012	Message type: basicproposaldiscussion
Thu Jul 19 14:49:11 IDT 2012	Player 999 rejected offer
Thu Jul 19 14:49:11 IDT 2012	Swaping roles:
Thu Jul 19 14:49:11 IDT 2012	Proposer is: 999
Thu Jul 19 14:49:11 IDT 2012	Responder is: 337
Thu Jul 19 14:49:11 IDT 2012	Prop rejected, set counter offers count to: 1
Thu Jul 19 14:49:11 IDT 2012	Prop rejected, get counter offers returned: 1
Thu Jul 19 14:49:15 IDT 2012	Slept 4 seconds
Thu Jul 19 14:49:15 IDT 2012	Sent role changed msgs
Thu Jul 19 14:49:33 IDT 2012	Received communication message 
Thu Jul 19 14:49:33 IDT 2012	From player: 999
Thu Jul 19 14:49:33 IDT 2012	To player: 337
Thu Jul 19 14:49:33 IDT 2012	Message type: basicproposal
Thu Jul 19 14:49:33 IDT 2012	Chips to send by proposer: { chips  'CTRed':0 'CTPurple':0 'CTGreen':1 'grey78':0 'CTYellow':1 }
Thu Jul 19 14:49:33 IDT 2012	Chips to send by responder: { chips  'CTRed':0 'CTPurple':0 'CTGreen':0 'grey78':2 'CTYellow':0 }
Thu Jul 19 14:49:34 IDT 2012	Received communication message 
Thu Jul 19 14:49:34 IDT 2012	From player: 337
Thu Jul 19 14:49:34 IDT 2012	To player: 999
Thu Jul 19 14:49:34 IDT 2012	Message type: basicproposaldiscussion
Thu Jul 19 14:49:34 IDT 2012	Player 337 accepted offer
Thu Jul 19 14:49:34 IDT 2012	Prop accepted, set counter offers count to: 0
Thu Jul 19 14:49:34 IDT 2012	Prop accepted, get counter offers returned: 0
Thu Jul 19 14:49:34 IDT 2012	A Phase Ended: Communication Phase
Thu Jul 19 14:49:34 IDT 2012	Protocol: A New Phase Began: Exchange Phase
Thu Jul 19 14:49:34 IDT 2012	Protocol: Exchange phase, Round: 1
Thu Jul 19 14:49:34 IDT 2012	In begin exch.phase, get counter offers returned: 0
Thu Jul 19 14:49:34 IDT 2012	A Phase Ended: Exchange Phase
Thu Jul 19 14:49:34 IDT 2012	Proposer 999 sent: { chips  'CTRed':0 'CTPurple':0 'CTGreen':1 'grey78':0 'CTYellow':1 }
Thu Jul 19 14:49:34 IDT 2012	Responder 337 sent: { chips  'CTRed':0 'CTPurple':0 'CTGreen':0 'grey78':0 'CTYellow':0 }
Thu Jul 19 14:49:34 IDT 2012	Protocol: A New Phase Began: Movement Phase
Thu Jul 19 14:49:34 IDT 2012	Protocol: Movement phase, Round: 1
Thu Jul 19 14:49:54 IDT 2012	A Phase Ended: Movement Phase
Thu Jul 19 14:49:54 IDT 2012	Protocol: A New Phase Began: Feedback Phase
Thu Jul 19 14:49:54 IDT 2012	Protocol: Feedback phase, Round: 1
Thu Jul 19 14:49:54 IDT 2012	Number of consecutive no movements for player 999 is 2
Thu Jul 19 14:49:54 IDT 2012	Number of consecutive no movements for player 337 is 2
Thu Jul 19 14:49:59 IDT 2012	A Phase Ended: Feedback Phase
Thu Jul 19 14:49:59 IDT 2012	Protocol: A New Phase Began: Communication Phase
Thu Jul 19 14:49:59 IDT 2012	Protocol: Communication phase, Round: 2
Thu Jul 19 14:50:16 IDT 2012	Received communication message 
Thu Jul 19 14:50:16 IDT 2012	From player: 999
Thu Jul 19 14:50:16 IDT 2012	To player: 337
Thu Jul 19 14:50:16 IDT 2012	Message type: basicproposal
Thu Jul 19 14:50:16 IDT 2012	Chips to send by proposer: { chips  'CTRed':0 'CTPurple':0 'CTGreen':0 'grey78':0 'CTYellow':1 }
Thu Jul 19 14:50:16 IDT 2012	Chips to send by responder: { chips  'CTRed':0 'CTPurple':0 'CTGreen':0 'grey78':2 'CTYellow':0 }
Thu Jul 19 14:50:20 IDT 2012	Received communication message 
Thu Jul 19 14:50:20 IDT 2012	From player: 337
Thu Jul 19 14:50:20 IDT 2012	To player: 999
Thu Jul 19 14:50:20 IDT 2012	Message type: basicproposaldiscussion
Thu Jul 19 14:50:20 IDT 2012	Player 337 accepted offer
Thu Jul 19 14:50:20 IDT 2012	Prop accepted, set counter offers count to: 0
Thu Jul 19 14:50:20 IDT 2012	Prop accepted, get counter offers returned: 0
Thu Jul 19 14:50:20 IDT 2012	A Phase Ended: Communication Phase
Thu Jul 19 14:50:20 IDT 2012	Protocol: A New Phase Began: Exchange Phase
Thu Jul 19 14:50:20 IDT 2012	Protocol: Exchange phase, Round: 2
Thu Jul 19 14:50:20 IDT 2012	In begin exch.phase, get counter offers returned: 0
Thu Jul 19 14:51:01 IDT 2012	A Phase Ended: Exchange Phase
Thu Jul 19 14:51:01 IDT 2012	Responder 337 sent: { chips  'CTRed':0 'CTPurple':0 'CTGreen':0 'grey78':2 'CTYellow':0 }
Thu Jul 19 14:51:01 IDT 2012	Protocol: A New Phase Began: Movement Phase
Thu Jul 19 14:51:01 IDT 2012	Protocol: Movement phase, Round: 2
Thu Jul 19 14:51:01 IDT 2012	Player 337 moved to (R:6,C:3)
Thu Jul 19 14:51:01 IDT 2012	Player 999 moved to (R:6,C:1)
Thu Jul 19 14:51:21 IDT 2012	A Phase Ended: Movement Phase
Thu Jul 19 14:51:21 IDT 2012	Swaping roles:
Thu Jul 19 14:51:21 IDT 2012	Proposer is: 337
Thu Jul 19 14:51:21 IDT 2012	Responder is: 999
Thu Jul 19 14:51:21 IDT 2012	Protocol: A New Phase Began: Feedback Phase
Thu Jul 19 14:51:21 IDT 2012	Protocol: Feedback phase, Round: 2
Thu Jul 19 14:51:21 IDT 2012	Number of consecutive no movements for player 999 is 0
Thu Jul 19 14:51:21 IDT 2012	Number of consecutive no movements for player 337 is 0
Thu Jul 19 14:51:21 IDT 2012	All players have all needed chips to get to goal, end the game
Thu Jul 19 14:51:21 IDT 2012	Player: 337 ,role: Proposer score is: 185
Thu Jul 19 14:51:21 IDT 2012	Player: 999 ,role: Responder score is: 175
