Tue Jul 17 09:32:58 IDT 2012	This is the CT debug logger; svn version 638; sep 27 09
Tue Jul 17 09:32:58 IDT 2012	Tue Jul 17 09:32:58 IDT 2012
Tue Jul 17 09:32:58 IDT 2012	A new Alternative Offers game has began
Tue Jul 17 09:32:58 IDT 2012	ID Number: 38136
Tue Jul 17 09:32:58 IDT 2012	Creating board
Tue Jul 17 09:32:58 IDT 2012	<colors>
Tue Jul 17 09:32:58 IDT 2012	{ GamePalette  'CTRed':0 'CTPurple':1 'CTGreen':2 'grey78':3 'CTYellow':4 }
Tue Jul 17 09:32:58 IDT 2012	<rows>
Tue Jul 17 09:32:58 IDT 2012	7
Tue Jul 17 09:32:58 IDT 2012	<columns>
Tue Jul 17 09:32:58 IDT 2012	5
Tue Jul 17 09:32:58 IDT 2012	<squaresColors>
Tue Jul 17 09:32:58 IDT 2012	CTPurple CTRed CTRed CTGreen CTPurple 
Tue Jul 17 09:32:58 IDT 2012	CTPurple grey78 CTPurple CTYellow CTPurple 
Tue Jul 17 09:32:58 IDT 2012	CTPurple CTRed CTPurple CTGreen CTPurple 
Tue Jul 17 09:32:58 IDT 2012	CTPurple grey78 CTPurple CTYellow CTPurple 
Tue Jul 17 09:32:58 IDT 2012	CTPurple CTRed CTPurple CTGreen CTPurple 
Tue Jul 17 09:32:58 IDT 2012	CTPurple grey78 CTPurple CTYellow CTPurple 
Tue Jul 17 09:32:58 IDT 2012	CTPurple CTRed CTPurple CTGreen CTPurple 
Tue Jul 17 09:32:58 IDT 2012	</squareColors>
Tue Jul 17 09:32:58 IDT 2012	<goalPosition>
Tue Jul 17 09:32:58 IDT 2012	Goal position: (R:0,C:2)
Tue Jul 17 09:32:58 IDT 2012	<numberOfPlayers>
Tue Jul 17 09:32:58 IDT 2012	2
Tue Jul 17 09:32:58 IDT 2012	<firstPlayerChips>
Tue Jul 17 09:32:58 IDT 2012	Setting chips for player: 999 id:0
Tue Jul 17 09:32:58 IDT 2012	{ chips  'CTRed':5 'CTGreen':10 'CTPurple':0 'grey78':0 'CTYellow':9 }
Tue Jul 17 09:32:58 IDT 2012	Player position: (R:6,C:0)
Tue Jul 17 09:32:58 IDT 2012	Setting chips for player: 337 id:1
Tue Jul 17 09:32:58 IDT 2012	{ chips  'CTRed':1 'CTGreen':13 'CTPurple':0 'grey78':10 'CTYellow':0 }
Tue Jul 17 09:32:58 IDT 2012	Player position: (R:6,C:4)
Tue Jul 17 09:32:58 IDT 2012	Protocol: A New Phase Began: Strategy Prep Phase
Tue Jul 17 09:32:58 IDT 2012	Protocol: Strategy Preparation phase, Round: 0
Tue Jul 17 09:32:58 IDT 2012	Maximum number of rounds with no consecutive movement is 3
Tue Jul 17 09:32:58 IDT 2012	In begin comm. phase, set counter offers count to: 0
Tue Jul 17 09:32:58 IDT 2012	In begin comm. phase, get counter offers returned: 0
Tue Jul 17 09:33:18 IDT 2012	A Phase Ended: Strategy Prep Phase
Tue Jul 17 09:33:18 IDT 2012	Protocol: A New Phase Began: Communication Phase
Tue Jul 17 09:33:18 IDT 2012	Protocol: Communication phase, Round: 0
Tue Jul 17 09:33:31 IDT 2012	Received communication message 
Tue Jul 17 09:33:31 IDT 2012	From player: 999
Tue Jul 17 09:33:31 IDT 2012	To player: 337
Tue Jul 17 09:33:31 IDT 2012	Message type: basicproposal
Tue Jul 17 09:33:31 IDT 2012	Chips to send by proposer: { chips  'CTRed':0 'CTPurple':0 'CTGreen':0 'grey78':0 'CTYellow':2 }
Tue Jul 17 09:33:31 IDT 2012	Chips to send by responder: { chips  'CTRed':0 'CTPurple':0 'CTGreen':0 'grey78':2 'CTYellow':0 }
Tue Jul 17 09:33:35 IDT 2012	Received communication message 
Tue Jul 17 09:33:35 IDT 2012	From player: 337
Tue Jul 17 09:33:35 IDT 2012	To player: 999
Tue Jul 17 09:33:35 IDT 2012	Message type: basicproposaldiscussion
Tue Jul 17 09:33:35 IDT 2012	Player 337 accepted offer
Tue Jul 17 09:33:35 IDT 2012	Prop accepted, set counter offers count to: 0
Tue Jul 17 09:33:35 IDT 2012	Prop accepted, get counter offers returned: 0
Tue Jul 17 09:33:35 IDT 2012	A Phase Ended: Communication Phase
Tue Jul 17 09:33:35 IDT 2012	Protocol: A New Phase Began: Exchange Phase
Tue Jul 17 09:33:35 IDT 2012	Protocol: Exchange phase, Round: 0
Tue Jul 17 09:33:35 IDT 2012	In begin exch.phase, get counter offers returned: 0
Tue Jul 17 09:33:35 IDT 2012	A Phase Ended: Exchange Phase
Tue Jul 17 09:33:35 IDT 2012	Proposer 999 sent: { chips  'CTRed':0 'CTPurple':0 'CTGreen':0 'grey78':0 'CTYellow':2 }
Tue Jul 17 09:33:35 IDT 2012	Responder 337 sent: { chips  'CTRed':0 'CTPurple':0 'CTGreen':0 'grey78':0 'CTYellow':0 }
Tue Jul 17 09:33:35 IDT 2012	Protocol: A New Phase Began: Movement Phase
Tue Jul 17 09:33:35 IDT 2012	Protocol: Movement phase, Round: 0
Tue Jul 17 09:33:54 IDT 2012	A Phase Ended: Movement Phase
Tue Jul 17 09:33:54 IDT 2012	Swaping roles:
Tue Jul 17 09:33:54 IDT 2012	Proposer is: 337
Tue Jul 17 09:33:54 IDT 2012	Responder is: 999
Tue Jul 17 09:33:54 IDT 2012	Protocol: A New Phase Began: Feedback Phase
Tue Jul 17 09:33:54 IDT 2012	Protocol: Feedback phase, Round: 0
Tue Jul 17 09:33:54 IDT 2012	Number of consecutive no movements for player 999 is 1
Tue Jul 17 09:33:54 IDT 2012	Number of consecutive no movements for player 337 is 1
Tue Jul 17 09:33:59 IDT 2012	A Phase Ended: Feedback Phase
Tue Jul 17 09:33:59 IDT 2012	Protocol: A New Phase Began: Communication Phase
Tue Jul 17 09:33:59 IDT 2012	Protocol: Communication phase, Round: 1
Tue Jul 17 09:34:01 IDT 2012	Received communication message 
Tue Jul 17 09:34:01 IDT 2012	From player: 337
Tue Jul 17 09:34:01 IDT 2012	To player: 999
Tue Jul 17 09:34:01 IDT 2012	Message type: basicproposal
Tue Jul 17 09:34:01 IDT 2012	Chips to send by proposer: { chips  'grey78':1 }
Tue Jul 17 09:34:01 IDT 2012	Chips to send by responder: { chips  'CTYellow':2 }
Tue Jul 17 09:34:07 IDT 2012	Received communication message 
Tue Jul 17 09:34:07 IDT 2012	From player: 999
Tue Jul 17 09:34:07 IDT 2012	To player: 337
Tue Jul 17 09:34:07 IDT 2012	Message type: basicproposaldiscussion
Tue Jul 17 09:34:07 IDT 2012	Player 999 rejected offer
Tue Jul 17 09:34:07 IDT 2012	Swaping roles:
Tue Jul 17 09:34:07 IDT 2012	Proposer is: 999
Tue Jul 17 09:34:07 IDT 2012	Responder is: 337
Tue Jul 17 09:34:07 IDT 2012	Prop rejected, set counter offers count to: 1
Tue Jul 17 09:34:07 IDT 2012	Prop rejected, get counter offers returned: 1
Tue Jul 17 09:34:11 IDT 2012	Slept 4 seconds
Tue Jul 17 09:34:11 IDT 2012	Sent role changed msgs
Tue Jul 17 09:34:30 IDT 2012	Received communication message 
Tue Jul 17 09:34:30 IDT 2012	From player: 999
Tue Jul 17 09:34:30 IDT 2012	To player: 337
Tue Jul 17 09:34:30 IDT 2012	Message type: basicproposal
Tue Jul 17 09:34:30 IDT 2012	Chips to send by proposer: { chips  'CTRed':0 'CTPurple':0 'CTGreen':2 'grey78':0 'CTYellow':1 }
Tue Jul 17 09:34:30 IDT 2012	Chips to send by responder: { chips  'CTRed':0 'CTPurple':0 'CTGreen':0 'grey78':3 'CTYellow':0 }
Tue Jul 17 09:34:31 IDT 2012	Received communication message 
Tue Jul 17 09:34:31 IDT 2012	From player: 337
Tue Jul 17 09:34:31 IDT 2012	To player: 999
Tue Jul 17 09:34:31 IDT 2012	Message type: basicproposaldiscussion
Tue Jul 17 09:34:31 IDT 2012	Player 337 rejected offer
Tue Jul 17 09:34:31 IDT 2012	Set counter offers count to: 0
Tue Jul 17 09:34:31 IDT 2012	A Phase Ended: Communication Phase
Tue Jul 17 09:34:31 IDT 2012	Protocol: A New Phase Began: Exchange Phase
Tue Jul 17 09:34:31 IDT 2012	Protocol: Exchange phase, Round: 1
Tue Jul 17 09:34:31 IDT 2012	In begin exch.phase, get counter offers returned: 0
Tue Jul 17 09:35:10 IDT 2012	A Phase Ended: Exchange Phase
Tue Jul 17 09:35:10 IDT 2012	Responder 337 sent: { chips  }
Tue Jul 17 09:35:10 IDT 2012	Protocol: A New Phase Began: Movement Phase
Tue Jul 17 09:35:10 IDT 2012	Protocol: Movement phase, Round: 1
Tue Jul 17 09:35:30 IDT 2012	A Phase Ended: Movement Phase
Tue Jul 17 09:35:30 IDT 2012	Protocol: A New Phase Began: Feedback Phase
Tue Jul 17 09:35:30 IDT 2012	Protocol: Feedback phase, Round: 1
Tue Jul 17 09:35:30 IDT 2012	Number of consecutive no movements for player 999 is 2
Tue Jul 17 09:35:30 IDT 2012	Number of consecutive no movements for player 337 is 2
Tue Jul 17 09:35:35 IDT 2012	A Phase Ended: Feedback Phase
Tue Jul 17 09:35:35 IDT 2012	Protocol: A New Phase Began: Communication Phase
Tue Jul 17 09:35:35 IDT 2012	Protocol: Communication phase, Round: 2
Tue Jul 17 09:35:47 IDT 2012	Received communication message 
Tue Jul 17 09:35:47 IDT 2012	From player: 999
Tue Jul 17 09:35:47 IDT 2012	To player: 337
Tue Jul 17 09:35:47 IDT 2012	Message type: basicproposal
Tue Jul 17 09:35:47 IDT 2012	Chips to send by proposer: { chips  'CTRed':0 'CTPurple':0 'CTGreen':1 'grey78':0 'CTYellow':2 }
Tue Jul 17 09:35:47 IDT 2012	Chips to send by responder: { chips  'CTRed':0 'CTPurple':0 'CTGreen':0 'grey78':3 'CTYellow':0 }
Tue Jul 17 09:35:51 IDT 2012	Received communication message 
Tue Jul 17 09:35:51 IDT 2012	From player: 337
Tue Jul 17 09:35:51 IDT 2012	To player: 999
Tue Jul 17 09:35:51 IDT 2012	Message type: basicproposaldiscussion
Tue Jul 17 09:35:51 IDT 2012	Player 337 accepted offer
Tue Jul 17 09:35:51 IDT 2012	Prop accepted, set counter offers count to: 0
Tue Jul 17 09:35:51 IDT 2012	Prop accepted, get counter offers returned: 0
Tue Jul 17 09:35:51 IDT 2012	A Phase Ended: Communication Phase
Tue Jul 17 09:35:51 IDT 2012	Protocol: A New Phase Began: Exchange Phase
Tue Jul 17 09:35:51 IDT 2012	Protocol: Exchange phase, Round: 2
Tue Jul 17 09:35:51 IDT 2012	In begin exch.phase, get counter offers returned: 0
Tue Jul 17 09:36:31 IDT 2012	A Phase Ended: Exchange Phase
Tue Jul 17 09:36:31 IDT 2012	Responder 337 sent: { chips  'CTRed':0 'CTPurple':0 'CTGreen':0 'grey78':0 'CTYellow':0 }
Tue Jul 17 09:36:31 IDT 2012	Protocol: A New Phase Began: Movement Phase
Tue Jul 17 09:36:31 IDT 2012	Protocol: Movement phase, Round: 2
Tue Jul 17 09:36:31 IDT 2012	Player 999 moved to (R:6,C:1)
Tue Jul 17 09:36:31 IDT 2012	Player 337 moved to (R:6,C:3)
Tue Jul 17 09:36:51 IDT 2012	A Phase Ended: Movement Phase
Tue Jul 17 09:36:51 IDT 2012	Swaping roles:
Tue Jul 17 09:36:51 IDT 2012	Proposer is: 337
Tue Jul 17 09:36:51 IDT 2012	Responder is: 999
Tue Jul 17 09:36:51 IDT 2012	Protocol: A New Phase Began: Feedback Phase
Tue Jul 17 09:36:51 IDT 2012	Protocol: Feedback phase, Round: 2
Tue Jul 17 09:36:51 IDT 2012	Number of consecutive no movements for player 999 is 0
Tue Jul 17 09:36:51 IDT 2012	Number of consecutive no movements for player 337 is 0
Tue Jul 17 09:36:56 IDT 2012	A Phase Ended: Feedback Phase
Tue Jul 17 09:36:56 IDT 2012	Protocol: A New Phase Began: Communication Phase
Tue Jul 17 09:36:56 IDT 2012	Protocol: Communication phase, Round: 3
Tue Jul 17 09:36:59 IDT 2012	Received communication message 
Tue Jul 17 09:36:59 IDT 2012	From player: 337
Tue Jul 17 09:36:59 IDT 2012	To player: 999
Tue Jul 17 09:36:59 IDT 2012	Message type: basicproposal
Tue Jul 17 09:36:59 IDT 2012	Chips to send by proposer: { chips  'grey78':1 }
Tue Jul 17 09:36:59 IDT 2012	Chips to send by responder: { chips  'CTGreen':2 }
Tue Jul 17 09:37:08 IDT 2012	Received communication message 
Tue Jul 17 09:37:08 IDT 2012	From player: 999
Tue Jul 17 09:37:08 IDT 2012	To player: 337
Tue Jul 17 09:37:08 IDT 2012	Message type: basicproposaldiscussion
Tue Jul 17 09:37:08 IDT 2012	Player 999 rejected offer
Tue Jul 17 09:37:08 IDT 2012	Swaping roles:
Tue Jul 17 09:37:08 IDT 2012	Proposer is: 999
Tue Jul 17 09:37:08 IDT 2012	Responder is: 337
Tue Jul 17 09:37:08 IDT 2012	Prop rejected, set counter offers count to: 1
Tue Jul 17 09:37:08 IDT 2012	Prop rejected, get counter offers returned: 1
Tue Jul 17 09:37:12 IDT 2012	Slept 4 seconds
Tue Jul 17 09:37:12 IDT 2012	Sent role changed msgs
Tue Jul 17 09:37:27 IDT 2012	Received communication message 
Tue Jul 17 09:37:27 IDT 2012	From player: 999
Tue Jul 17 09:37:27 IDT 2012	To player: 337
Tue Jul 17 09:37:27 IDT 2012	Message type: basicproposal
Tue Jul 17 09:37:27 IDT 2012	Chips to send by proposer: { chips  'CTRed':0 'CTPurple':0 'CTGreen':2 'grey78':0 'CTYellow':1 }
Tue Jul 17 09:37:27 IDT 2012	Chips to send by responder: { chips  'CTRed':0 'CTPurple':0 'CTGreen':0 'grey78':3 'CTYellow':0 }
Tue Jul 17 09:37:29 IDT 2012	Received communication message 
Tue Jul 17 09:37:29 IDT 2012	From player: 337
Tue Jul 17 09:37:29 IDT 2012	To player: 999
Tue Jul 17 09:37:29 IDT 2012	Message type: basicproposaldiscussion
Tue Jul 17 09:37:29 IDT 2012	Player 337 rejected offer
Tue Jul 17 09:37:29 IDT 2012	Set counter offers count to: 0
Tue Jul 17 09:37:29 IDT 2012	A Phase Ended: Communication Phase
Tue Jul 17 09:37:29 IDT 2012	Protocol: A New Phase Began: Exchange Phase
Tue Jul 17 09:37:29 IDT 2012	Protocol: Exchange phase, Round: 3
Tue Jul 17 09:37:29 IDT 2012	In begin exch.phase, get counter offers returned: 0
Tue Jul 17 09:38:08 IDT 2012	A Phase Ended: Exchange Phase
Tue Jul 17 09:38:08 IDT 2012	Responder 337 sent: { chips  }
Tue Jul 17 09:38:08 IDT 2012	Protocol: A New Phase Began: Movement Phase
Tue Jul 17 09:38:08 IDT 2012	Protocol: Movement phase, Round: 3
Tue Jul 17 09:38:28 IDT 2012	A Phase Ended: Movement Phase
Tue Jul 17 09:38:28 IDT 2012	Protocol: A New Phase Began: Feedback Phase
Tue Jul 17 09:38:28 IDT 2012	Protocol: Feedback phase, Round: 3
Tue Jul 17 09:38:28 IDT 2012	Number of consecutive no movements for player 999 is 1
Tue Jul 17 09:38:28 IDT 2012	Number of consecutive no movements for player 337 is 1
Tue Jul 17 09:38:33 IDT 2012	A Phase Ended: Feedback Phase
Tue Jul 17 09:38:33 IDT 2012	Protocol: A New Phase Began: Communication Phase
Tue Jul 17 09:38:33 IDT 2012	Protocol: Communication phase, Round: 4
Tue Jul 17 09:38:52 IDT 2012	Received communication message 
Tue Jul 17 09:38:52 IDT 2012	From player: 999
Tue Jul 17 09:38:52 IDT 2012	To player: 337
Tue Jul 17 09:38:52 IDT 2012	Message type: basicproposal
Tue Jul 17 09:38:52 IDT 2012	Chips to send by proposer: { chips  'CTRed':0 'CTPurple':0 'CTGreen':0 'grey78':0 'CTYellow':3 }
Tue Jul 17 09:38:52 IDT 2012	Chips to send by responder: { chips  'CTRed':0 'CTPurple':0 'CTGreen':0 'grey78':3 'CTYellow':0 }
Tue Jul 17 09:38:54 IDT 2012	Received communication message 
Tue Jul 17 09:38:54 IDT 2012	From player: 337
Tue Jul 17 09:38:54 IDT 2012	To player: 999
Tue Jul 17 09:38:54 IDT 2012	Message type: basicproposaldiscussion
Tue Jul 17 09:38:54 IDT 2012	Player 337 rejected offer
Tue Jul 17 09:38:54 IDT 2012	Swaping roles:
Tue Jul 17 09:38:54 IDT 2012	Proposer is: 337
Tue Jul 17 09:38:54 IDT 2012	Responder is: 999
Tue Jul 17 09:38:54 IDT 2012	Prop rejected, set counter offers count to: 1
Tue Jul 17 09:38:54 IDT 2012	Prop rejected, get counter offers returned: 1
Tue Jul 17 09:38:58 IDT 2012	Slept 4 seconds
Tue Jul 17 09:38:58 IDT 2012	Sent role changed msgs
Tue Jul 17 09:38:59 IDT 2012	Received communication message 
Tue Jul 17 09:38:59 IDT 2012	From player: 337
Tue Jul 17 09:38:59 IDT 2012	To player: 999
Tue Jul 17 09:38:59 IDT 2012	Message type: basicproposal
Tue Jul 17 09:38:59 IDT 2012	Chips to send by proposer: { chips  'CTRed':0 'CTPurple':0 'CTGreen':0 'grey78':1 'CTYellow':0 }
Tue Jul 17 09:38:59 IDT 2012	Chips to send by responder: { chips  'CTRed':0 'CTPurple':0 'CTGreen':0 'grey78':0 'CTYellow':2 }
Tue Jul 17 09:39:10 IDT 2012	Received communication message 
Tue Jul 17 09:39:10 IDT 2012	From player: 999
Tue Jul 17 09:39:10 IDT 2012	To player: 337
Tue Jul 17 09:39:10 IDT 2012	Message type: basicproposaldiscussion
Tue Jul 17 09:39:10 IDT 2012	Player 999 rejected offer
Tue Jul 17 09:39:10 IDT 2012	Set counter offers count to: 0
Tue Jul 17 09:39:10 IDT 2012	A Phase Ended: Communication Phase
Tue Jul 17 09:39:10 IDT 2012	Protocol: A New Phase Began: Exchange Phase
Tue Jul 17 09:39:10 IDT 2012	Protocol: Exchange phase, Round: 4
Tue Jul 17 09:39:10 IDT 2012	In begin exch.phase, get counter offers returned: 0
Tue Jul 17 09:39:50 IDT 2012	A Phase Ended: Exchange Phase
Tue Jul 17 09:39:50 IDT 2012	Proposer 337 sent: { chips  }
Tue Jul 17 09:39:50 IDT 2012	Protocol: A New Phase Began: Movement Phase
Tue Jul 17 09:39:50 IDT 2012	Protocol: Movement phase, Round: 4
Tue Jul 17 09:40:10 IDT 2012	A Phase Ended: Movement Phase
Tue Jul 17 09:40:10 IDT 2012	Protocol: A New Phase Began: Feedback Phase
Tue Jul 17 09:40:10 IDT 2012	Protocol: Feedback phase, Round: 4
Tue Jul 17 09:40:10 IDT 2012	Number of consecutive no movements for player 999 is 2
Tue Jul 17 09:40:10 IDT 2012	Number of consecutive no movements for player 337 is 2
Tue Jul 17 09:40:15 IDT 2012	A Phase Ended: Feedback Phase
Tue Jul 17 09:40:15 IDT 2012	Protocol: A New Phase Began: Communication Phase
Tue Jul 17 09:40:15 IDT 2012	Protocol: Communication phase, Round: 5
Tue Jul 17 09:40:26 IDT 2012	Received communication message 
Tue Jul 17 09:40:26 IDT 2012	From player: 337
Tue Jul 17 09:40:26 IDT 2012	To player: 999
Tue Jul 17 09:40:26 IDT 2012	Message type: basicproposal
Tue Jul 17 09:40:26 IDT 2012	Chips to send by proposer: { chips  'grey78':1 }
Tue Jul 17 09:40:26 IDT 2012	Chips to send by responder: { chips  'CTYellow':1 }
Tue Jul 17 09:40:39 IDT 2012	Received communication message 
Tue Jul 17 09:40:39 IDT 2012	From player: 999
Tue Jul 17 09:40:39 IDT 2012	To player: 337
Tue Jul 17 09:40:39 IDT 2012	Message type: basicproposaldiscussion
Tue Jul 17 09:40:39 IDT 2012	Player 999 accepted offer
Tue Jul 17 09:40:39 IDT 2012	Prop accepted, set counter offers count to: 0
Tue Jul 17 09:40:39 IDT 2012	Prop accepted, get counter offers returned: 0
Tue Jul 17 09:40:39 IDT 2012	A Phase Ended: Communication Phase
Tue Jul 17 09:40:39 IDT 2012	Protocol: A New Phase Began: Exchange Phase
Tue Jul 17 09:40:39 IDT 2012	Protocol: Exchange phase, Round: 5
Tue Jul 17 09:40:39 IDT 2012	In begin exch.phase, get counter offers returned: 0
Tue Jul 17 09:41:19 IDT 2012	A Phase Ended: Exchange Phase
Tue Jul 17 09:41:19 IDT 2012	Proposer 337 sent: { chips  'CTRed':0 'CTPurple':0 'CTGreen':0 'grey78':0 'CTYellow':0 }
Tue Jul 17 09:41:19 IDT 2012	Protocol: A New Phase Began: Movement Phase
Tue Jul 17 09:41:19 IDT 2012	Protocol: Movement phase, Round: 5
Tue Jul 17 09:41:19 IDT 2012	Player 337 moved to (R:5,C:3)
Tue Jul 17 09:41:39 IDT 2012	A Phase Ended: Movement Phase
Tue Jul 17 09:41:39 IDT 2012	Swaping roles:
Tue Jul 17 09:41:39 IDT 2012	Proposer is: 999
Tue Jul 17 09:41:39 IDT 2012	Responder is: 337
Tue Jul 17 09:41:39 IDT 2012	Protocol: A New Phase Began: Feedback Phase
Tue Jul 17 09:41:39 IDT 2012	Protocol: Feedback phase, Round: 5
Tue Jul 17 09:41:39 IDT 2012	Number of consecutive no movements for player 999 is 3
Tue Jul 17 09:41:39 IDT 2012	Number of consecutive no movements for player 337 is 0
Tue Jul 17 09:41:39 IDT 2012	Ending game, all players move as much as they can towards goal
Tue Jul 17 09:41:39 IDT 2012	Player: 999 ,role: Proposer score is: 35
Tue Jul 17 09:41:39 IDT 2012	Player: 337 ,role: Responder score is: 75
