Tue Jul 17 10:23:41 IDT 2012	This is the CT debug logger; svn version 638; sep 27 09
Tue Jul 17 10:23:41 IDT 2012	Tue Jul 17 10:23:41 IDT 2012
Tue Jul 17 10:23:41 IDT 2012	A new Alternative Offers game has began
Tue Jul 17 10:23:41 IDT 2012	ID Number: 31221
Tue Jul 17 10:23:41 IDT 2012	Creating board
Tue Jul 17 10:23:41 IDT 2012	<colors>
Tue Jul 17 10:23:41 IDT 2012	{ GamePalette  'CTRed':0 'CTPurple':1 'CTGreen':2 'grey78':3 'CTYellow':4 }
Tue Jul 17 10:23:41 IDT 2012	<rows>
Tue Jul 17 10:23:41 IDT 2012	7
Tue Jul 17 10:23:41 IDT 2012	<columns>
Tue Jul 17 10:23:41 IDT 2012	5
Tue Jul 17 10:23:41 IDT 2012	<squaresColors>
Tue Jul 17 10:23:41 IDT 2012	CTPurple CTRed CTRed CTGreen CTPurple 
Tue Jul 17 10:23:41 IDT 2012	CTPurple grey78 CTPurple CTYellow CTPurple 
Tue Jul 17 10:23:41 IDT 2012	CTPurple CTRed CTPurple CTGreen CTPurple 
Tue Jul 17 10:23:41 IDT 2012	CTPurple grey78 CTPurple CTYellow CTPurple 
Tue Jul 17 10:23:41 IDT 2012	CTPurple CTRed CTPurple CTGreen CTPurple 
Tue Jul 17 10:23:41 IDT 2012	CTPurple grey78 CTPurple CTYellow CTPurple 
Tue Jul 17 10:23:41 IDT 2012	CTPurple CTRed CTPurple CTGreen CTPurple 
Tue Jul 17 10:23:41 IDT 2012	</squareColors>
Tue Jul 17 10:23:41 IDT 2012	<goalPosition>
Tue Jul 17 10:23:41 IDT 2012	Goal position: (R:0,C:2)
Tue Jul 17 10:23:41 IDT 2012	<numberOfPlayers>
Tue Jul 17 10:23:41 IDT 2012	2
Tue Jul 17 10:23:41 IDT 2012	<firstPlayerChips>
Tue Jul 17 10:23:41 IDT 2012	Setting chips for player: 999 id:0
Tue Jul 17 10:23:41 IDT 2012	{ chips  'CTRed':5 'CTGreen':10 'CTPurple':0 'grey78':0 'CTYellow':9 }
Tue Jul 17 10:23:41 IDT 2012	Player position: (R:6,C:0)
Tue Jul 17 10:23:41 IDT 2012	Setting chips for player: 337 id:1
Tue Jul 17 10:23:41 IDT 2012	{ chips  'CTRed':1 'CTGreen':13 'CTPurple':0 'grey78':10 'CTYellow':0 }
Tue Jul 17 10:23:41 IDT 2012	Player position: (R:6,C:4)
Tue Jul 17 10:23:41 IDT 2012	Protocol: A New Phase Began: Strategy Prep Phase
Tue Jul 17 10:23:41 IDT 2012	Protocol: Strategy Preparation phase, Round: 0
Tue Jul 17 10:23:41 IDT 2012	Maximum number of rounds with no consecutive movement is 3
Tue Jul 17 10:23:41 IDT 2012	In begin comm. phase, set counter offers count to: 0
Tue Jul 17 10:23:41 IDT 2012	In begin comm. phase, get counter offers returned: 0
Tue Jul 17 10:24:01 IDT 2012	A Phase Ended: Strategy Prep Phase
Tue Jul 17 10:24:01 IDT 2012	Protocol: A New Phase Began: Communication Phase
Tue Jul 17 10:24:01 IDT 2012	Protocol: Communication phase, Round: 0
Tue Jul 17 10:24:14 IDT 2012	Received communication message 
Tue Jul 17 10:24:14 IDT 2012	From player: 999
Tue Jul 17 10:24:14 IDT 2012	To player: 337
Tue Jul 17 10:24:14 IDT 2012	Message type: basicproposal
Tue Jul 17 10:24:14 IDT 2012	Chips to send by proposer: { chips  'CTRed':0 'CTPurple':0 'CTGreen':0 'grey78':0 'CTYellow':2 }
Tue Jul 17 10:24:14 IDT 2012	Chips to send by responder: { chips  'CTRed':0 'CTPurple':0 'CTGreen':0 'grey78':2 'CTYellow':0 }
Tue Jul 17 10:24:18 IDT 2012	Received communication message 
Tue Jul 17 10:24:18 IDT 2012	From player: 337
Tue Jul 17 10:24:18 IDT 2012	To player: 999
Tue Jul 17 10:24:18 IDT 2012	Message type: basicproposaldiscussion
Tue Jul 17 10:24:18 IDT 2012	Player 337 accepted offer
Tue Jul 17 10:24:18 IDT 2012	Prop accepted, set counter offers count to: 0
Tue Jul 17 10:24:18 IDT 2012	Prop accepted, get counter offers returned: 0
Tue Jul 17 10:24:18 IDT 2012	A Phase Ended: Communication Phase
Tue Jul 17 10:24:18 IDT 2012	Protocol: A New Phase Began: Exchange Phase
Tue Jul 17 10:24:18 IDT 2012	Protocol: Exchange phase, Round: 0
Tue Jul 17 10:24:18 IDT 2012	In begin exch.phase, get counter offers returned: 0
Tue Jul 17 10:24:18 IDT 2012	A Phase Ended: Exchange Phase
Tue Jul 17 10:24:18 IDT 2012	Proposer 999 sent: { chips  'CTRed':0 'CTPurple':0 'CTGreen':0 'grey78':0 'CTYellow':2 }
Tue Jul 17 10:24:18 IDT 2012	Responder 337 sent: { chips  'CTRed':0 'CTPurple':0 'CTGreen':0 'grey78':1 'CTYellow':0 }
Tue Jul 17 10:24:18 IDT 2012	Protocol: A New Phase Began: Movement Phase
Tue Jul 17 10:24:18 IDT 2012	Protocol: Movement phase, Round: 0
Tue Jul 17 10:24:37 IDT 2012	A Phase Ended: Movement Phase
Tue Jul 17 10:24:37 IDT 2012	Swaping roles:
Tue Jul 17 10:24:37 IDT 2012	Proposer is: 337
Tue Jul 17 10:24:37 IDT 2012	Responder is: 999
Tue Jul 17 10:24:37 IDT 2012	Protocol: A New Phase Began: Feedback Phase
Tue Jul 17 10:24:37 IDT 2012	Protocol: Feedback phase, Round: 0
Tue Jul 17 10:24:37 IDT 2012	Number of consecutive no movements for player 999 is 1
Tue Jul 17 10:24:37 IDT 2012	Number of consecutive no movements for player 337 is 1
Tue Jul 17 10:24:42 IDT 2012	A Phase Ended: Feedback Phase
Tue Jul 17 10:24:42 IDT 2012	Protocol: A New Phase Began: Communication Phase
Tue Jul 17 10:24:42 IDT 2012	Protocol: Communication phase, Round: 1
Tue Jul 17 10:24:44 IDT 2012	Received communication message 
Tue Jul 17 10:24:44 IDT 2012	From player: 337
Tue Jul 17 10:24:44 IDT 2012	To player: 999
Tue Jul 17 10:24:44 IDT 2012	Message type: basicproposal
Tue Jul 17 10:24:44 IDT 2012	Chips to send by proposer: { chips  'grey78':1 }
Tue Jul 17 10:24:44 IDT 2012	Chips to send by responder: { chips  'CTGreen':1 }
Tue Jul 17 10:24:50 IDT 2012	Received communication message 
Tue Jul 17 10:24:50 IDT 2012	From player: 999
Tue Jul 17 10:24:50 IDT 2012	To player: 337
Tue Jul 17 10:24:50 IDT 2012	Message type: basicproposaldiscussion
Tue Jul 17 10:24:50 IDT 2012	Player 999 rejected offer
Tue Jul 17 10:24:50 IDT 2012	Swaping roles:
Tue Jul 17 10:24:50 IDT 2012	Proposer is: 999
Tue Jul 17 10:24:50 IDT 2012	Responder is: 337
Tue Jul 17 10:24:50 IDT 2012	Prop rejected, set counter offers count to: 1
Tue Jul 17 10:24:50 IDT 2012	Prop rejected, get counter offers returned: 1
Tue Jul 17 10:24:54 IDT 2012	Slept 4 seconds
Tue Jul 17 10:24:54 IDT 2012	Sent role changed msgs
Tue Jul 17 10:25:07 IDT 2012	Received communication message 
Tue Jul 17 10:25:07 IDT 2012	From player: 999
Tue Jul 17 10:25:07 IDT 2012	To player: 337
Tue Jul 17 10:25:07 IDT 2012	Message type: basicproposal
Tue Jul 17 10:25:07 IDT 2012	Chips to send by proposer: { chips  'CTRed':0 'CTPurple':0 'CTGreen':0 'grey78':0 'CTYellow':2 }
Tue Jul 17 10:25:07 IDT 2012	Chips to send by responder: { chips  'CTRed':0 'CTPurple':0 'CTGreen':0 'grey78':2 'CTYellow':0 }
Tue Jul 17 10:25:08 IDT 2012	Received communication message 
Tue Jul 17 10:25:08 IDT 2012	From player: 337
Tue Jul 17 10:25:08 IDT 2012	To player: 999
Tue Jul 17 10:25:08 IDT 2012	Message type: basicproposaldiscussion
Tue Jul 17 10:25:08 IDT 2012	Player 337 rejected offer
Tue Jul 17 10:25:08 IDT 2012	Set counter offers count to: 0
Tue Jul 17 10:25:08 IDT 2012	A Phase Ended: Communication Phase
Tue Jul 17 10:25:08 IDT 2012	Protocol: A New Phase Began: Exchange Phase
Tue Jul 17 10:25:08 IDT 2012	Protocol: Exchange phase, Round: 1
Tue Jul 17 10:25:08 IDT 2012	In begin exch.phase, get counter offers returned: 0
Tue Jul 17 10:25:47 IDT 2012	A Phase Ended: Exchange Phase
Tue Jul 17 10:25:47 IDT 2012	Responder 337 sent: { chips  }
Tue Jul 17 10:25:47 IDT 2012	Protocol: A New Phase Began: Movement Phase
Tue Jul 17 10:25:47 IDT 2012	Protocol: Movement phase, Round: 1
Tue Jul 17 10:26:07 IDT 2012	A Phase Ended: Movement Phase
Tue Jul 17 10:26:07 IDT 2012	Protocol: A New Phase Began: Feedback Phase
Tue Jul 17 10:26:07 IDT 2012	Protocol: Feedback phase, Round: 1
Tue Jul 17 10:26:07 IDT 2012	Number of consecutive no movements for player 999 is 2
Tue Jul 17 10:26:07 IDT 2012	Number of consecutive no movements for player 337 is 2
Tue Jul 17 10:26:12 IDT 2012	A Phase Ended: Feedback Phase
Tue Jul 17 10:26:12 IDT 2012	Protocol: A New Phase Began: Communication Phase
Tue Jul 17 10:26:12 IDT 2012	Protocol: Communication phase, Round: 2
Tue Jul 17 10:26:32 IDT 2012	Received communication message 
Tue Jul 17 10:26:32 IDT 2012	From player: 999
Tue Jul 17 10:26:32 IDT 2012	To player: 337
Tue Jul 17 10:26:32 IDT 2012	Message type: basicproposal
Tue Jul 17 10:26:32 IDT 2012	Chips to send by proposer: { chips  'CTRed':0 'CTPurple':0 'CTGreen':1 'grey78':0 'CTYellow':1 }
Tue Jul 17 10:26:32 IDT 2012	Chips to send by responder: { chips  'CTRed':0 'CTPurple':0 'CTGreen':0 'grey78':2 'CTYellow':0 }
Tue Jul 17 10:26:37 IDT 2012	Received communication message 
Tue Jul 17 10:26:37 IDT 2012	From player: 337
Tue Jul 17 10:26:37 IDT 2012	To player: 999
Tue Jul 17 10:26:37 IDT 2012	Message type: basicproposaldiscussion
Tue Jul 17 10:26:37 IDT 2012	Player 337 accepted offer
Tue Jul 17 10:26:37 IDT 2012	Prop accepted, set counter offers count to: 0
Tue Jul 17 10:26:37 IDT 2012	Prop accepted, get counter offers returned: 0
Tue Jul 17 10:26:37 IDT 2012	A Phase Ended: Communication Phase
Tue Jul 17 10:26:37 IDT 2012	Protocol: A New Phase Began: Exchange Phase
Tue Jul 17 10:26:37 IDT 2012	Protocol: Exchange phase, Round: 2
Tue Jul 17 10:26:37 IDT 2012	In begin exch.phase, get counter offers returned: 0
Tue Jul 17 10:26:37 IDT 2012	A Phase Ended: Exchange Phase
Tue Jul 17 10:26:37 IDT 2012	Proposer 999 sent: { chips  'CTRed':0 'CTPurple':0 'CTGreen':1 'grey78':0 'CTYellow':1 }
Tue Jul 17 10:26:37 IDT 2012	Responder 337 sent: { chips  'CTRed':0 'CTPurple':0 'CTGreen':0 'grey78':0 'CTYellow':0 }
Tue Jul 17 10:26:37 IDT 2012	Protocol: A New Phase Began: Movement Phase
Tue Jul 17 10:26:37 IDT 2012	Protocol: Movement phase, Round: 2
Tue Jul 17 10:26:37 IDT 2012	Player 999 moved to (R:6,C:1)
Tue Jul 17 10:26:37 IDT 2012	Player 337 moved to (R:6,C:3)
Tue Jul 17 10:26:56 IDT 2012	A Phase Ended: Movement Phase
Tue Jul 17 10:26:56 IDT 2012	Swaping roles:
Tue Jul 17 10:26:56 IDT 2012	Proposer is: 337
Tue Jul 17 10:26:56 IDT 2012	Responder is: 999
Tue Jul 17 10:26:56 IDT 2012	Protocol: A New Phase Began: Feedback Phase
Tue Jul 17 10:26:56 IDT 2012	Protocol: Feedback phase, Round: 2
Tue Jul 17 10:26:56 IDT 2012	Number of consecutive no movements for player 999 is 0
Tue Jul 17 10:26:56 IDT 2012	Number of consecutive no movements for player 337 is 0
Tue Jul 17 10:27:01 IDT 2012	A Phase Ended: Feedback Phase
Tue Jul 17 10:27:01 IDT 2012	Protocol: A New Phase Began: Communication Phase
Tue Jul 17 10:27:01 IDT 2012	Protocol: Communication phase, Round: 3
Tue Jul 17 10:27:04 IDT 2012	Received communication message 
Tue Jul 17 10:27:04 IDT 2012	From player: 337
Tue Jul 17 10:27:04 IDT 2012	To player: 999
Tue Jul 17 10:27:04 IDT 2012	Message type: basicproposal
Tue Jul 17 10:27:04 IDT 2012	Chips to send by proposer: { chips  'grey78':1 }
Tue Jul 17 10:27:04 IDT 2012	Chips to send by responder: { chips  'CTGreen':2 }
Tue Jul 17 10:27:15 IDT 2012	Received communication message 
Tue Jul 17 10:27:15 IDT 2012	From player: 999
Tue Jul 17 10:27:15 IDT 2012	To player: 337
Tue Jul 17 10:27:15 IDT 2012	Message type: basicproposaldiscussion
Tue Jul 17 10:27:15 IDT 2012	Player 999 accepted offer
Tue Jul 17 10:27:15 IDT 2012	Prop accepted, set counter offers count to: 0
Tue Jul 17 10:27:15 IDT 2012	Prop accepted, get counter offers returned: 0
Tue Jul 17 10:27:15 IDT 2012	A Phase Ended: Communication Phase
Tue Jul 17 10:27:15 IDT 2012	Protocol: A New Phase Began: Exchange Phase
Tue Jul 17 10:27:15 IDT 2012	Protocol: Exchange phase, Round: 3
Tue Jul 17 10:27:15 IDT 2012	In begin exch.phase, get counter offers returned: 0
Tue Jul 17 10:27:54 IDT 2012	A Phase Ended: Exchange Phase
Tue Jul 17 10:27:54 IDT 2012	Proposer 337 sent: { chips  'CTRed':0 'CTPurple':0 'CTGreen':0 'grey78':0 'CTYellow':0 }
Tue Jul 17 10:27:54 IDT 2012	Protocol: A New Phase Began: Movement Phase
Tue Jul 17 10:27:54 IDT 2012	Protocol: Movement phase, Round: 3
Tue Jul 17 10:28:14 IDT 2012	A Phase Ended: Movement Phase
Tue Jul 17 10:28:14 IDT 2012	Swaping roles:
Tue Jul 17 10:28:14 IDT 2012	Proposer is: 999
Tue Jul 17 10:28:14 IDT 2012	Responder is: 337
Tue Jul 17 10:28:14 IDT 2012	Protocol: A New Phase Began: Feedback Phase
Tue Jul 17 10:28:14 IDT 2012	Protocol: Feedback phase, Round: 3
Tue Jul 17 10:28:14 IDT 2012	Number of consecutive no movements for player 999 is 1
Tue Jul 17 10:28:14 IDT 2012	Number of consecutive no movements for player 337 is 1
Tue Jul 17 10:28:19 IDT 2012	A Phase Ended: Feedback Phase
Tue Jul 17 10:28:20 IDT 2012	Protocol: A New Phase Began: Communication Phase
Tue Jul 17 10:28:20 IDT 2012	Protocol: Communication phase, Round: 4
Tue Jul 17 10:28:40 IDT 2012	Received communication message 
Tue Jul 17 10:28:40 IDT 2012	From player: 999
Tue Jul 17 10:28:40 IDT 2012	To player: 337
Tue Jul 17 10:28:40 IDT 2012	Message type: basicproposal
Tue Jul 17 10:28:40 IDT 2012	Chips to send by proposer: { chips  'CTRed':0 'CTPurple':0 'CTGreen':3 'grey78':0 'CTYellow':0 }
Tue Jul 17 10:28:40 IDT 2012	Chips to send by responder: { chips  'CTRed':0 'CTPurple':0 'CTGreen':0 'grey78':2 'CTYellow':0 }
Tue Jul 17 10:28:41 IDT 2012	Received communication message 
Tue Jul 17 10:28:41 IDT 2012	From player: 337
Tue Jul 17 10:28:41 IDT 2012	To player: 999
Tue Jul 17 10:28:41 IDT 2012	Message type: basicproposaldiscussion
Tue Jul 17 10:28:41 IDT 2012	Player 337 rejected offer
Tue Jul 17 10:28:41 IDT 2012	Swaping roles:
Tue Jul 17 10:28:41 IDT 2012	Proposer is: 337
Tue Jul 17 10:28:41 IDT 2012	Responder is: 999
Tue Jul 17 10:28:41 IDT 2012	Prop rejected, set counter offers count to: 1
Tue Jul 17 10:28:41 IDT 2012	Prop rejected, get counter offers returned: 1
Tue Jul 17 10:28:45 IDT 2012	Slept 4 seconds
Tue Jul 17 10:28:45 IDT 2012	Sent role changed msgs
Tue Jul 17 10:28:46 IDT 2012	Received communication message 
Tue Jul 17 10:28:46 IDT 2012	From player: 337
Tue Jul 17 10:28:46 IDT 2012	To player: 999
Tue Jul 17 10:28:46 IDT 2012	Message type: basicproposal
Tue Jul 17 10:28:46 IDT 2012	Chips to send by proposer: { chips  'CTRed':0 'CTPurple':0 'CTGreen':0 'grey78':1 'CTYellow':0 }
Tue Jul 17 10:28:46 IDT 2012	Chips to send by responder: { chips  'CTRed':0 'CTPurple':0 'CTGreen':1 'grey78':0 'CTYellow':1 }
Tue Jul 17 10:29:00 IDT 2012	Received communication message 
Tue Jul 17 10:29:00 IDT 2012	From player: 999
Tue Jul 17 10:29:00 IDT 2012	To player: 337
Tue Jul 17 10:29:00 IDT 2012	Message type: basicproposaldiscussion
Tue Jul 17 10:29:00 IDT 2012	Player 999 accepted offer
Tue Jul 17 10:29:00 IDT 2012	Prop accepted, set counter offers count to: 0
Tue Jul 17 10:29:00 IDT 2012	Prop accepted, get counter offers returned: 0
Tue Jul 17 10:29:00 IDT 2012	A Phase Ended: Communication Phase
Tue Jul 17 10:29:00 IDT 2012	Protocol: A New Phase Began: Exchange Phase
Tue Jul 17 10:29:00 IDT 2012	Protocol: Exchange phase, Round: 4
Tue Jul 17 10:29:00 IDT 2012	In begin exch.phase, get counter offers returned: 0
Tue Jul 17 10:29:00 IDT 2012	A Phase Ended: Exchange Phase
Tue Jul 17 10:29:00 IDT 2012	Proposer 337 sent: { chips  'CTRed':0 'CTPurple':0 'CTGreen':0 'grey78':0 'CTYellow':0 }
Tue Jul 17 10:29:00 IDT 2012	Responder 999 sent: { chips  'CTRed':0 'CTPurple':0 'CTGreen':1 'grey78':0 'CTYellow':1 }
Tue Jul 17 10:29:00 IDT 2012	Protocol: A New Phase Began: Movement Phase
Tue Jul 17 10:29:00 IDT 2012	Protocol: Movement phase, Round: 4
Tue Jul 17 10:29:20 IDT 2012	A Phase Ended: Movement Phase
Tue Jul 17 10:29:20 IDT 2012	Protocol: A New Phase Began: Feedback Phase
Tue Jul 17 10:29:20 IDT 2012	Protocol: Feedback phase, Round: 4
Tue Jul 17 10:29:20 IDT 2012	Number of consecutive no movements for player 999 is 2
Tue Jul 17 10:29:20 IDT 2012	Number of consecutive no movements for player 337 is 2
Tue Jul 17 10:29:25 IDT 2012	A Phase Ended: Feedback Phase
Tue Jul 17 10:29:25 IDT 2012	Protocol: A New Phase Began: Communication Phase
Tue Jul 17 10:29:25 IDT 2012	Protocol: Communication phase, Round: 5
Tue Jul 17 10:29:29 IDT 2012	Received communication message 
Tue Jul 17 10:29:29 IDT 2012	From player: 337
Tue Jul 17 10:29:29 IDT 2012	To player: 999
Tue Jul 17 10:29:29 IDT 2012	Message type: basicproposal
Tue Jul 17 10:29:29 IDT 2012	Chips to send by proposer: { chips  'grey78':1 }
Tue Jul 17 10:29:29 IDT 2012	Chips to send by responder: { chips  'CTGreen':2 }
Tue Jul 17 10:29:40 IDT 2012	Received communication message 
Tue Jul 17 10:29:40 IDT 2012	From player: 999
Tue Jul 17 10:29:40 IDT 2012	To player: 337
Tue Jul 17 10:29:40 IDT 2012	Message type: basicproposaldiscussion
Tue Jul 17 10:29:40 IDT 2012	Player 999 accepted offer
Tue Jul 17 10:29:40 IDT 2012	Prop accepted, set counter offers count to: 0
Tue Jul 17 10:29:40 IDT 2012	Prop accepted, get counter offers returned: 0
Tue Jul 17 10:29:40 IDT 2012	A Phase Ended: Communication Phase
Tue Jul 17 10:29:40 IDT 2012	Protocol: A New Phase Began: Exchange Phase
Tue Jul 17 10:29:40 IDT 2012	Protocol: Exchange phase, Round: 5
Tue Jul 17 10:29:40 IDT 2012	In begin exch.phase, get counter offers returned: 0
Tue Jul 17 10:30:20 IDT 2012	A Phase Ended: Exchange Phase
Tue Jul 17 10:30:20 IDT 2012	Proposer 337 sent: { chips  'CTRed':0 'CTPurple':0 'CTGreen':0 'grey78':0 'CTYellow':0 }
Tue Jul 17 10:30:20 IDT 2012	Protocol: A New Phase Began: Movement Phase
Tue Jul 17 10:30:20 IDT 2012	Protocol: Movement phase, Round: 5
Tue Jul 17 10:30:20 IDT 2012	Player 337 moved to (R:5,C:3)
Tue Jul 17 10:30:20 IDT 2012	Player 999 moved to (R:5,C:1)
Tue Jul 17 10:30:40 IDT 2012	A Phase Ended: Movement Phase
Tue Jul 17 10:30:40 IDT 2012	Swaping roles:
Tue Jul 17 10:30:40 IDT 2012	Proposer is: 999
Tue Jul 17 10:30:40 IDT 2012	Responder is: 337
Tue Jul 17 10:30:40 IDT 2012	Protocol: A New Phase Began: Feedback Phase
Tue Jul 17 10:30:40 IDT 2012	Protocol: Feedback phase, Round: 5
Tue Jul 17 10:30:40 IDT 2012	Number of consecutive no movements for player 999 is 0
Tue Jul 17 10:30:40 IDT 2012	Number of consecutive no movements for player 337 is 0
Tue Jul 17 10:30:45 IDT 2012	A Phase Ended: Feedback Phase
Tue Jul 17 10:30:45 IDT 2012	Protocol: A New Phase Began: Communication Phase
Tue Jul 17 10:30:45 IDT 2012	Protocol: Communication phase, Round: 6
Tue Jul 17 10:31:00 IDT 2012	Received communication message 
Tue Jul 17 10:31:00 IDT 2012	From player: 999
Tue Jul 17 10:31:00 IDT 2012	To player: 337
Tue Jul 17 10:31:00 IDT 2012	Message type: basicproposal
Tue Jul 17 10:31:00 IDT 2012	Chips to send by proposer: { chips  'CTRed':0 'CTPurple':0 'CTGreen':3 'grey78':0 'CTYellow':2 }
Tue Jul 17 10:31:00 IDT 2012	Chips to send by responder: { chips  'CTRed':0 'CTPurple':0 'CTGreen':0 'grey78':2 'CTYellow':0 }
Tue Jul 17 10:31:02 IDT 2012	Received communication message 
Tue Jul 17 10:31:02 IDT 2012	From player: 337
Tue Jul 17 10:31:02 IDT 2012	To player: 999
Tue Jul 17 10:31:02 IDT 2012	Message type: basicproposaldiscussion
Tue Jul 17 10:31:02 IDT 2012	Player 337 rejected offer
Tue Jul 17 10:31:02 IDT 2012	Swaping roles:
Tue Jul 17 10:31:02 IDT 2012	Proposer is: 337
Tue Jul 17 10:31:02 IDT 2012	Responder is: 999
Tue Jul 17 10:31:02 IDT 2012	Prop rejected, set counter offers count to: 1
Tue Jul 17 10:31:02 IDT 2012	Prop rejected, get counter offers returned: 1
Tue Jul 17 10:31:06 IDT 2012	Slept 4 seconds
Tue Jul 17 10:31:06 IDT 2012	Sent role changed msgs
Tue Jul 17 10:31:09 IDT 2012	Received communication message 
Tue Jul 17 10:31:09 IDT 2012	From player: 337
Tue Jul 17 10:31:09 IDT 2012	To player: 999
Tue Jul 17 10:31:09 IDT 2012	Message type: basicproposal
Tue Jul 17 10:31:09 IDT 2012	Chips to send by proposer: { chips  'CTRed':0 'CTPurple':0 'CTGreen':0 'grey78':1 'CTYellow':0 }
Tue Jul 17 10:31:09 IDT 2012	Chips to send by responder: { chips  'CTRed':0 'CTPurple':0 'CTGreen':1 'grey78':0 'CTYellow':1 }
Tue Jul 17 10:31:22 IDT 2012	Received communication message 
Tue Jul 17 10:31:22 IDT 2012	From player: 999
Tue Jul 17 10:31:22 IDT 2012	To player: 337
Tue Jul 17 10:31:22 IDT 2012	Message type: basicproposaldiscussion
Tue Jul 17 10:31:22 IDT 2012	Player 999 accepted offer
Tue Jul 17 10:31:22 IDT 2012	Prop accepted, set counter offers count to: 0
Tue Jul 17 10:31:22 IDT 2012	Prop accepted, get counter offers returned: 0
Tue Jul 17 10:31:22 IDT 2012	A Phase Ended: Communication Phase
Tue Jul 17 10:31:22 IDT 2012	Protocol: A New Phase Began: Exchange Phase
Tue Jul 17 10:31:22 IDT 2012	Protocol: Exchange phase, Round: 6
Tue Jul 17 10:31:22 IDT 2012	In begin exch.phase, get counter offers returned: 0
Tue Jul 17 10:31:22 IDT 2012	A Phase Ended: Exchange Phase
Tue Jul 17 10:31:22 IDT 2012	Proposer 337 sent: { chips  'CTRed':0 'CTPurple':0 'CTGreen':0 'grey78':0 'CTYellow':0 }
Tue Jul 17 10:31:22 IDT 2012	Responder 999 sent: { chips  'CTRed':0 'CTPurple':0 'CTGreen':1 'grey78':0 'CTYellow':1 }
Tue Jul 17 10:31:22 IDT 2012	Protocol: A New Phase Began: Movement Phase
Tue Jul 17 10:31:22 IDT 2012	Protocol: Movement phase, Round: 6
Tue Jul 17 10:31:42 IDT 2012	A Phase Ended: Movement Phase
Tue Jul 17 10:31:42 IDT 2012	Protocol: A New Phase Began: Feedback Phase
Tue Jul 17 10:31:42 IDT 2012	Protocol: Feedback phase, Round: 6
Tue Jul 17 10:31:42 IDT 2012	Number of consecutive no movements for player 999 is 1
Tue Jul 17 10:31:42 IDT 2012	Number of consecutive no movements for player 337 is 1
Tue Jul 17 10:31:47 IDT 2012	A Phase Ended: Feedback Phase
Tue Jul 17 10:31:47 IDT 2012	Protocol: A New Phase Began: Communication Phase
Tue Jul 17 10:31:47 IDT 2012	Protocol: Communication phase, Round: 7
Tue Jul 17 10:31:48 IDT 2012	Received communication message 
Tue Jul 17 10:31:48 IDT 2012	From player: 337
Tue Jul 17 10:31:48 IDT 2012	To player: 999
Tue Jul 17 10:31:48 IDT 2012	Message type: basicproposal
Tue Jul 17 10:31:48 IDT 2012	Chips to send by proposer: { chips  'grey78':1 }
Tue Jul 17 10:31:48 IDT 2012	Chips to send by responder: { chips  'CTGreen':1 'CTYellow':1 }
Tue Jul 17 10:31:55 IDT 2012	Received communication message 
Tue Jul 17 10:31:55 IDT 2012	From player: 999
Tue Jul 17 10:31:55 IDT 2012	To player: 337
Tue Jul 17 10:31:55 IDT 2012	Message type: basicproposaldiscussion
Tue Jul 17 10:31:55 IDT 2012	Player 999 accepted offer
Tue Jul 17 10:31:55 IDT 2012	Prop accepted, set counter offers count to: 0
Tue Jul 17 10:31:55 IDT 2012	Prop accepted, get counter offers returned: 0
Tue Jul 17 10:31:55 IDT 2012	A Phase Ended: Communication Phase
Tue Jul 17 10:31:55 IDT 2012	Protocol: A New Phase Began: Exchange Phase
Tue Jul 17 10:31:55 IDT 2012	Protocol: Exchange phase, Round: 7
Tue Jul 17 10:31:55 IDT 2012	In begin exch.phase, get counter offers returned: 0
Tue Jul 17 10:32:34 IDT 2012	A Phase Ended: Exchange Phase
Tue Jul 17 10:32:34 IDT 2012	Proposer 337 sent: { chips  'CTRed':0 'CTPurple':0 'CTGreen':0 'grey78':0 'CTYellow':0 }
Tue Jul 17 10:32:34 IDT 2012	Protocol: A New Phase Began: Movement Phase
Tue Jul 17 10:32:34 IDT 2012	Protocol: Movement phase, Round: 7
Tue Jul 17 10:32:54 IDT 2012	A Phase Ended: Movement Phase
Tue Jul 17 10:32:54 IDT 2012	Swaping roles:
Tue Jul 17 10:32:54 IDT 2012	Proposer is: 999
Tue Jul 17 10:32:54 IDT 2012	Responder is: 337
Tue Jul 17 10:32:54 IDT 2012	Protocol: A New Phase Began: Feedback Phase
Tue Jul 17 10:32:54 IDT 2012	Protocol: Feedback phase, Round: 7
Tue Jul 17 10:32:54 IDT 2012	Number of consecutive no movements for player 999 is 2
Tue Jul 17 10:32:54 IDT 2012	Number of consecutive no movements for player 337 is 2
Tue Jul 17 10:32:59 IDT 2012	A Phase Ended: Feedback Phase
Tue Jul 17 10:32:59 IDT 2012	Protocol: A New Phase Began: Communication Phase
Tue Jul 17 10:32:59 IDT 2012	Protocol: Communication phase, Round: 8
Tue Jul 17 10:33:14 IDT 2012	Received communication message 
Tue Jul 17 10:33:14 IDT 2012	From player: 999
Tue Jul 17 10:33:14 IDT 2012	To player: 337
Tue Jul 17 10:33:14 IDT 2012	Message type: basicproposal
Tue Jul 17 10:33:14 IDT 2012	Chips to send by proposer: { chips  'CTRed':0 'CTPurple':0 'CTGreen':0 'grey78':0 'CTYellow':3 }
Tue Jul 17 10:33:14 IDT 2012	Chips to send by responder: { chips  'CTRed':0 'CTPurple':0 'CTGreen':0 'grey78':2 'CTYellow':0 }
Tue Jul 17 10:33:18 IDT 2012	Received communication message 
Tue Jul 17 10:33:18 IDT 2012	From player: 337
Tue Jul 17 10:33:18 IDT 2012	To player: 999
Tue Jul 17 10:33:18 IDT 2012	Message type: basicproposaldiscussion
Tue Jul 17 10:33:18 IDT 2012	Player 337 accepted offer
Tue Jul 17 10:33:18 IDT 2012	Prop accepted, set counter offers count to: 0
Tue Jul 17 10:33:18 IDT 2012	Prop accepted, get counter offers returned: 0
Tue Jul 17 10:33:18 IDT 2012	A Phase Ended: Communication Phase
Tue Jul 17 10:33:18 IDT 2012	Protocol: A New Phase Began: Exchange Phase
Tue Jul 17 10:33:18 IDT 2012	Protocol: Exchange phase, Round: 8
Tue Jul 17 10:33:18 IDT 2012	In begin exch.phase, get counter offers returned: 0
Tue Jul 17 10:33:18 IDT 2012	A Phase Ended: Exchange Phase
Tue Jul 17 10:33:18 IDT 2012	Proposer 999 sent: { chips  'CTRed':0 'CTPurple':0 'CTGreen':0 'grey78':0 'CTYellow':3 }
Tue Jul 17 10:33:18 IDT 2012	Responder 337 sent: { chips  'CTRed':0 'CTPurple':0 'CTGreen':0 'grey78':2 'CTYellow':0 }
Tue Jul 17 10:33:18 IDT 2012	Protocol: A New Phase Began: Movement Phase
Tue Jul 17 10:33:18 IDT 2012	Protocol: Movement phase, Round: 8
Tue Jul 17 10:33:18 IDT 2012	Player 999 moved to (R:4,C:1)
Tue Jul 17 10:33:18 IDT 2012	Player 337 moved to (R:4,C:3)
Tue Jul 17 10:33:38 IDT 2012	A Phase Ended: Movement Phase
Tue Jul 17 10:33:38 IDT 2012	Swaping roles:
Tue Jul 17 10:33:38 IDT 2012	Proposer is: 337
Tue Jul 17 10:33:38 IDT 2012	Responder is: 999
Tue Jul 17 10:33:38 IDT 2012	Protocol: A New Phase Began: Feedback Phase
Tue Jul 17 10:33:38 IDT 2012	Protocol: Feedback phase, Round: 8
Tue Jul 17 10:33:38 IDT 2012	Number of consecutive no movements for player 999 is 0
Tue Jul 17 10:33:38 IDT 2012	Number of consecutive no movements for player 337 is 0
Tue Jul 17 10:33:38 IDT 2012	All players have all needed chips to get to goal, end the game
Tue Jul 17 10:33:38 IDT 2012	Player: 999 ,role: Responder score is: 140
Tue Jul 17 10:33:38 IDT 2012	Player: 337 ,role: Proposer score is: 220
