Tue Jul 17 11:33:45 IDT 2012	This is the CT debug logger; svn version 638; sep 27 09
Tue Jul 17 11:33:45 IDT 2012	Tue Jul 17 11:33:45 IDT 2012
Tue Jul 17 11:33:45 IDT 2012	A new Alternative Offers game has began
Tue Jul 17 11:33:45 IDT 2012	ID Number: 35478
Tue Jul 17 11:33:45 IDT 2012	Creating board
Tue Jul 17 11:33:45 IDT 2012	<colors>
Tue Jul 17 11:33:45 IDT 2012	{ GamePalette  'CTRed':0 'CTPurple':1 'CTGreen':2 'grey78':3 'CTYellow':4 }
Tue Jul 17 11:33:45 IDT 2012	<rows>
Tue Jul 17 11:33:45 IDT 2012	7
Tue Jul 17 11:33:45 IDT 2012	<columns>
Tue Jul 17 11:33:45 IDT 2012	5
Tue Jul 17 11:33:45 IDT 2012	<squaresColors>
Tue Jul 17 11:33:45 IDT 2012	CTPurple CTRed CTRed CTGreen CTPurple 
Tue Jul 17 11:33:45 IDT 2012	CTPurple grey78 CTPurple CTYellow CTPurple 
Tue Jul 17 11:33:45 IDT 2012	CTPurple CTRed CTPurple CTGreen CTPurple 
Tue Jul 17 11:33:45 IDT 2012	CTPurple grey78 CTPurple CTYellow CTPurple 
Tue Jul 17 11:33:45 IDT 2012	CTPurple CTRed CTPurple CTGreen CTPurple 
Tue Jul 17 11:33:45 IDT 2012	CTPurple grey78 CTPurple CTYellow CTPurple 
Tue Jul 17 11:33:45 IDT 2012	CTPurple CTRed CTPurple CTGreen CTPurple 
Tue Jul 17 11:33:45 IDT 2012	</squareColors>
Tue Jul 17 11:33:45 IDT 2012	<goalPosition>
Tue Jul 17 11:33:45 IDT 2012	Goal position: (R:0,C:2)
Tue Jul 17 11:33:45 IDT 2012	<numberOfPlayers>
Tue Jul 17 11:33:45 IDT 2012	2
Tue Jul 17 11:33:45 IDT 2012	<firstPlayerChips>
Tue Jul 17 11:33:45 IDT 2012	Setting chips for player: 999 id:0
Tue Jul 17 11:33:45 IDT 2012	{ chips  'CTRed':5 'CTGreen':10 'CTPurple':0 'grey78':0 'CTYellow':9 }
Tue Jul 17 11:33:45 IDT 2012	Player position: (R:6,C:0)
Tue Jul 17 11:33:45 IDT 2012	Setting chips for player: 337 id:1
Tue Jul 17 11:33:45 IDT 2012	{ chips  'CTRed':1 'CTGreen':13 'CTPurple':0 'grey78':10 'CTYellow':0 }
Tue Jul 17 11:33:45 IDT 2012	Player position: (R:6,C:4)
Tue Jul 17 11:33:45 IDT 2012	Protocol: A New Phase Began: Strategy Prep Phase
Tue Jul 17 11:33:45 IDT 2012	Protocol: Strategy Preparation phase, Round: 0
Tue Jul 17 11:33:45 IDT 2012	Maximum number of rounds with no consecutive movement is 3
Tue Jul 17 11:33:45 IDT 2012	In begin comm. phase, set counter offers count to: 0
Tue Jul 17 11:33:45 IDT 2012	In begin comm. phase, get counter offers returned: 0
Tue Jul 17 11:34:05 IDT 2012	A Phase Ended: Strategy Prep Phase
Tue Jul 17 11:34:05 IDT 2012	Protocol: A New Phase Began: Communication Phase
Tue Jul 17 11:34:05 IDT 2012	Protocol: Communication phase, Round: 0
Tue Jul 17 11:34:21 IDT 2012	Received communication message 
Tue Jul 17 11:34:21 IDT 2012	From player: 999
Tue Jul 17 11:34:21 IDT 2012	To player: 337
Tue Jul 17 11:34:21 IDT 2012	Message type: basicproposal
Tue Jul 17 11:34:21 IDT 2012	Chips to send by proposer: { chips  'CTRed':0 'CTPurple':0 'CTGreen':0 'grey78':0 'CTYellow':2 }
Tue Jul 17 11:34:21 IDT 2012	Chips to send by responder: { chips  'CTRed':0 'CTPurple':0 'CTGreen':0 'grey78':2 'CTYellow':0 }
Tue Jul 17 11:34:25 IDT 2012	Received communication message 
Tue Jul 17 11:34:25 IDT 2012	From player: 337
Tue Jul 17 11:34:25 IDT 2012	To player: 999
Tue Jul 17 11:34:25 IDT 2012	Message type: basicproposaldiscussion
Tue Jul 17 11:34:25 IDT 2012	Player 337 accepted offer
Tue Jul 17 11:34:25 IDT 2012	Prop accepted, set counter offers count to: 0
Tue Jul 17 11:34:25 IDT 2012	Prop accepted, get counter offers returned: 0
Tue Jul 17 11:34:25 IDT 2012	A Phase Ended: Communication Phase
Tue Jul 17 11:34:25 IDT 2012	Protocol: A New Phase Began: Exchange Phase
Tue Jul 17 11:34:25 IDT 2012	Protocol: Exchange phase, Round: 0
Tue Jul 17 11:34:25 IDT 2012	In begin exch.phase, get counter offers returned: 0
Tue Jul 17 11:34:25 IDT 2012	A Phase Ended: Exchange Phase
Tue Jul 17 11:34:25 IDT 2012	Proposer 999 sent: { chips  'CTRed':0 'CTPurple':0 'CTGreen':0 'grey78':0 'CTYellow':2 }
Tue Jul 17 11:34:25 IDT 2012	Responder 337 sent: { chips  'CTRed':0 'CTPurple':0 'CTGreen':0 'grey78':1 'CTYellow':0 }
Tue Jul 17 11:34:25 IDT 2012	Protocol: A New Phase Began: Movement Phase
Tue Jul 17 11:34:25 IDT 2012	Protocol: Movement phase, Round: 0
Tue Jul 17 11:34:44 IDT 2012	A Phase Ended: Movement Phase
Tue Jul 17 11:34:44 IDT 2012	Swaping roles:
Tue Jul 17 11:34:44 IDT 2012	Proposer is: 337
Tue Jul 17 11:34:44 IDT 2012	Responder is: 999
Tue Jul 17 11:34:44 IDT 2012	Protocol: A New Phase Began: Feedback Phase
Tue Jul 17 11:34:44 IDT 2012	Protocol: Feedback phase, Round: 0
Tue Jul 17 11:34:44 IDT 2012	Number of consecutive no movements for player 999 is 1
Tue Jul 17 11:34:44 IDT 2012	Number of consecutive no movements for player 337 is 1
Tue Jul 17 11:34:49 IDT 2012	A Phase Ended: Feedback Phase
Tue Jul 17 11:34:49 IDT 2012	Protocol: A New Phase Began: Communication Phase
Tue Jul 17 11:34:49 IDT 2012	Protocol: Communication phase, Round: 1
Tue Jul 17 11:34:51 IDT 2012	Received communication message 
Tue Jul 17 11:34:51 IDT 2012	From player: 337
Tue Jul 17 11:34:51 IDT 2012	To player: 999
Tue Jul 17 11:34:51 IDT 2012	Message type: basicproposal
Tue Jul 17 11:34:51 IDT 2012	Chips to send by proposer: { chips  'grey78':1 }
Tue Jul 17 11:34:51 IDT 2012	Chips to send by responder: { chips  'CTYellow':1 }
Tue Jul 17 11:34:58 IDT 2012	Received communication message 
Tue Jul 17 11:34:58 IDT 2012	From player: 999
Tue Jul 17 11:34:58 IDT 2012	To player: 337
Tue Jul 17 11:34:58 IDT 2012	Message type: basicproposaldiscussion
Tue Jul 17 11:34:58 IDT 2012	Player 999 rejected offer
Tue Jul 17 11:34:58 IDT 2012	Swaping roles:
Tue Jul 17 11:34:58 IDT 2012	Proposer is: 999
Tue Jul 17 11:34:58 IDT 2012	Responder is: 337
Tue Jul 17 11:34:58 IDT 2012	Prop rejected, set counter offers count to: 1
Tue Jul 17 11:34:58 IDT 2012	Prop rejected, get counter offers returned: 1
Tue Jul 17 11:35:02 IDT 2012	Slept 4 seconds
Tue Jul 17 11:35:02 IDT 2012	Sent role changed msgs
Tue Jul 17 11:35:17 IDT 2012	Received communication message 
Tue Jul 17 11:35:17 IDT 2012	From player: 999
Tue Jul 17 11:35:17 IDT 2012	To player: 337
Tue Jul 17 11:35:17 IDT 2012	Message type: basicproposal
Tue Jul 17 11:35:17 IDT 2012	Chips to send by proposer: { chips  'CTRed':0 'CTPurple':0 'CTGreen':1 'grey78':0 'CTYellow':1 }
Tue Jul 17 11:35:17 IDT 2012	Chips to send by responder: { chips  'CTRed':0 'CTPurple':0 'CTGreen':0 'grey78':2 'CTYellow':0 }
Tue Jul 17 11:35:18 IDT 2012	Received communication message 
Tue Jul 17 11:35:18 IDT 2012	From player: 337
Tue Jul 17 11:35:18 IDT 2012	To player: 999
Tue Jul 17 11:35:18 IDT 2012	Message type: basicproposaldiscussion
Tue Jul 17 11:35:18 IDT 2012	Player 337 rejected offer
Tue Jul 17 11:35:18 IDT 2012	Set counter offers count to: 0
Tue Jul 17 11:35:18 IDT 2012	A Phase Ended: Communication Phase
Tue Jul 17 11:35:18 IDT 2012	Protocol: A New Phase Began: Exchange Phase
Tue Jul 17 11:35:18 IDT 2012	Protocol: Exchange phase, Round: 1
Tue Jul 17 11:35:18 IDT 2012	In begin exch.phase, get counter offers returned: 0
Tue Jul 17 11:35:57 IDT 2012	A Phase Ended: Exchange Phase
Tue Jul 17 11:35:57 IDT 2012	Responder 337 sent: { chips  }
Tue Jul 17 11:35:57 IDT 2012	Protocol: A New Phase Began: Movement Phase
Tue Jul 17 11:35:57 IDT 2012	Protocol: Movement phase, Round: 1
Tue Jul 17 11:36:17 IDT 2012	A Phase Ended: Movement Phase
Tue Jul 17 11:36:17 IDT 2012	Protocol: A New Phase Began: Feedback Phase
Tue Jul 17 11:36:17 IDT 2012	Protocol: Feedback phase, Round: 1
Tue Jul 17 11:36:17 IDT 2012	Number of consecutive no movements for player 999 is 2
Tue Jul 17 11:36:17 IDT 2012	Number of consecutive no movements for player 337 is 2
Tue Jul 17 11:36:22 IDT 2012	A Phase Ended: Feedback Phase
Tue Jul 17 11:36:22 IDT 2012	Protocol: A New Phase Began: Communication Phase
Tue Jul 17 11:36:22 IDT 2012	Protocol: Communication phase, Round: 2
Tue Jul 17 11:36:38 IDT 2012	Received communication message 
Tue Jul 17 11:36:38 IDT 2012	From player: 999
Tue Jul 17 11:36:38 IDT 2012	To player: 337
Tue Jul 17 11:36:38 IDT 2012	Message type: basicproposal
Tue Jul 17 11:36:38 IDT 2012	Chips to send by proposer: { chips  'CTRed':0 'CTPurple':0 'CTGreen':0 'grey78':0 'CTYellow':2 }
Tue Jul 17 11:36:38 IDT 2012	Chips to send by responder: { chips  'CTRed':0 'CTPurple':0 'CTGreen':0 'grey78':2 'CTYellow':0 }
Tue Jul 17 11:36:43 IDT 2012	Received communication message 
Tue Jul 17 11:36:43 IDT 2012	From player: 337
Tue Jul 17 11:36:43 IDT 2012	To player: 999
Tue Jul 17 11:36:43 IDT 2012	Message type: basicproposaldiscussion
Tue Jul 17 11:36:43 IDT 2012	Player 337 accepted offer
Tue Jul 17 11:36:43 IDT 2012	Prop accepted, set counter offers count to: 0
Tue Jul 17 11:36:43 IDT 2012	Prop accepted, get counter offers returned: 0
Tue Jul 17 11:36:43 IDT 2012	A Phase Ended: Communication Phase
Tue Jul 17 11:36:43 IDT 2012	Protocol: A New Phase Began: Exchange Phase
Tue Jul 17 11:36:43 IDT 2012	Protocol: Exchange phase, Round: 2
Tue Jul 17 11:36:43 IDT 2012	In begin exch.phase, get counter offers returned: 0
Tue Jul 17 11:36:43 IDT 2012	A Phase Ended: Exchange Phase
Tue Jul 17 11:36:43 IDT 2012	Proposer 999 sent: { chips  'CTRed':0 'CTPurple':0 'CTGreen':0 'grey78':0 'CTYellow':2 }
Tue Jul 17 11:36:43 IDT 2012	Responder 337 sent: { chips  'CTRed':0 'CTPurple':0 'CTGreen':0 'grey78':1 'CTYellow':0 }
Tue Jul 17 11:36:43 IDT 2012	Protocol: A New Phase Began: Movement Phase
Tue Jul 17 11:36:43 IDT 2012	Protocol: Movement phase, Round: 2
Tue Jul 17 11:36:43 IDT 2012	Player 999 moved to (R:6,C:1)
Tue Jul 17 11:36:43 IDT 2012	Player 337 moved to (R:6,C:3)
Tue Jul 17 11:37:02 IDT 2012	A Phase Ended: Movement Phase
Tue Jul 17 11:37:02 IDT 2012	Swaping roles:
Tue Jul 17 11:37:02 IDT 2012	Proposer is: 337
Tue Jul 17 11:37:02 IDT 2012	Responder is: 999
Tue Jul 17 11:37:02 IDT 2012	Protocol: A New Phase Began: Feedback Phase
Tue Jul 17 11:37:02 IDT 2012	Protocol: Feedback phase, Round: 2
Tue Jul 17 11:37:02 IDT 2012	Number of consecutive no movements for player 999 is 0
Tue Jul 17 11:37:02 IDT 2012	Number of consecutive no movements for player 337 is 0
Tue Jul 17 11:37:07 IDT 2012	A Phase Ended: Feedback Phase
Tue Jul 17 11:37:07 IDT 2012	Protocol: A New Phase Began: Communication Phase
Tue Jul 17 11:37:07 IDT 2012	Protocol: Communication phase, Round: 3
Tue Jul 17 11:37:10 IDT 2012	Received communication message 
Tue Jul 17 11:37:10 IDT 2012	From player: 337
Tue Jul 17 11:37:10 IDT 2012	To player: 999
Tue Jul 17 11:37:10 IDT 2012	Message type: basicproposal
Tue Jul 17 11:37:10 IDT 2012	Chips to send by proposer: { chips  'grey78':1 }
Tue Jul 17 11:37:10 IDT 2012	Chips to send by responder: { chips  'CTYellow':1 }
Tue Jul 17 11:37:18 IDT 2012	Received communication message 
Tue Jul 17 11:37:18 IDT 2012	From player: 999
Tue Jul 17 11:37:18 IDT 2012	To player: 337
Tue Jul 17 11:37:18 IDT 2012	Message type: basicproposaldiscussion
Tue Jul 17 11:37:18 IDT 2012	Player 999 accepted offer
Tue Jul 17 11:37:18 IDT 2012	Prop accepted, set counter offers count to: 0
Tue Jul 17 11:37:18 IDT 2012	Prop accepted, get counter offers returned: 0
Tue Jul 17 11:37:18 IDT 2012	A Phase Ended: Communication Phase
Tue Jul 17 11:37:18 IDT 2012	Protocol: A New Phase Began: Exchange Phase
Tue Jul 17 11:37:18 IDT 2012	Protocol: Exchange phase, Round: 3
Tue Jul 17 11:37:18 IDT 2012	In begin exch.phase, get counter offers returned: 0
Tue Jul 17 11:37:18 IDT 2012	A Phase Ended: Exchange Phase
Tue Jul 17 11:37:18 IDT 2012	Proposer 337 sent: { chips  'CTRed':0 'CTPurple':0 'CTGreen':0 'grey78':0 'CTYellow':0 }
Tue Jul 17 11:37:18 IDT 2012	Responder 999 sent: { chips  'CTYellow':1 }
Tue Jul 17 11:37:18 IDT 2012	Protocol: A New Phase Began: Movement Phase
Tue Jul 17 11:37:18 IDT 2012	Protocol: Movement phase, Round: 3
Tue Jul 17 11:37:38 IDT 2012	A Phase Ended: Movement Phase
Tue Jul 17 11:37:38 IDT 2012	Swaping roles:
Tue Jul 17 11:37:38 IDT 2012	Proposer is: 999
Tue Jul 17 11:37:38 IDT 2012	Responder is: 337
Tue Jul 17 11:37:38 IDT 2012	Protocol: A New Phase Began: Feedback Phase
Tue Jul 17 11:37:38 IDT 2012	Protocol: Feedback phase, Round: 3
Tue Jul 17 11:37:38 IDT 2012	Number of consecutive no movements for player 999 is 1
Tue Jul 17 11:37:38 IDT 2012	Number of consecutive no movements for player 337 is 1
Tue Jul 17 11:37:43 IDT 2012	A Phase Ended: Feedback Phase
Tue Jul 17 11:37:43 IDT 2012	Protocol: A New Phase Began: Communication Phase
Tue Jul 17 11:37:43 IDT 2012	Protocol: Communication phase, Round: 4
Tue Jul 17 11:38:03 IDT 2012	Received communication message 
Tue Jul 17 11:38:03 IDT 2012	From player: 999
Tue Jul 17 11:38:03 IDT 2012	To player: 337
Tue Jul 17 11:38:03 IDT 2012	Message type: basicproposal
Tue Jul 17 11:38:03 IDT 2012	Chips to send by proposer: { chips  'CTRed':0 'CTPurple':0 'CTGreen':1 'grey78':0 'CTYellow':1 }
Tue Jul 17 11:38:03 IDT 2012	Chips to send by responder: { chips  'CTRed':0 'CTPurple':0 'CTGreen':0 'grey78':1 'CTYellow':0 }
Tue Jul 17 11:38:04 IDT 2012	Received communication message 
Tue Jul 17 11:38:04 IDT 2012	From player: 337
Tue Jul 17 11:38:04 IDT 2012	To player: 999
Tue Jul 17 11:38:04 IDT 2012	Message type: basicproposaldiscussion
Tue Jul 17 11:38:04 IDT 2012	Player 337 accepted offer
Tue Jul 17 11:38:04 IDT 2012	Prop accepted, set counter offers count to: 0
Tue Jul 17 11:38:04 IDT 2012	Prop accepted, get counter offers returned: 0
Tue Jul 17 11:38:04 IDT 2012	A Phase Ended: Communication Phase
Tue Jul 17 11:38:04 IDT 2012	Protocol: A New Phase Began: Exchange Phase
Tue Jul 17 11:38:04 IDT 2012	Protocol: Exchange phase, Round: 4
Tue Jul 17 11:38:04 IDT 2012	In begin exch.phase, get counter offers returned: 0
Tue Jul 17 11:38:44 IDT 2012	A Phase Ended: Exchange Phase
Tue Jul 17 11:38:44 IDT 2012	Responder 337 sent: { chips  'CTRed':0 'CTPurple':0 'CTGreen':0 'grey78':0 'CTYellow':0 }
Tue Jul 17 11:38:44 IDT 2012	Protocol: A New Phase Began: Movement Phase
Tue Jul 17 11:38:44 IDT 2012	Protocol: Movement phase, Round: 4
Tue Jul 17 11:39:04 IDT 2012	A Phase Ended: Movement Phase
Tue Jul 17 11:39:04 IDT 2012	Swaping roles:
Tue Jul 17 11:39:04 IDT 2012	Proposer is: 337
Tue Jul 17 11:39:04 IDT 2012	Responder is: 999
Tue Jul 17 11:39:04 IDT 2012	Protocol: A New Phase Began: Feedback Phase
Tue Jul 17 11:39:04 IDT 2012	Protocol: Feedback phase, Round: 4
Tue Jul 17 11:39:04 IDT 2012	Number of consecutive no movements for player 999 is 2
Tue Jul 17 11:39:04 IDT 2012	Number of consecutive no movements for player 337 is 2
Tue Jul 17 11:39:09 IDT 2012	A Phase Ended: Feedback Phase
Tue Jul 17 11:39:09 IDT 2012	Protocol: A New Phase Began: Communication Phase
Tue Jul 17 11:39:09 IDT 2012	Protocol: Communication phase, Round: 5
Tue Jul 17 11:39:13 IDT 2012	Received communication message 
Tue Jul 17 11:39:13 IDT 2012	From player: 337
Tue Jul 17 11:39:13 IDT 2012	To player: 999
Tue Jul 17 11:39:13 IDT 2012	Message type: basicproposal
Tue Jul 17 11:39:13 IDT 2012	Chips to send by proposer: { chips  'grey78':1 }
Tue Jul 17 11:39:13 IDT 2012	Chips to send by responder: { chips  'CTGreen':1 'CTYellow':1 }
Tue Jul 17 11:39:24 IDT 2012	Received communication message 
Tue Jul 17 11:39:24 IDT 2012	From player: 999
Tue Jul 17 11:39:24 IDT 2012	To player: 337
Tue Jul 17 11:39:24 IDT 2012	Message type: basicproposaldiscussion
Tue Jul 17 11:39:24 IDT 2012	Player 999 accepted offer
Tue Jul 17 11:39:24 IDT 2012	Prop accepted, set counter offers count to: 0
Tue Jul 17 11:39:24 IDT 2012	Prop accepted, get counter offers returned: 0
Tue Jul 17 11:39:24 IDT 2012	A Phase Ended: Communication Phase
Tue Jul 17 11:39:24 IDT 2012	Protocol: A New Phase Began: Exchange Phase
Tue Jul 17 11:39:24 IDT 2012	Protocol: Exchange phase, Round: 5
Tue Jul 17 11:39:24 IDT 2012	In begin exch.phase, get counter offers returned: 0
Tue Jul 17 11:39:24 IDT 2012	A Phase Ended: Exchange Phase
Tue Jul 17 11:39:24 IDT 2012	Proposer 337 sent: { chips  'CTRed':0 'CTPurple':0 'CTGreen':0 'grey78':0 'CTYellow':0 }
Tue Jul 17 11:39:24 IDT 2012	Responder 999 sent: { chips  'CTGreen':1 'CTYellow':1 }
Tue Jul 17 11:39:24 IDT 2012	Protocol: A New Phase Began: Movement Phase
Tue Jul 17 11:39:24 IDT 2012	Protocol: Movement phase, Round: 5
Tue Jul 17 11:39:24 IDT 2012	Player 999 moved to (R:5,C:1)
Tue Jul 17 11:39:24 IDT 2012	Player 337 moved to (R:5,C:3)
Tue Jul 17 11:39:44 IDT 2012	A Phase Ended: Movement Phase
Tue Jul 17 11:39:44 IDT 2012	Swaping roles:
Tue Jul 17 11:39:44 IDT 2012	Proposer is: 999
Tue Jul 17 11:39:44 IDT 2012	Responder is: 337
Tue Jul 17 11:39:44 IDT 2012	Protocol: A New Phase Began: Feedback Phase
Tue Jul 17 11:39:44 IDT 2012	Protocol: Feedback phase, Round: 5
Tue Jul 17 11:39:44 IDT 2012	Number of consecutive no movements for player 999 is 0
Tue Jul 17 11:39:44 IDT 2012	Number of consecutive no movements for player 337 is 0
Tue Jul 17 11:39:49 IDT 2012	A Phase Ended: Feedback Phase
Tue Jul 17 11:39:49 IDT 2012	Protocol: A New Phase Began: Communication Phase
Tue Jul 17 11:39:49 IDT 2012	Protocol: Communication phase, Round: 6
Tue Jul 17 11:40:03 IDT 2012	Received communication message 
Tue Jul 17 11:40:03 IDT 2012	From player: 999
Tue Jul 17 11:40:03 IDT 2012	To player: 337
Tue Jul 17 11:40:03 IDT 2012	Message type: basicproposal
Tue Jul 17 11:40:03 IDT 2012	Chips to send by proposer: { chips  'CTRed':0 'CTPurple':0 'CTGreen':0 'grey78':0 'CTYellow':0 }
Tue Jul 17 11:40:03 IDT 2012	Chips to send by responder: { chips  'CTRed':0 'CTPurple':0 'CTGreen':0 'grey78':0 'CTYellow':0 }
Tue Jul 17 11:40:05 IDT 2012	Received communication message 
Tue Jul 17 11:40:05 IDT 2012	From player: 337
Tue Jul 17 11:40:05 IDT 2012	To player: 999
Tue Jul 17 11:40:05 IDT 2012	Message type: basicproposaldiscussion
Tue Jul 17 11:40:05 IDT 2012	Player 337 accepted offer
Tue Jul 17 11:40:05 IDT 2012	Prop accepted, set counter offers count to: 0
Tue Jul 17 11:40:05 IDT 2012	Prop accepted, get counter offers returned: 0
Tue Jul 17 11:40:05 IDT 2012	A Phase Ended: Communication Phase
Tue Jul 17 11:40:05 IDT 2012	Protocol: A New Phase Began: Exchange Phase
Tue Jul 17 11:40:05 IDT 2012	Protocol: Exchange phase, Round: 6
Tue Jul 17 11:40:05 IDT 2012	In begin exch.phase, get counter offers returned: 0
Tue Jul 17 11:40:45 IDT 2012	A Phase Ended: Exchange Phase
Tue Jul 17 11:40:45 IDT 2012	Responder 337 sent: { chips  'CTRed':0 'CTPurple':0 'CTGreen':0 'grey78':0 'CTYellow':0 }
Tue Jul 17 11:40:45 IDT 2012	Protocol: A New Phase Began: Movement Phase
Tue Jul 17 11:40:45 IDT 2012	Protocol: Movement phase, Round: 6
Tue Jul 17 11:41:05 IDT 2012	A Phase Ended: Movement Phase
Tue Jul 17 11:41:05 IDT 2012	Swaping roles:
Tue Jul 17 11:41:05 IDT 2012	Proposer is: 337
Tue Jul 17 11:41:05 IDT 2012	Responder is: 999
Tue Jul 17 11:41:05 IDT 2012	Protocol: A New Phase Began: Feedback Phase
Tue Jul 17 11:41:05 IDT 2012	Protocol: Feedback phase, Round: 6
Tue Jul 17 11:41:05 IDT 2012	Number of consecutive no movements for player 999 is 1
Tue Jul 17 11:41:05 IDT 2012	Number of consecutive no movements for player 337 is 1
Tue Jul 17 11:41:10 IDT 2012	A Phase Ended: Feedback Phase
Tue Jul 17 11:41:10 IDT 2012	Protocol: A New Phase Began: Communication Phase
Tue Jul 17 11:41:10 IDT 2012	Protocol: Communication phase, Round: 7
Tue Jul 17 11:41:11 IDT 2012	Received communication message 
Tue Jul 17 11:41:11 IDT 2012	From player: 337
Tue Jul 17 11:41:11 IDT 2012	To player: 999
Tue Jul 17 11:41:11 IDT 2012	Message type: basicproposal
Tue Jul 17 11:41:11 IDT 2012	Chips to send by proposer: { chips  'grey78':1 }
Tue Jul 17 11:41:11 IDT 2012	Chips to send by responder: { chips  'CTGreen':2 }
Tue Jul 17 11:41:22 IDT 2012	Received communication message 
Tue Jul 17 11:41:22 IDT 2012	From player: 999
Tue Jul 17 11:41:22 IDT 2012	To player: 337
Tue Jul 17 11:41:22 IDT 2012	Message type: basicproposaldiscussion
Tue Jul 17 11:41:22 IDT 2012	Player 999 accepted offer
Tue Jul 17 11:41:22 IDT 2012	Prop accepted, set counter offers count to: 0
Tue Jul 17 11:41:22 IDT 2012	Prop accepted, get counter offers returned: 0
Tue Jul 17 11:41:22 IDT 2012	A Phase Ended: Communication Phase
Tue Jul 17 11:41:22 IDT 2012	Protocol: A New Phase Began: Exchange Phase
Tue Jul 17 11:41:22 IDT 2012	Protocol: Exchange phase, Round: 7
Tue Jul 17 11:41:22 IDT 2012	In begin exch.phase, get counter offers returned: 0
Tue Jul 17 11:41:22 IDT 2012	A Phase Ended: Exchange Phase
Tue Jul 17 11:41:22 IDT 2012	Proposer 337 sent: { chips  'CTRed':0 'CTPurple':0 'CTGreen':0 'grey78':0 'CTYellow':0 }
Tue Jul 17 11:41:22 IDT 2012	Responder 999 sent: { chips  'CTGreen':2 }
Tue Jul 17 11:41:22 IDT 2012	Protocol: A New Phase Began: Movement Phase
Tue Jul 17 11:41:22 IDT 2012	Protocol: Movement phase, Round: 7
Tue Jul 17 11:41:42 IDT 2012	A Phase Ended: Movement Phase
Tue Jul 17 11:41:42 IDT 2012	Swaping roles:
Tue Jul 17 11:41:42 IDT 2012	Proposer is: 999
Tue Jul 17 11:41:42 IDT 2012	Responder is: 337
Tue Jul 17 11:41:42 IDT 2012	Protocol: A New Phase Began: Feedback Phase
Tue Jul 17 11:41:42 IDT 2012	Protocol: Feedback phase, Round: 7
Tue Jul 17 11:41:42 IDT 2012	Number of consecutive no movements for player 999 is 2
Tue Jul 17 11:41:42 IDT 2012	Number of consecutive no movements for player 337 is 2
Tue Jul 17 11:41:47 IDT 2012	A Phase Ended: Feedback Phase
Tue Jul 17 11:41:47 IDT 2012	Protocol: A New Phase Began: Communication Phase
Tue Jul 17 11:41:47 IDT 2012	Protocol: Communication phase, Round: 8
Tue Jul 17 11:42:04 IDT 2012	Received communication message 
Tue Jul 17 11:42:04 IDT 2012	From player: 999
Tue Jul 17 11:42:04 IDT 2012	To player: 337
Tue Jul 17 11:42:04 IDT 2012	Message type: basicproposal
Tue Jul 17 11:42:04 IDT 2012	Chips to send by proposer: { chips  'CTRed':0 'CTPurple':0 'CTGreen':0 'grey78':0 'CTYellow':0 }
Tue Jul 17 11:42:04 IDT 2012	Chips to send by responder: { chips  'CTRed':0 'CTPurple':0 'CTGreen':0 'grey78':0 'CTYellow':0 }
Tue Jul 17 11:42:08 IDT 2012	Received communication message 
Tue Jul 17 11:42:08 IDT 2012	From player: 337
Tue Jul 17 11:42:08 IDT 2012	To player: 999
Tue Jul 17 11:42:08 IDT 2012	Message type: basicproposaldiscussion
Tue Jul 17 11:42:08 IDT 2012	Player 337 accepted offer
Tue Jul 17 11:42:08 IDT 2012	Prop accepted, set counter offers count to: 0
Tue Jul 17 11:42:08 IDT 2012	Prop accepted, get counter offers returned: 0
Tue Jul 17 11:42:08 IDT 2012	A Phase Ended: Communication Phase
Tue Jul 17 11:42:08 IDT 2012	Protocol: A New Phase Began: Exchange Phase
Tue Jul 17 11:42:08 IDT 2012	Protocol: Exchange phase, Round: 8
Tue Jul 17 11:42:08 IDT 2012	In begin exch.phase, get counter offers returned: 0
Tue Jul 17 11:42:47 IDT 2012	A Phase Ended: Exchange Phase
Tue Jul 17 11:42:47 IDT 2012	Responder 337 sent: { chips  'CTRed':0 'CTPurple':0 'CTGreen':0 'grey78':0 'CTYellow':0 }
Tue Jul 17 11:42:47 IDT 2012	Protocol: A New Phase Began: Movement Phase
Tue Jul 17 11:42:47 IDT 2012	Protocol: Movement phase, Round: 8
Tue Jul 17 11:42:47 IDT 2012	Player 337 moved to (R:4,C:3)
Tue Jul 17 11:42:47 IDT 2012	Player 999 moved to (R:4,C:1)
Tue Jul 17 11:43:07 IDT 2012	A Phase Ended: Movement Phase
Tue Jul 17 11:43:07 IDT 2012	Swaping roles:
Tue Jul 17 11:43:07 IDT 2012	Proposer is: 337
Tue Jul 17 11:43:07 IDT 2012	Responder is: 999
Tue Jul 17 11:43:07 IDT 2012	Protocol: A New Phase Began: Feedback Phase
Tue Jul 17 11:43:07 IDT 2012	Protocol: Feedback phase, Round: 8
Tue Jul 17 11:43:07 IDT 2012	Number of consecutive no movements for player 999 is 0
Tue Jul 17 11:43:07 IDT 2012	Number of consecutive no movements for player 337 is 0
Tue Jul 17 11:43:12 IDT 2012	A Phase Ended: Feedback Phase
Tue Jul 17 11:43:12 IDT 2012	Protocol: A New Phase Began: Communication Phase
Tue Jul 17 11:43:12 IDT 2012	Protocol: Communication phase, Round: 9
Tue Jul 17 11:43:15 IDT 2012	Received communication message 
Tue Jul 17 11:43:15 IDT 2012	From player: 337
Tue Jul 17 11:43:15 IDT 2012	To player: 999
Tue Jul 17 11:43:15 IDT 2012	Message type: basicproposal
Tue Jul 17 11:43:15 IDT 2012	Chips to send by proposer: { chips  'grey78':1 }
Tue Jul 17 11:43:15 IDT 2012	Chips to send by responder: { chips  'CTGreen':2 }
Tue Jul 17 11:43:27 IDT 2012	Received communication message 
Tue Jul 17 11:43:27 IDT 2012	From player: 999
Tue Jul 17 11:43:27 IDT 2012	To player: 337
Tue Jul 17 11:43:27 IDT 2012	Message type: basicproposaldiscussion
Tue Jul 17 11:43:27 IDT 2012	Player 999 accepted offer
Tue Jul 17 11:43:27 IDT 2012	Prop accepted, set counter offers count to: 0
Tue Jul 17 11:43:27 IDT 2012	Prop accepted, get counter offers returned: 0
Tue Jul 17 11:43:27 IDT 2012	A Phase Ended: Communication Phase
Tue Jul 17 11:43:27 IDT 2012	Protocol: A New Phase Began: Exchange Phase
Tue Jul 17 11:43:27 IDT 2012	Protocol: Exchange phase, Round: 9
Tue Jul 17 11:43:27 IDT 2012	In begin exch.phase, get counter offers returned: 0
Tue Jul 17 11:43:27 IDT 2012	A Phase Ended: Exchange Phase
Tue Jul 17 11:43:27 IDT 2012	Proposer 337 sent: { chips  'CTRed':0 'CTPurple':0 'CTGreen':0 'grey78':0 'CTYellow':0 }
Tue Jul 17 11:43:27 IDT 2012	Responder 999 sent: { chips  'CTGreen':2 }
Tue Jul 17 11:43:27 IDT 2012	Protocol: A New Phase Began: Movement Phase
Tue Jul 17 11:43:27 IDT 2012	Protocol: Movement phase, Round: 9
Tue Jul 17 11:43:46 IDT 2012	A Phase Ended: Movement Phase
Tue Jul 17 11:43:46 IDT 2012	Swaping roles:
Tue Jul 17 11:43:46 IDT 2012	Proposer is: 999
Tue Jul 17 11:43:46 IDT 2012	Responder is: 337
Tue Jul 17 11:43:46 IDT 2012	Protocol: A New Phase Began: Feedback Phase
Tue Jul 17 11:43:46 IDT 2012	Protocol: Feedback phase, Round: 9
Tue Jul 17 11:43:46 IDT 2012	Number of consecutive no movements for player 999 is 1
Tue Jul 17 11:43:46 IDT 2012	Number of consecutive no movements for player 337 is 1
Tue Jul 17 11:43:51 IDT 2012	A Phase Ended: Feedback Phase
Tue Jul 17 11:43:51 IDT 2012	Protocol: A New Phase Began: Communication Phase
Tue Jul 17 11:43:51 IDT 2012	Protocol: Communication phase, Round: 10
Tue Jul 17 11:44:04 IDT 2012	Received communication message 
Tue Jul 17 11:44:04 IDT 2012	From player: 999
Tue Jul 17 11:44:04 IDT 2012	To player: 337
Tue Jul 17 11:44:04 IDT 2012	Message type: basicproposal
Tue Jul 17 11:44:04 IDT 2012	Chips to send by proposer: { chips  'CTRed':0 'CTPurple':0 'CTGreen':0 'grey78':0 'CTYellow':0 }
Tue Jul 17 11:44:04 IDT 2012	Chips to send by responder: { chips  'CTRed':0 'CTPurple':0 'CTGreen':0 'grey78':0 'CTYellow':0 }
Tue Jul 17 11:44:05 IDT 2012	Received communication message 
Tue Jul 17 11:44:05 IDT 2012	From player: 337
Tue Jul 17 11:44:05 IDT 2012	To player: 999
Tue Jul 17 11:44:05 IDT 2012	Message type: basicproposaldiscussion
Tue Jul 17 11:44:05 IDT 2012	Player 337 accepted offer
Tue Jul 17 11:44:05 IDT 2012	Prop accepted, set counter offers count to: 0
Tue Jul 17 11:44:05 IDT 2012	Prop accepted, get counter offers returned: 0
Tue Jul 17 11:44:05 IDT 2012	A Phase Ended: Communication Phase
Tue Jul 17 11:44:05 IDT 2012	Protocol: A New Phase Began: Exchange Phase
Tue Jul 17 11:44:05 IDT 2012	Protocol: Exchange phase, Round: 10
Tue Jul 17 11:44:05 IDT 2012	In begin exch.phase, get counter offers returned: 0
Tue Jul 17 11:44:44 IDT 2012	A Phase Ended: Exchange Phase
Tue Jul 17 11:44:44 IDT 2012	Responder 337 sent: { chips  'CTRed':0 'CTPurple':0 'CTGreen':0 'grey78':0 'CTYellow':0 }
Tue Jul 17 11:44:44 IDT 2012	Protocol: A New Phase Began: Movement Phase
Tue Jul 17 11:44:44 IDT 2012	Protocol: Movement phase, Round: 10
Tue Jul 17 11:45:04 IDT 2012	A Phase Ended: Movement Phase
Tue Jul 17 11:45:04 IDT 2012	Swaping roles:
Tue Jul 17 11:45:04 IDT 2012	Proposer is: 337
Tue Jul 17 11:45:04 IDT 2012	Responder is: 999
Tue Jul 17 11:45:04 IDT 2012	Protocol: A New Phase Began: Feedback Phase
Tue Jul 17 11:45:04 IDT 2012	Protocol: Feedback phase, Round: 10
Tue Jul 17 11:45:04 IDT 2012	Number of consecutive no movements for player 999 is 2
Tue Jul 17 11:45:04 IDT 2012	Number of consecutive no movements for player 337 is 2
Tue Jul 17 11:45:09 IDT 2012	A Phase Ended: Feedback Phase
Tue Jul 17 11:45:09 IDT 2012	Protocol: A New Phase Began: Communication Phase
Tue Jul 17 11:45:09 IDT 2012	Protocol: Communication phase, Round: 11
Tue Jul 17 11:45:14 IDT 2012	Received communication message 
Tue Jul 17 11:45:14 IDT 2012	From player: 337
Tue Jul 17 11:45:14 IDT 2012	To player: 999
Tue Jul 17 11:45:14 IDT 2012	Message type: basicproposal
Tue Jul 17 11:45:14 IDT 2012	Chips to send by proposer: { chips  'grey78':1 }
Tue Jul 17 11:45:14 IDT 2012	Chips to send by responder: { chips  'CTGreen':1 'CTYellow':1 }
Tue Jul 17 11:45:24 IDT 2012	Received communication message 
Tue Jul 17 11:45:24 IDT 2012	From player: 999
Tue Jul 17 11:45:24 IDT 2012	To player: 337
Tue Jul 17 11:45:24 IDT 2012	Message type: basicproposaldiscussion
Tue Jul 17 11:45:24 IDT 2012	Player 999 accepted offer
Tue Jul 17 11:45:24 IDT 2012	Prop accepted, set counter offers count to: 0
Tue Jul 17 11:45:24 IDT 2012	Prop accepted, get counter offers returned: 0
Tue Jul 17 11:45:24 IDT 2012	A Phase Ended: Communication Phase
Tue Jul 17 11:45:24 IDT 2012	Protocol: A New Phase Began: Exchange Phase
Tue Jul 17 11:45:24 IDT 2012	Protocol: Exchange phase, Round: 11
Tue Jul 17 11:45:24 IDT 2012	In begin exch.phase, get counter offers returned: 0
Tue Jul 17 11:45:24 IDT 2012	A Phase Ended: Exchange Phase
Tue Jul 17 11:45:24 IDT 2012	Proposer 337 sent: { chips  'CTRed':0 'CTPurple':0 'CTGreen':0 'grey78':0 'CTYellow':0 }
Tue Jul 17 11:45:24 IDT 2012	Responder 999 sent: { chips  'CTGreen':1 'CTYellow':1 }
Tue Jul 17 11:45:24 IDT 2012	Protocol: A New Phase Began: Movement Phase
Tue Jul 17 11:45:24 IDT 2012	Protocol: Movement phase, Round: 11
Tue Jul 17 11:45:24 IDT 2012	Player 337 moved to (R:3,C:3)
Tue Jul 17 11:45:24 IDT 2012	Player 999 moved to (R:3,C:1)
Tue Jul 17 11:45:43 IDT 2012	A Phase Ended: Movement Phase
Tue Jul 17 11:45:43 IDT 2012	Swaping roles:
Tue Jul 17 11:45:43 IDT 2012	Proposer is: 999
Tue Jul 17 11:45:43 IDT 2012	Responder is: 337
Tue Jul 17 11:45:43 IDT 2012	Protocol: A New Phase Began: Feedback Phase
Tue Jul 17 11:45:43 IDT 2012	Protocol: Feedback phase, Round: 11
Tue Jul 17 11:45:43 IDT 2012	Number of consecutive no movements for player 999 is 0
Tue Jul 17 11:45:43 IDT 2012	Number of consecutive no movements for player 337 is 0
Tue Jul 17 11:45:48 IDT 2012	A Phase Ended: Feedback Phase
Tue Jul 17 11:45:48 IDT 2012	Protocol: A New Phase Began: Communication Phase
Tue Jul 17 11:45:48 IDT 2012	Protocol: Communication phase, Round: 12
Tue Jul 17 11:46:00 IDT 2012	Received communication message 
Tue Jul 17 11:46:00 IDT 2012	From player: 999
Tue Jul 17 11:46:00 IDT 2012	To player: 337
Tue Jul 17 11:46:00 IDT 2012	Message type: basicproposal
Tue Jul 17 11:46:00 IDT 2012	Chips to send by proposer: { chips  'CTRed':0 'CTPurple':0 'CTGreen':0 'grey78':0 'CTYellow':0 }
Tue Jul 17 11:46:00 IDT 2012	Chips to send by responder: { chips  'CTRed':0 'CTPurple':0 'CTGreen':0 'grey78':0 'CTYellow':0 }
Tue Jul 17 11:46:03 IDT 2012	Received communication message 
Tue Jul 17 11:46:03 IDT 2012	From player: 337
Tue Jul 17 11:46:03 IDT 2012	To player: 999
Tue Jul 17 11:46:03 IDT 2012	Message type: basicproposaldiscussion
Tue Jul 17 11:46:03 IDT 2012	Player 337 accepted offer
Tue Jul 17 11:46:03 IDT 2012	Prop accepted, set counter offers count to: 0
Tue Jul 17 11:46:03 IDT 2012	Prop accepted, get counter offers returned: 0
Tue Jul 17 11:46:03 IDT 2012	A Phase Ended: Communication Phase
Tue Jul 17 11:46:03 IDT 2012	Protocol: A New Phase Began: Exchange Phase
Tue Jul 17 11:46:03 IDT 2012	Protocol: Exchange phase, Round: 12
Tue Jul 17 11:46:03 IDT 2012	In begin exch.phase, get counter offers returned: 0
Tue Jul 17 11:46:42 IDT 2012	A Phase Ended: Exchange Phase
Tue Jul 17 11:46:42 IDT 2012	Responder 337 sent: { chips  'CTRed':0 'CTPurple':0 'CTGreen':0 'grey78':0 'CTYellow':0 }
Tue Jul 17 11:46:42 IDT 2012	Protocol: A New Phase Began: Movement Phase
Tue Jul 17 11:46:42 IDT 2012	Protocol: Movement phase, Round: 12
Tue Jul 17 11:47:02 IDT 2012	A Phase Ended: Movement Phase
Tue Jul 17 11:47:02 IDT 2012	Swaping roles:
Tue Jul 17 11:47:02 IDT 2012	Proposer is: 337
Tue Jul 17 11:47:02 IDT 2012	Responder is: 999
Tue Jul 17 11:47:02 IDT 2012	Protocol: A New Phase Began: Feedback Phase
Tue Jul 17 11:47:02 IDT 2012	Protocol: Feedback phase, Round: 12
Tue Jul 17 11:47:02 IDT 2012	Number of consecutive no movements for player 999 is 1
Tue Jul 17 11:47:02 IDT 2012	Number of consecutive no movements for player 337 is 1
Tue Jul 17 11:47:07 IDT 2012	A Phase Ended: Feedback Phase
Tue Jul 17 11:47:07 IDT 2012	Protocol: A New Phase Began: Communication Phase
Tue Jul 17 11:47:07 IDT 2012	Protocol: Communication phase, Round: 13
Tue Jul 17 11:47:09 IDT 2012	Received communication message 
Tue Jul 17 11:47:09 IDT 2012	From player: 337
Tue Jul 17 11:47:09 IDT 2012	To player: 999
Tue Jul 17 11:47:09 IDT 2012	Message type: basicproposal
Tue Jul 17 11:47:09 IDT 2012	Chips to send by proposer: { chips  'grey78':1 }
Tue Jul 17 11:47:09 IDT 2012	Chips to send by responder: { chips  'CTGreen':1 'CTYellow':1 }
Tue Jul 17 11:47:23 IDT 2012	Received communication message 
Tue Jul 17 11:47:23 IDT 2012	From player: 999
Tue Jul 17 11:47:23 IDT 2012	To player: 337
Tue Jul 17 11:47:23 IDT 2012	Message type: basicproposaldiscussion
Tue Jul 17 11:47:23 IDT 2012	Player 999 accepted offer
Tue Jul 17 11:47:23 IDT 2012	Prop accepted, set counter offers count to: 0
Tue Jul 17 11:47:23 IDT 2012	Prop accepted, get counter offers returned: 0
Tue Jul 17 11:47:23 IDT 2012	A Phase Ended: Communication Phase
Tue Jul 17 11:47:23 IDT 2012	Protocol: A New Phase Began: Exchange Phase
Tue Jul 17 11:47:23 IDT 2012	Protocol: Exchange phase, Round: 13
Tue Jul 17 11:47:23 IDT 2012	In begin exch.phase, get counter offers returned: 0
Tue Jul 17 11:47:23 IDT 2012	A Phase Ended: Exchange Phase
Tue Jul 17 11:47:23 IDT 2012	Proposer 337 sent: { chips  'CTRed':0 'CTPurple':0 'CTGreen':0 'grey78':0 'CTYellow':0 }
Tue Jul 17 11:47:23 IDT 2012	Responder 999 sent: { chips  'CTGreen':1 'CTYellow':1 }
Tue Jul 17 11:47:23 IDT 2012	Protocol: A New Phase Began: Movement Phase
Tue Jul 17 11:47:23 IDT 2012	Protocol: Movement phase, Round: 13
Tue Jul 17 11:47:42 IDT 2012	A Phase Ended: Movement Phase
Tue Jul 17 11:47:42 IDT 2012	Swaping roles:
Tue Jul 17 11:47:42 IDT 2012	Proposer is: 999
Tue Jul 17 11:47:42 IDT 2012	Responder is: 337
Tue Jul 17 11:47:42 IDT 2012	Protocol: A New Phase Began: Feedback Phase
Tue Jul 17 11:47:42 IDT 2012	Protocol: Feedback phase, Round: 13
Tue Jul 17 11:47:42 IDT 2012	Number of consecutive no movements for player 999 is 2
Tue Jul 17 11:47:42 IDT 2012	Number of consecutive no movements for player 337 is 2
Tue Jul 17 11:47:47 IDT 2012	A Phase Ended: Feedback Phase
Tue Jul 17 11:47:48 IDT 2012	Protocol: A New Phase Began: Communication Phase
Tue Jul 17 11:47:48 IDT 2012	Protocol: Communication phase, Round: 14
Tue Jul 17 11:48:02 IDT 2012	Received communication message 
Tue Jul 17 11:48:02 IDT 2012	From player: 999
Tue Jul 17 11:48:02 IDT 2012	To player: 337
Tue Jul 17 11:48:02 IDT 2012	Message type: basicproposal
Tue Jul 17 11:48:02 IDT 2012	Chips to send by proposer: { chips  'CTRed':0 'CTPurple':0 'CTGreen':0 'grey78':0 'CTYellow':0 }
Tue Jul 17 11:48:02 IDT 2012	Chips to send by responder: { chips  'CTRed':0 'CTPurple':0 'CTGreen':0 'grey78':0 'CTYellow':0 }
Tue Jul 17 11:48:05 IDT 2012	Received communication message 
Tue Jul 17 11:48:05 IDT 2012	From player: 337
Tue Jul 17 11:48:05 IDT 2012	To player: 999
Tue Jul 17 11:48:05 IDT 2012	Message type: basicproposaldiscussion
Tue Jul 17 11:48:05 IDT 2012	Player 337 accepted offer
Tue Jul 17 11:48:05 IDT 2012	Prop accepted, set counter offers count to: 0
Tue Jul 17 11:48:05 IDT 2012	Prop accepted, get counter offers returned: 0
Tue Jul 17 11:48:05 IDT 2012	A Phase Ended: Communication Phase
Tue Jul 17 11:48:05 IDT 2012	Protocol: A New Phase Began: Exchange Phase
Tue Jul 17 11:48:05 IDT 2012	Protocol: Exchange phase, Round: 14
Tue Jul 17 11:48:05 IDT 2012	In begin exch.phase, get counter offers returned: 0
Tue Jul 17 11:48:45 IDT 2012	A Phase Ended: Exchange Phase
Tue Jul 17 11:48:45 IDT 2012	Responder 337 sent: { chips  'CTRed':0 'CTPurple':0 'CTGreen':0 'grey78':0 'CTYellow':0 }
Tue Jul 17 11:48:45 IDT 2012	Protocol: A New Phase Began: Movement Phase
Tue Jul 17 11:48:45 IDT 2012	Protocol: Movement phase, Round: 14
Tue Jul 17 11:48:45 IDT 2012	Player 999 moved to (R:2,C:1)
Tue Jul 17 11:48:45 IDT 2012	Player 337 moved to (R:2,C:3)
Tue Jul 17 11:49:05 IDT 2012	A Phase Ended: Movement Phase
Tue Jul 17 11:49:05 IDT 2012	Swaping roles:
Tue Jul 17 11:49:05 IDT 2012	Proposer is: 337
Tue Jul 17 11:49:05 IDT 2012	Responder is: 999
Tue Jul 17 11:49:05 IDT 2012	Protocol: A New Phase Began: Feedback Phase
Tue Jul 17 11:49:05 IDT 2012	Protocol: Feedback phase, Round: 14
Tue Jul 17 11:49:05 IDT 2012	Number of consecutive no movements for player 999 is 0
Tue Jul 17 11:49:05 IDT 2012	Number of consecutive no movements for player 337 is 0
Tue Jul 17 11:49:10 IDT 2012	A Phase Ended: Feedback Phase
Tue Jul 17 11:49:10 IDT 2012	Protocol: A New Phase Began: Communication Phase
Tue Jul 17 11:49:10 IDT 2012	Protocol: Communication phase, Round: 15
Tue Jul 17 11:49:12 IDT 2012	Received communication message 
Tue Jul 17 11:49:12 IDT 2012	From player: 337
Tue Jul 17 11:49:12 IDT 2012	To player: 999
Tue Jul 17 11:49:12 IDT 2012	Message type: basicproposal
Tue Jul 17 11:49:12 IDT 2012	Chips to send by proposer: { chips  'grey78':1 }
Tue Jul 17 11:49:12 IDT 2012	Chips to send by responder: { chips  'CTGreen':1 'CTYellow':1 }
Tue Jul 17 11:49:19 IDT 2012	Received communication message 
Tue Jul 17 11:49:19 IDT 2012	From player: 999
Tue Jul 17 11:49:19 IDT 2012	To player: 337
Tue Jul 17 11:49:19 IDT 2012	Message type: basicproposaldiscussion
Tue Jul 17 11:49:19 IDT 2012	Player 999 accepted offer
Tue Jul 17 11:49:19 IDT 2012	Prop accepted, set counter offers count to: 0
Tue Jul 17 11:49:19 IDT 2012	Prop accepted, get counter offers returned: 0
Tue Jul 17 11:49:19 IDT 2012	A Phase Ended: Communication Phase
Tue Jul 17 11:49:19 IDT 2012	Protocol: A New Phase Began: Exchange Phase
Tue Jul 17 11:49:19 IDT 2012	Protocol: Exchange phase, Round: 15
Tue Jul 17 11:49:19 IDT 2012	In begin exch.phase, get counter offers returned: 0
Tue Jul 17 11:49:19 IDT 2012	A Phase Ended: Exchange Phase
Tue Jul 17 11:49:19 IDT 2012	Proposer 337 sent: { chips  'CTRed':0 'CTPurple':0 'CTGreen':0 'grey78':0 'CTYellow':0 }
Tue Jul 17 11:49:19 IDT 2012	Responder 999 sent: { chips  'CTGreen':1 'CTYellow':1 }
Tue Jul 17 11:49:19 IDT 2012	Protocol: A New Phase Began: Movement Phase
Tue Jul 17 11:49:19 IDT 2012	Protocol: Movement phase, Round: 15
Tue Jul 17 11:49:39 IDT 2012	A Phase Ended: Movement Phase
Tue Jul 17 11:49:39 IDT 2012	Swaping roles:
Tue Jul 17 11:49:39 IDT 2012	Proposer is: 999
Tue Jul 17 11:49:39 IDT 2012	Responder is: 337
Tue Jul 17 11:49:39 IDT 2012	Protocol: A New Phase Began: Feedback Phase
Tue Jul 17 11:49:39 IDT 2012	Protocol: Feedback phase, Round: 15
Tue Jul 17 11:49:39 IDT 2012	Number of consecutive no movements for player 999 is 1
Tue Jul 17 11:49:39 IDT 2012	Number of consecutive no movements for player 337 is 1
Tue Jul 17 11:49:44 IDT 2012	A Phase Ended: Feedback Phase
Tue Jul 17 11:49:44 IDT 2012	Protocol: A New Phase Began: Communication Phase
Tue Jul 17 11:49:44 IDT 2012	Protocol: Communication phase, Round: 16
Tue Jul 17 11:50:04 IDT 2012	Received communication message 
Tue Jul 17 11:50:04 IDT 2012	From player: 999
Tue Jul 17 11:50:04 IDT 2012	To player: 337
Tue Jul 17 11:50:04 IDT 2012	Message type: basicproposal
Tue Jul 17 11:50:04 IDT 2012	Chips to send by proposer: { chips  'CTRed':0 'CTPurple':0 'CTGreen':0 'grey78':0 'CTYellow':0 }
Tue Jul 17 11:50:04 IDT 2012	Chips to send by responder: { chips  'CTRed':0 'CTPurple':0 'CTGreen':0 'grey78':0 'CTYellow':0 }
Tue Jul 17 11:50:05 IDT 2012	Received communication message 
Tue Jul 17 11:50:05 IDT 2012	From player: 337
Tue Jul 17 11:50:05 IDT 2012	To player: 999
Tue Jul 17 11:50:05 IDT 2012	Message type: basicproposaldiscussion
Tue Jul 17 11:50:05 IDT 2012	Player 337 accepted offer
Tue Jul 17 11:50:05 IDT 2012	Prop accepted, set counter offers count to: 0
Tue Jul 17 11:50:05 IDT 2012	Prop accepted, get counter offers returned: 0
Tue Jul 17 11:50:05 IDT 2012	A Phase Ended: Communication Phase
Tue Jul 17 11:50:05 IDT 2012	Protocol: A New Phase Began: Exchange Phase
Tue Jul 17 11:50:05 IDT 2012	Protocol: Exchange phase, Round: 16
Tue Jul 17 11:50:05 IDT 2012	In begin exch.phase, get counter offers returned: 0
Tue Jul 17 11:50:44 IDT 2012	A Phase Ended: Exchange Phase
Tue Jul 17 11:50:44 IDT 2012	Responder 337 sent: { chips  'CTRed':0 'CTPurple':0 'CTGreen':0 'grey78':0 'CTYellow':0 }
Tue Jul 17 11:50:44 IDT 2012	Protocol: A New Phase Began: Movement Phase
Tue Jul 17 11:50:44 IDT 2012	Protocol: Movement phase, Round: 16
Tue Jul 17 11:51:04 IDT 2012	A Phase Ended: Movement Phase
Tue Jul 17 11:51:04 IDT 2012	Swaping roles:
Tue Jul 17 11:51:04 IDT 2012	Proposer is: 337
Tue Jul 17 11:51:04 IDT 2012	Responder is: 999
Tue Jul 17 11:51:04 IDT 2012	Protocol: A New Phase Began: Feedback Phase
Tue Jul 17 11:51:04 IDT 2012	Protocol: Feedback phase, Round: 16
Tue Jul 17 11:51:04 IDT 2012	Number of consecutive no movements for player 999 is 2
Tue Jul 17 11:51:04 IDT 2012	Number of consecutive no movements for player 337 is 2
Tue Jul 17 11:51:09 IDT 2012	A Phase Ended: Feedback Phase
Tue Jul 17 11:51:09 IDT 2012	Protocol: A New Phase Began: Communication Phase
Tue Jul 17 11:51:09 IDT 2012	Protocol: Communication phase, Round: 17
Tue Jul 17 11:51:15 IDT 2012	Received communication message 
Tue Jul 17 11:51:15 IDT 2012	From player: 337
Tue Jul 17 11:51:15 IDT 2012	To player: 999
Tue Jul 17 11:51:15 IDT 2012	Message type: basicproposal
Tue Jul 17 11:51:15 IDT 2012	Chips to send by proposer: { chips  'grey78':1 }
Tue Jul 17 11:51:15 IDT 2012	Chips to send by responder: { chips  'CTGreen':2 }
Tue Jul 17 11:51:29 IDT 2012	Received communication message 
Tue Jul 17 11:51:29 IDT 2012	From player: 999
Tue Jul 17 11:51:29 IDT 2012	To player: 337
Tue Jul 17 11:51:29 IDT 2012	Message type: basicproposaldiscussion
Tue Jul 17 11:51:29 IDT 2012	Player 999 accepted offer
Tue Jul 17 11:51:29 IDT 2012	Prop accepted, set counter offers count to: 0
Tue Jul 17 11:51:29 IDT 2012	Prop accepted, get counter offers returned: 0
Tue Jul 17 11:51:29 IDT 2012	A Phase Ended: Communication Phase
Tue Jul 17 11:51:29 IDT 2012	Protocol: A New Phase Began: Exchange Phase
Tue Jul 17 11:51:29 IDT 2012	Protocol: Exchange phase, Round: 17
Tue Jul 17 11:51:29 IDT 2012	In begin exch.phase, get counter offers returned: 0
Tue Jul 17 11:51:29 IDT 2012	A Phase Ended: Exchange Phase
Tue Jul 17 11:51:29 IDT 2012	Proposer 337 sent: { chips  'CTRed':0 'CTPurple':0 'CTGreen':0 'grey78':0 'CTYellow':0 }
Tue Jul 17 11:51:29 IDT 2012	Responder 999 sent: { chips  'CTGreen':2 }
Tue Jul 17 11:51:29 IDT 2012	Protocol: A New Phase Began: Movement Phase
Tue Jul 17 11:51:29 IDT 2012	Protocol: Movement phase, Round: 17
Tue Jul 17 11:51:29 IDT 2012	Player 337 moved to (R:1,C:3)
Tue Jul 17 11:51:48 IDT 2012	A Phase Ended: Movement Phase
Tue Jul 17 11:51:48 IDT 2012	Swaping roles:
Tue Jul 17 11:51:48 IDT 2012	Proposer is: 999
Tue Jul 17 11:51:48 IDT 2012	Responder is: 337
Tue Jul 17 11:51:48 IDT 2012	Protocol: A New Phase Began: Feedback Phase
Tue Jul 17 11:51:48 IDT 2012	Protocol: Feedback phase, Round: 17
Tue Jul 17 11:51:48 IDT 2012	Number of consecutive no movements for player 999 is 3
Tue Jul 17 11:51:48 IDT 2012	Number of consecutive no movements for player 337 is 0
Tue Jul 17 11:51:48 IDT 2012	Ending game, all players move as much as they can towards goal
Tue Jul 17 11:51:48 IDT 2012	Player: 999 ,role: Proposer score is: -20
Tue Jul 17 11:51:48 IDT 2012	Player: 337 ,role: Responder score is: 265
