Mon Jul 16 22:08:14 IDT 2012	This is the CT debug logger; svn version 638; sep 27 09
Mon Jul 16 22:08:14 IDT 2012	Mon Jul 16 22:08:14 IDT 2012
Mon Jul 16 22:08:14 IDT 2012	A new Alternative Offers game has began
Mon Jul 16 22:08:14 IDT 2012	ID Number: 34924
Mon Jul 16 22:08:14 IDT 2012	Creating board
Mon Jul 16 22:08:14 IDT 2012	<colors>
Mon Jul 16 22:08:14 IDT 2012	{ GamePalette  'CTRed':0 'CTPurple':1 'CTGreen':2 'grey78':3 'CTYellow':4 }
Mon Jul 16 22:08:14 IDT 2012	<rows>
Mon Jul 16 22:08:14 IDT 2012	7
Mon Jul 16 22:08:14 IDT 2012	<columns>
Mon Jul 16 22:08:14 IDT 2012	5
Mon Jul 16 22:08:14 IDT 2012	<squaresColors>
Mon Jul 16 22:08:14 IDT 2012	CTPurple CTRed CTRed CTGreen CTPurple 
Mon Jul 16 22:08:14 IDT 2012	CTPurple grey78 CTPurple CTYellow CTPurple 
Mon Jul 16 22:08:14 IDT 2012	CTPurple CTRed CTPurple CTGreen CTPurple 
Mon Jul 16 22:08:14 IDT 2012	CTPurple grey78 CTPurple CTYellow CTPurple 
Mon Jul 16 22:08:14 IDT 2012	CTPurple CTRed CTPurple CTGreen CTPurple 
Mon Jul 16 22:08:14 IDT 2012	CTPurple grey78 CTPurple CTYellow CTPurple 
Mon Jul 16 22:08:14 IDT 2012	CTPurple CTRed CTPurple CTGreen CTPurple 
Mon Jul 16 22:08:14 IDT 2012	</squareColors>
Mon Jul 16 22:08:14 IDT 2012	<goalPosition>
Mon Jul 16 22:08:14 IDT 2012	Goal position: (R:0,C:2)
Mon Jul 16 22:08:14 IDT 2012	<numberOfPlayers>
Mon Jul 16 22:08:14 IDT 2012	2
Mon Jul 16 22:08:14 IDT 2012	<firstPlayerChips>
Mon Jul 16 22:08:14 IDT 2012	Setting chips for player: 999 id:0
Mon Jul 16 22:08:14 IDT 2012	{ chips  'CTRed':5 'CTGreen':10 'CTPurple':0 'grey78':0 'CTYellow':9 }
Mon Jul 16 22:08:14 IDT 2012	Player position: (R:6,C:0)
Mon Jul 16 22:08:14 IDT 2012	Setting chips for player: 337 id:1
Mon Jul 16 22:08:14 IDT 2012	{ chips  'CTRed':1 'CTGreen':13 'CTPurple':0 'grey78':10 'CTYellow':0 }
Mon Jul 16 22:08:14 IDT 2012	Player position: (R:6,C:4)
Mon Jul 16 22:08:15 IDT 2012	Protocol: A New Phase Began: Strategy Prep Phase
Mon Jul 16 22:08:15 IDT 2012	Protocol: Strategy Preparation phase, Round: 0
Mon Jul 16 22:08:15 IDT 2012	Maximum number of rounds with no consecutive movement is 3
Mon Jul 16 22:08:15 IDT 2012	In begin comm. phase, set counter offers count to: 0
Mon Jul 16 22:08:15 IDT 2012	In begin comm. phase, get counter offers returned: 0
Mon Jul 16 22:08:35 IDT 2012	A Phase Ended: Strategy Prep Phase
Mon Jul 16 22:08:35 IDT 2012	Protocol: A New Phase Began: Communication Phase
Mon Jul 16 22:08:35 IDT 2012	Protocol: Communication phase, Round: 0
Mon Jul 16 22:08:54 IDT 2012	Received communication message 
Mon Jul 16 22:08:54 IDT 2012	From player: 999
Mon Jul 16 22:08:54 IDT 2012	To player: 337
Mon Jul 16 22:08:54 IDT 2012	Message type: basicproposal
Mon Jul 16 22:08:54 IDT 2012	Chips to send by proposer: { chips  'CTRed':0 'CTPurple':0 'CTGreen':0 'grey78':0 'CTYellow':2 }
Mon Jul 16 22:08:54 IDT 2012	Chips to send by responder: { chips  'CTRed':0 'CTPurple':0 'CTGreen':0 'grey78':2 'CTYellow':0 }
Mon Jul 16 22:08:58 IDT 2012	Received communication message 
Mon Jul 16 22:08:58 IDT 2012	From player: 337
Mon Jul 16 22:08:58 IDT 2012	To player: 999
Mon Jul 16 22:08:58 IDT 2012	Message type: basicproposaldiscussion
Mon Jul 16 22:08:58 IDT 2012	Player 337 accepted offer
Mon Jul 16 22:08:58 IDT 2012	Prop accepted, set counter offers count to: 0
Mon Jul 16 22:08:58 IDT 2012	Prop accepted, get counter offers returned: 0
Mon Jul 16 22:08:58 IDT 2012	A Phase Ended: Communication Phase
Mon Jul 16 22:08:58 IDT 2012	Protocol: A New Phase Began: Exchange Phase
Mon Jul 16 22:08:58 IDT 2012	Protocol: Exchange phase, Round: 0
Mon Jul 16 22:08:58 IDT 2012	In begin exch.phase, get counter offers returned: 0
Mon Jul 16 22:08:58 IDT 2012	A Phase Ended: Exchange Phase
Mon Jul 16 22:08:58 IDT 2012	Proposer 999 sent: { chips  'CTRed':0 'CTPurple':0 'CTGreen':0 'grey78':0 'CTYellow':2 }
Mon Jul 16 22:08:58 IDT 2012	Responder 337 sent: { chips  'CTRed':0 'CTPurple':0 'CTGreen':0 'grey78':1 'CTYellow':0 }
Mon Jul 16 22:08:58 IDT 2012	Protocol: A New Phase Began: Movement Phase
Mon Jul 16 22:08:58 IDT 2012	Protocol: Movement phase, Round: 0
Mon Jul 16 22:09:17 IDT 2012	A Phase Ended: Movement Phase
Mon Jul 16 22:09:17 IDT 2012	Swaping roles:
Mon Jul 16 22:09:17 IDT 2012	Proposer is: 337
Mon Jul 16 22:09:17 IDT 2012	Responder is: 999
Mon Jul 16 22:09:17 IDT 2012	Protocol: A New Phase Began: Feedback Phase
Mon Jul 16 22:09:17 IDT 2012	Protocol: Feedback phase, Round: 0
Mon Jul 16 22:09:17 IDT 2012	Number of consecutive no movements for player 999 is 1
Mon Jul 16 22:09:17 IDT 2012	Number of consecutive no movements for player 337 is 1
Mon Jul 16 22:09:22 IDT 2012	A Phase Ended: Feedback Phase
Mon Jul 16 22:09:22 IDT 2012	Protocol: A New Phase Began: Communication Phase
Mon Jul 16 22:09:22 IDT 2012	Protocol: Communication phase, Round: 1
Mon Jul 16 22:09:24 IDT 2012	Received communication message 
Mon Jul 16 22:09:24 IDT 2012	From player: 337
Mon Jul 16 22:09:24 IDT 2012	To player: 999
Mon Jul 16 22:09:24 IDT 2012	Message type: basicproposal
Mon Jul 16 22:09:24 IDT 2012	Chips to send by proposer: { chips  'grey78':1 }
Mon Jul 16 22:09:24 IDT 2012	Chips to send by responder: { chips  'CTGreen':1 }
Mon Jul 16 22:09:36 IDT 2012	Received communication message 
Mon Jul 16 22:09:36 IDT 2012	From player: 999
Mon Jul 16 22:09:36 IDT 2012	To player: 337
Mon Jul 16 22:09:36 IDT 2012	Message type: basicproposaldiscussion
Mon Jul 16 22:09:36 IDT 2012	Player 999 rejected offer
Mon Jul 16 22:09:36 IDT 2012	Swaping roles:
Mon Jul 16 22:09:36 IDT 2012	Proposer is: 999
Mon Jul 16 22:09:36 IDT 2012	Responder is: 337
Mon Jul 16 22:09:36 IDT 2012	Prop rejected, set counter offers count to: 1
Mon Jul 16 22:09:36 IDT 2012	Prop rejected, get counter offers returned: 1
Mon Jul 16 22:09:40 IDT 2012	Slept 4 seconds
Mon Jul 16 22:09:40 IDT 2012	Sent role changed msgs
Mon Jul 16 22:09:53 IDT 2012	Received communication message 
Mon Jul 16 22:09:53 IDT 2012	From player: 999
Mon Jul 16 22:09:53 IDT 2012	To player: 337
Mon Jul 16 22:09:53 IDT 2012	Message type: basicproposal
Mon Jul 16 22:09:53 IDT 2012	Chips to send by proposer: { chips  'CTRed':0 'CTPurple':0 'CTGreen':0 'grey78':0 'CTYellow':2 }
Mon Jul 16 22:09:53 IDT 2012	Chips to send by responder: { chips  'CTRed':0 'CTPurple':0 'CTGreen':0 'grey78':2 'CTYellow':0 }
Mon Jul 16 22:09:53 IDT 2012	Received communication message 
Mon Jul 16 22:09:53 IDT 2012	From player: 337
Mon Jul 16 22:09:53 IDT 2012	To player: 999
Mon Jul 16 22:09:53 IDT 2012	Message type: basicproposaldiscussion
Mon Jul 16 22:09:53 IDT 2012	Player 337 rejected offer
Mon Jul 16 22:09:53 IDT 2012	Set counter offers count to: 0
Mon Jul 16 22:09:53 IDT 2012	A Phase Ended: Communication Phase
Mon Jul 16 22:09:53 IDT 2012	Protocol: A New Phase Began: Exchange Phase
Mon Jul 16 22:09:53 IDT 2012	Protocol: Exchange phase, Round: 1
Mon Jul 16 22:09:53 IDT 2012	In begin exch.phase, get counter offers returned: 0
Mon Jul 16 22:10:33 IDT 2012	A Phase Ended: Exchange Phase
Mon Jul 16 22:10:33 IDT 2012	Responder 337 sent: { chips  }
Mon Jul 16 22:10:33 IDT 2012	Protocol: A New Phase Began: Movement Phase
Mon Jul 16 22:10:33 IDT 2012	Protocol: Movement phase, Round: 1
Mon Jul 16 22:10:53 IDT 2012	A Phase Ended: Movement Phase
Mon Jul 16 22:10:53 IDT 2012	Protocol: A New Phase Began: Feedback Phase
Mon Jul 16 22:10:53 IDT 2012	Protocol: Feedback phase, Round: 1
Mon Jul 16 22:10:53 IDT 2012	Number of consecutive no movements for player 999 is 2
Mon Jul 16 22:10:53 IDT 2012	Number of consecutive no movements for player 337 is 2
Mon Jul 16 22:10:58 IDT 2012	A Phase Ended: Feedback Phase
Mon Jul 16 22:10:58 IDT 2012	Protocol: A New Phase Began: Communication Phase
Mon Jul 16 22:10:58 IDT 2012	Protocol: Communication phase, Round: 2
Mon Jul 16 22:11:10 IDT 2012	Received communication message 
Mon Jul 16 22:11:10 IDT 2012	From player: 999
Mon Jul 16 22:11:10 IDT 2012	To player: 337
Mon Jul 16 22:11:10 IDT 2012	Message type: basicproposal
Mon Jul 16 22:11:10 IDT 2012	Chips to send by proposer: { chips  'CTRed':0 'CTPurple':0 'CTGreen':0 'grey78':0 'CTYellow':2 }
Mon Jul 16 22:11:10 IDT 2012	Chips to send by responder: { chips  'CTRed':0 'CTPurple':0 'CTGreen':0 'grey78':2 'CTYellow':0 }
Mon Jul 16 22:11:14 IDT 2012	Received communication message 
Mon Jul 16 22:11:14 IDT 2012	From player: 337
Mon Jul 16 22:11:14 IDT 2012	To player: 999
Mon Jul 16 22:11:14 IDT 2012	Message type: basicproposaldiscussion
Mon Jul 16 22:11:14 IDT 2012	Player 337 accepted offer
Mon Jul 16 22:11:14 IDT 2012	Prop accepted, set counter offers count to: 0
Mon Jul 16 22:11:14 IDT 2012	Prop accepted, get counter offers returned: 0
Mon Jul 16 22:11:14 IDT 2012	A Phase Ended: Communication Phase
Mon Jul 16 22:11:14 IDT 2012	Protocol: A New Phase Began: Exchange Phase
Mon Jul 16 22:11:14 IDT 2012	Protocol: Exchange phase, Round: 2
Mon Jul 16 22:11:14 IDT 2012	In begin exch.phase, get counter offers returned: 0
Mon Jul 16 22:11:14 IDT 2012	A Phase Ended: Exchange Phase
Mon Jul 16 22:11:14 IDT 2012	Proposer 999 sent: { chips  'CTRed':0 'CTPurple':0 'CTGreen':0 'grey78':0 'CTYellow':2 }
Mon Jul 16 22:11:14 IDT 2012	Responder 337 sent: { chips  'CTRed':0 'CTPurple':0 'CTGreen':0 'grey78':0 'CTYellow':0 }
Mon Jul 16 22:11:14 IDT 2012	Protocol: A New Phase Began: Movement Phase
Mon Jul 16 22:11:14 IDT 2012	Protocol: Movement phase, Round: 2
Mon Jul 16 22:11:14 IDT 2012	Player 337 moved to (R:6,C:3)
Mon Jul 16 22:11:14 IDT 2012	Player 999 moved to (R:6,C:1)
Mon Jul 16 22:11:34 IDT 2012	A Phase Ended: Movement Phase
Mon Jul 16 22:11:34 IDT 2012	Swaping roles:
Mon Jul 16 22:11:34 IDT 2012	Proposer is: 337
Mon Jul 16 22:11:34 IDT 2012	Responder is: 999
Mon Jul 16 22:11:34 IDT 2012	Protocol: A New Phase Began: Feedback Phase
Mon Jul 16 22:11:34 IDT 2012	Protocol: Feedback phase, Round: 2
Mon Jul 16 22:11:34 IDT 2012	Number of consecutive no movements for player 999 is 0
Mon Jul 16 22:11:34 IDT 2012	Number of consecutive no movements for player 337 is 0
Mon Jul 16 22:11:39 IDT 2012	A Phase Ended: Feedback Phase
Mon Jul 16 22:11:39 IDT 2012	Protocol: A New Phase Began: Communication Phase
Mon Jul 16 22:11:39 IDT 2012	Protocol: Communication phase, Round: 3
Mon Jul 16 22:11:42 IDT 2012	Received communication message 
Mon Jul 16 22:11:42 IDT 2012	From player: 337
Mon Jul 16 22:11:42 IDT 2012	To player: 999
Mon Jul 16 22:11:42 IDT 2012	Message type: basicproposal
Mon Jul 16 22:11:42 IDT 2012	Chips to send by proposer: { chips  'grey78':1 }
Mon Jul 16 22:11:42 IDT 2012	Chips to send by responder: { chips  'CTGreen':1 'CTYellow':1 }
Mon Jul 16 22:11:48 IDT 2012	Received communication message 
Mon Jul 16 22:11:48 IDT 2012	From player: 999
Mon Jul 16 22:11:48 IDT 2012	To player: 337
Mon Jul 16 22:11:48 IDT 2012	Message type: basicproposaldiscussion
Mon Jul 16 22:11:48 IDT 2012	Player 999 accepted offer
Mon Jul 16 22:11:48 IDT 2012	Prop accepted, set counter offers count to: 0
Mon Jul 16 22:11:48 IDT 2012	Prop accepted, get counter offers returned: 0
Mon Jul 16 22:11:48 IDT 2012	A Phase Ended: Communication Phase
Mon Jul 16 22:11:48 IDT 2012	Protocol: A New Phase Began: Exchange Phase
Mon Jul 16 22:11:48 IDT 2012	Protocol: Exchange phase, Round: 3
Mon Jul 16 22:11:48 IDT 2012	In begin exch.phase, get counter offers returned: 0
Mon Jul 16 22:12:27 IDT 2012	A Phase Ended: Exchange Phase
Mon Jul 16 22:12:27 IDT 2012	Proposer 337 sent: { chips  'CTRed':0 'CTPurple':0 'CTGreen':0 'grey78':0 'CTYellow':0 }
Mon Jul 16 22:12:27 IDT 2012	Protocol: A New Phase Began: Movement Phase
Mon Jul 16 22:12:27 IDT 2012	Protocol: Movement phase, Round: 3
Mon Jul 16 22:12:47 IDT 2012	A Phase Ended: Movement Phase
Mon Jul 16 22:12:47 IDT 2012	Swaping roles:
Mon Jul 16 22:12:47 IDT 2012	Proposer is: 999
Mon Jul 16 22:12:47 IDT 2012	Responder is: 337
Mon Jul 16 22:12:47 IDT 2012	Protocol: A New Phase Began: Feedback Phase
Mon Jul 16 22:12:47 IDT 2012	Protocol: Feedback phase, Round: 3
Mon Jul 16 22:12:47 IDT 2012	Number of consecutive no movements for player 999 is 1
Mon Jul 16 22:12:47 IDT 2012	Number of consecutive no movements for player 337 is 1
Mon Jul 16 22:12:52 IDT 2012	A Phase Ended: Feedback Phase
Mon Jul 16 22:12:52 IDT 2012	Protocol: A New Phase Began: Communication Phase
Mon Jul 16 22:12:52 IDT 2012	Protocol: Communication phase, Round: 4
Mon Jul 16 22:13:12 IDT 2012	Received communication message 
Mon Jul 16 22:13:12 IDT 2012	From player: 999
Mon Jul 16 22:13:12 IDT 2012	To player: 337
Mon Jul 16 22:13:12 IDT 2012	Message type: basicproposal
Mon Jul 16 22:13:12 IDT 2012	Chips to send by proposer: { chips  'CTRed':0 'CTPurple':0 'CTGreen':2 'grey78':0 'CTYellow':1 }
Mon Jul 16 22:13:12 IDT 2012	Chips to send by responder: { chips  'CTRed':0 'CTPurple':0 'CTGreen':0 'grey78':2 'CTYellow':0 }
Mon Jul 16 22:13:13 IDT 2012	Received communication message 
Mon Jul 16 22:13:13 IDT 2012	From player: 337
Mon Jul 16 22:13:13 IDT 2012	To player: 999
Mon Jul 16 22:13:13 IDT 2012	Message type: basicproposaldiscussion
Mon Jul 16 22:13:13 IDT 2012	Player 337 rejected offer
Mon Jul 16 22:13:13 IDT 2012	Swaping roles:
Mon Jul 16 22:13:13 IDT 2012	Proposer is: 337
Mon Jul 16 22:13:13 IDT 2012	Responder is: 999
Mon Jul 16 22:13:13 IDT 2012	Prop rejected, set counter offers count to: 1
Mon Jul 16 22:13:13 IDT 2012	Prop rejected, get counter offers returned: 1
Mon Jul 16 22:13:17 IDT 2012	Slept 4 seconds
Mon Jul 16 22:13:17 IDT 2012	Sent role changed msgs
Mon Jul 16 22:13:18 IDT 2012	Received communication message 
Mon Jul 16 22:13:18 IDT 2012	From player: 337
Mon Jul 16 22:13:18 IDT 2012	To player: 999
Mon Jul 16 22:13:18 IDT 2012	Message type: basicproposal
Mon Jul 16 22:13:18 IDT 2012	Chips to send by proposer: { chips  'CTRed':0 'CTPurple':0 'CTGreen':0 'grey78':1 'CTYellow':0 }
Mon Jul 16 22:13:18 IDT 2012	Chips to send by responder: { chips  'CTRed':0 'CTPurple':0 'CTGreen':0 'grey78':0 'CTYellow':2 }
Mon Jul 16 22:13:32 IDT 2012	Received communication message 
Mon Jul 16 22:13:32 IDT 2012	From player: 999
Mon Jul 16 22:13:32 IDT 2012	To player: 337
Mon Jul 16 22:13:32 IDT 2012	Message type: basicproposaldiscussion
Mon Jul 16 22:13:32 IDT 2012	Player 999 accepted offer
Mon Jul 16 22:13:32 IDT 2012	Prop accepted, set counter offers count to: 0
Mon Jul 16 22:13:32 IDT 2012	Prop accepted, get counter offers returned: 0
Mon Jul 16 22:13:32 IDT 2012	A Phase Ended: Communication Phase
Mon Jul 16 22:13:32 IDT 2012	Protocol: A New Phase Began: Exchange Phase
Mon Jul 16 22:13:32 IDT 2012	Protocol: Exchange phase, Round: 4
Mon Jul 16 22:13:32 IDT 2012	In begin exch.phase, get counter offers returned: 0
Mon Jul 16 22:13:32 IDT 2012	A Phase Ended: Exchange Phase
Mon Jul 16 22:13:32 IDT 2012	Proposer 337 sent: { chips  'CTRed':0 'CTPurple':0 'CTGreen':0 'grey78':0 'CTYellow':0 }
Mon Jul 16 22:13:32 IDT 2012	Responder 999 sent: { chips  'CTRed':0 'CTPurple':0 'CTGreen':0 'grey78':0 'CTYellow':2 }
Mon Jul 16 22:13:32 IDT 2012	Protocol: A New Phase Began: Movement Phase
Mon Jul 16 22:13:32 IDT 2012	Protocol: Movement phase, Round: 4
Mon Jul 16 22:13:52 IDT 2012	A Phase Ended: Movement Phase
Mon Jul 16 22:13:52 IDT 2012	Protocol: A New Phase Began: Feedback Phase
Mon Jul 16 22:13:52 IDT 2012	Protocol: Feedback phase, Round: 4
Mon Jul 16 22:13:52 IDT 2012	Number of consecutive no movements for player 999 is 2
Mon Jul 16 22:13:52 IDT 2012	Number of consecutive no movements for player 337 is 2
Mon Jul 16 22:13:57 IDT 2012	A Phase Ended: Feedback Phase
Mon Jul 16 22:13:57 IDT 2012	Protocol: A New Phase Began: Communication Phase
Mon Jul 16 22:13:57 IDT 2012	Protocol: Communication phase, Round: 5
Mon Jul 16 22:14:01 IDT 2012	Received communication message 
Mon Jul 16 22:14:01 IDT 2012	From player: 337
Mon Jul 16 22:14:01 IDT 2012	To player: 999
Mon Jul 16 22:14:01 IDT 2012	Message type: basicproposal
Mon Jul 16 22:14:01 IDT 2012	Chips to send by proposer: { chips  'grey78':1 }
Mon Jul 16 22:14:01 IDT 2012	Chips to send by responder: { chips  'CTGreen':2 }
Mon Jul 16 22:14:15 IDT 2012	Received communication message 
Mon Jul 16 22:14:15 IDT 2012	From player: 999
Mon Jul 16 22:14:15 IDT 2012	To player: 337
Mon Jul 16 22:14:15 IDT 2012	Message type: basicproposaldiscussion
Mon Jul 16 22:14:15 IDT 2012	Player 999 accepted offer
Mon Jul 16 22:14:15 IDT 2012	Prop accepted, set counter offers count to: 0
Mon Jul 16 22:14:15 IDT 2012	Prop accepted, get counter offers returned: 0
Mon Jul 16 22:14:15 IDT 2012	A Phase Ended: Communication Phase
Mon Jul 16 22:14:15 IDT 2012	Protocol: A New Phase Began: Exchange Phase
Mon Jul 16 22:14:16 IDT 2012	Protocol: Exchange phase, Round: 5
Mon Jul 16 22:14:16 IDT 2012	In begin exch.phase, get counter offers returned: 0
Mon Jul 16 22:14:55 IDT 2012	A Phase Ended: Exchange Phase
Mon Jul 16 22:14:55 IDT 2012	Proposer 337 sent: { chips  'CTRed':0 'CTPurple':0 'CTGreen':0 'grey78':0 'CTYellow':0 }
Mon Jul 16 22:14:55 IDT 2012	Protocol: A New Phase Began: Movement Phase
Mon Jul 16 22:14:55 IDT 2012	Protocol: Movement phase, Round: 5
Mon Jul 16 22:14:55 IDT 2012	Player 337 moved to (R:5,C:3)
Mon Jul 16 22:14:55 IDT 2012	Player 999 moved to (R:5,C:1)
Mon Jul 16 22:15:15 IDT 2012	A Phase Ended: Movement Phase
Mon Jul 16 22:15:15 IDT 2012	Swaping roles:
Mon Jul 16 22:15:15 IDT 2012	Proposer is: 999
Mon Jul 16 22:15:15 IDT 2012	Responder is: 337
Mon Jul 16 22:15:15 IDT 2012	Protocol: A New Phase Began: Feedback Phase
Mon Jul 16 22:15:15 IDT 2012	Protocol: Feedback phase, Round: 5
Mon Jul 16 22:15:15 IDT 2012	Number of consecutive no movements for player 999 is 0
Mon Jul 16 22:15:15 IDT 2012	Number of consecutive no movements for player 337 is 0
Mon Jul 16 22:15:20 IDT 2012	A Phase Ended: Feedback Phase
Mon Jul 16 22:15:20 IDT 2012	Protocol: A New Phase Began: Communication Phase
Mon Jul 16 22:15:20 IDT 2012	Protocol: Communication phase, Round: 6
Mon Jul 16 22:15:34 IDT 2012	Received communication message 
Mon Jul 16 22:15:34 IDT 2012	From player: 999
Mon Jul 16 22:15:34 IDT 2012	To player: 337
Mon Jul 16 22:15:34 IDT 2012	Message type: basicproposal
Mon Jul 16 22:15:34 IDT 2012	Chips to send by proposer: { chips  'CTRed':0 'CTPurple':0 'CTGreen':3 'grey78':0 'CTYellow':2 }
Mon Jul 16 22:15:34 IDT 2012	Chips to send by responder: { chips  'CTRed':0 'CTPurple':0 'CTGreen':0 'grey78':2 'CTYellow':0 }
Mon Jul 16 22:15:37 IDT 2012	Received communication message 
Mon Jul 16 22:15:37 IDT 2012	From player: 337
Mon Jul 16 22:15:37 IDT 2012	To player: 999
Mon Jul 16 22:15:37 IDT 2012	Message type: basicproposaldiscussion
Mon Jul 16 22:15:37 IDT 2012	Player 337 rejected offer
Mon Jul 16 22:15:37 IDT 2012	Swaping roles:
Mon Jul 16 22:15:37 IDT 2012	Proposer is: 337
Mon Jul 16 22:15:37 IDT 2012	Responder is: 999
Mon Jul 16 22:15:37 IDT 2012	Prop rejected, set counter offers count to: 1
Mon Jul 16 22:15:37 IDT 2012	Prop rejected, get counter offers returned: 1
Mon Jul 16 22:15:41 IDT 2012	Slept 4 seconds
Mon Jul 16 22:15:41 IDT 2012	Sent role changed msgs
Mon Jul 16 22:15:43 IDT 2012	Received communication message 
Mon Jul 16 22:15:43 IDT 2012	From player: 337
Mon Jul 16 22:15:43 IDT 2012	To player: 999
Mon Jul 16 22:15:43 IDT 2012	Message type: basicproposal
Mon Jul 16 22:15:43 IDT 2012	Chips to send by proposer: { chips  'CTRed':0 'CTPurple':0 'CTGreen':0 'grey78':1 'CTYellow':0 }
Mon Jul 16 22:15:43 IDT 2012	Chips to send by responder: { chips  'CTRed':0 'CTPurple':0 'CTGreen':2 'grey78':0 'CTYellow':0 }
Mon Jul 16 22:15:51 IDT 2012	Received communication message 
Mon Jul 16 22:15:51 IDT 2012	From player: 999
Mon Jul 16 22:15:51 IDT 2012	To player: 337
Mon Jul 16 22:15:51 IDT 2012	Message type: basicproposaldiscussion
Mon Jul 16 22:15:51 IDT 2012	Player 999 accepted offer
Mon Jul 16 22:15:51 IDT 2012	Prop accepted, set counter offers count to: 0
Mon Jul 16 22:15:51 IDT 2012	Prop accepted, get counter offers returned: 0
Mon Jul 16 22:15:51 IDT 2012	A Phase Ended: Communication Phase
Mon Jul 16 22:15:51 IDT 2012	Protocol: A New Phase Began: Exchange Phase
Mon Jul 16 22:15:51 IDT 2012	Protocol: Exchange phase, Round: 6
Mon Jul 16 22:15:51 IDT 2012	In begin exch.phase, get counter offers returned: 0
Mon Jul 16 22:15:51 IDT 2012	A Phase Ended: Exchange Phase
Mon Jul 16 22:15:51 IDT 2012	Proposer 337 sent: { chips  'CTRed':0 'CTPurple':0 'CTGreen':0 'grey78':0 'CTYellow':0 }
Mon Jul 16 22:15:51 IDT 2012	Responder 999 sent: { chips  'CTRed':0 'CTPurple':0 'CTGreen':2 'grey78':0 'CTYellow':0 }
Mon Jul 16 22:15:51 IDT 2012	Protocol: A New Phase Began: Movement Phase
Mon Jul 16 22:15:51 IDT 2012	Protocol: Movement phase, Round: 6
Mon Jul 16 22:16:10 IDT 2012	A Phase Ended: Movement Phase
Mon Jul 16 22:16:10 IDT 2012	Protocol: A New Phase Began: Feedback Phase
Mon Jul 16 22:16:10 IDT 2012	Protocol: Feedback phase, Round: 6
Mon Jul 16 22:16:10 IDT 2012	Number of consecutive no movements for player 999 is 1
Mon Jul 16 22:16:10 IDT 2012	Number of consecutive no movements for player 337 is 1
Mon Jul 16 22:16:15 IDT 2012	A Phase Ended: Feedback Phase
Mon Jul 16 22:16:15 IDT 2012	Protocol: A New Phase Began: Communication Phase
Mon Jul 16 22:16:15 IDT 2012	Protocol: Communication phase, Round: 7
Mon Jul 16 22:16:17 IDT 2012	Received communication message 
Mon Jul 16 22:16:17 IDT 2012	From player: 337
Mon Jul 16 22:16:17 IDT 2012	To player: 999
Mon Jul 16 22:16:17 IDT 2012	Message type: basicproposal
Mon Jul 16 22:16:17 IDT 2012	Chips to send by proposer: { chips  'grey78':1 }
Mon Jul 16 22:16:17 IDT 2012	Chips to send by responder: { chips  'CTGreen':1 'CTYellow':1 }
Mon Jul 16 22:16:27 IDT 2012	Received communication message 
Mon Jul 16 22:16:27 IDT 2012	From player: 999
Mon Jul 16 22:16:27 IDT 2012	To player: 337
Mon Jul 16 22:16:27 IDT 2012	Message type: basicproposaldiscussion
Mon Jul 16 22:16:27 IDT 2012	Player 999 accepted offer
Mon Jul 16 22:16:27 IDT 2012	Prop accepted, set counter offers count to: 0
Mon Jul 16 22:16:27 IDT 2012	Prop accepted, get counter offers returned: 0
Mon Jul 16 22:16:27 IDT 2012	A Phase Ended: Communication Phase
Mon Jul 16 22:16:27 IDT 2012	Protocol: A New Phase Began: Exchange Phase
Mon Jul 16 22:16:27 IDT 2012	Protocol: Exchange phase, Round: 7
Mon Jul 16 22:16:27 IDT 2012	In begin exch.phase, get counter offers returned: 0
Mon Jul 16 22:17:06 IDT 2012	A Phase Ended: Exchange Phase
Mon Jul 16 22:17:06 IDT 2012	Proposer 337 sent: { chips  'CTRed':0 'CTPurple':0 'CTGreen':0 'grey78':0 'CTYellow':0 }
Mon Jul 16 22:17:06 IDT 2012	Protocol: A New Phase Began: Movement Phase
Mon Jul 16 22:17:06 IDT 2012	Protocol: Movement phase, Round: 7
Mon Jul 16 22:17:26 IDT 2012	A Phase Ended: Movement Phase
Mon Jul 16 22:17:26 IDT 2012	Swaping roles:
Mon Jul 16 22:17:26 IDT 2012	Proposer is: 999
Mon Jul 16 22:17:26 IDT 2012	Responder is: 337
Mon Jul 16 22:17:26 IDT 2012	Protocol: A New Phase Began: Feedback Phase
Mon Jul 16 22:17:26 IDT 2012	Protocol: Feedback phase, Round: 7
Mon Jul 16 22:17:26 IDT 2012	Number of consecutive no movements for player 999 is 2
Mon Jul 16 22:17:26 IDT 2012	Number of consecutive no movements for player 337 is 2
Mon Jul 16 22:17:31 IDT 2012	A Phase Ended: Feedback Phase
Mon Jul 16 22:17:31 IDT 2012	Protocol: A New Phase Began: Communication Phase
Mon Jul 16 22:17:31 IDT 2012	Protocol: Communication phase, Round: 8
Mon Jul 16 22:17:49 IDT 2012	Received communication message 
Mon Jul 16 22:17:49 IDT 2012	From player: 999
Mon Jul 16 22:17:49 IDT 2012	To player: 337
Mon Jul 16 22:17:49 IDT 2012	Message type: basicproposal
Mon Jul 16 22:17:50 IDT 2012	Chips to send by proposer: { chips  'CTRed':0 'CTPurple':0 'CTGreen':1 'grey78':0 'CTYellow':3 }
Mon Jul 16 22:17:50 IDT 2012	Chips to send by responder: { chips  'CTRed':0 'CTPurple':0 'CTGreen':0 'grey78':2 'CTYellow':0 }
Mon Jul 16 22:17:53 IDT 2012	Received communication message 
Mon Jul 16 22:17:53 IDT 2012	From player: 337
Mon Jul 16 22:17:53 IDT 2012	To player: 999
Mon Jul 16 22:17:53 IDT 2012	Message type: basicproposaldiscussion
Mon Jul 16 22:17:53 IDT 2012	Player 337 accepted offer
Mon Jul 16 22:17:53 IDT 2012	Prop accepted, set counter offers count to: 0
Mon Jul 16 22:17:53 IDT 2012	Prop accepted, get counter offers returned: 0
Mon Jul 16 22:17:53 IDT 2012	A Phase Ended: Communication Phase
Mon Jul 16 22:17:53 IDT 2012	Protocol: A New Phase Began: Exchange Phase
Mon Jul 16 22:17:53 IDT 2012	Protocol: Exchange phase, Round: 8
Mon Jul 16 22:17:53 IDT 2012	In begin exch.phase, get counter offers returned: 0
Mon Jul 16 22:17:53 IDT 2012	A Phase Ended: Exchange Phase
Mon Jul 16 22:17:53 IDT 2012	Proposer 999 sent: { chips  'CTRed':0 'CTPurple':0 'CTGreen':1 'grey78':0 'CTYellow':3 }
Mon Jul 16 22:17:53 IDT 2012	Responder 337 sent: { chips  'CTRed':0 'CTPurple':0 'CTGreen':0 'grey78':1 'CTYellow':0 }
Mon Jul 16 22:17:53 IDT 2012	Protocol: A New Phase Began: Movement Phase
Mon Jul 16 22:17:53 IDT 2012	Protocol: Movement phase, Round: 8
Mon Jul 16 22:17:53 IDT 2012	Player 337 moved to (R:4,C:3)
Mon Jul 16 22:17:53 IDT 2012	Player 999 moved to (R:4,C:1)
Mon Jul 16 22:18:12 IDT 2012	A Phase Ended: Movement Phase
Mon Jul 16 22:18:12 IDT 2012	Swaping roles:
Mon Jul 16 22:18:12 IDT 2012	Proposer is: 337
Mon Jul 16 22:18:12 IDT 2012	Responder is: 999
Mon Jul 16 22:18:12 IDT 2012	Protocol: A New Phase Began: Feedback Phase
Mon Jul 16 22:18:12 IDT 2012	Protocol: Feedback phase, Round: 8
Mon Jul 16 22:18:12 IDT 2012	Number of consecutive no movements for player 999 is 0
Mon Jul 16 22:18:12 IDT 2012	Number of consecutive no movements for player 337 is 0
Mon Jul 16 22:18:17 IDT 2012	A Phase Ended: Feedback Phase
Mon Jul 16 22:18:17 IDT 2012	Protocol: A New Phase Began: Communication Phase
Mon Jul 16 22:18:17 IDT 2012	Protocol: Communication phase, Round: 9
Mon Jul 16 22:18:20 IDT 2012	Received communication message 
Mon Jul 16 22:18:20 IDT 2012	From player: 337
Mon Jul 16 22:18:20 IDT 2012	To player: 999
Mon Jul 16 22:18:20 IDT 2012	Message type: basicproposal
Mon Jul 16 22:18:20 IDT 2012	Chips to send by proposer: { chips  'grey78':1 }
Mon Jul 16 22:18:20 IDT 2012	Chips to send by responder: { chips  'CTGreen':2 }
Mon Jul 16 22:18:29 IDT 2012	Received communication message 
Mon Jul 16 22:18:29 IDT 2012	From player: 999
Mon Jul 16 22:18:29 IDT 2012	To player: 337
Mon Jul 16 22:18:29 IDT 2012	Message type: basicproposaldiscussion
Mon Jul 16 22:18:29 IDT 2012	Player 999 accepted offer
Mon Jul 16 22:18:29 IDT 2012	Prop accepted, set counter offers count to: 0
Mon Jul 16 22:18:29 IDT 2012	Prop accepted, get counter offers returned: 0
Mon Jul 16 22:18:29 IDT 2012	A Phase Ended: Communication Phase
Mon Jul 16 22:18:29 IDT 2012	Protocol: A New Phase Began: Exchange Phase
Mon Jul 16 22:18:29 IDT 2012	Protocol: Exchange phase, Round: 9
Mon Jul 16 22:18:29 IDT 2012	In begin exch.phase, get counter offers returned: 0
Mon Jul 16 22:18:29 IDT 2012	A Phase Ended: Exchange Phase
Mon Jul 16 22:18:29 IDT 2012	Proposer 337 sent: { chips  'CTRed':0 'CTPurple':0 'CTGreen':0 'grey78':0 'CTYellow':0 }
Mon Jul 16 22:18:29 IDT 2012	Responder 999 sent: { chips  'CTGreen':2 }
Mon Jul 16 22:18:29 IDT 2012	Protocol: A New Phase Began: Movement Phase
Mon Jul 16 22:18:29 IDT 2012	Protocol: Movement phase, Round: 9
Mon Jul 16 22:18:49 IDT 2012	A Phase Ended: Movement Phase
Mon Jul 16 22:18:49 IDT 2012	Swaping roles:
Mon Jul 16 22:18:49 IDT 2012	Proposer is: 999
Mon Jul 16 22:18:49 IDT 2012	Responder is: 337
Mon Jul 16 22:18:49 IDT 2012	Protocol: A New Phase Began: Feedback Phase
Mon Jul 16 22:18:49 IDT 2012	Protocol: Feedback phase, Round: 9
Mon Jul 16 22:18:49 IDT 2012	Number of consecutive no movements for player 999 is 1
Mon Jul 16 22:18:49 IDT 2012	Number of consecutive no movements for player 337 is 1
Mon Jul 16 22:18:54 IDT 2012	A Phase Ended: Feedback Phase
Mon Jul 16 22:18:54 IDT 2012	Protocol: A New Phase Began: Communication Phase
Mon Jul 16 22:18:54 IDT 2012	Protocol: Communication phase, Round: 10
Mon Jul 16 22:19:06 IDT 2012	Received communication message 
Mon Jul 16 22:19:06 IDT 2012	From player: 999
Mon Jul 16 22:19:06 IDT 2012	To player: 337
Mon Jul 16 22:19:06 IDT 2012	Message type: basicproposal
Mon Jul 16 22:19:06 IDT 2012	Chips to send by proposer: { chips  'CTRed':0 'CTPurple':0 'CTGreen':0 'grey78':0 'CTYellow':0 }
Mon Jul 16 22:19:06 IDT 2012	Chips to send by responder: { chips  'CTRed':0 'CTPurple':0 'CTGreen':0 'grey78':0 'CTYellow':0 }
Mon Jul 16 22:19:07 IDT 2012	Received communication message 
Mon Jul 16 22:19:07 IDT 2012	From player: 337
Mon Jul 16 22:19:07 IDT 2012	To player: 999
Mon Jul 16 22:19:07 IDT 2012	Message type: basicproposaldiscussion
Mon Jul 16 22:19:07 IDT 2012	Player 337 accepted offer
Mon Jul 16 22:19:07 IDT 2012	Prop accepted, set counter offers count to: 0
Mon Jul 16 22:19:07 IDT 2012	Prop accepted, get counter offers returned: 0
Mon Jul 16 22:19:07 IDT 2012	A Phase Ended: Communication Phase
Mon Jul 16 22:19:07 IDT 2012	Protocol: A New Phase Began: Exchange Phase
Mon Jul 16 22:19:07 IDT 2012	Protocol: Exchange phase, Round: 10
Mon Jul 16 22:19:07 IDT 2012	In begin exch.phase, get counter offers returned: 0
Mon Jul 16 22:19:46 IDT 2012	A Phase Ended: Exchange Phase
Mon Jul 16 22:19:46 IDT 2012	Responder 337 sent: { chips  'CTRed':0 'CTPurple':0 'CTGreen':0 'grey78':0 'CTYellow':0 }
Mon Jul 16 22:19:46 IDT 2012	Protocol: A New Phase Began: Movement Phase
Mon Jul 16 22:19:46 IDT 2012	Protocol: Movement phase, Round: 10
Mon Jul 16 22:20:06 IDT 2012	A Phase Ended: Movement Phase
Mon Jul 16 22:20:06 IDT 2012	Swaping roles:
Mon Jul 16 22:20:06 IDT 2012	Proposer is: 337
Mon Jul 16 22:20:06 IDT 2012	Responder is: 999
Mon Jul 16 22:20:06 IDT 2012	Protocol: A New Phase Began: Feedback Phase
Mon Jul 16 22:20:06 IDT 2012	Protocol: Feedback phase, Round: 10
Mon Jul 16 22:20:06 IDT 2012	Number of consecutive no movements for player 999 is 2
Mon Jul 16 22:20:06 IDT 2012	Number of consecutive no movements for player 337 is 2
Mon Jul 16 22:20:11 IDT 2012	A Phase Ended: Feedback Phase
Mon Jul 16 22:20:11 IDT 2012	Protocol: A New Phase Began: Communication Phase
Mon Jul 16 22:20:11 IDT 2012	Protocol: Communication phase, Round: 11
Mon Jul 16 22:20:15 IDT 2012	Received communication message 
Mon Jul 16 22:20:15 IDT 2012	From player: 337
Mon Jul 16 22:20:15 IDT 2012	To player: 999
Mon Jul 16 22:20:15 IDT 2012	Message type: basicproposal
Mon Jul 16 22:20:15 IDT 2012	Chips to send by proposer: { chips  'grey78':1 }
Mon Jul 16 22:20:15 IDT 2012	Chips to send by responder: { chips  'CTGreen':2 }
Mon Jul 16 22:20:28 IDT 2012	Received communication message 
Mon Jul 16 22:20:28 IDT 2012	From player: 999
Mon Jul 16 22:20:28 IDT 2012	To player: 337
Mon Jul 16 22:20:28 IDT 2012	Message type: basicproposaldiscussion
Mon Jul 16 22:20:28 IDT 2012	Player 999 accepted offer
Mon Jul 16 22:20:28 IDT 2012	Prop accepted, set counter offers count to: 0
Mon Jul 16 22:20:28 IDT 2012	Prop accepted, get counter offers returned: 0
Mon Jul 16 22:20:28 IDT 2012	A Phase Ended: Communication Phase
Mon Jul 16 22:20:28 IDT 2012	Protocol: A New Phase Began: Exchange Phase
Mon Jul 16 22:20:28 IDT 2012	Protocol: Exchange phase, Round: 11
Mon Jul 16 22:20:28 IDT 2012	In begin exch.phase, get counter offers returned: 0
Mon Jul 16 22:20:28 IDT 2012	A Phase Ended: Exchange Phase
Mon Jul 16 22:20:28 IDT 2012	Proposer 337 sent: { chips  'CTRed':0 'CTPurple':0 'CTGreen':0 'grey78':0 'CTYellow':0 }
Mon Jul 16 22:20:28 IDT 2012	Responder 999 sent: { chips  'CTGreen':2 }
Mon Jul 16 22:20:28 IDT 2012	Protocol: A New Phase Began: Movement Phase
Mon Jul 16 22:20:28 IDT 2012	Protocol: Movement phase, Round: 11
Mon Jul 16 22:20:28 IDT 2012	Player 337 moved to (R:3,C:3)
Mon Jul 16 22:20:28 IDT 2012	Player 999 moved to (R:3,C:1)
Mon Jul 16 22:20:48 IDT 2012	A Phase Ended: Movement Phase
Mon Jul 16 22:20:48 IDT 2012	Swaping roles:
Mon Jul 16 22:20:48 IDT 2012	Proposer is: 999
Mon Jul 16 22:20:48 IDT 2012	Responder is: 337
Mon Jul 16 22:20:48 IDT 2012	Protocol: A New Phase Began: Feedback Phase
Mon Jul 16 22:20:48 IDT 2012	Protocol: Feedback phase, Round: 11
Mon Jul 16 22:20:48 IDT 2012	Number of consecutive no movements for player 999 is 0
Mon Jul 16 22:20:48 IDT 2012	Number of consecutive no movements for player 337 is 0
Mon Jul 16 22:20:53 IDT 2012	A Phase Ended: Feedback Phase
Mon Jul 16 22:20:53 IDT 2012	Protocol: A New Phase Began: Communication Phase
Mon Jul 16 22:20:53 IDT 2012	Protocol: Communication phase, Round: 12
Mon Jul 16 22:21:09 IDT 2012	Received communication message 
Mon Jul 16 22:21:09 IDT 2012	From player: 999
Mon Jul 16 22:21:09 IDT 2012	To player: 337
Mon Jul 16 22:21:09 IDT 2012	Message type: basicproposal
Mon Jul 16 22:21:09 IDT 2012	Chips to send by proposer: { chips  'CTRed':0 'CTPurple':0 'CTGreen':0 'grey78':0 'CTYellow':0 }
Mon Jul 16 22:21:09 IDT 2012	Chips to send by responder: { chips  'CTRed':0 'CTPurple':0 'CTGreen':0 'grey78':0 'CTYellow':0 }
Mon Jul 16 22:21:11 IDT 2012	Received communication message 
Mon Jul 16 22:21:11 IDT 2012	From player: 337
Mon Jul 16 22:21:11 IDT 2012	To player: 999
Mon Jul 16 22:21:11 IDT 2012	Message type: basicproposaldiscussion
Mon Jul 16 22:21:11 IDT 2012	Player 337 accepted offer
Mon Jul 16 22:21:11 IDT 2012	Prop accepted, set counter offers count to: 0
Mon Jul 16 22:21:11 IDT 2012	Prop accepted, get counter offers returned: 0
Mon Jul 16 22:21:11 IDT 2012	A Phase Ended: Communication Phase
Mon Jul 16 22:21:11 IDT 2012	Protocol: A New Phase Began: Exchange Phase
Mon Jul 16 22:21:11 IDT 2012	Protocol: Exchange phase, Round: 12
Mon Jul 16 22:21:11 IDT 2012	In begin exch.phase, get counter offers returned: 0
Mon Jul 16 22:21:51 IDT 2012	A Phase Ended: Exchange Phase
Mon Jul 16 22:21:51 IDT 2012	Responder 337 sent: { chips  'CTRed':0 'CTPurple':0 'CTGreen':0 'grey78':0 'CTYellow':0 }
Mon Jul 16 22:21:51 IDT 2012	Protocol: A New Phase Began: Movement Phase
Mon Jul 16 22:21:51 IDT 2012	Protocol: Movement phase, Round: 12
Mon Jul 16 22:22:11 IDT 2012	A Phase Ended: Movement Phase
Mon Jul 16 22:22:11 IDT 2012	Swaping roles:
Mon Jul 16 22:22:11 IDT 2012	Proposer is: 337
Mon Jul 16 22:22:11 IDT 2012	Responder is: 999
Mon Jul 16 22:22:11 IDT 2012	Protocol: A New Phase Began: Feedback Phase
Mon Jul 16 22:22:11 IDT 2012	Protocol: Feedback phase, Round: 12
Mon Jul 16 22:22:11 IDT 2012	Number of consecutive no movements for player 999 is 1
Mon Jul 16 22:22:11 IDT 2012	Number of consecutive no movements for player 337 is 1
Mon Jul 16 22:22:16 IDT 2012	A Phase Ended: Feedback Phase
Mon Jul 16 22:22:16 IDT 2012	Protocol: A New Phase Began: Communication Phase
Mon Jul 16 22:22:16 IDT 2012	Protocol: Communication phase, Round: 13
Mon Jul 16 22:22:17 IDT 2012	Received communication message 
Mon Jul 16 22:22:17 IDT 2012	From player: 337
Mon Jul 16 22:22:17 IDT 2012	To player: 999
Mon Jul 16 22:22:17 IDT 2012	Message type: basicproposal
Mon Jul 16 22:22:17 IDT 2012	Chips to send by proposer: { chips  'grey78':1 }
Mon Jul 16 22:22:17 IDT 2012	Chips to send by responder: { chips  'CTGreen':2 }
Mon Jul 16 22:22:30 IDT 2012	Received communication message 
Mon Jul 16 22:22:30 IDT 2012	From player: 999
Mon Jul 16 22:22:30 IDT 2012	To player: 337
Mon Jul 16 22:22:30 IDT 2012	Message type: basicproposaldiscussion
Mon Jul 16 22:22:30 IDT 2012	Player 999 accepted offer
Mon Jul 16 22:22:30 IDT 2012	Prop accepted, set counter offers count to: 0
Mon Jul 16 22:22:30 IDT 2012	Prop accepted, get counter offers returned: 0
Mon Jul 16 22:22:30 IDT 2012	A Phase Ended: Communication Phase
Mon Jul 16 22:22:30 IDT 2012	Protocol: A New Phase Began: Exchange Phase
Mon Jul 16 22:22:30 IDT 2012	Protocol: Exchange phase, Round: 13
Mon Jul 16 22:22:30 IDT 2012	In begin exch.phase, get counter offers returned: 0
Mon Jul 16 22:22:30 IDT 2012	A Phase Ended: Exchange Phase
Mon Jul 16 22:22:30 IDT 2012	Proposer 337 sent: { chips  'CTRed':0 'CTPurple':0 'CTGreen':0 'grey78':0 'CTYellow':0 }
Mon Jul 16 22:22:30 IDT 2012	Responder 999 sent: { chips  'CTGreen':2 }
Mon Jul 16 22:22:30 IDT 2012	Protocol: A New Phase Began: Movement Phase
Mon Jul 16 22:22:30 IDT 2012	Protocol: Movement phase, Round: 13
Mon Jul 16 22:22:50 IDT 2012	A Phase Ended: Movement Phase
Mon Jul 16 22:22:50 IDT 2012	Swaping roles:
Mon Jul 16 22:22:50 IDT 2012	Proposer is: 999
Mon Jul 16 22:22:50 IDT 2012	Responder is: 337
Mon Jul 16 22:22:50 IDT 2012	Protocol: A New Phase Began: Feedback Phase
Mon Jul 16 22:22:50 IDT 2012	Protocol: Feedback phase, Round: 13
Mon Jul 16 22:22:50 IDT 2012	Number of consecutive no movements for player 999 is 2
Mon Jul 16 22:22:50 IDT 2012	Number of consecutive no movements for player 337 is 2
Mon Jul 16 22:22:55 IDT 2012	A Phase Ended: Feedback Phase
Mon Jul 16 22:22:55 IDT 2012	Protocol: A New Phase Began: Communication Phase
Mon Jul 16 22:22:55 IDT 2012	Protocol: Communication phase, Round: 14
Mon Jul 16 22:23:13 IDT 2012	Received communication message 
Mon Jul 16 22:23:13 IDT 2012	From player: 999
Mon Jul 16 22:23:13 IDT 2012	To player: 337
Mon Jul 16 22:23:13 IDT 2012	Message type: basicproposal
Mon Jul 16 22:23:13 IDT 2012	Chips to send by proposer: { chips  'CTRed':0 'CTPurple':0 'CTGreen':0 'grey78':0 'CTYellow':0 }
Mon Jul 16 22:23:13 IDT 2012	Chips to send by responder: { chips  'CTRed':0 'CTPurple':0 'CTGreen':0 'grey78':0 'CTYellow':0 }
Mon Jul 16 22:23:17 IDT 2012	Received communication message 
Mon Jul 16 22:23:17 IDT 2012	From player: 337
Mon Jul 16 22:23:17 IDT 2012	To player: 999
Mon Jul 16 22:23:17 IDT 2012	Message type: basicproposaldiscussion
Mon Jul 16 22:23:17 IDT 2012	Player 337 accepted offer
Mon Jul 16 22:23:17 IDT 2012	Prop accepted, set counter offers count to: 0
Mon Jul 16 22:23:17 IDT 2012	Prop accepted, get counter offers returned: 0
Mon Jul 16 22:23:17 IDT 2012	A Phase Ended: Communication Phase
Mon Jul 16 22:23:17 IDT 2012	Protocol: A New Phase Began: Exchange Phase
Mon Jul 16 22:23:17 IDT 2012	Protocol: Exchange phase, Round: 14
Mon Jul 16 22:23:17 IDT 2012	In begin exch.phase, get counter offers returned: 0
Mon Jul 16 22:23:56 IDT 2012	A Phase Ended: Exchange Phase
Mon Jul 16 22:23:56 IDT 2012	Responder 337 sent: { chips  'CTRed':0 'CTPurple':0 'CTGreen':0 'grey78':0 'CTYellow':0 }
Mon Jul 16 22:23:56 IDT 2012	Protocol: A New Phase Began: Movement Phase
Mon Jul 16 22:23:56 IDT 2012	Protocol: Movement phase, Round: 14
Mon Jul 16 22:23:56 IDT 2012	Player 337 moved to (R:2,C:3)
Mon Jul 16 22:23:56 IDT 2012	Player 999 moved to (R:2,C:1)
Mon Jul 16 22:24:16 IDT 2012	A Phase Ended: Movement Phase
Mon Jul 16 22:24:16 IDT 2012	Swaping roles:
Mon Jul 16 22:24:16 IDT 2012	Proposer is: 337
Mon Jul 16 22:24:16 IDT 2012	Responder is: 999
Mon Jul 16 22:24:16 IDT 2012	Protocol: A New Phase Began: Feedback Phase
Mon Jul 16 22:24:16 IDT 2012	Protocol: Feedback phase, Round: 14
Mon Jul 16 22:24:16 IDT 2012	Number of consecutive no movements for player 999 is 0
Mon Jul 16 22:24:16 IDT 2012	Number of consecutive no movements for player 337 is 0
Mon Jul 16 22:24:21 IDT 2012	A Phase Ended: Feedback Phase
Mon Jul 16 22:24:21 IDT 2012	Protocol: A New Phase Began: Communication Phase
Mon Jul 16 22:24:21 IDT 2012	Protocol: Communication phase, Round: 15
Mon Jul 16 22:24:24 IDT 2012	Received communication message 
Mon Jul 16 22:24:24 IDT 2012	From player: 337
Mon Jul 16 22:24:24 IDT 2012	To player: 999
Mon Jul 16 22:24:24 IDT 2012	Message type: basicproposal
Mon Jul 16 22:24:24 IDT 2012	Chips to send by proposer: { chips  'grey78':1 }
Mon Jul 16 22:24:24 IDT 2012	Chips to send by responder: { chips  'CTGreen':1 }
Mon Jul 16 22:24:37 IDT 2012	Received communication message 
Mon Jul 16 22:24:37 IDT 2012	From player: 999
Mon Jul 16 22:24:37 IDT 2012	To player: 337
Mon Jul 16 22:24:37 IDT 2012	Message type: basicproposaldiscussion
Mon Jul 16 22:24:37 IDT 2012	Player 999 accepted offer
Mon Jul 16 22:24:37 IDT 2012	Prop accepted, set counter offers count to: 0
Mon Jul 16 22:24:37 IDT 2012	Prop accepted, get counter offers returned: 0
Mon Jul 16 22:24:37 IDT 2012	A Phase Ended: Communication Phase
Mon Jul 16 22:24:37 IDT 2012	Protocol: A New Phase Began: Exchange Phase
Mon Jul 16 22:24:37 IDT 2012	Protocol: Exchange phase, Round: 15
Mon Jul 16 22:24:37 IDT 2012	In begin exch.phase, get counter offers returned: 0
Mon Jul 16 22:24:37 IDT 2012	A Phase Ended: Exchange Phase
Mon Jul 16 22:24:37 IDT 2012	Proposer 337 sent: { chips  'CTRed':0 'CTPurple':0 'CTGreen':0 'grey78':0 'CTYellow':0 }
Mon Jul 16 22:24:37 IDT 2012	Responder 999 sent: { chips  'CTGreen':1 }
Mon Jul 16 22:24:37 IDT 2012	Protocol: A New Phase Began: Movement Phase
Mon Jul 16 22:24:37 IDT 2012	Protocol: Movement phase, Round: 15
Mon Jul 16 22:24:56 IDT 2012	A Phase Ended: Movement Phase
Mon Jul 16 22:24:56 IDT 2012	Swaping roles:
Mon Jul 16 22:24:56 IDT 2012	Proposer is: 999
Mon Jul 16 22:24:56 IDT 2012	Responder is: 337
Mon Jul 16 22:24:56 IDT 2012	Protocol: A New Phase Began: Feedback Phase
Mon Jul 16 22:24:56 IDT 2012	Protocol: Feedback phase, Round: 15
Mon Jul 16 22:24:56 IDT 2012	Number of consecutive no movements for player 999 is 1
Mon Jul 16 22:24:56 IDT 2012	Number of consecutive no movements for player 337 is 1
Mon Jul 16 22:25:01 IDT 2012	A Phase Ended: Feedback Phase
Mon Jul 16 22:25:01 IDT 2012	Protocol: A New Phase Began: Communication Phase
Mon Jul 16 22:25:01 IDT 2012	Protocol: Communication phase, Round: 16
Mon Jul 16 22:25:17 IDT 2012	Received communication message 
Mon Jul 16 22:25:17 IDT 2012	From player: 999
Mon Jul 16 22:25:17 IDT 2012	To player: 337
Mon Jul 16 22:25:17 IDT 2012	Message type: basicproposal
Mon Jul 16 22:25:17 IDT 2012	Chips to send by proposer: { chips  'CTRed':0 'CTPurple':0 'CTGreen':0 'grey78':0 'CTYellow':0 }
Mon Jul 16 22:25:17 IDT 2012	Chips to send by responder: { chips  'CTRed':0 'CTPurple':0 'CTGreen':0 'grey78':0 'CTYellow':0 }
Mon Jul 16 22:25:18 IDT 2012	Received communication message 
Mon Jul 16 22:25:18 IDT 2012	From player: 337
Mon Jul 16 22:25:18 IDT 2012	To player: 999
Mon Jul 16 22:25:18 IDT 2012	Message type: basicproposaldiscussion
Mon Jul 16 22:25:18 IDT 2012	Player 337 accepted offer
Mon Jul 16 22:25:18 IDT 2012	Prop accepted, set counter offers count to: 0
Mon Jul 16 22:25:18 IDT 2012	Prop accepted, get counter offers returned: 0
Mon Jul 16 22:25:18 IDT 2012	A Phase Ended: Communication Phase
Mon Jul 16 22:25:18 IDT 2012	Protocol: A New Phase Began: Exchange Phase
Mon Jul 16 22:25:18 IDT 2012	Protocol: Exchange phase, Round: 16
Mon Jul 16 22:25:18 IDT 2012	In begin exch.phase, get counter offers returned: 0
Mon Jul 16 22:25:57 IDT 2012	A Phase Ended: Exchange Phase
Mon Jul 16 22:25:57 IDT 2012	Responder 337 sent: { chips  'CTRed':0 'CTPurple':0 'CTGreen':0 'grey78':0 'CTYellow':0 }
Mon Jul 16 22:25:57 IDT 2012	Protocol: A New Phase Began: Movement Phase
Mon Jul 16 22:25:57 IDT 2012	Protocol: Movement phase, Round: 16
Mon Jul 16 22:26:17 IDT 2012	A Phase Ended: Movement Phase
Mon Jul 16 22:26:17 IDT 2012	Swaping roles:
Mon Jul 16 22:26:17 IDT 2012	Proposer is: 337
Mon Jul 16 22:26:17 IDT 2012	Responder is: 999
Mon Jul 16 22:26:17 IDT 2012	Protocol: A New Phase Began: Feedback Phase
Mon Jul 16 22:26:17 IDT 2012	Protocol: Feedback phase, Round: 16
Mon Jul 16 22:26:17 IDT 2012	Number of consecutive no movements for player 999 is 2
Mon Jul 16 22:26:17 IDT 2012	Number of consecutive no movements for player 337 is 2
Mon Jul 16 22:26:22 IDT 2012	A Phase Ended: Feedback Phase
Mon Jul 16 22:26:22 IDT 2012	Protocol: A New Phase Began: Communication Phase
Mon Jul 16 22:26:22 IDT 2012	Protocol: Communication phase, Round: 17
Mon Jul 16 22:31:23 IDT 2012	A Phase Ended: Communication Phase
Mon Jul 16 22:31:23 IDT 2012	Protocol: A New Phase Began: Exchange Phase
Mon Jul 16 22:31:23 IDT 2012	Protocol: Exchange phase, Round: 17
Mon Jul 16 22:31:23 IDT 2012	In begin exch.phase, get counter offers returned: 0
Mon Jul 16 22:32:03 IDT 2012	A Phase Ended: Exchange Phase
Mon Jul 16 22:32:03 IDT 2012	Proposer 337 sent: { chips  }
Mon Jul 16 22:32:03 IDT 2012	Protocol: A New Phase Began: Movement Phase
Mon Jul 16 22:32:03 IDT 2012	Protocol: Movement phase, Round: 17
Mon Jul 16 22:32:03 IDT 2012	Player 337 moved to (R:1,C:3)
Mon Jul 16 22:32:23 IDT 2012	A Phase Ended: Movement Phase
Mon Jul 16 22:32:23 IDT 2012	Swaping roles:
Mon Jul 16 22:32:23 IDT 2012	Proposer is: 999
Mon Jul 16 22:32:23 IDT 2012	Responder is: 337
Mon Jul 16 22:32:23 IDT 2012	Protocol: A New Phase Began: Feedback Phase
Mon Jul 16 22:32:23 IDT 2012	Protocol: Feedback phase, Round: 17
Mon Jul 16 22:32:23 IDT 2012	Number of consecutive no movements for player 999 is 3
Mon Jul 16 22:32:23 IDT 2012	Number of consecutive no movements for player 337 is 0
Mon Jul 16 22:32:23 IDT 2012	Ending game, all players move as much as they can towards goal
Mon Jul 16 22:32:23 IDT 2012	Player: 999 ,role: Proposer score is: -20
Mon Jul 16 22:32:23 IDT 2012	Player: 337 ,role: Responder score is: 265
