@relation LogsAnalysys_AGENT_TI_offers_PAL_Transfer_Model

@attribute playerI_WPR numeric
@attribute playerJ_WPR numeric
@attribute playerI_CS numeric
@attribute playerI_RS numeric
@attribute playerJ_CS numeric
@attribute playerJ_RS numeric
@attribute playerINeededchips numeric
@attribute playerIOtherchips numeric
@attribute playerJNeededchips numeric
@attribute playerJOtherchips numeric
@attribute playerJTransfer {0,1}

@data
0.776,0.601,180.0,190.0,45.0,45.0,0,3,1,0,1
0.9328,0.8803,190.0,205.0,45.0,155.0,0,5,2,0,1
0.27984,0.9640899999999999,215.0,230.0,20.0,130.0,0,5,2,0,0
0.776,0.601,180.0,190.0,45.0,55.0,0,4,2,0,1
0.5828,0.8803,195.0,205.0,40.0,155.0,0,4,2,0,0
0.17484,0.61409,205.0,215.0,30.0,145.0,0,4,2,0,1
0.776,0.601,180.0,185.0,45.0,50.0,0,2,1,0,1
0.9328,0.8803,185.0,190.0,50.0,55.0,0,2,1,0,1
0.27984,0.9640899999999999,195.0,210.0,40.0,150.0,0,5,2,0,0
0.776,0.601,180.0,185.0,45.0,60.0,0,3,2,0,1
0.5828,0.8803,190.0,205.0,45.0,155.0,0,5,2,0,0
0.17484,0.68409,205.0,230.0,30.0,130.0,0,7,2,0,0
0.776,0.601,180.0,190.0,45.0,55.0,0,4,2,0,1
0.9328,0.8803,190.0,210.0,55.0,150.0,0,5,1,0,1
0.776,0.601,180.0,190.0,45.0,55.0,0,4,2,0,1
0.9328,0.8803,190.0,200.0,55.0,160.0,0,3,1,0,1
0.776,0.601,180.0,190.0,45.0,55.0,0,4,2,0,1
0.9328,0.8803,190.0,200.0,55.0,160.0,0,3,1,0,0
0.776,0.601,180.0,195.0,45.0,50.0,0,5,2,0,1
0.9328,0.8803,195.0,210.0,50.0,150.0,0,4,1,0,0
0.776,0.601,180.0,185.0,45.0,60.0,0,3,2,0,1
0.9328,0.8803,185.0,190.0,60.0,170.0,0,2,1,0,1
0.776,0.601,180.0,185.0,45.0,60.0,0,3,2,0,1
0.9328,0.8803,185.0,200.0,60.0,160.0,0,4,1,0,0
0.776,0.601,180.0,190.0,45.0,55.0,0,4,2,0,1
0.9328,0.8803,190.0,200.0,55.0,160.0,0,3,1,0,0
0.776,0.601,180.0,190.0,45.0,55.0,0,4,2,0,1
0.5828,0.8803,195.0,210.0,40.0,35.0,0,4,1,0,1
0.17484,0.9640899999999999,215.0,240.0,20.0,120.0,0,7,2,0,0
0.776,0.601,180.0,185.0,45.0,60.0,0,3,2,0,1
0.9328,0.8803,185.0,195.0,60.0,165.0,0,3,1,0,1
0.776,0.601,180.0,185.0,45.0,60.0,0,3,2,0,1
0.9328,0.8803,185.0,195.0,60.0,165.0,0,3,1,0,1
0.776,0.601,180.0,185.0,45.0,60.0,0,3,2,0,1
0.9328,0.8803,185.0,195.0,60.0,165.0,0,4,1,1,1
0.776,0.601,180.0,185.0,45.0,60.0,0,3,2,0,1
0.9328,0.8803,185.0,205.0,60.0,155.0,0,5,1,0,0
0.776,0.601,180.0,190.0,45.0,55.0,0,4,2,0,1
0.9328,0.8803,190.0,205.0,55.0,155.0,0,6,1,2,1
0.776,0.601,180.0,190.0,45.0,55.0,0,4,2,0,1
0.776,0.601,180.0,185.0,45.0,60.0,0,3,2,0,1
0.9328,0.8803,185.0,200.0,60.0,160.0,0,4,1,0,1
0.776,0.601,195.0,205.0,30.0,40.0,0,4,2,0,1
0.9328,0.8803,205.0,220.0,40.0,140.0,0,4,1,0,0
0.776,0.601,180.0,190.0,45.0,55.0,0,4,2,0,1
0.776,0.601,180.0,190.0,45.0,55.0,0,4,2,0,1
0.9328,0.8803,190.0,200.0,55.0,160.0,0,4,1,1,1
0.776,0.601,180.0,200.0,45.0,45.0,0,6,2,0,1
0.5828,0.8803,205.0,220.0,30.0,140.0,0,5,2,0,0
0.17484,0.40408999999999995,210.0,220.0,25.0,140.0,0,4,2,0,0
0.776,0.601,180.0,185.0,45.0,60.0,0,3,2,0,1
0.9328,0.8803,185.0,195.0,60.0,165.0,0,4,1,1,1
0.776,0.601,180.0,195.0,45.0,50.0,0,5,2,0,1
0.9328,0.8803,195.0,205.0,50.0,155.0,0,3,1,0,1
0.776,0.601,180.0,190.0,45.0,55.0,0,4,2,0,1
0.9328,0.8803,190.0,205.0,55.0,155.0,0,4,1,0,0
0.776,0.601,180.0,190.0,45.0,55.0,0,4,2,0,1
0.9328,0.8803,190.0,200.0,55.0,160.0,0,3,1,0,1
0.776,0.601,180.0,185.0,45.0,60.0,0,3,2,0,1
0.9328,0.8803,185.0,195.0,60.0,165.0,0,4,1,1,1
0.776,0.601,180.0,190.0,45.0,55.0,0,4,2,0,1
0.9328,0.8803,190.0,200.0,55.0,160.0,0,3,1,0,1
0.776,0.601,180.0,195.0,45.0,50.0,0,5,2,0,1
0.9328,0.8803,195.0,205.0,50.0,155.0,0,3,1,0,0
0.776,0.601,180.0,195.0,45.0,50.0,0,5,2,0,1
0.9328,0.8803,195.0,205.0,50.0,155.0,0,3,1,0,1
0.776,0.601,180.0,185.0,45.0,60.0,0,3,2,0,1
0.9328,0.8803,185.0,195.0,60.0,165.0,0,5,1,2,1
0.776,0.601,180.0,195.0,45.0,50.0,0,5,2,0,1
0.9328,0.8803,195.0,210.0,50.0,150.0,0,4,1,0,0
0.776,0.601,180.0,190.0,45.0,55.0,0,4,2,0,1
0.5828,0.8803,195.0,210.0,40.0,150.0,0,5,2,0,0
0.17484,0.68409,210.0,225.0,25.0,135.0,0,5,2,0,0
0.776,0.601,180.0,185.0,45.0,60.0,0,3,2,0,1
0.9328,0.8803,185.0,195.0,60.0,165.0,0,3,1,0,1
0.776,0.601,180.0,190.0,45.0,55.0,0,4,2,0,1
0.9328,0.8803,190.0,205.0,55.0,155.0,0,4,1,0,0
0.776,0.601,180.0,185.0,45.0,60.0,0,3,2,0,1
0.9328,0.8803,185.0,205.0,60.0,155.0,0,5,1,0,1
0.776,0.601,180.0,190.0,45.0,55.0,0,4,2,0,1
0.5828,0.8803,195.0,210.0,40.0,35.0,0,4,1,0,0
0.17484,0.43909,200.0,215.0,35.0,145.0,0,5,2,0,0
0.776,0.601,180.0,190.0,45.0,55.0,0,4,2,0,1
0.5828,0.8803,195.0,210.0,40.0,150.0,0,5,2,0,0
0.17484,0.26409,195.0,210.0,40.0,150.0,0,5,2,0,0
0.776,0.601,180.0,195.0,45.0,50.0,0,5,2,0,1
0.9328,0.8803,195.0,205.0,50.0,155.0,0,3,1,0,1
0.776,0.601,180.0,195.0,45.0,50.0,0,5,2,0,1
0.9328,0.8803,195.0,210.0,50.0,25.0,0,3,0,0,0
0.9798399999999999,0.7307566666666666,205.0,225.0,40.0,135.0,0,5,1,0,0
0.776,0.601,180.0,190.0,45.0,55.0,0,4,2,0,1
0.9328,0.8803,190.0,205.0,55.0,155.0,0,4,1,0,0
0.776,0.601,180.0,185.0,45.0,60.0,0,3,2,0,1
0.9328,0.8803,185.0,205.0,60.0,155.0,0,5,1,0,1
0.776,0.601,180.0,190.0,45.0,55.0,0,4,2,0,0
0.5828,0.5303,185.0,190.0,50.0,55.0,0,2,1,0,1
0.17484,0.8590899999999999,195.0,210.0,40.0,150.0,0,5,2,0,0
0.776,0.601,180.0,185.0,45.0,60.0,0,3,2,0,1
0.5828,0.8803,190.0,200.0,45.0,160.0,0,4,2,0,0
0.17484,0.61409,200.0,220.0,35.0,140.0,0,6,2,0,0
0.776,0.601,180.0,190.0,45.0,55.0,0,4,2,0,1
0.5828,0.8803,195.0,215.0,40.0,30.0,0,5,1,0,0
0.17484,0.40408999999999995,200.0,210.0,35.0,150.0,0,4,2,0,0
0.776,0.601,180.0,190.0,45.0,55.0,0,4,2,0,1
0.5828,0.8803,195.0,205.0,40.0,155.0,0,4,2,0,1
0.17484,0.9640899999999999,215.0,260.0,20.0,100.0,0,11,2,0,1
0.776,0.601,180.0,190.0,45.0,45.0,0,3,1,0,1
0.9328,0.8803,190.0,195.0,45.0,50.0,0,2,1,0,1
0.27984,0.9640899999999999,200.0,215.0,35.0,145.0,0,5,2,0,0
