Mon Dec 10 09:16:26 IST 2012	This is the CT debug logger; svn version 638; sep 27 09
Mon Dec 10 09:16:26 IST 2012	Mon Dec 10 09:16:26 IST 2012
Mon Dec 10 09:16:26 IST 2012	A new Alternative Offers game has began
Mon Dec 10 09:16:26 IST 2012	ID Number: 66576
Mon Dec 10 09:16:26 IST 2012	Creating board
Mon Dec 10 09:16:26 IST 2012	<colors>
Mon Dec 10 09:16:26 IST 2012	{ GamePalette  'CTRed':0 'CTPurple':1 'CTGreen':2 'grey78':3 }
Mon Dec 10 09:16:26 IST 2012	<rows>
Mon Dec 10 09:16:26 IST 2012	7
Mon Dec 10 09:16:26 IST 2012	<columns>
Mon Dec 10 09:16:26 IST 2012	5
Mon Dec 10 09:16:26 IST 2012	<squaresColors>
Mon Dec 10 09:16:26 IST 2012	CTPurple CTRed CTRed CTGreen CTPurple 
Mon Dec 10 09:16:26 IST 2012	CTPurple grey78 CTPurple grey78 CTPurple 
Mon Dec 10 09:16:26 IST 2012	CTPurple CTRed CTPurple CTGreen CTPurple 
Mon Dec 10 09:16:26 IST 2012	CTPurple grey78 CTPurple grey78 CTPurple 
Mon Dec 10 09:16:26 IST 2012	CTPurple CTRed CTPurple CTGreen CTPurple 
Mon Dec 10 09:16:26 IST 2012	CTPurple grey78 CTPurple grey78 CTPurple 
Mon Dec 10 09:16:26 IST 2012	CTPurple CTRed CTPurple CTGreen CTPurple 
Mon Dec 10 09:16:26 IST 2012	</squareColors>
Mon Dec 10 09:16:26 IST 2012	<goalPosition>
Mon Dec 10 09:16:26 IST 2012	Goal position: (R:0,C:2)
Mon Dec 10 09:16:26 IST 2012	<numberOfPlayers>
Mon Dec 10 09:16:26 IST 2012	2
Mon Dec 10 09:16:26 IST 2012	<firstPlayerChips>
Mon Dec 10 09:16:26 IST 2012	Setting chips for player: 337 id:0
Mon Dec 10 09:16:26 IST 2012	{ chips  'CTRed':5 'CTGreen':19 'CTPurple':0 'grey78':0 }
Mon Dec 10 09:16:26 IST 2012	Player position: (R:6,C:0)
Mon Dec 10 09:16:26 IST 2012	Setting chips for player: 510 id:1
Mon Dec 10 09:16:26 IST 2012	{ chips  'CTRed':1 'CTGreen':13 'CTPurple':0 'grey78':10 }
Mon Dec 10 09:16:26 IST 2012	Player position: (R:6,C:4)
Mon Dec 10 09:16:26 IST 2012	Protocol: A New Phase Began: Strategy Prep Phase
Mon Dec 10 09:16:26 IST 2012	Protocol: Strategy Preparation phase, Round: 0
Mon Dec 10 09:16:26 IST 2012	Maximum number of rounds with no consecutive movement is 3
Mon Dec 10 09:16:26 IST 2012	In begin comm. phase, set counter offers count to: 0
Mon Dec 10 09:16:26 IST 2012	In begin comm. phase, get counter offers returned: 0
Mon Dec 10 09:16:46 IST 2012	A Phase Ended: Strategy Prep Phase
Mon Dec 10 09:16:46 IST 2012	Protocol: A New Phase Began: Communication Phase
Mon Dec 10 09:16:46 IST 2012	Protocol: Communication phase, Round: 0
Mon Dec 10 09:17:46 IST 2012	Received communication message 
Mon Dec 10 09:17:46 IST 2012	From player: 337
Mon Dec 10 09:17:46 IST 2012	To player: 510
Mon Dec 10 09:17:46 IST 2012	Message type: basicproposal
Mon Dec 10 09:17:46 IST 2012	Chips to send by proposer: { chips  'CTGreen':1 }
Mon Dec 10 09:17:46 IST 2012	Chips to send by responder: { chips  'grey78':1 }
Mon Dec 10 09:17:55 IST 2012	Received communication message 
Mon Dec 10 09:17:55 IST 2012	From player: 510
Mon Dec 10 09:17:55 IST 2012	To player: 337
Mon Dec 10 09:17:55 IST 2012	Message type: basicproposaldiscussion
Mon Dec 10 09:17:55 IST 2012	Player 510 accepted offer
Mon Dec 10 09:17:55 IST 2012	Prop accepted, set counter offers count to: 0
Mon Dec 10 09:17:55 IST 2012	Prop accepted, get counter offers returned: 0
Mon Dec 10 09:17:55 IST 2012	A Phase Ended: Communication Phase
Mon Dec 10 09:17:55 IST 2012	Protocol: A New Phase Began: Exchange Phase
Mon Dec 10 09:17:55 IST 2012	Protocol: Exchange phase, Round: 0
Mon Dec 10 09:17:55 IST 2012	In begin exch.phase, get counter offers returned: 0
Mon Dec 10 09:18:22 IST 2012	A Phase Ended: Exchange Phase
Mon Dec 10 09:18:22 IST 2012	Proposer 337 sent: { chips  'CTRed':0 'CTPurple':0 'CTGreen':1 'grey78':0 }
Mon Dec 10 09:18:22 IST 2012	Responder 510 sent: { chips  'CTRed':0 'CTPurple':0 'CTGreen':0 'grey78':1 }
Mon Dec 10 09:18:22 IST 2012	Protocol: A New Phase Began: Movement Phase
Mon Dec 10 09:18:22 IST 2012	Protocol: Movement phase, Round: 0
Mon Dec 10 09:18:22 IST 2012	Player 510 moved to (R:6,C:3)
Mon Dec 10 09:18:42 IST 2012	A Phase Ended: Movement Phase
Mon Dec 10 09:18:42 IST 2012	Swaping roles:
Mon Dec 10 09:18:42 IST 2012	Proposer is: 510
Mon Dec 10 09:18:42 IST 2012	Responder is: 337
Mon Dec 10 09:18:42 IST 2012	Protocol: A New Phase Began: Feedback Phase
Mon Dec 10 09:18:42 IST 2012	Protocol: Feedback phase, Round: 0
Mon Dec 10 09:18:42 IST 2012	Number of consecutive no movements for player 337 is 1
Mon Dec 10 09:18:42 IST 2012	Number of consecutive no movements for player 510 is 0
Mon Dec 10 09:18:47 IST 2012	A Phase Ended: Feedback Phase
Mon Dec 10 09:18:47 IST 2012	Protocol: A New Phase Began: Communication Phase
Mon Dec 10 09:18:47 IST 2012	Protocol: Communication phase, Round: 1
Mon Dec 10 09:19:03 IST 2012	Received communication message 
Mon Dec 10 09:19:03 IST 2012	From player: 510
Mon Dec 10 09:19:03 IST 2012	To player: 337
Mon Dec 10 09:19:03 IST 2012	Message type: basicproposal
Mon Dec 10 09:19:03 IST 2012	Chips to send by proposer: { chips  'CTRed':0 'CTPurple':0 'CTGreen':0 'grey78':2 }
Mon Dec 10 09:19:03 IST 2012	Chips to send by responder: { chips  'CTRed':0 'CTPurple':0 'CTGreen':2 'grey78':0 }
Mon Dec 10 09:19:19 IST 2012	Received communication message 
Mon Dec 10 09:19:19 IST 2012	From player: 337
Mon Dec 10 09:19:19 IST 2012	To player: 510
Mon Dec 10 09:19:19 IST 2012	Message type: basicproposaldiscussion
Mon Dec 10 09:19:19 IST 2012	Player 337 accepted offer
Mon Dec 10 09:19:19 IST 2012	Prop accepted, set counter offers count to: 0
Mon Dec 10 09:19:19 IST 2012	Prop accepted, get counter offers returned: 0
Mon Dec 10 09:19:19 IST 2012	A Phase Ended: Communication Phase
Mon Dec 10 09:19:19 IST 2012	Protocol: A New Phase Began: Exchange Phase
Mon Dec 10 09:19:19 IST 2012	Protocol: Exchange phase, Round: 1
Mon Dec 10 09:19:19 IST 2012	In begin exch.phase, get counter offers returned: 0
Mon Dec 10 09:19:32 IST 2012	A Phase Ended: Exchange Phase
Mon Dec 10 09:19:32 IST 2012	Proposer 510 sent: { chips  'CTRed':0 'CTPurple':0 'CTGreen':0 'grey78':1 }
Mon Dec 10 09:19:32 IST 2012	Responder 337 sent: { chips  'CTRed':0 'CTPurple':0 'CTGreen':2 'grey78':0 }
Mon Dec 10 09:19:32 IST 2012	Protocol: A New Phase Began: Movement Phase
Mon Dec 10 09:19:32 IST 2012	Protocol: Movement phase, Round: 1
Mon Dec 10 09:19:32 IST 2012	Player 510 moved to (R:5,C:3)
Mon Dec 10 09:19:52 IST 2012	A Phase Ended: Movement Phase
Mon Dec 10 09:19:52 IST 2012	Swaping roles:
Mon Dec 10 09:19:52 IST 2012	Proposer is: 337
Mon Dec 10 09:19:52 IST 2012	Responder is: 510
Mon Dec 10 09:19:52 IST 2012	Protocol: A New Phase Began: Feedback Phase
Mon Dec 10 09:19:52 IST 2012	Protocol: Feedback phase, Round: 1
Mon Dec 10 09:19:52 IST 2012	Number of consecutive no movements for player 337 is 2
Mon Dec 10 09:19:52 IST 2012	Number of consecutive no movements for player 510 is 0
Mon Dec 10 09:19:57 IST 2012	A Phase Ended: Feedback Phase
Mon Dec 10 09:19:57 IST 2012	Protocol: A New Phase Began: Communication Phase
Mon Dec 10 09:19:57 IST 2012	Protocol: Communication phase, Round: 2
Mon Dec 10 09:20:34 IST 2012	Received communication message 
Mon Dec 10 09:20:34 IST 2012	From player: 337
Mon Dec 10 09:20:34 IST 2012	To player: 510
Mon Dec 10 09:20:34 IST 2012	Message type: basicproposal
Mon Dec 10 09:20:34 IST 2012	Chips to send by proposer: { chips  'CTGreen':1 }
Mon Dec 10 09:20:34 IST 2012	Chips to send by responder: { chips  'grey78':1 }
Mon Dec 10 09:20:48 IST 2012	Received communication message 
Mon Dec 10 09:20:48 IST 2012	From player: 510
Mon Dec 10 09:20:48 IST 2012	To player: 337
Mon Dec 10 09:20:48 IST 2012	Message type: basicproposaldiscussion
Mon Dec 10 09:20:48 IST 2012	Player 510 rejected offer
Mon Dec 10 09:20:48 IST 2012	Swaping roles:
Mon Dec 10 09:20:48 IST 2012	Proposer is: 510
Mon Dec 10 09:20:48 IST 2012	Responder is: 337
Mon Dec 10 09:20:48 IST 2012	Prop rejected, set counter offers count to: 1
Mon Dec 10 09:20:48 IST 2012	Prop rejected, get counter offers returned: 1
Mon Dec 10 09:20:52 IST 2012	Slept 4 seconds
Mon Dec 10 09:20:52 IST 2012	Sent role changed msgs
Mon Dec 10 09:21:05 IST 2012	Received communication message 
Mon Dec 10 09:21:05 IST 2012	From player: 510
Mon Dec 10 09:21:05 IST 2012	To player: 337
Mon Dec 10 09:21:05 IST 2012	Message type: basicproposal
Mon Dec 10 09:21:05 IST 2012	Chips to send by proposer: { chips  'CTRed':0 'CTPurple':0 'CTGreen':0 'grey78':1 }
Mon Dec 10 09:21:05 IST 2012	Chips to send by responder: { chips  'CTRed':0 'CTPurple':0 'CTGreen':2 'grey78':0 }
Mon Dec 10 09:21:16 IST 2012	Received communication message 
Mon Dec 10 09:21:16 IST 2012	From player: 337
Mon Dec 10 09:21:16 IST 2012	To player: 510
Mon Dec 10 09:21:16 IST 2012	Message type: basicproposaldiscussion
Mon Dec 10 09:21:16 IST 2012	Player 337 rejected offer
Mon Dec 10 09:21:16 IST 2012	Set counter offers count to: 0
Mon Dec 10 09:21:16 IST 2012	A Phase Ended: Communication Phase
Mon Dec 10 09:21:16 IST 2012	Protocol: A New Phase Began: Exchange Phase
Mon Dec 10 09:21:16 IST 2012	Protocol: Exchange phase, Round: 2
Mon Dec 10 09:21:16 IST 2012	In begin exch.phase, get counter offers returned: 0
Mon Dec 10 09:21:56 IST 2012	A Phase Ended: Exchange Phase
Mon Dec 10 09:21:56 IST 2012	Responder 337 sent: { chips  }
Mon Dec 10 09:21:56 IST 2012	Protocol: A New Phase Began: Movement Phase
Mon Dec 10 09:21:56 IST 2012	Protocol: Movement phase, Round: 2
Mon Dec 10 09:21:56 IST 2012	Player 337 moved to (R:6,C:1)
Mon Dec 10 09:21:56 IST 2012	Player 510 moved to (R:4,C:3)
Mon Dec 10 09:22:16 IST 2012	A Phase Ended: Movement Phase
Mon Dec 10 09:22:16 IST 2012	Protocol: A New Phase Began: Feedback Phase
Mon Dec 10 09:22:16 IST 2012	Protocol: Feedback phase, Round: 2
Mon Dec 10 09:22:16 IST 2012	Number of consecutive no movements for player 337 is 0
Mon Dec 10 09:22:16 IST 2012	Number of consecutive no movements for player 510 is 0
Mon Dec 10 09:22:21 IST 2012	A Phase Ended: Feedback Phase
Mon Dec 10 09:22:21 IST 2012	Protocol: A New Phase Began: Communication Phase
Mon Dec 10 09:22:21 IST 2012	Protocol: Communication phase, Round: 3
Mon Dec 10 09:22:35 IST 2012	Received communication message 
Mon Dec 10 09:22:35 IST 2012	From player: 510
Mon Dec 10 09:22:35 IST 2012	To player: 337
Mon Dec 10 09:22:35 IST 2012	Message type: basicproposal
Mon Dec 10 09:22:35 IST 2012	Chips to send by proposer: { chips  'CTRed':0 'CTPurple':0 'CTGreen':0 'grey78':1 }
Mon Dec 10 09:22:35 IST 2012	Chips to send by responder: { chips  'CTRed':0 'CTPurple':0 'CTGreen':2 'grey78':0 }
Mon Dec 10 09:22:46 IST 2012	Received communication message 
Mon Dec 10 09:22:46 IST 2012	From player: 337
Mon Dec 10 09:22:46 IST 2012	To player: 510
Mon Dec 10 09:22:46 IST 2012	Message type: basicproposaldiscussion
Mon Dec 10 09:22:46 IST 2012	Player 337 rejected offer
Mon Dec 10 09:22:46 IST 2012	Swaping roles:
Mon Dec 10 09:22:46 IST 2012	Proposer is: 337
Mon Dec 10 09:22:46 IST 2012	Responder is: 510
Mon Dec 10 09:22:46 IST 2012	Prop rejected, set counter offers count to: 1
Mon Dec 10 09:22:46 IST 2012	Prop rejected, get counter offers returned: 1
Mon Dec 10 09:22:50 IST 2012	Slept 4 seconds
Mon Dec 10 09:22:50 IST 2012	Sent role changed msgs
Mon Dec 10 09:23:29 IST 2012	Received communication message 
Mon Dec 10 09:23:29 IST 2012	From player: 337
Mon Dec 10 09:23:29 IST 2012	To player: 510
Mon Dec 10 09:23:29 IST 2012	Message type: basicproposal
Mon Dec 10 09:23:29 IST 2012	Chips to send by proposer: { chips  'CTRed':0 'CTPurple':0 'CTGreen':2 'grey78':0 }
Mon Dec 10 09:23:29 IST 2012	Chips to send by responder: { chips  'CTRed':0 'CTPurple':0 'CTGreen':0 'grey78':1 }
Mon Dec 10 09:23:43 IST 2012	Received communication message 
Mon Dec 10 09:23:43 IST 2012	From player: 510
Mon Dec 10 09:23:43 IST 2012	To player: 337
Mon Dec 10 09:23:43 IST 2012	Message type: basicproposaldiscussion
Mon Dec 10 09:23:43 IST 2012	Player 510 accepted offer
Mon Dec 10 09:23:43 IST 2012	Prop accepted, set counter offers count to: 0
Mon Dec 10 09:23:43 IST 2012	Prop accepted, get counter offers returned: 0
Mon Dec 10 09:23:43 IST 2012	A Phase Ended: Communication Phase
Mon Dec 10 09:23:43 IST 2012	Protocol: A New Phase Began: Exchange Phase
Mon Dec 10 09:23:43 IST 2012	Protocol: Exchange phase, Round: 3
Mon Dec 10 09:23:43 IST 2012	In begin exch.phase, get counter offers returned: 0
Mon Dec 10 09:23:55 IST 2012	A Phase Ended: Exchange Phase
Mon Dec 10 09:23:55 IST 2012	Proposer 337 sent: { chips  'CTRed':0 'CTPurple':0 'CTGreen':2 'grey78':0 }
Mon Dec 10 09:23:55 IST 2012	Responder 510 sent: { chips  }
Mon Dec 10 09:23:55 IST 2012	Protocol: A New Phase Began: Movement Phase
Mon Dec 10 09:23:55 IST 2012	Protocol: Movement phase, Round: 3
Mon Dec 10 09:23:55 IST 2012	Player 510 moved to (R:3,C:3)
Mon Dec 10 09:24:15 IST 2012	A Phase Ended: Movement Phase
Mon Dec 10 09:24:15 IST 2012	Protocol: A New Phase Began: Feedback Phase
Mon Dec 10 09:24:15 IST 2012	Protocol: Feedback phase, Round: 3
Mon Dec 10 09:24:15 IST 2012	Number of consecutive no movements for player 337 is 1
Mon Dec 10 09:24:15 IST 2012	Number of consecutive no movements for player 510 is 0
Mon Dec 10 09:24:20 IST 2012	A Phase Ended: Feedback Phase
Mon Dec 10 09:24:20 IST 2012	Protocol: A New Phase Began: Communication Phase
Mon Dec 10 09:24:20 IST 2012	Protocol: Communication phase, Round: 4
Mon Dec 10 09:25:02 IST 2012	Received communication message 
Mon Dec 10 09:25:02 IST 2012	From player: 337
Mon Dec 10 09:25:02 IST 2012	To player: 510
Mon Dec 10 09:25:02 IST 2012	Message type: basicproposal
Mon Dec 10 09:25:02 IST 2012	Chips to send by proposer: { chips  'CTGreen':1 }
Mon Dec 10 09:25:02 IST 2012	Chips to send by responder: { chips  'grey78':1 }
Mon Dec 10 09:25:12 IST 2012	Received communication message 
Mon Dec 10 09:25:12 IST 2012	From player: 510
Mon Dec 10 09:25:12 IST 2012	To player: 337
Mon Dec 10 09:25:12 IST 2012	Message type: basicproposaldiscussion
Mon Dec 10 09:25:12 IST 2012	Player 510 accepted offer
Mon Dec 10 09:25:12 IST 2012	Prop accepted, set counter offers count to: 0
Mon Dec 10 09:25:12 IST 2012	Prop accepted, get counter offers returned: 0
Mon Dec 10 09:25:12 IST 2012	A Phase Ended: Communication Phase
Mon Dec 10 09:25:12 IST 2012	Protocol: A New Phase Began: Exchange Phase
Mon Dec 10 09:25:12 IST 2012	Protocol: Exchange phase, Round: 4
Mon Dec 10 09:25:12 IST 2012	In begin exch.phase, get counter offers returned: 0
Mon Dec 10 09:25:21 IST 2012	A Phase Ended: Exchange Phase
Mon Dec 10 09:25:21 IST 2012	Proposer 337 sent: { chips  'CTRed':0 'CTPurple':0 'CTGreen':1 'grey78':0 }
Mon Dec 10 09:25:21 IST 2012	Responder 510 sent: { chips  }
Mon Dec 10 09:25:21 IST 2012	Protocol: A New Phase Began: Movement Phase
Mon Dec 10 09:25:21 IST 2012	Protocol: Movement phase, Round: 4
Mon Dec 10 09:25:21 IST 2012	Player 510 moved to (R:2,C:3)
Mon Dec 10 09:25:41 IST 2012	A Phase Ended: Movement Phase
Mon Dec 10 09:25:41 IST 2012	Swaping roles:
Mon Dec 10 09:25:41 IST 2012	Proposer is: 510
Mon Dec 10 09:25:41 IST 2012	Responder is: 337
Mon Dec 10 09:25:41 IST 2012	Protocol: A New Phase Began: Feedback Phase
Mon Dec 10 09:25:41 IST 2012	Protocol: Feedback phase, Round: 4
Mon Dec 10 09:25:41 IST 2012	Number of consecutive no movements for player 337 is 2
Mon Dec 10 09:25:41 IST 2012	Number of consecutive no movements for player 510 is 0
Mon Dec 10 09:25:46 IST 2012	A Phase Ended: Feedback Phase
Mon Dec 10 09:25:46 IST 2012	Protocol: A New Phase Began: Communication Phase
Mon Dec 10 09:25:46 IST 2012	Protocol: Communication phase, Round: 5
Mon Dec 10 09:26:02 IST 2012	Received communication message 
Mon Dec 10 09:26:02 IST 2012	From player: 510
Mon Dec 10 09:26:02 IST 2012	To player: 337
Mon Dec 10 09:26:02 IST 2012	Message type: basicproposal
Mon Dec 10 09:26:02 IST 2012	Chips to send by proposer: { chips  'CTRed':0 'CTPurple':0 'CTGreen':0 'grey78':1 }
Mon Dec 10 09:26:02 IST 2012	Chips to send by responder: { chips  'CTRed':0 'CTPurple':0 'CTGreen':1 'grey78':0 }
Mon Dec 10 09:26:16 IST 2012	Received communication message 
Mon Dec 10 09:26:16 IST 2012	From player: 337
Mon Dec 10 09:26:16 IST 2012	To player: 510
Mon Dec 10 09:26:16 IST 2012	Message type: basicproposaldiscussion
Mon Dec 10 09:26:16 IST 2012	Player 337 accepted offer
Mon Dec 10 09:26:16 IST 2012	Prop accepted, set counter offers count to: 0
Mon Dec 10 09:26:16 IST 2012	Prop accepted, get counter offers returned: 0
Mon Dec 10 09:26:16 IST 2012	A Phase Ended: Communication Phase
Mon Dec 10 09:26:16 IST 2012	Protocol: A New Phase Began: Exchange Phase
Mon Dec 10 09:26:16 IST 2012	Protocol: Exchange phase, Round: 5
Mon Dec 10 09:26:16 IST 2012	In begin exch.phase, get counter offers returned: 0
Mon Dec 10 09:26:26 IST 2012	A Phase Ended: Exchange Phase
Mon Dec 10 09:26:26 IST 2012	Proposer 510 sent: { chips  }
Mon Dec 10 09:26:26 IST 2012	Responder 337 sent: { chips  'CTRed':0 'CTPurple':0 'CTGreen':1 'grey78':0 }
Mon Dec 10 09:26:26 IST 2012	Protocol: A New Phase Began: Movement Phase
Mon Dec 10 09:26:26 IST 2012	Protocol: Movement phase, Round: 5
Mon Dec 10 09:26:26 IST 2012	Player 337 moved to (R:5,C:1)
Mon Dec 10 09:26:26 IST 2012	Player 510 moved to (R:1,C:3)
Mon Dec 10 09:26:46 IST 2012	A Phase Ended: Movement Phase
Mon Dec 10 09:26:46 IST 2012	Swaping roles:
Mon Dec 10 09:26:46 IST 2012	Proposer is: 337
Mon Dec 10 09:26:46 IST 2012	Responder is: 510
Mon Dec 10 09:26:46 IST 2012	Protocol: A New Phase Began: Feedback Phase
Mon Dec 10 09:26:46 IST 2012	Protocol: Feedback phase, Round: 5
Mon Dec 10 09:26:46 IST 2012	Number of consecutive no movements for player 337 is 0
Mon Dec 10 09:26:46 IST 2012	Number of consecutive no movements for player 510 is 0
Mon Dec 10 09:26:51 IST 2012	A Phase Ended: Feedback Phase
Mon Dec 10 09:26:51 IST 2012	Protocol: A New Phase Began: Communication Phase
Mon Dec 10 09:26:51 IST 2012	Protocol: Communication phase, Round: 6
Mon Dec 10 09:27:35 IST 2012	Received communication message 
Mon Dec 10 09:27:35 IST 2012	From player: 337
Mon Dec 10 09:27:35 IST 2012	To player: 510
Mon Dec 10 09:27:35 IST 2012	Message type: basicproposal
Mon Dec 10 09:27:35 IST 2012	Chips to send by proposer: { chips  'CTGreen':1 }
Mon Dec 10 09:27:35 IST 2012	Chips to send by responder: { chips  'grey78':1 }
Mon Dec 10 09:27:44 IST 2012	Received communication message 
Mon Dec 10 09:27:44 IST 2012	From player: 510
Mon Dec 10 09:27:44 IST 2012	To player: 337
Mon Dec 10 09:27:44 IST 2012	Message type: basicproposaldiscussion
Mon Dec 10 09:27:44 IST 2012	Player 510 accepted offer
Mon Dec 10 09:27:44 IST 2012	Prop accepted, set counter offers count to: 0
Mon Dec 10 09:27:44 IST 2012	Prop accepted, get counter offers returned: 0
Mon Dec 10 09:27:44 IST 2012	A Phase Ended: Communication Phase
Mon Dec 10 09:27:44 IST 2012	Protocol: A New Phase Began: Exchange Phase
Mon Dec 10 09:27:44 IST 2012	Protocol: Exchange phase, Round: 6
Mon Dec 10 09:27:44 IST 2012	In begin exch.phase, get counter offers returned: 0
Mon Dec 10 09:27:54 IST 2012	A Phase Ended: Exchange Phase
Mon Dec 10 09:27:54 IST 2012	Proposer 337 sent: { chips  'CTRed':0 'CTPurple':0 'CTGreen':1 'grey78':0 }
Mon Dec 10 09:27:54 IST 2012	Responder 510 sent: { chips  }
Mon Dec 10 09:27:54 IST 2012	Protocol: A New Phase Began: Movement Phase
Mon Dec 10 09:27:54 IST 2012	Protocol: Movement phase, Round: 6
Mon Dec 10 09:27:54 IST 2012	Player 510 moved to (R:0,C:3)
Mon Dec 10 09:28:14 IST 2012	A Phase Ended: Movement Phase
Mon Dec 10 09:28:14 IST 2012	Swaping roles:
Mon Dec 10 09:28:14 IST 2012	Proposer is: 510
Mon Dec 10 09:28:14 IST 2012	Responder is: 337
Mon Dec 10 09:28:14 IST 2012	Protocol: A New Phase Began: Feedback Phase
Mon Dec 10 09:28:14 IST 2012	Protocol: Feedback phase, Round: 6
Mon Dec 10 09:28:14 IST 2012	Number of consecutive no movements for player 337 is 1
Mon Dec 10 09:28:14 IST 2012	Number of consecutive no movements for player 510 is 0
Mon Dec 10 09:28:19 IST 2012	A Phase Ended: Feedback Phase
Mon Dec 10 09:28:19 IST 2012	Protocol: A New Phase Began: Communication Phase
Mon Dec 10 09:28:19 IST 2012	Protocol: Communication phase, Round: 7
Mon Dec 10 09:28:38 IST 2012	Received communication message 
Mon Dec 10 09:28:38 IST 2012	From player: 510
Mon Dec 10 09:28:38 IST 2012	To player: 337
Mon Dec 10 09:28:38 IST 2012	Message type: basicproposal
Mon Dec 10 09:28:38 IST 2012	Chips to send by proposer: { chips  'CTRed':0 'CTPurple':0 'CTGreen':0 'grey78':1 }
Mon Dec 10 09:28:38 IST 2012	Chips to send by responder: { chips  'CTRed':0 'CTPurple':0 'CTGreen':1 'grey78':0 }
Mon Dec 10 09:28:49 IST 2012	Received communication message 
Mon Dec 10 09:28:49 IST 2012	From player: 337
Mon Dec 10 09:28:49 IST 2012	To player: 510
Mon Dec 10 09:28:49 IST 2012	Message type: basicproposaldiscussion
Mon Dec 10 09:28:49 IST 2012	Player 337 rejected offer
Mon Dec 10 09:28:49 IST 2012	Swaping roles:
Mon Dec 10 09:28:49 IST 2012	Proposer is: 337
Mon Dec 10 09:28:49 IST 2012	Responder is: 510
Mon Dec 10 09:28:49 IST 2012	Prop rejected, set counter offers count to: 1
Mon Dec 10 09:28:49 IST 2012	Prop rejected, get counter offers returned: 1
Mon Dec 10 09:28:53 IST 2012	Slept 4 seconds
Mon Dec 10 09:28:53 IST 2012	Sent role changed msgs
Mon Dec 10 09:29:28 IST 2012	Received communication message 
Mon Dec 10 09:29:28 IST 2012	From player: 337
Mon Dec 10 09:29:28 IST 2012	To player: 510
Mon Dec 10 09:29:28 IST 2012	Message type: basicproposal
Mon Dec 10 09:29:28 IST 2012	Chips to send by proposer: { chips  'CTRed':0 'CTPurple':0 'CTGreen':2 'grey78':0 }
Mon Dec 10 09:29:28 IST 2012	Chips to send by responder: { chips  'CTRed':0 'CTPurple':0 'CTGreen':0 'grey78':1 }
Mon Dec 10 09:29:38 IST 2012	Received communication message 
Mon Dec 10 09:29:38 IST 2012	From player: 510
Mon Dec 10 09:29:38 IST 2012	To player: 337
Mon Dec 10 09:29:38 IST 2012	Message type: basicproposaldiscussion
Mon Dec 10 09:29:38 IST 2012	Player 510 rejected offer
Mon Dec 10 09:29:38 IST 2012	Set counter offers count to: 0
Mon Dec 10 09:29:38 IST 2012	A Phase Ended: Communication Phase
Mon Dec 10 09:29:38 IST 2012	Protocol: A New Phase Began: Exchange Phase
Mon Dec 10 09:29:38 IST 2012	Protocol: Exchange phase, Round: 7
Mon Dec 10 09:29:38 IST 2012	In begin exch.phase, get counter offers returned: 0
Mon Dec 10 09:30:18 IST 2012	A Phase Ended: Exchange Phase
Mon Dec 10 09:30:18 IST 2012	Proposer 337 sent: { chips  }
Mon Dec 10 09:30:18 IST 2012	Protocol: A New Phase Began: Movement Phase
Mon Dec 10 09:30:18 IST 2012	Protocol: Movement phase, Round: 7
Mon Dec 10 09:30:18 IST 2012	Player 510 moved to (R:0,C:2)
Mon Dec 10 09:30:22 IST 2012	Slept 4 seconds
Mon Dec 10 09:30:22 IST 2012	Player 510 got to goal, advance the other and end game
Mon Dec 10 09:30:22 IST 2012	Player: 337 ,role: Proposer score is: 35
Mon Dec 10 09:30:22 IST 2012	Player: 510 ,role: Responder score is: 210
