filename,round,propID,respID,IsPropCustomer,chipsToSend,chipsToReceive,accept,propCurrentScore,respCurrentScore,actualSent,ActualRcvd,propResultingScore,respResultingScore,#ofCustomerMovesInRound,customerRowPositionAfterMovePhase,customerColPositionAfterMovePhase,Player100ChipsAfterMovePhase,Player100ScoreAfterMovePhase,Player200ChipsAfterMovePhase,Player200ScoreAfterMovePhase,Player300ChipsAfterMovePhase,Player300ScoreAfterMovePhase,generosityLevel,ClientReachedGoal
3playersLog_1378976067161.csv,1,530,500,false,{ chips  'CTRed':33 'CTPurple':7 },{ chips  'grey78':11 },FALSE,200,120,,,,,0,(R:5,C:4),{ chips  'CTRed':0 'CTGreen':0 'CTPurple':0 'grey78':12 'CTYellow':12 },120,{ chips  'CTRed':33 'CTGreen':0 'CTPurple':7 'grey78':0 'CTYellow':0 },200,{ chips  'CTRed':33 'CTGreen':0 'CTPurple':7 'grey78':0 'CTYellow':0 },200
3playersLog_1378976067161.csv,1,540,500,false,{ chips  'CTRed':8 },{ chips  'CTYellow':6 },FALSE,200,120,,,,,0,(R:5,C:4),{ chips  'CTRed':0 'CTGreen':0 'CTPurple':0 'grey78':12 'CTYellow':12 },120,{ chips  'CTRed':33 'CTGreen':0 'CTPurple':7 'grey78':0 'CTYellow':0 },200,{ chips  'CTRed':33 'CTGreen':0 'CTPurple':7 'grey78':0 'CTYellow':0 },200
3playersLog_1378976067161.csv,2,500,530,true,{ chips  'grey78':2 },{ chips  },TRUE,120,200,{ chips  'CTRed':0 'CTPurple':0 'CTGreen':0 'grey78':2 'CTYellow':0 },{ chips  'CTRed':0 'CTPurple':0 'CTGreen':0 'grey78':0 'CTYellow':0 },110,210,1,(R:5,C:5),{ chips  'CTRed':0 'CTGreen':0 'CTPurple':0 'grey78':10 'CTYellow':11 },105,{ chips  'CTRed':33 'CTGreen':0 'CTPurple':7 'grey78':2 'CTYellow':0 },210,{ chips  'CTRed':33 'CTGreen':0 'CTPurple':7 'grey78':0 'CTYellow':0 },200
3playersLog_1378976067161.csv,3,530,500,false,{ chips  'CTRed':33 'CTPurple':6 },{ chips  'grey78':10 },FALSE,210,105,,,,,1,(R:4,C:5),{ chips  'CTRed':0 'CTGreen':0 'CTPurple':0 'grey78':10 'CTYellow':10 },100,{ chips  'CTRed':33 'CTGreen':0 'CTPurple':7 'grey78':2 'CTYellow':0 },210,{ chips  'CTRed':33 'CTGreen':0 'CTPurple':7 'grey78':0 'CTYellow':0 },200
3playersLog_1378976067161.csv,3,540,500,false,{ chips  'CTRed':2 },{ chips  'CTYellow':5 },FALSE,200,105,,,,,1,(R:4,C:5),{ chips  'CTRed':0 'CTGreen':0 'CTPurple':0 'grey78':10 'CTYellow':10 },100,{ chips  'CTRed':33 'CTGreen':0 'CTPurple':7 'grey78':2 'CTYellow':0 },210,{ chips  'CTRed':33 'CTGreen':0 'CTPurple':7 'grey78':0 'CTYellow':0 },200
3playersLog_1378976067161.csv,4,500,530,true,{ chips  'grey78':1 },{ chips  'CTRed':33 'CTPurple':4 },FALSE,100,210,,,,,1,(R:5,C:5),{ chips  'CTRed':0 'CTGreen':0 'CTPurple':0 'grey78':10 'CTYellow':9 },95,{ chips  'CTRed':33 'CTGreen':0 'CTPurple':7 'grey78':2 'CTYellow':0 },210,{ chips  'CTRed':33 'CTGreen':0 'CTPurple':7 'grey78':0 'CTYellow':0 },200
3playersLog_1378976067161.csv,5,530,500,false,{ chips  'CTRed':33 'CTPurple':6 },{ chips  'grey78':10 },TRUE,210,95,{ chips  'CTRed':33 'CTPurple':6 'CTYellow':0 },{ chips  'grey78':10 },65,240,1,(R:4,C:5),{ chips  'CTRed':33 'CTGreen':0 'CTPurple':6 'grey78':0 'CTYellow':8 },235,{ chips  'CTRed':0 'CTGreen':0 'CTPurple':1 'grey78':12 'CTYellow':0 },65,{ chips  'CTRed':33 'CTGreen':0 'CTPurple':7 'grey78':0 'CTYellow':0 },200
3playersLog_1378976067161.csv,6,500,530,true,{ chips  'CTRed':6 'CTPurple':1 },{ chips  'grey78':3 },TRUE,235,65,{ chips  'CTRed':6 'CTPurple':1 'CTGreen':0 'grey78':0 'CTYellow':0 },{ chips  'CTRed':0 'CTPurple':0 'CTGreen':0 'grey78':3 'CTYellow':0 },215,85,2,(R:3,C:4),{ chips  'CTRed':27 'CTGreen':0 'CTPurple':3 'grey78':3 'CTYellow':8 },205,{ chips  'CTRed':6 'CTGreen':0 'CTPurple':2 'grey78':9 'CTYellow':0 },85,{ chips  'CTRed':33 'CTGreen':0 'CTPurple':7 'grey78':0 'CTYellow':0 },200
3playersLog_1378976067161.csv,7,530,500,false,{ chips  'CTRed':6 'CTPurple':2 },{ chips  'grey78':2 },FALSE,85,205,,,,,1,(R:3,C:3),{ chips  'CTRed':27 'CTGreen':0 'CTPurple':2 'grey78':3 'CTYellow':8 },200,{ chips  'CTRed':6 'CTGreen':0 'CTPurple':2 'grey78':9 'CTYellow':0 },85,{ chips  'CTRed':33 'CTGreen':0 'CTPurple':7 'grey78':0 'CTYellow':0 },200
3playersLog_1378976067161.csv,7,540,500,false,{ chips  'CTRed':8 },{ chips  'CTYellow':8 },FALSE,200,205,,,,,1,(R:3,C:3),{ chips  'CTRed':27 'CTGreen':0 'CTPurple':2 'grey78':3 'CTYellow':8 },200,{ chips  'CTRed':6 'CTGreen':0 'CTPurple':2 'grey78':9 'CTYellow':0 },85,{ chips  'CTRed':33 'CTGreen':0 'CTPurple':7 'grey78':0 'CTYellow':0 },200
3playersLog_1378976067161.csv,8,500,540,true,{ chips  'grey78':1 'CTYellow':2 },{ chips  'CTRed':18 'CTPurple':1 },FALSE,200,200,,,,,2,(R:3,C:5),{ chips  'CTRed':27 'CTGreen':0 'CTPurple':0 'grey78':3 'CTYellow':8 },190,{ chips  'CTRed':6 'CTGreen':0 'CTPurple':2 'grey78':9 'CTYellow':0 },85,{ chips  'CTRed':33 'CTGreen':0 'CTPurple':7 'grey78':0 'CTYellow':0 },200
3playersLog_1378976067161.csv,9,530,500,false,{ chips  'CTRed':6 'CTPurple':2 },{ chips  'grey78':2 },IGNORED,85,190,,,,,1,(R:3,C:6),{ chips  'CTRed':37 'CTGreen':0 'CTPurple':0 'grey78':3 'CTYellow':4 },220,{ chips  'CTRed':6 'CTGreen':0 'CTPurple':2 'grey78':9 'CTYellow':0 },85,{ chips  'CTRed':23 'CTGreen':0 'CTPurple':7 'grey78':0 'CTYellow':3 },165
3playersLog_1378976067161.csv,9,540,500,false,{ chips  'CTRed':10 },{ chips  'CTYellow':3 },TRUE,200,190,{ chips  'CTRed':10 'CTPurple':0 'CTGreen':0 'grey78':0 'CTYellow':0 },{ chips  'CTRed':0 'CTPurple':0 'CTGreen':0 'grey78':0 'CTYellow':3 },165,225,1,(R:3,C:6),{ chips  'CTRed':37 'CTGreen':0 'CTPurple':0 'grey78':3 'CTYellow':4 },220,{ chips  'CTRed':6 'CTGreen':0 'CTPurple':2 'grey78':9 'CTYellow':0 },85,{ chips  'CTRed':23 'CTGreen':0 'CTPurple':7 'grey78':0 'CTYellow':3 },165
3playersLog_1378976067161.csv,10,500,540,true,{ chips  'CTYellow':1 },{ chips  'CTRed':6 'CTPurple':4 },TRUE,220,85,{ chips  'CTRed':0 'CTPurple':0 'CTGreen':0 'grey78':0 'CTYellow':1 },{ chips  'CTRed':6 'CTPurple':4 'CTGreen':0 'grey78':0 'CTYellow':0 },265,120,1,(R:3,C:5),{ chips  'CTRed':43 'CTGreen':0 'CTPurple':3 'grey78':3 'CTYellow':3 },260,{ chips  'CTRed':6 'CTGreen':0 'CTPurple':2 'grey78':9 'CTYellow':0 },85,{ chips  'CTRed':17 'CTGreen':0 'CTPurple':3 'grey78':0 'CTYellow':4 },120
3playersLog_1378976067161.csv,11,530,500,false,{ chips  },{ chips  },TRUE,85,255,{ chips  'grey78':0 },{ chips  'CTRed':0 'CTPurple':0 },85,255,3,(R:3,C:7),{ chips  'CTRed':43 'CTGreen':0 'CTPurple':1 'grey78':3 'CTYellow':1 },240,{ chips  'CTRed':6 'CTGreen':0 'CTPurple':2 'grey78':9 'CTYellow':0 },85,{ chips  'CTRed':17 'CTGreen':0 'CTPurple':3 'grey78':0 'CTYellow':4 },120
3playersLog_1378976067161.csv,11,540,500,false,{ chips  'CTRed':5 },{ chips  'CTRed':15 'CTPurple':2 'CTYellow':1 },IGNORED,120,255,,,,,3,(R:3,C:7),{ chips  'CTRed':43 'CTGreen':0 'CTPurple':1 'grey78':3 'CTYellow':1 },240,{ chips  'CTRed':6 'CTGreen':0 'CTPurple':2 'grey78':9 'CTYellow':0 },85,{ chips  'CTRed':17 'CTGreen':0 'CTPurple':3 'grey78':0 'CTYellow':4 },120
3playersLog_1378976067161.csv,12,500,530,true,{ chips  'CTRed':4 'grey78':1 },{ chips  'CTRed':6 'CTPurple':2 },TRUE,240,85,{ chips  'CTRed':4 'CTPurple':0 'CTGreen':0 'grey78':1 'CTYellow':0 },{ chips  'CTRed':6 'CTPurple':2 'CTGreen':0 'grey78':0 'CTYellow':0 },255,70,4,(R:1,C:5),{ chips  'CTRed':45 'CTGreen':0 'CTPurple':0 'grey78':2 'CTYellow':0 },235,{ chips  'CTRed':4 'CTGreen':0 'CTPurple':0 'grey78':10 'CTYellow':0 },70,{ chips  'CTRed':17 'CTGreen':0 'CTPurple':3 'grey78':0 'CTYellow':4 },120
3playersLog_1378976067161.csv,13,530,500,false,{ chips  },{ chips  },TRUE,70,235,{ chips  'grey78':0 },{ chips  'CTRed':0 'CTPurple':0 },70,235,0,(R:1,C:5),{ chips  'CTRed':45 'CTGreen':0 'CTPurple':0 'grey78':2 'CTYellow':0 },235,{ chips  'CTRed':4 'CTGreen':0 'CTPurple':0 'grey78':10 'CTYellow':0 },70,{ chips  'CTRed':17 'CTGreen':0 'CTPurple':3 'grey78':0 'CTYellow':4 },120
3playersLog_1378976067161.csv,13,540,500,false,{ chips  'CTPurple':1 'CTYellow':1 },{ chips  'CTRed':10 },FALSE,120,235,,,,,0,(R:1,C:5),{ chips  'CTRed':45 'CTGreen':0 'CTPurple':0 'grey78':2 'CTYellow':0 },235,{ chips  'CTRed':4 'CTGreen':0 'CTPurple':0 'grey78':10 'CTYellow':0 },70,{ chips  'CTRed':17 'CTGreen':0 'CTPurple':3 'grey78':0 'CTYellow':4 },120
3playersLog_1378976067161.csv,14,500,540,true,{ chips  'CTRed':3 'grey78':2 },{ chips  'CTRed':6 'CTPurple':3 },FALSE,235,120,,,,,0,(R:1,C:5),{ chips  'CTRed':45 'CTGreen':0 'CTPurple':0 'grey78':2 'CTYellow':0 },235,{ chips  'CTRed':4 'CTGreen':0 'CTPurple':0 'grey78':10 'CTYellow':0 },70,{ chips  'CTRed':17 'CTGreen':0 'CTPurple':3 'grey78':0 'CTYellow':4 },120
3playersLog_1378976067161.csv,,,,,,,,,,,,,,,,,,,,,,,,false
