filename,round,propID,respID,IsPropCustomer,chipsToSend,chipsToReceive,accept,propCurrentScore,respCurrentScore,actualSent,ActualRcvd,propResultingScore,respResultingScore,#ofCustomerMovesInRound,customerRowPositionAfterMovePhase,customerColPositionAfterMovePhase,Player100ChipsAfterMovePhase,Player100ScoreAfterMovePhase,Player200ChipsAfterMovePhase,Player200ScoreAfterMovePhase,Player300ChipsAfterMovePhase,Player300ScoreAfterMovePhase,generosityLevel,ClientReachedGoal
3playersLog_1378211356750.csv,1,530,500,false,{ chips  'CTRed':33 'CTPurple':7 },{ chips  'grey78':11 },IGNORED,200,120,,,,,2,(R:4,C:5),{ chips  'CTRed':3 'CTGreen':0 'CTPurple':0 'grey78':12 'CTYellow':10 },125,{ chips  'CTRed':33 'CTGreen':0 'CTPurple':7 'grey78':0 'CTYellow':0 },200,{ chips  'CTRed':30 'CTGreen':0 'CTPurple':7 'grey78':0 'CTYellow':0 },185
3playersLog_1378211356750.csv,1,540,500,false,{ chips  'CTRed':3 },{ chips  },TRUE,200,120,{ chips  'CTRed':3 'CTPurple':0 'CTGreen':0 'grey78':0 'CTYellow':0 },{ chips  'CTRed':0 'CTPurple':0 'CTGreen':0 'grey78':0 'CTYellow':0 },185,135,2,(R:4,C:5),{ chips  'CTRed':3 'CTGreen':0 'CTPurple':0 'grey78':12 'CTYellow':10 },125,{ chips  'CTRed':33 'CTGreen':0 'CTPurple':7 'grey78':0 'CTYellow':0 },200,{ chips  'CTRed':30 'CTGreen':0 'CTPurple':7 'grey78':0 'CTYellow':0 },185
3playersLog_1378211356750.csv,2,500,530,true,{ chips  'grey78':5 },{ chips  'CTRed':33 'CTPurple':3 },FALSE,125,200,,,,,1,(R:4,C:6),{ chips  'CTRed':3 'CTGreen':0 'CTPurple':0 'grey78':12 'CTYellow':9 },120,{ chips  'CTRed':33 'CTGreen':0 'CTPurple':7 'grey78':0 'CTYellow':0 },200,{ chips  'CTRed':30 'CTGreen':0 'CTPurple':7 'grey78':0 'CTYellow':0 },185
3playersLog_1378211356750.csv,3,530,500,false,{ chips  'CTRed':33 'CTPurple':7 },{ chips  'grey78':11 },TRUE,200,120,{ chips  'CTRed':33 'CTPurple':7 'CTYellow':0 },{ chips  'grey78':11 },55,265,5,(R:1,C:8),{ chips  'CTRed':36 'CTGreen':0 'CTPurple':7 'grey78':1 'CTYellow':4 },240,{ chips  'CTRed':0 'CTGreen':0 'CTPurple':0 'grey78':11 'CTYellow':0 },55,{ chips  'CTRed':30 'CTGreen':0 'CTPurple':7 'grey78':0 'CTYellow':0 },185
3playersLog_1378211356750.csv,4,500,540,true,{ chips  'CTYellow':2 },{ chips  'CTRed':15 'CTPurple':2 },TRUE,240,55,{ chips  'CTRed':0 'CTPurple':0 'CTGreen':0 'grey78':0 'CTYellow':2 },{ chips  'CTRed':15 'CTPurple':2 'CTGreen':0 'grey78':0 'CTYellow':0 },315,110,1,(R:0,C:8),{ chips  'CTRed':51 'CTGreen':0 'CTPurple':9 'grey78':1 'CTYellow':1 },460,{ chips  'CTRed':0 'CTGreen':0 'CTPurple':0 'grey78':11 'CTYellow':0 },205,{ chips  'CTRed':15 'CTGreen':0 'CTPurple':5 'grey78':0 'CTYellow':2 },110
3playersLog_1378211356750.csv,,,,,,,,,,,,,,,,,,,,,,,,true
