filename,round,propID,respID,IsPropCustomer,chipsToSend,chipsToReceive,accept,propCurrentScore,respCurrentScore,actualSent,ActualRcvd,propResultingScore,respResultingScore,#ofCustomerMovesInRound,customerRowPositionAfterMovePhase,customerColPositionAfterMovePhase,Player100ChipsAfterMovePhase,Player100ScoreAfterMovePhase,Player200ChipsAfterMovePhase,Player200ScoreAfterMovePhase,Player300ChipsAfterMovePhase,Player300ScoreAfterMovePhase,generosityLevel,ClientReachedGoal
3playersLog_1378889776446.csv,1,520,510,false,{ chips  'CTPurple':5 },{ chips  },TRUE,200,120,{ chips  'CTRed':0 'CTPurple':5 'CTGreen':0 'grey78':0 'CTYellow':0 },{ chips  'CTRed':0 'CTPurple':0 'CTGreen':0 'grey78':0 'CTYellow':0 },175,145,0,(R:5,C:4),{ chips  'CTRed':0 'CTGreen':0 'CTPurple':5 'grey78':12 'CTYellow':12 },145,{ chips  'CTRed':33 'CTGreen':0 'CTPurple':2 'grey78':0 'CTYellow':0 },175,{ chips  'CTRed':33 'CTGreen':0 'CTPurple':7 'grey78':0 'CTYellow':0 },200
3playersLog_1378889776446.csv,1,540,510,false,{ chips  'CTRed':7 'CTPurple':7 },{ chips  'CTYellow':12 },IGNORED,200,120,,,,,0,(R:5,C:4),{ chips  'CTRed':0 'CTGreen':0 'CTPurple':5 'grey78':12 'CTYellow':12 },145,{ chips  'CTRed':33 'CTGreen':0 'CTPurple':2 'grey78':0 'CTYellow':0 },175,{ chips  'CTRed':33 'CTGreen':0 'CTPurple':7 'grey78':0 'CTYellow':0 },200
3playersLog_1378889776446.csv,2,510,540,true,{ chips  'CTYellow':11 },{ chips  'CTRed':33 'CTPurple':7 },FALSE,145,200,,,,,1,(R:5,C:5),{ chips  'CTRed':0 'CTGreen':0 'CTPurple':5 'grey78':12 'CTYellow':11 },140,{ chips  'CTRed':33 'CTGreen':0 'CTPurple':2 'grey78':0 'CTYellow':0 },175,{ chips  'CTRed':33 'CTGreen':0 'CTPurple':7 'grey78':0 'CTYellow':0 },200
3playersLog_1378889776446.csv,3,520,510,false,{ chips  'CTPurple':2 },{ chips  },IGNORED,175,140,,,,,0,(R:5,C:5),{ chips  'CTRed':8 'CTGreen':0 'CTPurple':9 'grey78':12 'CTYellow':4 },165,{ chips  'CTRed':33 'CTGreen':0 'CTPurple':2 'grey78':0 'CTYellow':0 },175,{ chips  'CTRed':25 'CTGreen':0 'CTPurple':3 'grey78':0 'CTYellow':7 },175
3playersLog_1378889776446.csv,3,540,510,false,{ chips  'CTRed':8 'CTPurple':4 },{ chips  'CTYellow':7 },TRUE,200,140,{ chips  'CTRed':8 'CTPurple':4 'CTGreen':0 'grey78':0 'CTYellow':0 },{ chips  'CTRed':0 'CTPurple':0 'CTGreen':0 'grey78':0 'CTYellow':7 },175,165,0,(R:5,C:5),{ chips  'CTRed':8 'CTGreen':0 'CTPurple':9 'grey78':12 'CTYellow':4 },165,{ chips  'CTRed':33 'CTGreen':0 'CTPurple':2 'grey78':0 'CTYellow':0 },175,{ chips  'CTRed':25 'CTGreen':0 'CTPurple':3 'grey78':0 'CTYellow':7 },175
3playersLog_1378889776446.csv,4,510,540,true,{ chips  'CTYellow':2 },{ chips  'CTRed':25 'CTPurple':3 },FALSE,165,175,,,,,1,(R:4,C:5),{ chips  'CTRed':8 'CTGreen':0 'CTPurple':9 'grey78':12 'CTYellow':3 },160,{ chips  'CTRed':33 'CTGreen':0 'CTPurple':2 'grey78':0 'CTYellow':0 },175,{ chips  'CTRed':25 'CTGreen':0 'CTPurple':3 'grey78':0 'CTYellow':7 },175
3playersLog_1378889776446.csv,5,520,510,false,{ chips  'CTRed':5 },{ chips  },TRUE,175,160,{ chips  'CTRed':5 'CTPurple':0 'CTGreen':0 'grey78':0 'CTYellow':0 },{ chips  'CTRed':0 'CTPurple':0 'CTGreen':0 'grey78':0 'CTYellow':0 },150,185,0,(R:4,C:5),{ chips  'CTRed':13 'CTGreen':0 'CTPurple':9 'grey78':12 'CTYellow':3 },185,{ chips  'CTRed':28 'CTGreen':0 'CTPurple':2 'grey78':0 'CTYellow':0 },150,{ chips  'CTRed':25 'CTGreen':0 'CTPurple':3 'grey78':0 'CTYellow':7 },175
3playersLog_1378889776446.csv,6,510,540,true,{ chips  'CTYellow':2 },{ chips  'CTRed':25 'CTPurple':3 },FALSE,185,175,,,,,1,(R:3,C:5),{ chips  'CTRed':13 'CTGreen':0 'CTPurple':8 'grey78':12 'CTYellow':3 },180,{ chips  'CTRed':28 'CTGreen':0 'CTPurple':2 'grey78':0 'CTYellow':0 },150,{ chips  'CTRed':25 'CTGreen':0 'CTPurple':3 'grey78':0 'CTYellow':7 },175
3playersLog_1378889776446.csv,7,520,510,false,{ chips  'CTPurple':2 },{ chips  },TRUE,150,180,{ chips  'CTRed':0 'CTPurple':2 'CTGreen':0 'grey78':0 'CTYellow':0 },{ chips  'CTRed':0 'CTPurple':0 'CTGreen':0 'grey78':0 'CTYellow':0 },140,190,0,(R:3,C:5),{ chips  'CTRed':13 'CTGreen':0 'CTPurple':10 'grey78':12 'CTYellow':3 },190,{ chips  'CTRed':28 'CTGreen':0 'CTPurple':0 'grey78':0 'CTYellow':0 },140,{ chips  'CTRed':25 'CTGreen':0 'CTPurple':3 'grey78':0 'CTYellow':7 },175
3playersLog_1378889776446.csv,7,540,510,false,{ chips  'CTPurple':1 },{ chips  'CTRed':5 },IGNORED,175,180,,,,,0,(R:3,C:5),{ chips  'CTRed':13 'CTGreen':0 'CTPurple':10 'grey78':12 'CTYellow':3 },190,{ chips  'CTRed':28 'CTGreen':0 'CTPurple':0 'grey78':0 'CTYellow':0 },140,{ chips  'CTRed':25 'CTGreen':0 'CTPurple':3 'grey78':0 'CTYellow':7 },175
3playersLog_1378889776446.csv,8,510,540,true,{ chips  'CTYellow':2 },{ chips  'CTRed':25 'CTPurple':3 },FALSE,190,175,,,,,1,(R:3,C:4),{ chips  'CTRed':13 'CTGreen':0 'CTPurple':9 'grey78':12 'CTYellow':3 },185,{ chips  'CTRed':28 'CTGreen':0 'CTPurple':0 'grey78':0 'CTYellow':0 },140,{ chips  'CTRed':25 'CTGreen':0 'CTPurple':3 'grey78':0 'CTYellow':7 },175
3playersLog_1378889776446.csv,9,520,510,false,{ chips  'CTRed':3 },{ chips  },TRUE,140,185,{ chips  'CTRed':3 'CTPurple':0 'CTGreen':0 'grey78':0 'CTYellow':0 },{ chips  'CTRed':0 'CTPurple':0 'CTGreen':0 'grey78':0 'CTYellow':0 },125,200,0,(R:3,C:4),{ chips  'CTRed':16 'CTGreen':0 'CTPurple':9 'grey78':12 'CTYellow':3 },200,{ chips  'CTRed':25 'CTGreen':0 'CTPurple':0 'grey78':0 'CTYellow':0 },125,{ chips  'CTRed':25 'CTGreen':0 'CTPurple':3 'grey78':0 'CTYellow':7 },175
3playersLog_1378889776446.csv,9,540,510,false,{ chips  'CTRed':2 },{ chips  'CTYellow':1 },IGNORED,175,185,,,,,0,(R:3,C:4),{ chips  'CTRed':16 'CTGreen':0 'CTPurple':9 'grey78':12 'CTYellow':3 },200,{ chips  'CTRed':25 'CTGreen':0 'CTPurple':0 'grey78':0 'CTYellow':0 },125,{ chips  'CTRed':25 'CTGreen':0 'CTPurple':3 'grey78':0 'CTYellow':7 },175
3playersLog_1378889776446.csv,10,510,540,true,{ chips  'CTYellow':2 },{ chips  'CTRed':25 'CTPurple':3 },FALSE,200,175,,,,,1,(R:3,C:3),{ chips  'CTRed':16 'CTGreen':0 'CTPurple':8 'grey78':12 'CTYellow':3 },195,{ chips  'CTRed':25 'CTGreen':0 'CTPurple':0 'grey78':0 'CTYellow':0 },125,{ chips  'CTRed':25 'CTGreen':0 'CTPurple':3 'grey78':0 'CTYellow':7 },175
3playersLog_1378889776446.csv,11,540,510,false,{ chips  'CTRed':4 },{ chips  'CTYellow':1 },TRUE,175,195,{ chips  'CTRed':4 'CTPurple':0 'CTGreen':0 'grey78':0 'CTYellow':0 },{ chips  'CTRed':0 'CTPurple':0 'CTGreen':0 'grey78':0 'CTYellow':1 },160,210,0,(R:3,C:3),{ chips  'CTRed':20 'CTGreen':0 'CTPurple':8 'grey78':12 'CTYellow':2 },210,{ chips  'CTRed':25 'CTGreen':0 'CTPurple':0 'grey78':0 'CTYellow':0 },125,{ chips  'CTRed':21 'CTGreen':0 'CTPurple':3 'grey78':0 'CTYellow':8 },160
3playersLog_1378889776446.csv,12,510,540,true,{ chips  'CTYellow':1 },{ chips  'CTRed':21 'CTPurple':3 },FALSE,210,160,,,,,1,(R:3,C:2),{ chips  'CTRed':20 'CTGreen':0 'CTPurple':8 'grey78':11 'CTYellow':2 },205,{ chips  'CTRed':25 'CTGreen':0 'CTPurple':0 'grey78':0 'CTYellow':0 },125,{ chips  'CTRed':21 'CTGreen':0 'CTPurple':3 'grey78':0 'CTYellow':8 },160
