Wed Sep 11 10:55:41 IST 2013	This is the CT debug logger; svn version 638; sep 27 09
Wed Sep 11 10:55:41 IST 2013	Wed Sep 11 10:55:41 IST 2013
Wed Sep 11 10:55:41 IST 2013	ThreePlayersAgentPlayer(): entering.
Wed Sep 11 10:56:16 IST 2013	phaseAdvanced(): entering.
Wed Sep 11 10:56:16 IST 2013	phaseAdvanced(): new phase is 'Strategy Prep Phase'.
Wed Sep 11 10:57:16 IST 2013	phaseAdvanced(): entering.
Wed Sep 11 10:57:16 IST 2013	phaseAdvanced(): new phase is 'Communication Phase'.
Wed Sep 11 10:57:30 IST 2013	onReceipt(): entering.
Wed Sep 11 10:57:30 IST 2013	onReceipt(): opponent's proposal: ({ chips  'CTRed':0 'CTPurple':5 'CTGreen':0 'grey78':0 'CTYellow':0 }, { chips  'CTRed':0 'CTPurple':0 'CTGreen':0 'grey78':0 'CTYellow':0 }).
Wed Sep 11 10:57:48 IST 2013	onReceipt(): entering.
Wed Sep 11 10:57:48 IST 2013	onReceipt(): opponent's proposal: ({ chips  'CTRed':7 'CTPurple':7 'CTGreen':0 'grey78':0 'CTYellow':0 }, { chips  'CTRed':0 'CTPurple':0 'CTGreen':0 'grey78':0 'CTYellow':12 }).
Wed Sep 11 10:57:48 IST 2013	responseToSend(): entering.
Wed Sep 11 10:57:54 IST 2013	compareProposals(): decision: 0 utility 145.0
Wed Sep 11 10:57:54 IST 2013	responseToSend(): accepting proposal ({ chips  'CTRed':0 'CTPurple':5 'CTGreen':0 'grey78':0 'CTYellow':0 }, { chips  'CTRed':0 'CTPurple':0 'CTGreen':0 'grey78':0 'CTYellow':0 }).
Wed Sep 11 10:57:54 IST 2013	phaseAdvanced(): entering.
Wed Sep 11 10:57:54 IST 2013	phaseAdvanced(): new phase is 'Movement Phase'.
Wed Sep 11 10:58:39 IST 2013	phaseAdvanced(): entering.
Wed Sep 11 10:58:39 IST 2013	phaseAdvanced(): new phase is 'Feedback Phase'.
Wed Sep 11 10:58:44 IST 2013	phaseAdvanced(): entering.
Wed Sep 11 10:58:44 IST 2013	phaseAdvanced(): new phase is 'Communication Phase'.
Wed Sep 11 10:59:02 IST 2013	onReceipt(): entering.
Wed Sep 11 10:59:02 IST 2013	phaseAdvanced(): entering.
Wed Sep 11 10:59:02 IST 2013	phaseAdvanced(): new phase is 'Movement Phase'.
Wed Sep 11 10:59:46 IST 2013	phaseAdvanced(): entering.
Wed Sep 11 10:59:46 IST 2013	phaseAdvanced(): new phase is 'Feedback Phase'.
Wed Sep 11 10:59:51 IST 2013	phaseAdvanced(): entering.
Wed Sep 11 10:59:51 IST 2013	phaseAdvanced(): new phase is 'Communication Phase'.
Wed Sep 11 11:00:20 IST 2013	onReceipt(): entering.
Wed Sep 11 11:00:20 IST 2013	onReceipt(): opponent's proposal: ({ chips  'CTRed':0 'CTPurple':2 'CTGreen':0 'grey78':0 'CTYellow':0 }, { chips  'CTRed':0 'CTPurple':0 'CTGreen':0 'grey78':0 'CTYellow':0 }).
Wed Sep 11 11:02:19 IST 2013	onReceipt(): entering.
Wed Sep 11 11:02:19 IST 2013	onReceipt(): opponent's proposal: ({ chips  'CTRed':8 'CTPurple':4 'CTGreen':0 'grey78':0 'CTYellow':0 }, { chips  'CTRed':0 'CTPurple':0 'CTGreen':0 'grey78':0 'CTYellow':7 }).
Wed Sep 11 11:02:19 IST 2013	responseToSend(): entering.
Wed Sep 11 11:02:19 IST 2013	compareProposals(): decision: 1 utility 165.0
Wed Sep 11 11:02:19 IST 2013	responseToSend(): accepting proposal ({ chips  'CTRed':8 'CTPurple':4 'CTGreen':0 'grey78':0 'CTYellow':0 }, { chips  'CTRed':0 'CTPurple':0 'CTGreen':0 'grey78':0 'CTYellow':7 }).
Wed Sep 11 11:02:19 IST 2013	phaseAdvanced(): entering.
Wed Sep 11 11:02:19 IST 2013	phaseAdvanced(): new phase is 'Movement Phase'.
Wed Sep 11 11:02:32 IST 2013	responseToSend(): entering.
Wed Sep 11 11:03:04 IST 2013	phaseAdvanced(): entering.
Wed Sep 11 11:03:04 IST 2013	phaseAdvanced(): new phase is 'Feedback Phase'.
Wed Sep 11 11:03:09 IST 2013	phaseAdvanced(): entering.
Wed Sep 11 11:03:09 IST 2013	phaseAdvanced(): new phase is 'Communication Phase'.
Wed Sep 11 11:03:32 IST 2013	onReceipt(): entering.
Wed Sep 11 11:03:32 IST 2013	phaseAdvanced(): entering.
Wed Sep 11 11:03:32 IST 2013	phaseAdvanced(): new phase is 'Movement Phase'.
Wed Sep 11 11:04:17 IST 2013	phaseAdvanced(): entering.
Wed Sep 11 11:04:17 IST 2013	phaseAdvanced(): new phase is 'Feedback Phase'.
Wed Sep 11 11:04:22 IST 2013	phaseAdvanced(): entering.
Wed Sep 11 11:04:22 IST 2013	phaseAdvanced(): new phase is 'Communication Phase'.
Wed Sep 11 11:04:49 IST 2013	onReceipt(): entering.
Wed Sep 11 11:04:49 IST 2013	onReceipt(): opponent's proposal: ({ chips  'CTRed':5 'CTPurple':0 'CTGreen':0 'grey78':0 'CTYellow':0 }, { chips  'CTRed':0 'CTPurple':0 'CTGreen':0 'grey78':0 'CTYellow':0 }).
Wed Sep 11 11:07:03 IST 2013	responseToSend(): entering.
Wed Sep 11 11:07:03 IST 2013	compareProposals(): decision: 0 utility 185.0
Wed Sep 11 11:07:03 IST 2013	responseToSend(): accepting proposal ({ chips  'CTRed':5 'CTPurple':0 'CTGreen':0 'grey78':0 'CTYellow':0 }, { chips  'CTRed':0 'CTPurple':0 'CTGreen':0 'grey78':0 'CTYellow':0 }).
Wed Sep 11 11:07:03 IST 2013	phaseAdvanced(): entering.
Wed Sep 11 11:07:03 IST 2013	phaseAdvanced(): new phase is 'Movement Phase'.
Wed Sep 11 11:07:47 IST 2013	phaseAdvanced(): entering.
Wed Sep 11 11:07:47 IST 2013	phaseAdvanced(): new phase is 'Feedback Phase'.
Wed Sep 11 11:07:52 IST 2013	phaseAdvanced(): entering.
Wed Sep 11 11:07:52 IST 2013	phaseAdvanced(): new phase is 'Communication Phase'.
Wed Sep 11 11:08:00 IST 2013	onReceipt(): entering.
Wed Sep 11 11:08:00 IST 2013	phaseAdvanced(): entering.
Wed Sep 11 11:08:00 IST 2013	phaseAdvanced(): new phase is 'Movement Phase'.
Wed Sep 11 11:08:44 IST 2013	phaseAdvanced(): entering.
Wed Sep 11 11:08:44 IST 2013	phaseAdvanced(): new phase is 'Feedback Phase'.
Wed Sep 11 11:08:49 IST 2013	phaseAdvanced(): entering.
Wed Sep 11 11:08:49 IST 2013	phaseAdvanced(): new phase is 'Communication Phase'.
Wed Sep 11 11:09:07 IST 2013	onReceipt(): entering.
Wed Sep 11 11:09:07 IST 2013	onReceipt(): opponent's proposal: ({ chips  'CTRed':0 'CTPurple':2 'CTGreen':0 'grey78':0 'CTYellow':0 }, { chips  'CTRed':0 'CTPurple':0 'CTGreen':0 'grey78':0 'CTYellow':0 }).
Wed Sep 11 11:10:03 IST 2013	onReceipt(): entering.
Wed Sep 11 11:10:03 IST 2013	onReceipt(): opponent's proposal: ({ chips  'CTRed':0 'CTPurple':1 'CTGreen':0 'grey78':0 'CTYellow':0 }, { chips  'CTRed':5 'CTPurple':0 'CTGreen':0 'grey78':0 'CTYellow':0 }).
Wed Sep 11 11:10:03 IST 2013	responseToSend(): entering.
Wed Sep 11 11:10:04 IST 2013	compareProposals(): decision: 0 utility 190.0
Wed Sep 11 11:10:04 IST 2013	responseToSend(): accepting proposal ({ chips  'CTRed':0 'CTPurple':2 'CTGreen':0 'grey78':0 'CTYellow':0 }, { chips  'CTRed':0 'CTPurple':0 'CTGreen':0 'grey78':0 'CTYellow':0 }).
Wed Sep 11 11:10:04 IST 2013	phaseAdvanced(): entering.
Wed Sep 11 11:10:04 IST 2013	phaseAdvanced(): new phase is 'Movement Phase'.
Wed Sep 11 11:10:48 IST 2013	phaseAdvanced(): entering.
Wed Sep 11 11:10:48 IST 2013	phaseAdvanced(): new phase is 'Feedback Phase'.
Wed Sep 11 11:10:53 IST 2013	phaseAdvanced(): entering.
Wed Sep 11 11:10:53 IST 2013	phaseAdvanced(): new phase is 'Communication Phase'.
Wed Sep 11 11:11:52 IST 2013	onReceipt(): entering.
Wed Sep 11 11:11:52 IST 2013	phaseAdvanced(): entering.
Wed Sep 11 11:11:52 IST 2013	phaseAdvanced(): new phase is 'Movement Phase'.
Wed Sep 11 11:12:36 IST 2013	phaseAdvanced(): entering.
Wed Sep 11 11:12:36 IST 2013	phaseAdvanced(): new phase is 'Feedback Phase'.
Wed Sep 11 11:12:41 IST 2013	phaseAdvanced(): entering.
Wed Sep 11 11:12:41 IST 2013	phaseAdvanced(): new phase is 'Communication Phase'.
Wed Sep 11 11:13:07 IST 2013	onReceipt(): entering.
Wed Sep 11 11:13:07 IST 2013	onReceipt(): opponent's proposal: ({ chips  'CTRed':2 'CTPurple':0 'CTGreen':0 'grey78':0 'CTYellow':0 }, { chips  'CTRed':0 'CTPurple':0 'CTGreen':0 'grey78':0 'CTYellow':1 }).
Wed Sep 11 11:13:22 IST 2013	onReceipt(): entering.
Wed Sep 11 11:13:22 IST 2013	onReceipt(): opponent's proposal: ({ chips  'CTRed':3 'CTPurple':0 'CTGreen':0 'grey78':0 'CTYellow':0 }, { chips  'CTRed':0 'CTPurple':0 'CTGreen':0 'grey78':0 'CTYellow':0 }).
Wed Sep 11 11:13:22 IST 2013	responseToSend(): entering.
Wed Sep 11 11:13:22 IST 2013	compareProposals(): decision: 0 utility 200.0
Wed Sep 11 11:13:22 IST 2013	responseToSend(): accepting proposal ({ chips  'CTRed':3 'CTPurple':0 'CTGreen':0 'grey78':0 'CTYellow':0 }, { chips  'CTRed':0 'CTPurple':0 'CTGreen':0 'grey78':0 'CTYellow':0 }).
Wed Sep 11 11:13:22 IST 2013	phaseAdvanced(): entering.
Wed Sep 11 11:13:22 IST 2013	phaseAdvanced(): new phase is 'Movement Phase'.
Wed Sep 11 11:14:07 IST 2013	phaseAdvanced(): entering.
Wed Sep 11 11:14:07 IST 2013	phaseAdvanced(): new phase is 'Feedback Phase'.
Wed Sep 11 11:14:12 IST 2013	phaseAdvanced(): entering.
Wed Sep 11 11:14:12 IST 2013	phaseAdvanced(): new phase is 'Communication Phase'.
Wed Sep 11 11:14:21 IST 2013	onReceipt(): entering.
Wed Sep 11 11:14:21 IST 2013	phaseAdvanced(): entering.
Wed Sep 11 11:14:21 IST 2013	phaseAdvanced(): new phase is 'Movement Phase'.
Wed Sep 11 11:15:06 IST 2013	phaseAdvanced(): entering.
Wed Sep 11 11:15:06 IST 2013	phaseAdvanced(): new phase is 'Feedback Phase'.
Wed Sep 11 11:15:11 IST 2013	phaseAdvanced(): entering.
Wed Sep 11 11:15:11 IST 2013	phaseAdvanced(): new phase is 'Communication Phase'.
Wed Sep 11 11:16:41 IST 2013	onReceipt(): entering.
Wed Sep 11 11:16:41 IST 2013	onReceipt(): opponent's proposal: ({ chips  'CTRed':4 'CTPurple':0 'CTGreen':0 'grey78':0 'CTYellow':0 }, { chips  'CTRed':0 'CTPurple':0 'CTGreen':0 'grey78':0 'CTYellow':1 }).
Wed Sep 11 11:17:51 IST 2013	responseToSend(): entering.
Wed Sep 11 11:17:51 IST 2013	compareProposals(): decision: 1 utility 210.0
Wed Sep 11 11:17:51 IST 2013	responseToSend(): accepting proposal ({ chips  'CTRed':4 'CTPurple':0 'CTGreen':0 'grey78':0 'CTYellow':0 }, { chips  'CTRed':0 'CTPurple':0 'CTGreen':0 'grey78':0 'CTYellow':1 }).
Wed Sep 11 11:17:51 IST 2013	phaseAdvanced(): entering.
Wed Sep 11 11:17:51 IST 2013	phaseAdvanced(): new phase is 'Movement Phase'.
Wed Sep 11 11:18:36 IST 2013	phaseAdvanced(): entering.
Wed Sep 11 11:18:36 IST 2013	phaseAdvanced(): new phase is 'Feedback Phase'.
Wed Sep 11 11:18:41 IST 2013	phaseAdvanced(): entering.
Wed Sep 11 11:18:41 IST 2013	phaseAdvanced(): new phase is 'Communication Phase'.
Wed Sep 11 11:18:52 IST 2013	onReceipt(): entering.
Wed Sep 11 11:18:52 IST 2013	phaseAdvanced(): entering.
Wed Sep 11 11:18:52 IST 2013	phaseAdvanced(): new phase is 'Movement Phase'.
Wed Sep 11 11:19:37 IST 2013	phaseAdvanced(): entering.
Wed Sep 11 11:19:37 IST 2013	phaseAdvanced(): new phase is 'Feedback Phase'.
Wed Sep 11 11:19:42 IST 2013	phaseAdvanced(): entering.
Wed Sep 11 11:19:42 IST 2013	phaseAdvanced(): new phase is 'Communication Phase'.
Wed Sep 11 11:20:25 IST 2013	onReceipt(): entering.
Wed Sep 11 11:20:25 IST 2013	onReceipt(): opponent's proposal: ({ chips  'CTRed':2 'CTPurple':0 'CTGreen':0 'grey78':0 'CTYellow':0 }, { chips  'CTRed':0 'CTPurple':1 'CTGreen':0 'grey78':0 'CTYellow':0 }).
