filename,round,propID,respID,IsPropCustomer,chipsToSend,chipsToReceive,accept,propCurrentScore,respCurrentScore,actualSent,ActualRcvd,propResultingScore,respResultingScore,#ofCustomerMovesInRound,customerRowPositionAfterMovePhase,customerColPositionAfterMovePhase,Player100ChipsAfterMovePhase,Player100ScoreAfterMovePhase,Player200ChipsAfterMovePhase,Player200ScoreAfterMovePhase,Player300ChipsAfterMovePhase,Player300ScoreAfterMovePhase,generosityLevel,ClientReachedGoal
3playersLog_1386100636190.csv,1,520,510,false,{ chips  'CTRed':10 'CTPurple':3 },{ chips  'grey78':10 },TRUE,200,120,{ chips  'CTRed':10 'CTPurple':3 'CTGreen':0 'grey78':0 'CTYellow':0 },{ chips  'CTRed':0 'CTPurple':0 'CTGreen':0 'grey78':10 'CTYellow':0 },185,135,0,(R:5,C:4),{ chips  'CTRed':10 'CTGreen':0 'CTPurple':3 'grey78':2 'CTYellow':12 },135,{ chips  'CTRed':23 'CTGreen':0 'CTPurple':4 'grey78':10 'CTYellow':0 },185,{ chips  'CTRed':33 'CTGreen':0 'CTPurple':7 'grey78':0 'CTYellow':0 },200
3playersLog_1386100636190.csv,1,540,510,false,{ chips  'CTRed':5 },{ chips  'grey78':8 },IGNORED,200,120,,,,,0,(R:5,C:4),{ chips  'CTRed':10 'CTGreen':0 'CTPurple':3 'grey78':2 'CTYellow':12 },135,{ chips  'CTRed':23 'CTGreen':0 'CTPurple':4 'grey78':10 'CTYellow':0 },185,{ chips  'CTRed':33 'CTGreen':0 'CTPurple':7 'grey78':0 'CTYellow':0 },200
3playersLog_1386100636190.csv,2,510,520,true,{ chips  'grey78':1 },{ chips  'CTRed':23 'CTPurple':4 },TRUE,135,185,{ chips  'grey78':1 },{ chips  'CTRed':23 'CTPurple':4 'CTYellow':0 },265,55,9,(R:0,C:8),{ chips  'CTRed':33 'CTGreen':0 'CTPurple':7 'grey78':1 'CTYellow':3 },370,{ chips  'CTRed':0 'CTGreen':0 'CTPurple':0 'grey78':11 'CTYellow':0 },205,{ chips  'CTRed':33 'CTGreen':0 'CTPurple':7 'grey78':0 'CTYellow':0 },200
3playersLog_1386100636190.csv,,,,,,,,,,,,,,,,,,,,,,,,true
