filename,round,propID,respID,IsPropCustomer,chipsToSend,chipsToReceive,accept,propCurrentScore,respCurrentScore,actualSent,ActualRcvd,propResultingScore,respResultingScore,#ofCustomerMovesInRound,customerRowPositionAfterMovePhase,customerColPositionAfterMovePhase,Player100ChipsAfterMovePhase,Player100ScoreAfterMovePhase,Player200ChipsAfterMovePhase,Player200ScoreAfterMovePhase,Player300ChipsAfterMovePhase,Player300ScoreAfterMovePhase,generosityLevel,ClientReachedGoal
3playersLog_1378642735265.csv,1,520,510,FALSE,{ chips  'CTRed':7 'CTPurple':1 },{ chips  'grey78':3 },TRUE,200,120,{ chips  'CTRed':7 'CTPurple':1 'CTGreen':0 'grey78':0 'CTYellow':0 },{ chips  'CTRed':0 'CTPurple':0 'CTGreen':0 'grey78':3 'CTYellow':0 },175,145,0,(R:5,C:4),{ chips  'CTRed':7 'CTGreen':0 'CTPurple':1 'grey78':9 'CTYellow':12 },145,{ chips  'CTRed':26 'CTGreen':0 'CTPurple':6 'grey78':3 'CTYellow':0 },175,{ chips  'CTRed':33 'CTGreen':0 'CTPurple':7 'grey78':0 'CTYellow':0 },200,,
3playersLog_1378642735265.csv,1,540,510,FALSE,{ chips  'CTRed':20 },{ chips  'CTYellow':12 },IGNORED,200,120,,,,,0,(R:5,C:4),{ chips  'CTRed':7 'CTGreen':0 'CTPurple':1 'grey78':9 'CTYellow':12 },145,{ chips  'CTRed':26 'CTGreen':0 'CTPurple':6 'grey78':3 'CTYellow':0 },175,{ chips  'CTRed':33 'CTGreen':0 'CTPurple':7 'grey78':0 'CTYellow':0 },200,,
3playersLog_1378642735265.csv,2,510,520,TRUE,{ chips  'grey78':8 },{ chips  'CTRed':26 'CTPurple':6 },FALSE,145,175,,,,,1,(R:5,C:5),{ chips  'CTRed':7 'CTGreen':0 'CTPurple':1 'grey78':9 'CTYellow':11 },140,{ chips  'CTRed':26 'CTGreen':0 'CTPurple':6 'grey78':3 'CTYellow':0 },175,{ chips  'CTRed':33 'CTGreen':0 'CTPurple':7 'grey78':0 'CTYellow':0 },200,,
3playersLog_1378642735265.csv,3,520,510,FALSE,{ chips  'CTRed':8 },{ chips  'grey78':3 },TRUE,175,140,{ chips  'CTRed':8 'CTPurple':0 'CTGreen':0 'grey78':0 'CTYellow':0 },{ chips  'CTRed':0 'CTPurple':0 'CTGreen':0 'grey78':3 'CTYellow':0 },150,165,0,(R:5,C:5),{ chips  'CTRed':15 'CTGreen':0 'CTPurple':1 'grey78':6 'CTYellow':11 },165,{ chips  'CTRed':18 'CTGreen':0 'CTPurple':6 'grey78':6 'CTYellow':0 },150,{ chips  'CTRed':33 'CTGreen':0 'CTPurple':7 'grey78':0 'CTYellow':0 },200,,
3playersLog_1378642735265.csv,3,540,510,FALSE,{ chips  'CTRed':5 },{ chips  'CTPurple':1 'CTYellow':1 },IGNORED,200,140,,,,,0,(R:5,C:5),{ chips  'CTRed':15 'CTGreen':0 'CTPurple':1 'grey78':6 'CTYellow':11 },165,{ chips  'CTRed':18 'CTGreen':0 'CTPurple':6 'grey78':6 'CTYellow':0 },150,{ chips  'CTRed':33 'CTGreen':0 'CTPurple':7 'grey78':0 'CTYellow':0 },200,,
3playersLog_1378642735265.csv,4,510,520,TRUE,{ chips  'grey78':5 },{ chips  'CTRed':18 'CTPurple':6 },FALSE,165,150,,,,,1,(R:4,C:5),{ chips  'CTRed':15 'CTGreen':0 'CTPurple':1 'grey78':6 'CTYellow':10 },160,{ chips  'CTRed':18 'CTGreen':0 'CTPurple':6 'grey78':6 'CTYellow':0 },150,{ chips  'CTRed':33 'CTGreen':0 'CTPurple':7 'grey78':0 'CTYellow':0 },200,,
3playersLog_1378642735265.csv,5,520,510,FALSE,{ chips  'CTRed':3 'CTPurple':3 },{ chips  'grey78':1 },TRUE,150,160,{ chips  'CTRed':3 'CTPurple':3 'CTGreen':0 'grey78':0 'CTYellow':0 },{ chips  'CTRed':0 'CTPurple':0 'CTGreen':0 'grey78':1 'CTYellow':0 },125,185,0,(R:4,C:5),{ chips  'CTRed':18 'CTGreen':0 'CTPurple':4 'grey78':5 'CTYellow':10 },185,{ chips  'CTRed':15 'CTGreen':0 'CTPurple':3 'grey78':7 'CTYellow':0 },125,{ chips  'CTRed':33 'CTGreen':0 'CTPurple':7 'grey78':0 'CTYellow':0 },200,,
3playersLog_1378642735265.csv,5,540,510,FALSE,{ chips  'CTPurple':5 },{ chips  'CTRed':3 'CTYellow':10 },IGNORED,200,160,,,,,0,(R:4,C:5),{ chips  'CTRed':18 'CTGreen':0 'CTPurple':4 'grey78':5 'CTYellow':10 },185,{ chips  'CTRed':15 'CTGreen':0 'CTPurple':3 'grey78':7 'CTYellow':0 },125,{ chips  'CTRed':33 'CTGreen':0 'CTPurple':7 'grey78':0 'CTYellow':0 },200,,
3playersLog_1378642735265.csv,6,510,520,TRUE,{ chips  'grey78':4 },{ chips  'CTRed':15 'CTPurple':3 },TRUE,185,125,{ chips  'grey78':4 },{ chips  'CTRed':15 'CTPurple':3 'CTYellow':0 },255,55,7,(R:0,C:8),{ chips  'CTRed':33 'CTGreen':0 'CTPurple':5 'grey78':1 'CTYellow':5 },370,{ chips  'CTRed':0 'CTGreen':0 'CTPurple':0 'grey78':11 'CTYellow':0 },205,{ chips  'CTRed':33 'CTGreen':0 'CTPurple':7 'grey78':0 'CTYellow':0 },200,,
3playersLog_1378642735265.csv,,,,,,,,,,,,,,,,,,,,,,,,TRUE
