filename,round,propID,respID,IsPropCustomer,chipsToSend,chipsToReceive,accept,propCurrentScore,respCurrentScore,actualSent,ActualRcvd,propResultingScore,respResultingScore,#ofCustomerMovesInRound,customerRowPositionAfterMovePhase,customerColPositionAfterMovePhase,Player100ChipsAfterMovePhase,Player100ScoreAfterMovePhase,Player200ChipsAfterMovePhase,Player200ScoreAfterMovePhase,Player300ChipsAfterMovePhase,Player300ScoreAfterMovePhase,generosityLevel,ClientReachedGoal
3playersLog_1378730763687.csv,1,520,510,false,{ chips  'CTPurple':1 },{ chips  'grey78':1 },IGNORED,200,120,,,,,0,(R:5,C:4),{ chips  'CTRed':5 'CTGreen':0 'CTPurple':0 'grey78':12 'CTYellow':12 },145,{ chips  'CTRed':33 'CTGreen':0 'CTPurple':7 'grey78':0 'CTYellow':0 },200,{ chips  'CTRed':28 'CTGreen':0 'CTPurple':7 'grey78':0 'CTYellow':0 },175
3playersLog_1378730763687.csv,1,540,510,false,{ chips  'CTRed':5 },{ chips  },TRUE,200,120,{ chips  'CTRed':5 'CTPurple':0 'CTGreen':0 'grey78':0 'CTYellow':0 },{ chips  'CTRed':0 'CTPurple':0 'CTGreen':0 'grey78':0 'CTYellow':0 },175,145,0,(R:5,C:4),{ chips  'CTRed':5 'CTGreen':0 'CTPurple':0 'grey78':12 'CTYellow':12 },145,{ chips  'CTRed':33 'CTGreen':0 'CTPurple':7 'grey78':0 'CTYellow':0 },200,{ chips  'CTRed':28 'CTGreen':0 'CTPurple':7 'grey78':0 'CTYellow':0 },175
3playersLog_1378730763687.csv,2,510,540,true,{ chips  'CTYellow':11 },{ chips  'CTRed':28 'CTPurple':7 },FALSE,145,175,,,,,1,(R:5,C:5),{ chips  'CTRed':5 'CTGreen':0 'CTPurple':0 'grey78':12 'CTYellow':11 },140,{ chips  'CTRed':33 'CTGreen':0 'CTPurple':7 'grey78':0 'CTYellow':0 },200,{ chips  'CTRed':28 'CTGreen':0 'CTPurple':7 'grey78':0 'CTYellow':0 },175
3playersLog_1378730763687.csv,3,520,510,false,{ chips  'CTPurple':3 },{ chips  'grey78':1 },TRUE,200,140,{ chips  'CTRed':0 'CTPurple':3 'CTGreen':0 'grey78':0 'CTYellow':0 },{ chips  'CTRed':0 'CTPurple':0 'CTGreen':0 'grey78':1 'CTYellow':0 },190,150,0,(R:5,C:5),{ chips  'CTRed':5 'CTGreen':0 'CTPurple':3 'grey78':11 'CTYellow':11 },150,{ chips  'CTRed':33 'CTGreen':0 'CTPurple':4 'grey78':1 'CTYellow':0 },190,{ chips  'CTRed':28 'CTGreen':0 'CTPurple':7 'grey78':0 'CTYellow':0 },175
3playersLog_1378730763687.csv,3,540,510,false,{ chips  'CTRed':11 },{ chips  'CTYellow':7 },IGNORED,175,140,,,,,0,(R:5,C:5),{ chips  'CTRed':5 'CTGreen':0 'CTPurple':3 'grey78':11 'CTYellow':11 },150,{ chips  'CTRed':33 'CTGreen':0 'CTPurple':4 'grey78':1 'CTYellow':0 },190,{ chips  'CTRed':28 'CTGreen':0 'CTPurple':7 'grey78':0 'CTYellow':0 },175
3playersLog_1378730763687.csv,4,510,520,true,{ chips  'grey78':10 },{ chips  'CTRed':33 'CTPurple':4 },FALSE,150,190,,,,,1,(R:4,C:5),{ chips  'CTRed':5 'CTGreen':0 'CTPurple':3 'grey78':11 'CTYellow':10 },145,{ chips  'CTRed':33 'CTGreen':0 'CTPurple':4 'grey78':1 'CTYellow':0 },190,{ chips  'CTRed':28 'CTGreen':0 'CTPurple':7 'grey78':0 'CTYellow':0 },175
3playersLog_1378730763687.csv,5,520,510,false,{ chips  'CTRed':10 'CTPurple':4 },{ chips  'grey78':4 },TRUE,190,145,{ chips  'CTRed':10 'CTPurple':4 'CTGreen':0 'grey78':0 'CTYellow':0 },{ chips  'CTRed':0 'CTPurple':0 'CTGreen':0 'grey78':4 'CTYellow':0 },140,195,0,(R:4,C:5),{ chips  'CTRed':15 'CTGreen':0 'CTPurple':7 'grey78':7 'CTYellow':10 },195,{ chips  'CTRed':23 'CTGreen':0 'CTPurple':0 'grey78':5 'CTYellow':0 },140,{ chips  'CTRed':28 'CTGreen':0 'CTPurple':7 'grey78':0 'CTYellow':0 },175
3playersLog_1378730763687.csv,5,540,510,false,{ chips  'CTRed':7 },{ chips  'CTYellow':5 },IGNORED,175,145,,,,,0,(R:4,C:5),{ chips  'CTRed':15 'CTGreen':0 'CTPurple':7 'grey78':7 'CTYellow':10 },195,{ chips  'CTRed':23 'CTGreen':0 'CTPurple':0 'grey78':5 'CTYellow':0 },140,{ chips  'CTRed':28 'CTGreen':0 'CTPurple':7 'grey78':0 'CTYellow':0 },175
3playersLog_1378730763687.csv,6,510,520,true,{ chips  'grey78':6 },{ chips  'CTRed':23 },FALSE,195,140,,,,,1,(R:3,C:5),{ chips  'CTRed':15 'CTGreen':0 'CTPurple':6 'grey78':7 'CTYellow':10 },190,{ chips  'CTRed':23 'CTGreen':0 'CTPurple':0 'grey78':5 'CTYellow':0 },140,{ chips  'CTRed':28 'CTGreen':0 'CTPurple':7 'grey78':0 'CTYellow':0 },175
3playersLog_1378730763687.csv,7,520,510,false,{ chips  'CTRed':23 },{ chips  'grey78':6 },FALSE,140,190,,,,,0,(R:3,C:5),{ chips  'CTRed':15 'CTGreen':0 'CTPurple':6 'grey78':7 'CTYellow':10 },190,{ chips  'CTRed':23 'CTGreen':0 'CTPurple':0 'grey78':5 'CTYellow':0 },140,{ chips  'CTRed':28 'CTGreen':0 'CTPurple':7 'grey78':0 'CTYellow':0 },175
3playersLog_1378730763687.csv,7,540,510,false,{ chips  'CTRed':28 },{ chips  'CTYellow':9 },FALSE,175,190,,,,,0,(R:3,C:5),{ chips  'CTRed':15 'CTGreen':0 'CTPurple':6 'grey78':7 'CTYellow':10 },190,{ chips  'CTRed':23 'CTGreen':0 'CTPurple':0 'grey78':5 'CTYellow':0 },140,{ chips  'CTRed':28 'CTGreen':0 'CTPurple':7 'grey78':0 'CTYellow':0 },175
3playersLog_1378730763687.csv,8,510,520,true,{ chips  'grey78':6 },{ chips  'CTRed':23 },FALSE,190,140,,,,,1,(R:3,C:6),{ chips  'CTRed':15 'CTGreen':0 'CTPurple':6 'grey78':7 'CTYellow':9 },185,{ chips  'CTRed':23 'CTGreen':0 'CTPurple':0 'grey78':5 'CTYellow':0 },140,{ chips  'CTRed':28 'CTGreen':0 'CTPurple':7 'grey78':0 'CTYellow':0 },175
3playersLog_1378730763687.csv,9,520,510,false,{ chips  'CTRed':16 },{ chips  'grey78':4 },IGNORED,140,185,,,,,0,(R:3,C:6),{ chips  'CTRed':43 'CTGreen':0 'CTPurple':13 'grey78':7 'CTYellow':5 },340,{ chips  'CTRed':23 'CTGreen':0 'CTPurple':0 'grey78':5 'CTYellow':0 },140,{ chips  'CTRed':0 'CTGreen':0 'CTPurple':0 'grey78':0 'CTYellow':4 },20
3playersLog_1378730763687.csv,9,540,510,false,{ chips  'CTRed':28 'CTPurple':7 },{ chips  'CTYellow':4 },TRUE,175,185,{ chips  'CTRed':28 'CTPurple':7 'CTGreen':0 'grey78':0 'CTYellow':0 },{ chips  'CTRed':0 'CTPurple':0 'CTGreen':0 'grey78':0 'CTYellow':4 },20,340,0,(R:3,C:6),{ chips  'CTRed':43 'CTGreen':0 'CTPurple':13 'grey78':7 'CTYellow':5 },340,{ chips  'CTRed':23 'CTGreen':0 'CTPurple':0 'grey78':5 'CTYellow':0 },140,{ chips  'CTRed':0 'CTGreen':0 'CTPurple':0 'grey78':0 'CTYellow':4 },20
3playersLog_1378730763687.csv,10,510,520,true,{ chips  'grey78':6 },{ chips  'CTRed':23 },TRUE,340,140,{ chips  'grey78':6 },{ chips  'CTRed':23 'CTPurple':0 'CTYellow':0 },425,55,5,(R:0,C:8),{ chips  'CTRed':66 'CTGreen':0 'CTPurple':13 'grey78':1 'CTYellow':0 },550,{ chips  'CTRed':0 'CTGreen':0 'CTPurple':0 'grey78':11 'CTYellow':0 },205,{ chips  'CTRed':0 'CTGreen':0 'CTPurple':0 'grey78':0 'CTYellow':4 },20
3playersLog_1378730763687.csv,,,,,,,,,,,,,,,,,,,,,,,,true
