Sun Sep 08 14:18:17 IST 2013	This is the CT debug logger; svn version 638; sep 27 09
Sun Sep 08 14:18:17 IST 2013	Sun Sep 08 14:18:17 IST 2013
Sun Sep 08 14:18:17 IST 2013	ThreePlayersAgentPlayer(): entering.
Sun Sep 08 14:18:55 IST 2013	phaseAdvanced(): entering.
Sun Sep 08 14:18:55 IST 2013	phaseAdvanced(): new phase is 'Strategy Prep Phase'.
Sun Sep 08 14:19:55 IST 2013	phaseAdvanced(): entering.
Sun Sep 08 14:19:55 IST 2013	phaseAdvanced(): new phase is 'Communication Phase'.
Sun Sep 08 14:20:55 IST 2013	onReceipt(): entering.
Sun Sep 08 14:20:55 IST 2013	onReceipt(): opponent's proposal: ({ chips  'CTRed':7 'CTPurple':1 'CTGreen':0 'grey78':0 'CTYellow':0 }, { chips  'CTRed':0 'CTPurple':0 'CTGreen':0 'grey78':3 'CTYellow':0 }).
Sun Sep 08 14:21:16 IST 2013	onReceipt(): entering.
Sun Sep 08 14:21:16 IST 2013	onReceipt(): opponent's proposal: ({ chips  'CTRed':20 'CTPurple':0 'CTGreen':0 'grey78':0 'CTYellow':0 }, { chips  'CTRed':0 'CTPurple':0 'CTGreen':0 'grey78':0 'CTYellow':12 }).
Sun Sep 08 14:21:16 IST 2013	responseToSend(): entering.
Sun Sep 08 14:21:26 IST 2013	compareProposals(): decision: 0 utility 145.0
Sun Sep 08 14:21:26 IST 2013	responseToSend(): accepting proposal ({ chips  'CTRed':7 'CTPurple':1 'CTGreen':0 'grey78':0 'CTYellow':0 }, { chips  'CTRed':0 'CTPurple':0 'CTGreen':0 'grey78':3 'CTYellow':0 }).
Sun Sep 08 14:21:26 IST 2013	phaseAdvanced(): entering.
Sun Sep 08 14:21:26 IST 2013	phaseAdvanced(): new phase is 'Movement Phase'.
Sun Sep 08 14:22:11 IST 2013	phaseAdvanced(): entering.
Sun Sep 08 14:22:11 IST 2013	phaseAdvanced(): new phase is 'Feedback Phase'.
Sun Sep 08 14:22:16 IST 2013	phaseAdvanced(): entering.
Sun Sep 08 14:22:16 IST 2013	phaseAdvanced(): new phase is 'Communication Phase'.
Sun Sep 08 14:23:15 IST 2013	onReceipt(): entering.
Sun Sep 08 14:23:15 IST 2013	phaseAdvanced(): entering.
Sun Sep 08 14:23:15 IST 2013	phaseAdvanced(): new phase is 'Movement Phase'.
Sun Sep 08 14:24:00 IST 2013	phaseAdvanced(): entering.
Sun Sep 08 14:24:00 IST 2013	phaseAdvanced(): new phase is 'Feedback Phase'.
Sun Sep 08 14:24:05 IST 2013	phaseAdvanced(): entering.
Sun Sep 08 14:24:05 IST 2013	phaseAdvanced(): new phase is 'Communication Phase'.
Sun Sep 08 14:24:43 IST 2013	onReceipt(): entering.
Sun Sep 08 14:24:43 IST 2013	onReceipt(): opponent's proposal: ({ chips  'CTRed':5 'CTPurple':0 'CTGreen':0 'grey78':0 'CTYellow':0 }, { chips  'CTRed':0 'CTPurple':1 'CTGreen':0 'grey78':0 'CTYellow':1 }).
Sun Sep 08 14:26:28 IST 2013	onReceipt(): entering.
Sun Sep 08 14:26:28 IST 2013	onReceipt(): opponent's proposal: ({ chips  'CTRed':8 'CTPurple':0 'CTGreen':0 'grey78':0 'CTYellow':0 }, { chips  'CTRed':0 'CTPurple':0 'CTGreen':0 'grey78':3 'CTYellow':0 }).
Sun Sep 08 14:26:28 IST 2013	responseToSend(): entering.
Sun Sep 08 14:26:28 IST 2013	compareProposals(): decision: 0 utility 170.0
Sun Sep 08 14:26:28 IST 2013	responseToSend(): accepting proposal ({ chips  'CTRed':8 'CTPurple':0 'CTGreen':0 'grey78':0 'CTYellow':0 }, { chips  'CTRed':0 'CTPurple':0 'CTGreen':0 'grey78':3 'CTYellow':0 }).
Sun Sep 08 14:26:28 IST 2013	phaseAdvanced(): entering.
Sun Sep 08 14:26:28 IST 2013	phaseAdvanced(): new phase is 'Movement Phase'.
Sun Sep 08 14:26:45 IST 2013	responseToSend(): entering.
Sun Sep 08 14:27:13 IST 2013	phaseAdvanced(): entering.
Sun Sep 08 14:27:13 IST 2013	phaseAdvanced(): new phase is 'Feedback Phase'.
Sun Sep 08 14:27:18 IST 2013	phaseAdvanced(): entering.
Sun Sep 08 14:27:18 IST 2013	phaseAdvanced(): new phase is 'Communication Phase'.
Sun Sep 08 14:28:15 IST 2013	onReceipt(): entering.
Sun Sep 08 14:28:15 IST 2013	phaseAdvanced(): entering.
Sun Sep 08 14:28:15 IST 2013	phaseAdvanced(): new phase is 'Movement Phase'.
Sun Sep 08 14:28:59 IST 2013	phaseAdvanced(): entering.
Sun Sep 08 14:28:59 IST 2013	phaseAdvanced(): new phase is 'Feedback Phase'.
Sun Sep 08 14:29:04 IST 2013	phaseAdvanced(): entering.
Sun Sep 08 14:29:04 IST 2013	phaseAdvanced(): new phase is 'Communication Phase'.
Sun Sep 08 14:29:18 IST 2013	onReceipt(): entering.
Sun Sep 08 14:29:18 IST 2013	onReceipt(): opponent's proposal: ({ chips  'CTRed':3 'CTPurple':3 'CTGreen':0 'grey78':0 'CTYellow':0 }, { chips  'CTRed':0 'CTPurple':0 'CTGreen':0 'grey78':1 'CTYellow':0 }).
Sun Sep 08 14:29:42 IST 2013	onReceipt(): entering.
Sun Sep 08 14:29:42 IST 2013	onReceipt(): opponent's proposal: ({ chips  'CTRed':0 'CTPurple':5 'CTGreen':0 'grey78':0 'CTYellow':0 }, { chips  'CTRed':3 'CTPurple':0 'CTGreen':0 'grey78':0 'CTYellow':10 }).
Sun Sep 08 14:29:42 IST 2013	responseToSend(): entering.
Sun Sep 08 14:29:45 IST 2013	compareProposals(): decision: 0 utility 190.0
Sun Sep 08 14:29:45 IST 2013	responseToSend(): accepting proposal ({ chips  'CTRed':3 'CTPurple':3 'CTGreen':0 'grey78':0 'CTYellow':0 }, { chips  'CTRed':0 'CTPurple':0 'CTGreen':0 'grey78':1 'CTYellow':0 }).
Sun Sep 08 14:29:45 IST 2013	phaseAdvanced(): entering.
Sun Sep 08 14:29:45 IST 2013	phaseAdvanced(): new phase is 'Movement Phase'.
Sun Sep 08 14:30:29 IST 2013	phaseAdvanced(): entering.
Sun Sep 08 14:30:29 IST 2013	phaseAdvanced(): new phase is 'Feedback Phase'.
Sun Sep 08 14:30:34 IST 2013	phaseAdvanced(): entering.
Sun Sep 08 14:30:34 IST 2013	phaseAdvanced(): new phase is 'Communication Phase'.
Sun Sep 08 14:30:46 IST 2013	onReceipt(): entering.
Sun Sep 08 14:30:46 IST 2013	phaseAdvanced(): entering.
Sun Sep 08 14:30:46 IST 2013	phaseAdvanced(): new phase is 'Movement Phase'.
Sun Sep 08 14:30:46 IST 2013	phaseAdvanced(): found paths (4).
Sun Sep 08 14:31:31 IST 2013	phaseAdvanced(): entering.
Sun Sep 08 14:31:31 IST 2013	phaseAdvanced(): new phase is 'Feedback Phase'.
