filename,round,propID,respID,IsPropCustomer,chipsToSend,chipsToReceive,accept,propCurrentScore,respCurrentScore,actualSent,ActualRcvd,propResultingScore,respResultingScore,#ofCustomerMovesInRound,customerRowPositionAfterMovePhase,customerColPositionAfterMovePhase,Player100ChipsAfterMovePhase,Player100ScoreAfterMovePhase,Player200ChipsAfterMovePhase,Player200ScoreAfterMovePhase,Player300ChipsAfterMovePhase,Player300ScoreAfterMovePhase,generosityLevel,ClientReachedGoal
3playersLog_1385151383981.csv,1,200,100,false,{ chips  'CTRed':10 'CTPurple':5 },{ chips  'grey78':4 },TRUE,200,120,{ chips  'CTRed':10 'CTPurple':5 'CTGreen':0 'grey78':0 'CTYellow':0 },{ chips  'CTRed':0 'CTPurple':0 'CTGreen':0 'grey78':4 'CTYellow':0 },145,175,9,(R:0,C:8),{ chips  'CTRed':10 'CTGreen':0 'CTPurple':5 'grey78':8 'CTYellow':3 },280,{ chips  'CTRed':23 'CTGreen':0 'CTPurple':2 'grey78':4 'CTYellow':0 },295,{ chips  'CTRed':33 'CTGreen':0 'CTPurple':7 'grey78':0 'CTYellow':0 },200
3playersLog_1385151383981.csv,1,300,100,false,{ chips  'CTRed':15 'CTPurple':5 },{ chips  'CTYellow':12 },IGNORED,200,120,,,,,9,(R:0,C:8),{ chips  'CTRed':10 'CTGreen':0 'CTPurple':5 'grey78':8 'CTYellow':3 },280,{ chips  'CTRed':23 'CTGreen':0 'CTPurple':2 'grey78':4 'CTYellow':0 },295,{ chips  'CTRed':33 'CTGreen':0 'CTPurple':7 'grey78':0 'CTYellow':0 },200
3playersLog_1385151383981.csv,,,,,,,,,,,,,,,,,,,,,,,,true
