filename,round,propID,respID,IsPropCustomer,chipsToSend,chipsToReceive,accept,propCurrentScore,respCurrentScore,actualSent,ActualRcvd,propResultingScore,respResultingScore,#ofCustomerMovesInRound,customerRowPositionAfterMovePhase,customerColPositionAfterMovePhase,Player100ChipsAfterMovePhase,Player100ScoreAfterMovePhase,Player200ChipsAfterMovePhase,Player200ScoreAfterMovePhase,Player300ChipsAfterMovePhase,Player300ScoreAfterMovePhase,generosityLevel,ClientReachedGoal
3playersLog_1384872361477.csv,1,550,500,false,{ chips  'CTRed':11 'CTPurple':2 },{ chips  'grey78':3 },TRUE,200,120,{ chips  'CTRed':11 'CTPurple':2 'CTYellow':0 },{ chips  'grey78':3 },150,170,8,(R:1,C:0),{ chips  'CTRed':11 'CTGreen':0 'CTPurple':1 'grey78':2 'CTYellow':12 },130,{ chips  'CTRed':22 'CTGreen':0 'CTPurple':5 'grey78':3 'CTYellow':0 },150,{ chips  'CTRed':33 'CTGreen':0 'CTPurple':7 'grey78':0 'CTYellow':0 },200
3playersLog_1384872361477.csv,2,500,550,true,{ chips  'CTRed':1 'CTPurple':1 },{ chips  },TRUE,130,150,{ chips  'CTRed':1 'CTPurple':1 'CTGreen':0 'grey78':0 'CTYellow':0 },{ chips  'CTRed':0 'CTPurple':0 'CTGreen':0 'grey78':0 'CTYellow':0 },120,160,0,(R:1,C:0),{ chips  'CTRed':10 'CTGreen':0 'CTPurple':0 'grey78':2 'CTYellow':12 },120,{ chips  'CTRed':23 'CTGreen':0 'CTPurple':6 'grey78':3 'CTYellow':0 },160,{ chips  'CTRed':33 'CTGreen':0 'CTPurple':7 'grey78':0 'CTYellow':0 },200
3playersLog_1384872361477.csv,3,550,500,false,{ chips  },{ chips  },FALSE,160,120,,,,,0,(R:1,C:0),{ chips  'CTRed':10 'CTGreen':0 'CTPurple':0 'grey78':2 'CTYellow':12 },120,{ chips  'CTRed':23 'CTGreen':0 'CTPurple':6 'grey78':3 'CTYellow':0 },160,{ chips  'CTRed':33 'CTGreen':0 'CTPurple':7 'grey78':0 'CTYellow':0 },200
3playersLog_1384872361477.csv,3,540,500,false,{ chips  'CTPurple':1 },{ chips  'CTYellow':7 },FALSE,200,120,,,,,0,(R:1,C:0),{ chips  'CTRed':10 'CTGreen':0 'CTPurple':0 'grey78':2 'CTYellow':12 },120,{ chips  'CTRed':23 'CTGreen':0 'CTPurple':6 'grey78':3 'CTYellow':0 },160,{ chips  'CTRed':33 'CTGreen':0 'CTPurple':7 'grey78':0 'CTYellow':0 },200
3playersLog_1384872361477.csv,,,,,,,,,,,,,,,,,,,,,,,,false
filename,round,propID,respID,IsPropCustomer,chipsToSend,chipsToReceive,accept,propCurrentScore,respCurrentScore,actualSent,ActualRcvd,propResultingScore,respResultingScore,#ofCustomerMovesInRound,customerRowPositionAfterMovePhase,customerColPositionAfterMovePhase,Player100ChipsAfterMovePhase,Player100ScoreAfterMovePhase,Player200ChipsAfterMovePhase,Player200ScoreAfterMovePhase,Player300ChipsAfterMovePhase,Player300ScoreAfterMovePhase,generosityLevel,ClientReachedGoal
3playersLog_1384872367254.csv,1,550,500,false,{ chips  'CTRed':11 'CTPurple':2 },{ chips  'grey78':3 },IGNORED,200,120,,,,,0,(R:5,C:4),{ chips  'CTRed':10 'CTGreen':0 'CTPurple':5 'grey78':12 'CTYellow':12 },195,{ chips  'CTRed':33 'CTGreen':0 'CTPurple':7 'grey78':0 'CTYellow':0 },200,{ chips  'CTRed':23 'CTGreen':0 'CTPurple':2 'grey78':0 'CTYellow':0 },125
3playersLog_1384872367254.csv,1,540,500,false,{ chips  'CTRed':10 'CTPurple':5 },{ chips  },TRUE,200,120,{ chips  'CTRed':10 'CTPurple':5 'CTGreen':0 'grey78':0 'CTYellow':0 },{ chips  'CTRed':0 'CTPurple':0 'CTGreen':0 'grey78':0 'CTYellow':0 },125,195,0,(R:5,C:4),{ chips  'CTRed':10 'CTGreen':0 'CTPurple':5 'grey78':12 'CTYellow':12 },195,{ chips  'CTRed':33 'CTGreen':0 'CTPurple':7 'grey78':0 'CTYellow':0 },200,{ chips  'CTRed':23 'CTGreen':0 'CTPurple':2 'grey78':0 'CTYellow':0 },125
3playersLog_1384872367254.csv,2,500,550,true,{ chips  'CTYellow':5 },{ chips  },TRUE,195,200,{ chips  'CTRed':0 'CTPurple':0 'CTGreen':0 'grey78':0 'CTYellow':5 },{ chips  'CTRed':0 'CTPurple':0 'CTGreen':0 'grey78':0 'CTYellow':0 },170,225,1,(R:5,C:3),{ chips  'CTRed':10 'CTGreen':0 'CTPurple':5 'grey78':11 'CTYellow':7 },165,{ chips  'CTRed':33 'CTGreen':0 'CTPurple':7 'grey78':0 'CTYellow':5 },225,{ chips  'CTRed':23 'CTGreen':0 'CTPurple':2 'grey78':0 'CTYellow':0 },125
3playersLog_1384872367254.csv,3,550,500,false,{ chips  'CTRed':11 'CTPurple':2 'CTYellow':1 },{ chips  'grey78':3 },TRUE,225,165,{ chips  'CTRed':11 'CTPurple':2 'CTYellow':1 },{ chips  'grey78':3 },170,220,0,(R:5,C:3),{ chips  'CTRed':21 'CTGreen':0 'CTPurple':7 'grey78':8 'CTYellow':8 },220,{ chips  'CTRed':22 'CTGreen':0 'CTPurple':5 'grey78':3 'CTYellow':4 },170,{ chips  'CTRed':23 'CTGreen':0 'CTPurple':2 'grey78':0 'CTYellow':0 },125
3playersLog_1384872367254.csv,3,540,500,false,{ chips  'CTRed':6 },{ chips  'CTPurple':1 },FALSE,125,165,,,,,0,(R:5,C:3),{ chips  'CTRed':21 'CTGreen':0 'CTPurple':7 'grey78':8 'CTYellow':8 },220,{ chips  'CTRed':22 'CTGreen':0 'CTPurple':5 'grey78':3 'CTYellow':4 },170,{ chips  'CTRed':23 'CTGreen':0 'CTPurple':2 'grey78':0 'CTYellow':0 },125
3playersLog_1384872367254.csv,4,500,550,true,{ chips  'CTYellow':3 },{ chips  'CTRed':10 },TRUE,220,170,{ chips  'CTRed':0 'CTPurple':0 'CTGreen':0 'grey78':0 'CTYellow':3 },{ chips  'CTRed':10 'CTPurple':0 'CTGreen':0 'grey78':0 'CTYellow':0 },255,135,1,(R:4,C:3),{ chips  'CTRed':31 'CTGreen':0 'CTPurple':7 'grey78':7 'CTYellow':5 },250,{ chips  'CTRed':12 'CTGreen':0 'CTPurple':5 'grey78':3 'CTYellow':7 },135,{ chips  'CTRed':23 'CTGreen':0 'CTPurple':2 'grey78':0 'CTYellow':0 },125
3playersLog_1384872367254.csv,5,550,500,false,{ chips  'CTRed':4 'CTPurple':1 'CTYellow':2 },{ chips  'grey78':2 },TRUE,135,250,{ chips  'CTRed':4 'CTPurple':1 'CTYellow':2 },{ chips  'grey78':2 },110,275,0,(R:4,C:3),{ chips  'CTRed':35 'CTGreen':0 'CTPurple':8 'grey78':5 'CTYellow':7 },275,{ chips  'CTRed':8 'CTGreen':0 'CTPurple':4 'grey78':5 'CTYellow':5 },110,{ chips  'CTRed':23 'CTGreen':0 'CTPurple':2 'grey78':0 'CTYellow':0 },125
3playersLog_1384872367254.csv,5,540,500,false,{ chips  'CTRed':7 },{ chips  },IGNORED,125,250,,,,,0,(R:4,C:3),{ chips  'CTRed':35 'CTGreen':0 'CTPurple':8 'grey78':5 'CTYellow':7 },275,{ chips  'CTRed':8 'CTGreen':0 'CTPurple':4 'grey78':5 'CTYellow':5 },110,{ chips  'CTRed':23 'CTGreen':0 'CTPurple':2 'grey78':0 'CTYellow':0 },125
3playersLog_1384872367254.csv,6,500,550,true,{ chips  'CTRed':2 },{ chips  'grey78':2 },TRUE,275,110,{ chips  'CTRed':2 'CTPurple':0 'CTGreen':0 'grey78':0 'CTYellow':0 },{ chips  'CTRed':0 'CTPurple':0 'CTGreen':0 'grey78':2 'CTYellow':0 },275,110,1,(R:4,C:2),{ chips  'CTRed':33 'CTGreen':0 'CTPurple':8 'grey78':6 'CTYellow':7 },270,{ chips  'CTRed':10 'CTGreen':0 'CTPurple':4 'grey78':3 'CTYellow':5 },110,{ chips  'CTRed':23 'CTGreen':0 'CTPurple':2 'grey78':0 'CTYellow':0 },125
3playersLog_1384872367254.csv,7,550,500,false,{ chips  'CTRed':3 'CTPurple':1 'CTYellow':1 },{ chips  'grey78':1 },IGNORED,110,270,,,,,0,(R:4,C:2),{ chips  'CTRed':38 'CTGreen':0 'CTPurple':8 'grey78':6 'CTYellow':7 },295,{ chips  'CTRed':10 'CTGreen':0 'CTPurple':4 'grey78':3 'CTYellow':5 },110,{ chips  'CTRed':18 'CTGreen':0 'CTPurple':2 'grey78':0 'CTYellow':0 },100
3playersLog_1384872367254.csv,7,540,500,false,{ chips  'CTRed':5 },{ chips  },TRUE,125,270,{ chips  'CTRed':5 'CTPurple':0 'CTGreen':0 'grey78':0 'CTYellow':0 },{ chips  'CTRed':0 'CTPurple':0 'CTGreen':0 'grey78':0 'CTYellow':0 },100,295,0,(R:4,C:2),{ chips  'CTRed':38 'CTGreen':0 'CTPurple':8 'grey78':6 'CTYellow':7 },295,{ chips  'CTRed':10 'CTGreen':0 'CTPurple':4 'grey78':3 'CTYellow':5 },110,{ chips  'CTRed':18 'CTGreen':0 'CTPurple':2 'grey78':0 'CTYellow':0 },100
3playersLog_1384872367254.csv,8,500,550,true,{ chips  'CTRed':2 },{ chips  'CTPurple':4 'CTYellow':4 },TRUE,295,110,{ chips  'CTRed':2 'CTPurple':0 'CTGreen':0 'grey78':0 'CTYellow':0 },{ chips  'CTRed':0 'CTPurple':4 'CTGreen':0 'grey78':0 'CTYellow':4 },325,80,1,(R:3,C:2),{ chips  'CTRed':36 'CTGreen':0 'CTPurple':12 'grey78':5 'CTYellow':11 },320,{ chips  'CTRed':12 'CTGreen':0 'CTPurple':0 'grey78':3 'CTYellow':1 },80,{ chips  'CTRed':18 'CTGreen':0 'CTPurple':2 'grey78':0 'CTYellow':0 },100
3playersLog_1384872367254.csv,9,550,500,false,{ chips  'CTRed':4 },{ chips  'grey78':1 },IGNORED,80,320,,,,,0,(R:3,C:2),{ chips  'CTRed':36 'CTGreen':0 'CTPurple':13 'grey78':5 'CTYellow':7 },305,{ chips  'CTRed':12 'CTGreen':0 'CTPurple':0 'grey78':3 'CTYellow':1 },80,{ chips  'CTRed':18 'CTGreen':0 'CTPurple':1 'grey78':0 'CTYellow':4 },115
3playersLog_1384872367254.csv,9,540,500,false,{ chips  'CTPurple':1 },{ chips  'CTYellow':4 },TRUE,100,320,{ chips  'CTRed':0 'CTPurple':1 'CTGreen':0 'grey78':0 'CTYellow':0 },{ chips  'CTRed':0 'CTPurple':0 'CTGreen':0 'grey78':0 'CTYellow':4 },115,305,0,(R:3,C:2),{ chips  'CTRed':36 'CTGreen':0 'CTPurple':13 'grey78':5 'CTYellow':7 },305,{ chips  'CTRed':12 'CTGreen':0 'CTPurple':0 'grey78':3 'CTYellow':1 },80,{ chips  'CTRed':18 'CTGreen':0 'CTPurple':1 'grey78':0 'CTYellow':4 },115
3playersLog_1384872367254.csv,10,500,550,true,{ chips  'CTRed':6 'grey78':3 },{ chips  'CTRed':2 },TRUE,305,80,{ chips  'CTRed':6 'CTPurple':0 'CTGreen':0 'grey78':3 'CTYellow':0 },{ chips  'CTRed':2 'CTPurple':0 'CTGreen':0 'grey78':0 'CTYellow':0 },270,115,1,(R:3,C:1),{ chips  'CTRed':32 'CTGreen':0 'CTPurple':13 'grey78':1 'CTYellow':7 },265,{ chips  'CTRed':16 'CTGreen':0 'CTPurple':0 'grey78':6 'CTYellow':1 },115,{ chips  'CTRed':18 'CTGreen':0 'CTPurple':1 'grey78':0 'CTYellow':4 },115
3playersLog_1384872367254.csv,11,550,500,false,{ chips  'CTRed':5 },{ chips  },TRUE,115,265,{ chips  'CTRed':5 'CTPurple':0 'CTYellow':0 },{ chips  'grey78':0 },90,290,0,(R:3,C:1),{ chips  'CTRed':37 'CTGreen':0 'CTPurple':13 'grey78':1 'CTYellow':7 },290,{ chips  'CTRed':11 'CTGreen':0 'CTPurple':0 'grey78':6 'CTYellow':1 },90,{ chips  'CTRed':18 'CTGreen':0 'CTPurple':1 'grey78':0 'CTYellow':4 },115
3playersLog_1384872367254.csv,11,540,500,false,{ chips  'CTRed':1 },{ chips  'CTYellow':2 },IGNORED,115,265,,,,,0,(R:3,C:1),{ chips  'CTRed':37 'CTGreen':0 'CTPurple':13 'grey78':1 'CTYellow':7 },290,{ chips  'CTRed':11 'CTGreen':0 'CTPurple':0 'grey78':6 'CTYellow':1 },90,{ chips  'CTRed':18 'CTGreen':0 'CTPurple':1 'grey78':0 'CTYellow':4 },115
3playersLog_1384872367254.csv,12,500,550,true,{ chips  'CTRed':5 },{ chips  'grey78':4 },TRUE,290,90,{ chips  'CTRed':5 'CTPurple':0 'CTGreen':0 'grey78':0 'CTYellow':0 },{ chips  'CTRed':0 'CTPurple':0 'CTGreen':0 'grey78':4 'CTYellow':0 },285,95,1,(R:2,C:1),{ chips  'CTRed':32 'CTGreen':0 'CTPurple':13 'grey78':4 'CTYellow':7 },280,{ chips  'CTRed':16 'CTGreen':0 'CTPurple':0 'grey78':2 'CTYellow':1 },95,{ chips  'CTRed':18 'CTGreen':0 'CTPurple':1 'grey78':0 'CTYellow':4 },115
3playersLog_1384872367254.csv,13,550,500,false,{ chips  'CTRed':5 },{ chips  'grey78':1 },TRUE,95,280,{ chips  'CTRed':5 'CTPurple':0 'CTYellow':0 },{ chips  'grey78':1 },75,300,0,(R:2,C:1),{ chips  'CTRed':37 'CTGreen':0 'CTPurple':13 'grey78':3 'CTYellow':7 },300,{ chips  'CTRed':11 'CTGreen':0 'CTPurple':0 'grey78':3 'CTYellow':1 },75,{ chips  'CTRed':18 'CTGreen':0 'CTPurple':1 'grey78':0 'CTYellow':4 },115
3playersLog_1384872367254.csv,13,540,500,false,{ chips  'CTRed':1 },{ chips  'CTYellow':2 },IGNORED,115,280,,,,,0,(R:2,C:1),{ chips  'CTRed':37 'CTGreen':0 'CTPurple':13 'grey78':3 'CTYellow':7 },300,{ chips  'CTRed':11 'CTGreen':0 'CTPurple':0 'grey78':3 'CTYellow':1 },75,{ chips  'CTRed':18 'CTGreen':0 'CTPurple':1 'grey78':0 'CTYellow':4 },115
3playersLog_1384872367254.csv,14,500,540,true,{ chips  'CTRed':5 'CTPurple':3 },{ chips  'CTRed':10 'CTYellow':2 },FALSE,300,115,,,,,1,(R:1,C:1),{ chips  'CTRed':37 'CTGreen':0 'CTPurple':12 'grey78':3 'CTYellow':7 },295,{ chips  'CTRed':11 'CTGreen':0 'CTPurple':0 'grey78':3 'CTYellow':1 },75,{ chips  'CTRed':18 'CTGreen':0 'CTPurple':1 'grey78':0 'CTYellow':4 },115
3playersLog_1384872367254.csv,15,550,500,false,{ chips  'CTRed':3 },{ chips  },TRUE,75,295,{ chips  'CTRed':3 'CTPurple':0 'CTYellow':0 },{ chips  'grey78':0 },60,310,0,(R:1,C:1),{ chips  'CTRed':40 'CTGreen':0 'CTPurple':12 'grey78':3 'CTYellow':7 },310,{ chips  'CTRed':8 'CTGreen':0 'CTPurple':0 'grey78':3 'CTYellow':1 },60,{ chips  'CTRed':18 'CTGreen':0 'CTPurple':1 'grey78':0 'CTYellow':4 },115
3playersLog_1384872367254.csv,15,540,500,false,{ chips  'CTYellow':2 },{ chips  'CTRed':1 },IGNORED,115,295,,,,,0,(R:1,C:1),{ chips  'CTRed':40 'CTGreen':0 'CTPurple':12 'grey78':3 'CTYellow':7 },310,{ chips  'CTRed':8 'CTGreen':0 'CTPurple':0 'grey78':3 'CTYellow':1 },60,{ chips  'CTRed':18 'CTGreen':0 'CTPurple':1 'grey78':0 'CTYellow':4 },115
3playersLog_1384872367254.csv,16,500,540,true,{ chips  'CTPurple':3 },{ chips  'CTRed':13 },FALSE,310,115,,,,,1,(R:1,C:0),{ chips  'CTRed':40 'CTGreen':0 'CTPurple':12 'grey78':2 'CTYellow':7 },305,{ chips  'CTRed':8 'CTGreen':0 'CTPurple':0 'grey78':3 'CTYellow':1 },60,{ chips  'CTRed':18 'CTGreen':0 'CTPurple':1 'grey78':0 'CTYellow':4 },115
3playersLog_1384872367254.csv,17,550,500,false,{ chips  'CTRed':2 },{ chips  },TRUE,60,305,{ chips  'CTRed':2 'CTPurple':0 'CTYellow':0 },{ chips  'grey78':0 },50,315,0,(R:1,C:0),{ chips  'CTRed':42 'CTGreen':0 'CTPurple':12 'grey78':2 'CTYellow':7 },315,{ chips  'CTRed':6 'CTGreen':0 'CTPurple':0 'grey78':3 'CTYellow':1 },50,{ chips  'CTRed':18 'CTGreen':0 'CTPurple':1 'grey78':0 'CTYellow':4 },115
3playersLog_1384872367254.csv,17,540,500,false,{ chips  },{ chips  'CTYellow':2 },FALSE,115,305,,,,,0,(R:1,C:0),{ chips  'CTRed':42 'CTGreen':0 'CTPurple':12 'grey78':2 'CTYellow':7 },315,{ chips  'CTRed':6 'CTGreen':0 'CTPurple':0 'grey78':3 'CTYellow':1 },50,{ chips  'CTRed':18 'CTGreen':0 'CTPurple':1 'grey78':0 'CTYellow':4 },115
3playersLog_1384872367254.csv,18,500,540,true,{ chips  'CTPurple':3 },{ chips  'CTRed':6 },FALSE,315,115,,,,,1,(R:1,C:1),{ chips  'CTRed':42 'CTGreen':0 'CTPurple':11 'grey78':2 'CTYellow':7 },310,{ chips  'CTRed':6 'CTGreen':0 'CTPurple':0 'grey78':3 'CTYellow':1 },50,{ chips  'CTRed':18 'CTGreen':0 'CTPurple':1 'grey78':0 'CTYellow':4 },115
3playersLog_1384872367254.csv,19,550,500,false,{ chips  'CTRed':2 },{ chips  },TRUE,50,310,{ chips  'CTRed':2 'CTPurple':0 'CTYellow':0 },{ chips  'grey78':0 },40,320,0,(R:1,C:1),{ chips  'CTRed':44 'CTGreen':0 'CTPurple':11 'grey78':2 'CTYellow':7 },320,{ chips  'CTRed':4 'CTGreen':0 'CTPurple':0 'grey78':3 'CTYellow':1 },40,{ chips  'CTRed':18 'CTGreen':0 'CTPurple':1 'grey78':0 'CTYellow':4 },115
3playersLog_1384872367254.csv,19,540,500,false,{ chips  'CTRed':1 },{ chips  'CTYellow':1 },FALSE,115,310,,,,,0,(R:1,C:1),{ chips  'CTRed':44 'CTGreen':0 'CTPurple':11 'grey78':2 'CTYellow':7 },320,{ chips  'CTRed':4 'CTGreen':0 'CTPurple':0 'grey78':3 'CTYellow':1 },40,{ chips  'CTRed':18 'CTGreen':0 'CTPurple':1 'grey78':0 'CTYellow':4 },115
3playersLog_1384872367254.csv,20,500,540,true,{ chips  'CTPurple':2 'CTYellow':2 },{ chips  'CTRed':7 },FALSE,320,115,,,,,1,(R:1,C:0),{ chips  'CTRed':44 'CTGreen':0 'CTPurple':11 'grey78':1 'CTYellow':7 },315,{ chips  'CTRed':4 'CTGreen':0 'CTPurple':0 'grey78':3 'CTYellow':1 },40,{ chips  'CTRed':18 'CTGreen':0 'CTPurple':1 'grey78':0 'CTYellow':4 },115
3playersLog_1384872367254.csv,21,550,500,false,{ chips  'CTRed':1 },{ chips  },TRUE,40,315,{ chips  'CTRed':1 'CTPurple':0 'CTYellow':0 },{ chips  'grey78':0 },35,320,0,(R:1,C:0),{ chips  'CTRed':45 'CTGreen':0 'CTPurple':11 'grey78':1 'CTYellow':7 },320,{ chips  'CTRed':3 'CTGreen':0 'CTPurple':0 'grey78':3 'CTYellow':1 },35,{ chips  'CTRed':18 'CTGreen':0 'CTPurple':1 'grey78':0 'CTYellow':4 },115
3playersLog_1384872367254.csv,21,540,500,false,{ chips  'CTYellow':1 },{ chips  'CTRed':1 },IGNORED,115,315,,,,,0,(R:1,C:0),{ chips  'CTRed':45 'CTGreen':0 'CTPurple':11 'grey78':1 'CTYellow':7 },320,{ chips  'CTRed':3 'CTGreen':0 'CTPurple':0 'grey78':3 'CTYellow':1 },35,{ chips  'CTRed':18 'CTGreen':0 'CTPurple':1 'grey78':0 'CTYellow':4 },115
3playersLog_1384872367254.csv,22,500,540,true,{ chips  'CTPurple':3 },{ chips  'CTRed':5 },TRUE,320,35,{ chips  'CTRed':0 'CTPurple':3 'CTGreen':0 'grey78':0 'CTYellow':0 },{ chips  'CTRed':5 'CTPurple':0 'CTGreen':0 'grey78':0 'CTYellow':0 },330,105,1,(R:1,C:1),{ chips  'CTRed':50 'CTGreen':0 'CTPurple':7 'grey78':1 'CTYellow':7 },325,{ chips  'CTRed':3 'CTGreen':0 'CTPurple':0 'grey78':3 'CTYellow':1 },35,{ chips  'CTRed':13 'CTGreen':0 'CTPurple':4 'grey78':0 'CTYellow':4 },105
3playersLog_1384872367254.csv,23,550,500,false,{ chips  'CTRed':1 },{ chips  },TRUE,35,325,{ chips  'CTRed':1 'CTPurple':0 'CTYellow':0 },{ chips  'grey78':0 },30,330,0,(R:1,C:1),{ chips  'CTRed':51 'CTGreen':0 'CTPurple':7 'grey78':1 'CTYellow':7 },330,{ chips  'CTRed':2 'CTGreen':0 'CTPurple':0 'grey78':3 'CTYellow':1 },30,{ chips  'CTRed':13 'CTGreen':0 'CTPurple':4 'grey78':0 'CTYellow':4 },105
3playersLog_1384872367254.csv,23,540,500,false,{ chips  'CTRed':2 },{ chips  'CTYellow':3 },FALSE,105,325,,,,,0,(R:1,C:1),{ chips  'CTRed':51 'CTGreen':0 'CTPurple':7 'grey78':1 'CTYellow':7 },330,{ chips  'CTRed':2 'CTGreen':0 'CTPurple':0 'grey78':3 'CTYellow':1 },30,{ chips  'CTRed':13 'CTGreen':0 'CTPurple':4 'grey78':0 'CTYellow':4 },105
3playersLog_1384872367254.csv,24,500,550,true,{ chips  'CTRed':2 },{ chips  'grey78':1 },TRUE,330,30,{ chips  'CTRed':2 'CTPurple':0 'CTGreen':0 'grey78':0 'CTYellow':0 },{ chips  'CTRed':0 'CTPurple':0 'CTGreen':0 'grey78':1 'CTYellow':0 },325,35,1,(R:1,C:0),{ chips  'CTRed':49 'CTGreen':0 'CTPurple':7 'grey78':1 'CTYellow':7 },320,{ chips  'CTRed':4 'CTGreen':0 'CTPurple':0 'grey78':2 'CTYellow':1 },35,{ chips  'CTRed':13 'CTGreen':0 'CTPurple':4 'grey78':0 'CTYellow':4 },105
3playersLog_1384872367254.csv,25,550,500,false,{ chips  'CTRed':1 },{ chips  },TRUE,35,320,{ chips  'CTRed':1 'CTPurple':0 'CTYellow':0 },{ chips  'grey78':0 },30,325,0,(R:1,C:0),{ chips  'CTRed':50 'CTGreen':0 'CTPurple':7 'grey78':1 'CTYellow':7 },325,{ chips  'CTRed':3 'CTGreen':0 'CTPurple':0 'grey78':2 'CTYellow':1 },30,{ chips  'CTRed':13 'CTGreen':0 'CTPurple':4 'grey78':0 'CTYellow':4 },105
3playersLog_1384872367254.csv,25,540,500,false,{ chips  'CTPurple':2 },{ chips  'CTPurple':3 },FALSE,105,320,,,,,0,(R:1,C:0),{ chips  'CTRed':50 'CTGreen':0 'CTPurple':7 'grey78':1 'CTYellow':7 },325,{ chips  'CTRed':3 'CTGreen':0 'CTPurple':0 'grey78':2 'CTYellow':1 },30,{ chips  'CTRed':13 'CTGreen':0 'CTPurple':4 'grey78':0 'CTYellow':4 },105
3playersLog_1384872367254.csv,26,500,550,true,{ chips  'CTPurple':1 },{ chips  'grey78':2 },TRUE,325,30,{ chips  'CTRed':0 'CTPurple':1 'CTGreen':0 'grey78':0 'CTYellow':0 },{ chips  'CTRed':0 'CTPurple':0 'CTGreen':0 'grey78':2 'CTYellow':0 },330,25,1,(R:1,C:1),{ chips  'CTRed':50 'CTGreen':0 'CTPurple':5 'grey78':3 'CTYellow':7 },325,{ chips  'CTRed':3 'CTGreen':0 'CTPurple':1 'grey78':0 'CTYellow':1 },25,{ chips  'CTRed':13 'CTGreen':0 'CTPurple':4 'grey78':0 'CTYellow':4 },105
3playersLog_1384872367254.csv,27,550,500,false,{ chips  'CTRed':1 },{ chips  },TRUE,25,325,{ chips  'CTRed':1 'CTPurple':0 'CTYellow':0 },{ chips  'grey78':0 },20,330,0,(R:1,C:1),{ chips  'CTRed':51 'CTGreen':0 'CTPurple':5 'grey78':3 'CTYellow':7 },330,{ chips  'CTRed':2 'CTGreen':0 'CTPurple':1 'grey78':0 'CTYellow':1 },20,{ chips  'CTRed':13 'CTGreen':0 'CTPurple':4 'grey78':0 'CTYellow':4 },105
3playersLog_1384872367254.csv,27,540,500,false,{ chips  },{ chips  'CTYellow':2 },FALSE,105,325,,,,,0,(R:1,C:1),{ chips  'CTRed':51 'CTGreen':0 'CTPurple':5 'grey78':3 'CTYellow':7 },330,{ chips  'CTRed':2 'CTGreen':0 'CTPurple':1 'grey78':0 'CTYellow':1 },20,{ chips  'CTRed':13 'CTGreen':0 'CTPurple':4 'grey78':0 'CTYellow':4 },105
3playersLog_1384872367254.csv,28,500,540,true,{ chips  'CTYellow':2 },{ chips  'CTRed':5 },FALSE,330,105,,,,,1,(R:1,C:0),{ chips  'CTRed':51 'CTGreen':0 'CTPurple':5 'grey78':2 'CTYellow':7 },325,{ chips  'CTRed':2 'CTGreen':0 'CTPurple':1 'grey78':0 'CTYellow':1 },20,{ chips  'CTRed':13 'CTGreen':0 'CTPurple':4 'grey78':0 'CTYellow':4 },105
3playersLog_1384872367254.csv,29,550,500,false,{ chips  },{ chips  },FALSE,20,325,,,,,1,(R:1,C:1),{ chips  'CTRed':51 'CTGreen':0 'CTPurple':4 'grey78':2 'CTYellow':7 },320,{ chips  'CTRed':2 'CTGreen':0 'CTPurple':1 'grey78':0 'CTYellow':1 },20,{ chips  'CTRed':13 'CTGreen':0 'CTPurple':4 'grey78':0 'CTYellow':4 },105
3playersLog_1384872367254.csv,29,540,500,false,{ chips  'CTPurple':1 },{ chips  'CTRed':3 },FALSE,105,325,,,,,1,(R:1,C:1),{ chips  'CTRed':51 'CTGreen':0 'CTPurple':4 'grey78':2 'CTYellow':7 },320,{ chips  'CTRed':2 'CTGreen':0 'CTPurple':1 'grey78':0 'CTYellow':1 },20,{ chips  'CTRed':13 'CTGreen':0 'CTPurple':4 'grey78':0 'CTYellow':4 },105
3playersLog_1384872367254.csv,30,500,540,true,{ chips  'CTRed':1 'CTPurple':1 },{ chips  'CTYellow':3 },FALSE,320,105,,,,,2,(R:0,C:0),{ chips  'CTRed':51 'CTGreen':0 'CTPurple':4 'grey78':0 'CTYellow':7 },460,{ chips  'CTRed':2 'CTGreen':0 'CTPurple':1 'grey78':0 'CTYellow':1 },20,{ chips  'CTRed':13 'CTGreen':0 'CTPurple':4 'grey78':0 'CTYellow':4 },255
3playersLog_1384872367254.csv,,,,,,,,,,,,,,,,,,,,,,,,true
filename,round,propID,respID,IsPropCustomer,chipsToSend,chipsToReceive,accept,propCurrentScore,respCurrentScore,actualSent,ActualRcvd,propResultingScore,respResultingScore,#ofCustomerMovesInRound,customerRowPositionAfterMovePhase,customerColPositionAfterMovePhase,Player100ChipsAfterMovePhase,Player100ScoreAfterMovePhase,Player200ChipsAfterMovePhase,Player200ScoreAfterMovePhase,Player300ChipsAfterMovePhase,Player300ScoreAfterMovePhase,generosityLevel,ClientReachedGoal
3playersLog_1384872736900.csv,1,550,500,false,{ chips  'CTRed':11 'CTPurple':2 },{ chips  'grey78':3 },FALSE,200,120,,,,,0,(R:5,C:4),{ chips  'CTRed':0 'CTGreen':0 'CTPurple':0 'grey78':12 'CTYellow':12 },120,{ chips  'CTRed':33 'CTGreen':0 'CTPurple':7 'grey78':0 'CTYellow':0 },200,{ chips  'CTRed':33 'CTGreen':0 'CTPurple':7 'grey78':0 'CTYellow':0 },200
3playersLog_1384872736900.csv,1,540,500,false,{ chips  'CTRed':12 },{ chips  'CTYellow':2 },FALSE,200,120,,,,,0,(R:5,C:4),{ chips  'CTRed':0 'CTGreen':0 'CTPurple':0 'grey78':12 'CTYellow':12 },120,{ chips  'CTRed':33 'CTGreen':0 'CTPurple':7 'grey78':0 'CTYellow':0 },200,{ chips  'CTRed':33 'CTGreen':0 'CTPurple':7 'grey78':0 'CTYellow':0 },200
3playersLog_1384872736900.csv,2,500,540,true,{ chips  'grey78':3 'CTYellow':2 },{ chips  },TRUE,120,200,{ chips  'CTRed':0 'CTPurple':0 'CTGreen':0 'grey78':3 'CTYellow':2 },{ chips  'CTRed':0 'CTPurple':0 'CTGreen':0 'grey78':0 'CTYellow':0 },95,225,3,(R:4,C:2),{ chips  'CTRed':0 'CTGreen':0 'CTPurple':0 'grey78':6 'CTYellow':10 },80,{ chips  'CTRed':33 'CTGreen':0 'CTPurple':7 'grey78':0 'CTYellow':0 },200,{ chips  'CTRed':33 'CTGreen':0 'CTPurple':7 'grey78':3 'CTYellow':2 },225
3playersLog_1384872736900.csv,3,550,500,false,{ chips  },{ chips  },TRUE,200,75,{ chips  'grey78':0 },{ chips  'CTRed':0 'CTPurple':0 },200,75,5,(R:0,C:0),{ chips  'CTRed':0 'CTGreen':0 'CTPurple':0 'grey78':0 'CTYellow':10 },200,{ chips  'CTRed':33 'CTGreen':0 'CTPurple':7 'grey78':0 'CTYellow':0 },200,{ chips  'CTRed':33 'CTGreen':0 'CTPurple':7 'grey78':3 'CTYellow':2 },375
3playersLog_1384872736900.csv,,,,,,,,,,,,,,,,,,,,,,,,true
filename,round,propID,respID,IsPropCustomer,chipsToSend,chipsToReceive,accept,propCurrentScore,respCurrentScore,actualSent,ActualRcvd,propResultingScore,respResultingScore,#ofCustomerMovesInRound,customerRowPositionAfterMovePhase,customerColPositionAfterMovePhase,Player100ChipsAfterMovePhase,Player100ScoreAfterMovePhase,Player200ChipsAfterMovePhase,Player200ScoreAfterMovePhase,Player300ChipsAfterMovePhase,Player300ScoreAfterMovePhase,generosityLevel,ClientReachedGoal
3playersLog_1384877145344.csv,1,550,500,false,{ chips  'CTRed':11 'CTPurple':2 },{ chips  'grey78':3 },FALSE,200,120,,,,,4,(R:3,C:2),{ chips  'CTRed':0 'CTGreen':0 'CTPurple':0 'grey78':8 'CTYellow':12 },100,{ chips  'CTRed':33 'CTGreen':0 'CTPurple':7 'grey78':0 'CTYellow':0 },200,{ chips  'CTRed':33 'CTGreen':0 'CTPurple':7 'grey78':0 'CTYellow':0 },200
3playersLog_1384877145344.csv,1,540,500,false,{ chips  'CTRed':10 },{ chips  'CTYellow':4 },FALSE,200,120,,,,,4,(R:3,C:2),{ chips  'CTRed':0 'CTGreen':0 'CTPurple':0 'grey78':8 'CTYellow':12 },100,{ chips  'CTRed':33 'CTGreen':0 'CTPurple':7 'grey78':0 'CTYellow':0 },200,{ chips  'CTRed':33 'CTGreen':0 'CTPurple':7 'grey78':0 'CTYellow':0 },200
3playersLog_1384877145344.csv,2,500,540,true,{ chips  'grey78':3 'CTYellow':8 },{ chips  'CTRed':14 'CTPurple':7 },FALSE,100,200,,,,,5,(R:0,C:0),{ chips  'CTRed':0 'CTGreen':0 'CTPurple':0 'grey78':3 'CTYellow':12 },225,{ chips  'CTRed':33 'CTGreen':0 'CTPurple':7 'grey78':0 'CTYellow':0 },200,{ chips  'CTRed':33 'CTGreen':0 'CTPurple':7 'grey78':0 'CTYellow':0 },350
3playersLog_1384877145344.csv,,,,,,,,,,,,,,,,,,,,,,,,true
filename,round,propID,respID,IsPropCustomer,chipsToSend,chipsToReceive,accept,propCurrentScore,respCurrentScore,actualSent,ActualRcvd,propResultingScore,respResultingScore,#ofCustomerMovesInRound,customerRowPositionAfterMovePhase,customerColPositionAfterMovePhase,Player100ChipsAfterMovePhase,Player100ScoreAfterMovePhase,Player200ChipsAfterMovePhase,Player200ScoreAfterMovePhase,Player300ChipsAfterMovePhase,Player300ScoreAfterMovePhase,generosityLevel,ClientReachedGoal
3playersLog_1384877153784.csv,1,550,500,false,{ chips  'CTRed':11 'CTPurple':2 },{ chips  'grey78':3 },TRUE,200,120,{ chips  'CTRed':11 'CTPurple':2 'CTYellow':0 },{ chips  'grey78':3 },150,170,2,(R:4,C:5),{ chips  'CTRed':11 'CTGreen':0 'CTPurple':2 'grey78':9 'CTYellow':10 },160,{ chips  'CTRed':22 'CTGreen':0 'CTPurple':5 'grey78':3 'CTYellow':0 },150,{ chips  'CTRed':33 'CTGreen':0 'CTPurple':7 'grey78':0 'CTYellow':0 },200
3playersLog_1384877153784.csv,1,540,500,false,{ chips  'CTRed':3 },{ chips  'grey78':5 },IGNORED,200,120,,,,,2,(R:4,C:5),{ chips  'CTRed':11 'CTGreen':0 'CTPurple':2 'grey78':9 'CTYellow':10 },160,{ chips  'CTRed':22 'CTGreen':0 'CTPurple':5 'grey78':3 'CTYellow':0 },150,{ chips  'CTRed':33 'CTGreen':0 'CTPurple':7 'grey78':0 'CTYellow':0 },200
3playersLog_1384877153784.csv,2,500,550,true,{ chips  },{ chips  'CTRed':14 'CTPurple':3 },TRUE,160,150,{ chips  'CTRed':0 'CTPurple':0 'CTGreen':0 'grey78':0 'CTYellow':0 },{ chips  'CTRed':14 'CTPurple':3 'CTGreen':0 'grey78':0 'CTYellow':0 },245,65,2,(R:3,C:6),{ chips  'CTRed':25 'CTGreen':0 'CTPurple':5 'grey78':9 'CTYellow':8 },235,{ chips  'CTRed':8 'CTGreen':0 'CTPurple':2 'grey78':3 'CTYellow':0 },65,{ chips  'CTRed':33 'CTGreen':0 'CTPurple':7 'grey78':0 'CTYellow':0 },200
3playersLog_1384877153784.csv,3,550,500,false,{ chips  'CTRed':2 },{ chips  'grey78':2 },FALSE,65,235,,,,,2,(R:3,C:4),{ chips  'CTRed':51 'CTGreen':0 'CTPurple':7 'grey78':9 'CTYellow':4 },355,{ chips  'CTRed':8 'CTGreen':0 'CTPurple':2 'grey78':3 'CTYellow':0 },65,{ chips  'CTRed':7 'CTGreen':0 'CTPurple':3 'grey78':0 'CTYellow':4 },70
3playersLog_1384877153784.csv,3,540,500,false,{ chips  'CTRed':26 'CTPurple':4 },{ chips  'CTYellow':4 },TRUE,200,235,{ chips  'CTRed':26 'CTPurple':4 'CTGreen':0 'grey78':0 'CTYellow':0 },{ chips  'CTRed':0 'CTPurple':0 'CTGreen':0 'grey78':0 'CTYellow':4 },70,365,2,(R:3,C:4),{ chips  'CTRed':51 'CTGreen':0 'CTPurple':7 'grey78':9 'CTYellow':4 },355,{ chips  'CTRed':8 'CTGreen':0 'CTPurple':2 'grey78':3 'CTYellow':0 },65,{ chips  'CTRed':7 'CTGreen':0 'CTPurple':3 'grey78':0 'CTYellow':4 },70
3playersLog_1384877153784.csv,4,500,540,true,{ chips  },{ chips  'CTRed':4 'CTYellow':3 },TRUE,355,65,{ chips  'CTRed':0 'CTPurple':0 'CTGreen':0 'grey78':0 'CTYellow':0 },{ chips  'CTRed':4 'CTPurple':0 'CTGreen':0 'grey78':0 'CTYellow':3 },390,35,0,(R:3,C:4),{ chips  'CTRed':55 'CTGreen':0 'CTPurple':7 'grey78':9 'CTYellow':7 },390,{ chips  'CTRed':8 'CTGreen':0 'CTPurple':2 'grey78':3 'CTYellow':0 },65,{ chips  'CTRed':3 'CTGreen':0 'CTPurple':3 'grey78':0 'CTYellow':1 },35
3playersLog_1384877153784.csv,5,550,500,false,{ chips  'CTRed':2 },{ chips  'grey78':2 },FALSE,65,385,,,,,1,(R:3,C:2),{ chips  'CTRed':56 'CTGreen':0 'CTPurple':6 'grey78':8 'CTYellow':3 },365,{ chips  'CTRed':8 'CTGreen':0 'CTPurple':2 'grey78':3 'CTYellow':0 },65,{ chips  'CTRed':2 'CTGreen':0 'CTPurple':3 'grey78':0 'CTYellow':5 },50
3playersLog_1384877153784.csv,5,540,500,false,{ chips  'CTRed':1 },{ chips  'CTYellow':4 },TRUE,35,385,{ chips  'CTRed':1 'CTPurple':0 'CTGreen':0 'grey78':0 'CTYellow':0 },{ chips  'CTRed':0 'CTPurple':0 'CTGreen':0 'grey78':0 'CTYellow':4 },50,370,1,(R:3,C:2),{ chips  'CTRed':56 'CTGreen':0 'CTPurple':6 'grey78':8 'CTYellow':3 },365,{ chips  'CTRed':8 'CTGreen':0 'CTPurple':2 'grey78':3 'CTYellow':0 },65,{ chips  'CTRed':2 'CTGreen':0 'CTPurple':3 'grey78':0 'CTYellow':5 },50
3playersLog_1384877153784.csv,6,500,540,true,{ chips  },{ chips  'CTRed':1 'CTPurple':2 'CTYellow':3 },TRUE,365,65,{ chips  'CTRed':0 'CTPurple':0 'CTGreen':0 'grey78':0 'CTYellow':0 },{ chips  'CTRed':1 'CTPurple':2 'CTGreen':0 'grey78':0 'CTYellow':3 },395,20,2,(R:2,C:1),{ chips  'CTRed':57 'CTGreen':0 'CTPurple':8 'grey78':6 'CTYellow':6 },385,{ chips  'CTRed':8 'CTGreen':0 'CTPurple':2 'grey78':3 'CTYellow':0 },65,{ chips  'CTRed':1 'CTGreen':0 'CTPurple':1 'grey78':0 'CTYellow':2 },20
3playersLog_1384877153784.csv,7,550,500,false,{ chips  'CTRed':2 },{ chips  'grey78':1 },FALSE,65,385,,,,,0,(R:2,C:1),{ chips  'CTRed':57 'CTGreen':0 'CTPurple':8 'grey78':6 'CTYellow':6 },385,{ chips  'CTRed':8 'CTGreen':0 'CTPurple':2 'grey78':3 'CTYellow':0 },65,{ chips  'CTRed':1 'CTGreen':0 'CTPurple':1 'grey78':0 'CTYellow':2 },20
3playersLog_1384877153784.csv,7,540,500,false,{ chips  'CTRed':1 'CTPurple':1 },{ chips  'CTYellow':2 },FALSE,20,385,,,,,0,(R:2,C:1),{ chips  'CTRed':57 'CTGreen':0 'CTPurple':8 'grey78':6 'CTYellow':6 },385,{ chips  'CTRed':8 'CTGreen':0 'CTPurple':2 'grey78':3 'CTYellow':0 },65,{ chips  'CTRed':1 'CTGreen':0 'CTPurple':1 'grey78':0 'CTYellow':2 },20
3playersLog_1384877153784.csv,8,500,540,true,{ chips  'CTYellow':1 },{ chips  'CTRed':1 'CTPurple':1 },FALSE,385,20,,,,,1,(R:1,C:1),{ chips  'CTRed':57 'CTGreen':0 'CTPurple':7 'grey78':6 'CTYellow':6 },380,{ chips  'CTRed':8 'CTGreen':0 'CTPurple':2 'grey78':3 'CTYellow':0 },65,{ chips  'CTRed':1 'CTGreen':0 'CTPurple':1 'grey78':0 'CTYellow':2 },20
3playersLog_1384877153784.csv,9,550,500,false,{ chips  'CTRed':2 },{ chips  'grey78':1 },TRUE,65,380,{ chips  'CTRed':2 'CTPurple':0 'CTYellow':0 },{ chips  'grey78':1 },60,385,1,(R:1,C:2),{ chips  'CTRed':59 'CTGreen':0 'CTPurple':6 'grey78':5 'CTYellow':6 },380,{ chips  'CTRed':6 'CTGreen':0 'CTPurple':2 'grey78':4 'CTYellow':0 },60,{ chips  'CTRed':1 'CTGreen':0 'CTPurple':1 'grey78':0 'CTYellow':2 },20
3playersLog_1384877153784.csv,9,540,500,false,{ chips  'CTRed':1 'CTPurple':1 },{ chips  'CTYellow':2 },IGNORED,20,380,,,,,1,(R:1,C:2),{ chips  'CTRed':59 'CTGreen':0 'CTPurple':6 'grey78':5 'CTYellow':6 },380,{ chips  'CTRed':6 'CTGreen':0 'CTPurple':2 'grey78':4 'CTYellow':0 },60,{ chips  'CTRed':1 'CTGreen':0 'CTPurple':1 'grey78':0 'CTYellow':2 },20
3playersLog_1384877153784.csv,10,500,550,true,{ chips  },{ chips  'CTRed':6 'CTPurple':2 },TRUE,380,60,{ chips  'CTRed':0 'CTPurple':0 'CTGreen':0 'grey78':0 'CTYellow':0 },{ chips  'CTRed':6 'CTPurple':2 'CTGreen':0 'grey78':0 'CTYellow':0 },420,20,0,(R:1,C:2),{ chips  'CTRed':65 'CTGreen':0 'CTPurple':8 'grey78':5 'CTYellow':6 },420,{ chips  'CTRed':0 'CTGreen':0 'CTPurple':0 'grey78':4 'CTYellow':0 },20,{ chips  'CTRed':1 'CTGreen':0 'CTPurple':1 'grey78':0 'CTYellow':2 },20
3playersLog_1384877153784.csv,11,550,500,false,{ chips  },{ chips  },TRUE,20,420,{ chips  'CTRed':0 'CTPurple':0 'CTYellow':0 },{ chips  'grey78':0 },20,420,1,(R:1,C:3),{ chips  'CTRed':65 'CTGreen':0 'CTPurple':7 'grey78':5 'CTYellow':6 },415,{ chips  'CTRed':0 'CTGreen':0 'CTPurple':0 'grey78':4 'CTYellow':0 },20,{ chips  'CTRed':1 'CTGreen':0 'CTPurple':1 'grey78':0 'CTYellow':2 },20
3playersLog_1384877153784.csv,11,540,500,false,{ chips  'CTRed':1 },{ chips  'CTPurple':2 'CTYellow':2 },FALSE,20,420,,,,,1,(R:1,C:3),{ chips  'CTRed':65 'CTGreen':0 'CTPurple':7 'grey78':5 'CTYellow':6 },415,{ chips  'CTRed':0 'CTGreen':0 'CTPurple':0 'grey78':4 'CTYellow':0 },20,{ chips  'CTRed':1 'CTGreen':0 'CTPurple':1 'grey78':0 'CTYellow':2 },20
3playersLog_1384877153784.csv,12,500,540,true,{ chips  },{ chips  'CTRed':1 'CTPurple':1 'CTYellow':2 },TRUE,415,20,{ chips  'CTRed':0 'CTPurple':0 'CTGreen':0 'grey78':0 'CTYellow':0 },{ chips  'CTRed':1 'CTPurple':1 'CTGreen':0 'grey78':0 'CTYellow':2 },435,0,2,(R:1,C:1),{ chips  'CTRed':66 'CTGreen':0 'CTPurple':6 'grey78':5 'CTYellow':8 },425,{ chips  'CTRed':0 'CTGreen':0 'CTPurple':0 'grey78':4 'CTYellow':0 },20,{ chips  'CTRed':0 'CTGreen':0 'CTPurple':0 'grey78':0 'CTYellow':0 },0
3playersLog_1384877153784.csv,13,550,500,false,{ chips  },{ chips  },FALSE,20,425,,,,,2,(R:0,C:0),{ chips  'CTRed':66 'CTGreen':0 'CTPurple':6 'grey78':3 'CTYellow':8 },565,{ chips  'CTRed':0 'CTGreen':0 'CTPurple':0 'grey78':4 'CTYellow':0 },20,{ chips  'CTRed':0 'CTGreen':0 'CTPurple':0 'grey78':0 'CTYellow':0 },150
3playersLog_1384877153784.csv,13,540,500,false,{ chips  },{ chips  'CTRed':2 },FALSE,0,425,,,,,2,(R:0,C:0),{ chips  'CTRed':66 'CTGreen':0 'CTPurple':6 'grey78':3 'CTYellow':8 },565,{ chips  'CTRed':0 'CTGreen':0 'CTPurple':0 'grey78':4 'CTYellow':0 },20,{ chips  'CTRed':0 'CTGreen':0 'CTPurple':0 'grey78':0 'CTYellow':0 },150
3playersLog_1384877153784.csv,,,,,,,,,,,,,,,,,,,,,,,,true
filename,round,propID,respID,IsPropCustomer,chipsToSend,chipsToReceive,accept,propCurrentScore,respCurrentScore,actualSent,ActualRcvd,propResultingScore,respResultingScore,#ofCustomerMovesInRound,customerRowPositionAfterMovePhase,customerColPositionAfterMovePhase,Player100ChipsAfterMovePhase,Player100ScoreAfterMovePhase,Player200ChipsAfterMovePhase,Player200ScoreAfterMovePhase,Player300ChipsAfterMovePhase,Player300ScoreAfterMovePhase,generosityLevel,ClientReachedGoal
3playersLog_1384877195719.csv,1,550,500,false,{ chips  'CTRed':11 'CTPurple':2 },{ chips  'grey78':3 },TRUE,200,120,{ chips  'CTRed':11 'CTPurple':2 'CTYellow':0 },{ chips  'grey78':3 },150,170,0,(R:5,C:4),{ chips  'CTRed':11 'CTGreen':0 'CTPurple':2 'grey78':9 'CTYellow':12 },170,{ chips  'CTRed':22 'CTGreen':0 'CTPurple':5 'grey78':3 'CTYellow':0 },150,{ chips  'CTRed':33 'CTGreen':0 'CTPurple':7 'grey78':0 'CTYellow':0 },200
3playersLog_1384877195719.csv,2,,,,,,,,,,,,,2,(R:4,C:5),{ chips  'CTRed':11 'CTGreen':0 'CTPurple':2 'grey78':9 'CTYellow':10 },160,{ chips  'CTRed':22 'CTGreen':0 'CTPurple':5 'grey78':3 'CTYellow':0 },150,{ chips  'CTRed':33 'CTGreen':0 'CTPurple':7 'grey78':0 'CTYellow':0 },200
3playersLog_1384877195719.csv,3,550,500,false,{ chips  'CTRed':7 'CTPurple':1 },{ chips  'grey78':2 },IGNORED,150,160,,,,,1,(R:3,C:5),{ chips  'CTRed':11 'CTGreen':0 'CTPurple':1 'grey78':9 'CTYellow':10 },155,{ chips  'CTRed':22 'CTGreen':0 'CTPurple':5 'grey78':3 'CTYellow':0 },150,{ chips  'CTRed':33 'CTGreen':0 'CTPurple':7 'grey78':0 'CTYellow':0 },200
3playersLog_1384877195719.csv,3,540,500,false,{ chips  'CTPurple':6 },{ chips  'grey78':1 },IGNORED,200,160,,,,,1,(R:3,C:5),{ chips  'CTRed':11 'CTGreen':0 'CTPurple':1 'grey78':9 'CTYellow':10 },155,{ chips  'CTRed':22 'CTGreen':0 'CTPurple':5 'grey78':3 'CTYellow':0 },150,{ chips  'CTRed':33 'CTGreen':0 'CTPurple':7 'grey78':0 'CTYellow':0 },200
3playersLog_1384877195719.csv,4,500,540,true,{ chips  'CTYellow':2 },{ chips  'CTRed':12 'CTPurple':2 },FALSE,155,200,,,,,0,(R:3,C:5),{ chips  'CTRed':11 'CTGreen':0 'CTPurple':1 'grey78':9 'CTYellow':10 },155,{ chips  'CTRed':22 'CTGreen':0 'CTPurple':5 'grey78':3 'CTYellow':0 },150,{ chips  'CTRed':33 'CTGreen':0 'CTPurple':7 'grey78':0 'CTYellow':0 },200
3playersLog_1384877195719.csv,5,550,500,false,{ chips  'CTRed':7 'CTPurple':1 },{ chips  'grey78':2 },FALSE,150,155,,,,,1,(R:3,C:6),{ chips  'CTRed':11 'CTGreen':0 'CTPurple':1 'grey78':9 'CTYellow':9 },150,{ chips  'CTRed':22 'CTGreen':0 'CTPurple':5 'grey78':3 'CTYellow':0 },150,{ chips  'CTRed':33 'CTGreen':0 'CTPurple':7 'grey78':0 'CTYellow':0 },200
3playersLog_1384877195719.csv,5,540,500,false,{ chips  'CTRed':4 'CTPurple':2 },{ chips  'grey78':3 },FALSE,200,155,,,,,1,(R:3,C:6),{ chips  'CTRed':11 'CTGreen':0 'CTPurple':1 'grey78':9 'CTYellow':9 },150,{ chips  'CTRed':22 'CTGreen':0 'CTPurple':5 'grey78':3 'CTYellow':0 },150,{ chips  'CTRed':33 'CTGreen':0 'CTPurple':7 'grey78':0 'CTYellow':0 },200
3playersLog_1384877195719.csv,6,500,550,true,{ chips  'grey78':2 },{ chips  'CTRed':13 'CTPurple':1 },IGNORED,150,150,,,,,2,(R:2,C:7),{ chips  'CTRed':11 'CTGreen':0 'CTPurple':1 'grey78':9 'CTYellow':7 },140,{ chips  'CTRed':22 'CTGreen':0 'CTPurple':5 'grey78':3 'CTYellow':0 },150,{ chips  'CTRed':33 'CTGreen':0 'CTPurple':7 'grey78':0 'CTYellow':0 },200
3playersLog_1384877195719.csv,7,550,500,false,{ chips  'CTRed':7 'CTPurple':1 },{ chips  'grey78':2 },TRUE,150,140,{ chips  'CTRed':7 'CTPurple':1 'CTYellow':0 },{ chips  'grey78':2 },120,170,2,(R:1,C:8),{ chips  'CTRed':18 'CTGreen':0 'CTPurple':2 'grey78':7 'CTYellow':5 },160,{ chips  'CTRed':15 'CTGreen':0 'CTPurple':4 'grey78':5 'CTYellow':0 },120,{ chips  'CTRed':33 'CTGreen':0 'CTPurple':7 'grey78':0 'CTYellow':0 },200
3playersLog_1384877195719.csv,7,540,500,false,{ chips  'CTRed':7 'CTPurple':7 },{ chips  'grey78':6 },IGNORED,200,140,,,,,2,(R:1,C:8),{ chips  'CTRed':18 'CTGreen':0 'CTPurple':2 'grey78':7 'CTYellow':5 },160,{ chips  'CTRed':15 'CTGreen':0 'CTPurple':4 'grey78':5 'CTYellow':0 },120,{ chips  'CTRed':33 'CTGreen':0 'CTPurple':7 'grey78':0 'CTYellow':0 },200
3playersLog_1384877195719.csv,8,500,540,true,{ chips  'grey78':5 'CTYellow':3 },{ chips  'CTRed':17 'CTPurple':7 },FALSE,160,200,,,,,0,(R:1,C:8),{ chips  'CTRed':18 'CTGreen':0 'CTPurple':2 'grey78':7 'CTYellow':5 },160,{ chips  'CTRed':15 'CTGreen':0 'CTPurple':4 'grey78':5 'CTYellow':0 },120,{ chips  'CTRed':33 'CTGreen':0 'CTPurple':7 'grey78':0 'CTYellow':0 },200
3playersLog_1384877195719.csv,9,550,500,false,{ chips  'CTRed':5 'CTPurple':1 },{ chips  'grey78':2 },TRUE,120,160,{ chips  'CTRed':5 'CTPurple':1 'CTYellow':0 },{ chips  'grey78':2 },100,180,1,(R:1,C:7),{ chips  'CTRed':23 'CTGreen':0 'CTPurple':2 'grey78':5 'CTYellow':5 },175,{ chips  'CTRed':10 'CTGreen':0 'CTPurple':3 'grey78':7 'CTYellow':0 },100,{ chips  'CTRed':33 'CTGreen':0 'CTPurple':7 'grey78':0 'CTYellow':0 },200
3playersLog_1384877195719.csv,9,540,500,false,{ chips  'CTPurple':7 },{ chips  'CTRed':8 'grey78':4 'CTYellow':5 },IGNORED,200,160,,,,,1,(R:1,C:7),{ chips  'CTRed':23 'CTGreen':0 'CTPurple':2 'grey78':5 'CTYellow':5 },175,{ chips  'CTRed':10 'CTGreen':0 'CTPurple':3 'grey78':7 'CTYellow':0 },100,{ chips  'CTRed':33 'CTGreen':0 'CTPurple':7 'grey78':0 'CTYellow':0 },200
3playersLog_1384877195719.csv,10,500,540,true,{ chips  'grey78':3 'CTYellow':3 },{ chips  'CTRed':15 'CTPurple':6 },FALSE,175,200,,,,,0,(R:1,C:7),{ chips  'CTRed':23 'CTGreen':0 'CTPurple':2 'grey78':5 'CTYellow':5 },175,{ chips  'CTRed':10 'CTGreen':0 'CTPurple':3 'grey78':7 'CTYellow':0 },100,{ chips  'CTRed':33 'CTGreen':0 'CTPurple':7 'grey78':0 'CTYellow':0 },200
3playersLog_1384877195719.csv,11,550,500,false,{ chips  'CTRed':3 'CTPurple':1 },{ chips  'grey78':1 },TRUE,100,175,{ chips  'CTRed':3 'CTPurple':1 'CTYellow':0 },{ chips  'grey78':1 },85,190,1,(R:1,C:8),{ chips  'CTRed':26 'CTGreen':0 'CTPurple':3 'grey78':4 'CTYellow':4 },185,{ chips  'CTRed':7 'CTGreen':0 'CTPurple':2 'grey78':8 'CTYellow':0 },85,{ chips  'CTRed':33 'CTGreen':0 'CTPurple':7 'grey78':0 'CTYellow':0 },200
3playersLog_1384877195719.csv,11,540,500,false,{ chips  'CTRed':10 'CTPurple':5 },{ chips  'CTRed':10 'grey78':5 },IGNORED,200,175,,,,,1,(R:1,C:8),{ chips  'CTRed':26 'CTGreen':0 'CTPurple':3 'grey78':4 'CTYellow':4 },185,{ chips  'CTRed':7 'CTGreen':0 'CTPurple':2 'grey78':8 'CTYellow':0 },85,{ chips  'CTRed':33 'CTGreen':0 'CTPurple':7 'grey78':0 'CTYellow':0 },200
3playersLog_1384877195719.csv,12,500,540,true,{ chips  'grey78':1 'CTYellow':3 },{ chips  'CTRed':10 'CTPurple':7 },FALSE,185,200,,,,,1,(R:0,C:8),{ chips  'CTRed':26 'CTGreen':0 'CTPurple':3 'grey78':4 'CTYellow':3 },330,{ chips  'CTRed':7 'CTGreen':0 'CTPurple':2 'grey78':8 'CTYellow':0 },235,{ chips  'CTRed':33 'CTGreen':0 'CTPurple':7 'grey78':0 'CTYellow':0 },200
3playersLog_1384877195719.csv,,,,,,,,,,,,,,,,,,,,,,,,true
