Mon Feb 10 18:20:27 EET 2014	This is the CT debug logger; svn version 638; sep 27 09
Mon Feb 10 18:20:27 EET 2014	Mon Feb 10 18:20:27 EET 2014
Mon Feb 10 18:20:27 EET 2014	Creating board
Mon Feb 10 18:20:27 EET 2014	<colors>
Mon Feb 10 18:20:27 EET 2014	{ GamePalette  'CTPurple':0 'CTRed':1 'CTGreen':2 'grey78':3 'CTYellow':4 }
Mon Feb 10 18:20:27 EET 2014	<rows>
Mon Feb 10 18:20:27 EET 2014	6
Mon Feb 10 18:20:27 EET 2014	<columns>
Mon Feb 10 18:20:27 EET 2014	9
Mon Feb 10 18:20:27 EET 2014	<squaresColors>
Mon Feb 10 18:20:27 EET 2014	grey78 CTGreen CTGreen CTGreen CTGreen CTGreen CTGreen CTGreen CTYellow 
Mon Feb 10 18:20:27 EET 2014	grey78 CTPurple CTPurple CTPurple CTPurple CTPurple CTPurple CTPurple CTYellow 
Mon Feb 10 18:20:27 EET 2014	grey78 grey78 CTGreen CTGreen CTGreen CTGreen CTGreen CTYellow CTYellow 
Mon Feb 10 18:20:27 EET 2014	CTGreen grey78 grey78 CTPurple CTPurple CTPurple CTYellow CTYellow CTGreen 
Mon Feb 10 18:20:27 EET 2014	CTGreen CTGreen grey78 grey78 CTGreen CTYellow CTYellow CTGreen CTGreen 
Mon Feb 10 18:20:27 EET 2014	CTGreen CTGreen CTGreen grey78 CTGreen CTYellow CTGreen CTGreen CTGreen 
Mon Feb 10 18:20:27 EET 2014	</squareColors>
Mon Feb 10 18:20:27 EET 2014	<goalPosition>
Mon Feb 10 18:20:27 EET 2014	Goal position: (R:0,C:0)
Mon Feb 10 18:20:27 EET 2014	<goalPosition>
Mon Feb 10 18:20:27 EET 2014	Goal position: (R:0,C:0)
Mon Feb 10 18:20:27 EET 2014	<firstPlayerPossibleGoal1>
Mon Feb 10 18:20:27 EET 2014	0.5
Mon Feb 10 18:20:27 EET 2014	0
Mon Feb 10 18:20:27 EET 2014	0
Mon Feb 10 18:20:27 EET 2014	</firstPlayerPossibleGoal1>
Mon Feb 10 18:20:27 EET 2014	<firstPlayerPossibleGoal2>
Mon Feb 10 18:20:27 EET 2014	0.5
Mon Feb 10 18:20:27 EET 2014	0
Mon Feb 10 18:20:27 EET 2014	8
Mon Feb 10 18:20:27 EET 2014	</firstPlayerPossibleGoal2>
Mon Feb 10 18:20:27 EET 2014	<numberOfPlayers>
Mon Feb 10 18:20:27 EET 2014	3
Mon Feb 10 18:20:27 EET 2014	<firstPlayerChips>
Mon Feb 10 18:20:27 EET 2014	Setting chips for player: 500 id:500
Mon Feb 10 18:20:27 EET 2014	{ chips  'CTRed':0 'CTGreen':0 'CTPurple':0 'grey78':12 'CTYellow':12 }
Mon Feb 10 18:20:27 EET 2014	Player position: (R:5,C:4)
Mon Feb 10 18:20:27 EET 2014	Setting chips for player: 530 id:530
Mon Feb 10 18:20:27 EET 2014	{ chips  'CTRed':33 'CTGreen':0 'CTPurple':7 'grey78':0 'CTYellow':0 }
Mon Feb 10 18:20:27 EET 2014	Player position: (R:0,C:8)
Mon Feb 10 18:20:27 EET 2014	Setting chips for player: 540 id:540
Mon Feb 10 18:20:27 EET 2014	{ chips  'CTRed':33 'CTGreen':0 'CTPurple':7 'grey78':0 'CTYellow':0 }
Mon Feb 10 18:20:27 EET 2014	Player position: (R:0,C:0)
Mon Feb 10 18:20:27 EET 2014	Creating board
Mon Feb 10 18:20:27 EET 2014	<colors>
Mon Feb 10 18:20:27 EET 2014	{ GamePalette  'CTPurple':0 'CTRed':1 'CTGreen':2 'grey78':3 'CTYellow':4 }
Mon Feb 10 18:20:27 EET 2014	<rows>
Mon Feb 10 18:20:27 EET 2014	6
Mon Feb 10 18:20:27 EET 2014	<columns>
Mon Feb 10 18:20:27 EET 2014	9
Mon Feb 10 18:20:27 EET 2014	<squaresColors>
Mon Feb 10 18:20:27 EET 2014	grey78 CTGreen CTGreen CTGreen CTGreen CTGreen CTGreen CTGreen CTYellow 
Mon Feb 10 18:20:27 EET 2014	grey78 CTPurple CTPurple CTPurple CTPurple CTPurple CTPurple CTPurple CTYellow 
Mon Feb 10 18:20:27 EET 2014	grey78 grey78 CTGreen CTGreen CTGreen CTGreen CTGreen CTYellow CTYellow 
Mon Feb 10 18:20:27 EET 2014	CTGreen grey78 grey78 CTPurple CTPurple CTPurple CTYellow CTYellow CTGreen 
Mon Feb 10 18:20:27 EET 2014	CTGreen CTGreen grey78 grey78 CTGreen CTYellow CTYellow CTGreen CTGreen 
Mon Feb 10 18:20:27 EET 2014	CTGreen CTGreen CTGreen grey78 CTGreen CTYellow CTGreen CTGreen CTGreen 
Mon Feb 10 18:20:27 EET 2014	</squareColors>
Mon Feb 10 18:20:27 EET 2014	<goalPosition>
Mon Feb 10 18:20:27 EET 2014	Goal position: (R:0,C:0)
Mon Feb 10 18:20:27 EET 2014	<goalPosition>
Mon Feb 10 18:20:27 EET 2014	Goal position: (R:0,C:0)
Mon Feb 10 18:20:27 EET 2014	<firstPlayerPossibleGoal1>
Mon Feb 10 18:20:27 EET 2014	0.5
Mon Feb 10 18:20:27 EET 2014	0
Mon Feb 10 18:20:27 EET 2014	0
Mon Feb 10 18:20:27 EET 2014	</firstPlayerPossibleGoal1>
Mon Feb 10 18:20:27 EET 2014	<firstPlayerPossibleGoal2>
Mon Feb 10 18:20:27 EET 2014	0.5
Mon Feb 10 18:20:27 EET 2014	0
Mon Feb 10 18:20:27 EET 2014	8
Mon Feb 10 18:20:27 EET 2014	</firstPlayerPossibleGoal2>
Mon Feb 10 18:20:27 EET 2014	<numberOfPlayers>
Mon Feb 10 18:20:27 EET 2014	3
Mon Feb 10 18:20:27 EET 2014	<firstPlayerChips>
Mon Feb 10 18:20:27 EET 2014	Setting chips for player: 500 id:500
Mon Feb 10 18:20:27 EET 2014	{ chips  'CTRed':0 'CTGreen':0 'CTPurple':0 'grey78':12 'CTYellow':12 }
Mon Feb 10 18:20:27 EET 2014	Player position: (R:5,C:4)
Mon Feb 10 18:20:27 EET 2014	Setting chips for player: 530 id:530
Mon Feb 10 18:20:27 EET 2014	{ chips  'CTRed':33 'CTGreen':0 'CTPurple':7 'grey78':0 'CTYellow':0 }
Mon Feb 10 18:20:27 EET 2014	Player position: (R:0,C:8)
Mon Feb 10 18:20:27 EET 2014	Setting chips for player: 540 id:540
Mon Feb 10 18:20:27 EET 2014	{ chips  'CTRed':33 'CTGreen':0 'CTPurple':7 'grey78':0 'CTYellow':0 }
Mon Feb 10 18:20:27 EET 2014	Player position: (R:0,C:0)
Mon Feb 10 18:20:27 EET 2014	Creating board
Mon Feb 10 18:20:27 EET 2014	<colors>
Mon Feb 10 18:20:27 EET 2014	{ GamePalette  'CTPurple':0 'CTRed':1 'CTGreen':2 'grey78':3 'CTYellow':4 }
Mon Feb 10 18:20:27 EET 2014	<rows>
Mon Feb 10 18:20:27 EET 2014	6
Mon Feb 10 18:20:27 EET 2014	<columns>
Mon Feb 10 18:20:27 EET 2014	9
Mon Feb 10 18:20:27 EET 2014	<squaresColors>
Mon Feb 10 18:20:27 EET 2014	grey78 CTGreen CTGreen CTGreen CTGreen CTGreen CTGreen CTGreen CTYellow 
Mon Feb 10 18:20:27 EET 2014	grey78 CTPurple CTPurple CTPurple CTPurple CTPurple CTPurple CTPurple CTYellow 
Mon Feb 10 18:20:27 EET 2014	grey78 grey78 CTGreen CTGreen CTGreen CTGreen CTGreen CTYellow CTYellow 
Mon Feb 10 18:20:27 EET 2014	CTGreen grey78 grey78 CTPurple CTPurple CTPurple CTYellow CTYellow CTGreen 
Mon Feb 10 18:20:27 EET 2014	CTGreen CTGreen grey78 grey78 CTGreen CTYellow CTYellow CTGreen CTGreen 
Mon Feb 10 18:20:27 EET 2014	CTGreen CTGreen CTGreen grey78 CTGreen CTYellow CTGreen CTGreen CTGreen 
Mon Feb 10 18:20:27 EET 2014	</squareColors>
Mon Feb 10 18:20:27 EET 2014	<goalPosition>
Mon Feb 10 18:20:27 EET 2014	Goal position: (R:0,C:0)
Mon Feb 10 18:20:27 EET 2014	<goalPosition>
Mon Feb 10 18:20:27 EET 2014	Goal position: (R:0,C:0)
Mon Feb 10 18:20:27 EET 2014	<firstPlayerPossibleGoal1>
Mon Feb 10 18:20:27 EET 2014	0.5
Mon Feb 10 18:20:27 EET 2014	0
Mon Feb 10 18:20:27 EET 2014	0
Mon Feb 10 18:20:27 EET 2014	</firstPlayerPossibleGoal1>
Mon Feb 10 18:20:27 EET 2014	<firstPlayerPossibleGoal2>
Mon Feb 10 18:20:27 EET 2014	0.5
Mon Feb 10 18:20:27 EET 2014	0
Mon Feb 10 18:20:27 EET 2014	8
Mon Feb 10 18:20:27 EET 2014	</firstPlayerPossibleGoal2>
Mon Feb 10 18:20:27 EET 2014	<numberOfPlayers>
Mon Feb 10 18:20:27 EET 2014	3
Mon Feb 10 18:20:27 EET 2014	<firstPlayerChips>
Mon Feb 10 18:20:27 EET 2014	Setting chips for player: 500 id:500
Mon Feb 10 18:20:27 EET 2014	{ chips  'CTRed':0 'CTGreen':0 'CTPurple':0 'grey78':12 'CTYellow':12 }
Mon Feb 10 18:20:27 EET 2014	Player position: (R:5,C:4)
Mon Feb 10 18:20:27 EET 2014	Setting chips for player: 530 id:530
Mon Feb 10 18:20:27 EET 2014	{ chips  'CTRed':33 'CTGreen':0 'CTPurple':7 'grey78':0 'CTYellow':0 }
Mon Feb 10 18:20:27 EET 2014	Player position: (R:0,C:8)
Mon Feb 10 18:20:27 EET 2014	Setting chips for player: 540 id:540
Mon Feb 10 18:20:27 EET 2014	{ chips  'CTRed':33 'CTGreen':0 'CTPurple':7 'grey78':0 'CTYellow':0 }
Mon Feb 10 18:20:27 EET 2014	Player position: (R:0,C:0)
Mon Feb 10 18:20:27 EET 2014	Creating board
Mon Feb 10 18:20:27 EET 2014	<colors>
Mon Feb 10 18:20:27 EET 2014	{ GamePalette  'CTPurple':0 'CTRed':1 'CTGreen':2 'grey78':3 'CTYellow':4 }
Mon Feb 10 18:20:27 EET 2014	<rows>
Mon Feb 10 18:20:27 EET 2014	6
Mon Feb 10 18:20:27 EET 2014	<columns>
Mon Feb 10 18:20:27 EET 2014	9
Mon Feb 10 18:20:27 EET 2014	<squaresColors>
Mon Feb 10 18:20:27 EET 2014	grey78 CTGreen CTGreen CTGreen CTGreen CTGreen CTGreen CTGreen CTYellow 
Mon Feb 10 18:20:27 EET 2014	grey78 CTPurple CTPurple CTPurple CTPurple CTPurple CTPurple CTPurple CTYellow 
Mon Feb 10 18:20:27 EET 2014	grey78 grey78 CTGreen CTGreen CTGreen CTGreen CTGreen CTYellow CTYellow 
Mon Feb 10 18:20:27 EET 2014	CTGreen grey78 grey78 CTPurple CTPurple CTPurple CTYellow CTYellow CTGreen 
Mon Feb 10 18:20:27 EET 2014	CTGreen CTGreen grey78 grey78 CTGreen CTYellow CTYellow CTGreen CTGreen 
Mon Feb 10 18:20:27 EET 2014	CTGreen CTGreen CTGreen grey78 CTGreen CTYellow CTGreen CTGreen CTGreen 
Mon Feb 10 18:20:27 EET 2014	</squareColors>
Mon Feb 10 18:20:27 EET 2014	<goalPosition>
Mon Feb 10 18:20:27 EET 2014	Goal position: (R:0,C:0)
Mon Feb 10 18:20:27 EET 2014	<goalPosition>
Mon Feb 10 18:20:27 EET 2014	Goal position: (R:0,C:0)
Mon Feb 10 18:20:27 EET 2014	<firstPlayerPossibleGoal1>
Mon Feb 10 18:20:27 EET 2014	0.5
Mon Feb 10 18:20:27 EET 2014	0
Mon Feb 10 18:20:27 EET 2014	0
Mon Feb 10 18:20:27 EET 2014	</firstPlayerPossibleGoal1>
Mon Feb 10 18:20:27 EET 2014	<firstPlayerPossibleGoal2>
Mon Feb 10 18:20:27 EET 2014	0.5
Mon Feb 10 18:20:27 EET 2014	0
Mon Feb 10 18:20:27 EET 2014	8
Mon Feb 10 18:20:27 EET 2014	</firstPlayerPossibleGoal2>
Mon Feb 10 18:20:27 EET 2014	<numberOfPlayers>
Mon Feb 10 18:20:27 EET 2014	3
Mon Feb 10 18:20:27 EET 2014	<firstPlayerChips>
Mon Feb 10 18:20:27 EET 2014	Setting chips for player: 500 id:500
Mon Feb 10 18:20:27 EET 2014	{ chips  'CTRed':0 'CTGreen':0 'CTPurple':0 'grey78':12 'CTYellow':12 }
Mon Feb 10 18:20:27 EET 2014	Player position: (R:5,C:4)
Mon Feb 10 18:20:27 EET 2014	Setting chips for player: 530 id:530
Mon Feb 10 18:20:27 EET 2014	{ chips  'CTRed':33 'CTGreen':0 'CTPurple':7 'grey78':0 'CTYellow':0 }
Mon Feb 10 18:20:27 EET 2014	Player position: (R:0,C:8)
Mon Feb 10 18:20:27 EET 2014	Setting chips for player: 540 id:540
Mon Feb 10 18:20:27 EET 2014	{ chips  'CTRed':33 'CTGreen':0 'CTPurple':7 'grey78':0 'CTYellow':0 }
Mon Feb 10 18:20:27 EET 2014	Player position: (R:0,C:0)
Mon Feb 10 18:20:27 EET 2014	Creating board
Mon Feb 10 18:20:27 EET 2014	<colors>
Mon Feb 10 18:20:27 EET 2014	{ GamePalette  'CTPurple':0 'CTRed':1 'CTGreen':2 'grey78':3 'CTYellow':4 }
Mon Feb 10 18:20:27 EET 2014	<rows>
Mon Feb 10 18:20:27 EET 2014	6
Mon Feb 10 18:20:27 EET 2014	<columns>
Mon Feb 10 18:20:27 EET 2014	9
Mon Feb 10 18:20:27 EET 2014	<squaresColors>
Mon Feb 10 18:20:27 EET 2014	grey78 CTGreen CTGreen CTGreen CTGreen CTGreen CTGreen CTGreen CTYellow 
Mon Feb 10 18:20:27 EET 2014	grey78 CTPurple CTPurple CTPurple CTPurple CTPurple CTPurple CTPurple CTYellow 
Mon Feb 10 18:20:27 EET 2014	grey78 grey78 CTGreen CTGreen CTGreen CTGreen CTGreen CTYellow CTYellow 
Mon Feb 10 18:20:27 EET 2014	CTGreen grey78 grey78 CTPurple CTPurple CTPurple CTYellow CTYellow CTGreen 
Mon Feb 10 18:20:27 EET 2014	CTGreen CTGreen grey78 grey78 CTGreen CTYellow CTYellow CTGreen CTGreen 
Mon Feb 10 18:20:27 EET 2014	CTGreen CTGreen CTGreen grey78 CTGreen CTYellow CTGreen CTGreen CTGreen 
Mon Feb 10 18:20:27 EET 2014	</squareColors>
Mon Feb 10 18:20:27 EET 2014	<goalPosition>
Mon Feb 10 18:20:27 EET 2014	Goal position: (R:0,C:0)
Mon Feb 10 18:20:27 EET 2014	<goalPosition>
Mon Feb 10 18:20:27 EET 2014	Goal position: (R:0,C:0)
Mon Feb 10 18:20:27 EET 2014	<firstPlayerPossibleGoal1>
Mon Feb 10 18:20:27 EET 2014	0.5
Mon Feb 10 18:20:27 EET 2014	0
Mon Feb 10 18:20:27 EET 2014	0
Mon Feb 10 18:20:27 EET 2014	</firstPlayerPossibleGoal1>
Mon Feb 10 18:20:27 EET 2014	<firstPlayerPossibleGoal2>
Mon Feb 10 18:20:27 EET 2014	0.5
Mon Feb 10 18:20:27 EET 2014	0
Mon Feb 10 18:20:27 EET 2014	8
Mon Feb 10 18:20:27 EET 2014	</firstPlayerPossibleGoal2>
Mon Feb 10 18:20:27 EET 2014	<numberOfPlayers>
Mon Feb 10 18:20:27 EET 2014	3
Mon Feb 10 18:20:27 EET 2014	<firstPlayerChips>
Mon Feb 10 18:20:27 EET 2014	Setting chips for player: 500 id:500
Mon Feb 10 18:20:27 EET 2014	{ chips  'CTRed':0 'CTGreen':0 'CTPurple':0 'grey78':12 'CTYellow':12 }
Mon Feb 10 18:20:27 EET 2014	Player position: (R:5,C:4)
Mon Feb 10 18:20:27 EET 2014	Setting chips for player: 530 id:530
Mon Feb 10 18:20:27 EET 2014	{ chips  'CTRed':33 'CTGreen':0 'CTPurple':7 'grey78':0 'CTYellow':0 }
Mon Feb 10 18:20:27 EET 2014	Player position: (R:0,C:8)
Mon Feb 10 18:20:27 EET 2014	Setting chips for player: 540 id:540
Mon Feb 10 18:20:27 EET 2014	{ chips  'CTRed':33 'CTGreen':0 'CTPurple':7 'grey78':0 'CTYellow':0 }
Mon Feb 10 18:20:27 EET 2014	Player position: (R:0,C:0)
Mon Feb 10 18:20:28 EET 2014	Creating board
Mon Feb 10 18:20:28 EET 2014	<colors>
Mon Feb 10 18:20:28 EET 2014	{ GamePalette  'CTPurple':0 'CTRed':1 'CTGreen':2 'grey78':3 'CTYellow':4 }
Mon Feb 10 18:20:28 EET 2014	<rows>
Mon Feb 10 18:20:28 EET 2014	6
Mon Feb 10 18:20:28 EET 2014	<columns>
Mon Feb 10 18:20:28 EET 2014	9
Mon Feb 10 18:20:28 EET 2014	<squaresColors>
Mon Feb 10 18:20:28 EET 2014	grey78 CTGreen CTGreen CTGreen CTGreen CTGreen CTGreen CTGreen CTYellow 
Mon Feb 10 18:20:28 EET 2014	grey78 CTPurple CTPurple CTPurple CTPurple CTPurple CTPurple CTPurple CTYellow 
Mon Feb 10 18:20:28 EET 2014	grey78 grey78 CTGreen CTGreen CTGreen CTGreen CTGreen CTYellow CTYellow 
Mon Feb 10 18:20:28 EET 2014	CTGreen grey78 grey78 CTPurple CTPurple CTPurple CTYellow CTYellow CTGreen 
Mon Feb 10 18:20:28 EET 2014	CTGreen CTGreen grey78 grey78 CTGreen CTYellow CTYellow CTGreen CTGreen 
Mon Feb 10 18:20:28 EET 2014	CTGreen CTGreen CTGreen grey78 CTGreen CTYellow CTGreen CTGreen CTGreen 
Mon Feb 10 18:20:28 EET 2014	</squareColors>
Mon Feb 10 18:20:28 EET 2014	<goalPosition>
Mon Feb 10 18:20:28 EET 2014	Goal position: (R:0,C:0)
Mon Feb 10 18:20:28 EET 2014	<goalPosition>
Mon Feb 10 18:20:28 EET 2014	Goal position: (R:0,C:0)
Mon Feb 10 18:20:28 EET 2014	<firstPlayerPossibleGoal1>
Mon Feb 10 18:20:28 EET 2014	0.5
Mon Feb 10 18:20:28 EET 2014	0
Mon Feb 10 18:20:28 EET 2014	0
Mon Feb 10 18:20:28 EET 2014	</firstPlayerPossibleGoal1>
Mon Feb 10 18:20:28 EET 2014	<firstPlayerPossibleGoal2>
Mon Feb 10 18:20:28 EET 2014	0.5
Mon Feb 10 18:20:28 EET 2014	0
Mon Feb 10 18:20:28 EET 2014	8
Mon Feb 10 18:20:28 EET 2014	</firstPlayerPossibleGoal2>
Mon Feb 10 18:20:28 EET 2014	<numberOfPlayers>
Mon Feb 10 18:20:28 EET 2014	3
Mon Feb 10 18:20:28 EET 2014	<firstPlayerChips>
Mon Feb 10 18:20:28 EET 2014	Setting chips for player: 500 id:500
Mon Feb 10 18:20:28 EET 2014	{ chips  'CTRed':0 'CTGreen':0 'CTPurple':0 'grey78':12 'CTYellow':12 }
Mon Feb 10 18:20:28 EET 2014	Player position: (R:5,C:4)
Mon Feb 10 18:20:28 EET 2014	Setting chips for player: 530 id:530
Mon Feb 10 18:20:28 EET 2014	{ chips  'CTRed':33 'CTGreen':0 'CTPurple':7 'grey78':0 'CTYellow':0 }
Mon Feb 10 18:20:28 EET 2014	Player position: (R:0,C:8)
Mon Feb 10 18:20:28 EET 2014	Setting chips for player: 540 id:540
Mon Feb 10 18:20:28 EET 2014	{ chips  'CTRed':33 'CTGreen':0 'CTPurple':7 'grey78':0 'CTYellow':0 }
Mon Feb 10 18:20:28 EET 2014	Player position: (R:0,C:0)
Mon Feb 10 18:20:28 EET 2014	Creating board
Mon Feb 10 18:20:28 EET 2014	<colors>
Mon Feb 10 18:20:28 EET 2014	{ GamePalette  'CTPurple':0 'CTRed':1 'CTGreen':2 'grey78':3 'CTYellow':4 }
Mon Feb 10 18:20:28 EET 2014	<rows>
Mon Feb 10 18:20:28 EET 2014	6
Mon Feb 10 18:20:28 EET 2014	<columns>
Mon Feb 10 18:20:28 EET 2014	9
Mon Feb 10 18:20:28 EET 2014	<squaresColors>
Mon Feb 10 18:20:28 EET 2014	grey78 CTGreen CTGreen CTGreen CTGreen CTGreen CTGreen CTGreen CTYellow 
Mon Feb 10 18:20:28 EET 2014	grey78 CTPurple CTPurple CTPurple CTPurple CTPurple CTPurple CTPurple CTYellow 
Mon Feb 10 18:20:28 EET 2014	grey78 grey78 CTGreen CTGreen CTGreen CTGreen CTGreen CTYellow CTYellow 
Mon Feb 10 18:20:28 EET 2014	CTGreen grey78 grey78 CTPurple CTPurple CTPurple CTYellow CTYellow CTGreen 
Mon Feb 10 18:20:28 EET 2014	CTGreen CTGreen grey78 grey78 CTGreen CTYellow CTYellow CTGreen CTGreen 
Mon Feb 10 18:20:28 EET 2014	CTGreen CTGreen CTGreen grey78 CTGreen CTYellow CTGreen CTGreen CTGreen 
Mon Feb 10 18:20:28 EET 2014	</squareColors>
Mon Feb 10 18:20:28 EET 2014	<goalPosition>
Mon Feb 10 18:20:28 EET 2014	Goal position: (R:0,C:0)
Mon Feb 10 18:20:28 EET 2014	<goalPosition>
Mon Feb 10 18:20:28 EET 2014	Goal position: (R:0,C:0)
Mon Feb 10 18:20:28 EET 2014	<firstPlayerPossibleGoal1>
Mon Feb 10 18:20:28 EET 2014	0.5
Mon Feb 10 18:20:28 EET 2014	0
Mon Feb 10 18:20:28 EET 2014	0
Mon Feb 10 18:20:28 EET 2014	</firstPlayerPossibleGoal1>
Mon Feb 10 18:20:28 EET 2014	<firstPlayerPossibleGoal2>
Mon Feb 10 18:20:28 EET 2014	0.5
Mon Feb 10 18:20:28 EET 2014	0
Mon Feb 10 18:20:28 EET 2014	8
Mon Feb 10 18:20:28 EET 2014	</firstPlayerPossibleGoal2>
Mon Feb 10 18:20:28 EET 2014	<numberOfPlayers>
Mon Feb 10 18:20:28 EET 2014	3
Mon Feb 10 18:20:28 EET 2014	<firstPlayerChips>
Mon Feb 10 18:20:28 EET 2014	Setting chips for player: 500 id:500
Mon Feb 10 18:20:28 EET 2014	{ chips  'CTRed':0 'CTGreen':0 'CTPurple':0 'grey78':12 'CTYellow':12 }
Mon Feb 10 18:20:28 EET 2014	Player position: (R:5,C:4)
Mon Feb 10 18:20:28 EET 2014	Setting chips for player: 530 id:530
Mon Feb 10 18:20:28 EET 2014	{ chips  'CTRed':33 'CTGreen':0 'CTPurple':7 'grey78':0 'CTYellow':0 }
Mon Feb 10 18:20:28 EET 2014	Player position: (R:0,C:8)
Mon Feb 10 18:20:28 EET 2014	Setting chips for player: 540 id:540
Mon Feb 10 18:20:28 EET 2014	{ chips  'CTRed':33 'CTGreen':0 'CTPurple':7 'grey78':0 'CTYellow':0 }
Mon Feb 10 18:20:28 EET 2014	Player position: (R:0,C:0)
Mon Feb 10 18:20:28 EET 2014	Creating board
Mon Feb 10 18:20:28 EET 2014	<colors>
Mon Feb 10 18:20:28 EET 2014	{ GamePalette  'CTPurple':0 'CTRed':1 'CTGreen':2 'grey78':3 'CTYellow':4 }
Mon Feb 10 18:20:28 EET 2014	<rows>
Mon Feb 10 18:20:28 EET 2014	6
Mon Feb 10 18:20:28 EET 2014	<columns>
Mon Feb 10 18:20:28 EET 2014	9
Mon Feb 10 18:20:28 EET 2014	<squaresColors>
Mon Feb 10 18:20:28 EET 2014	grey78 CTGreen CTGreen CTGreen CTGreen CTGreen CTGreen CTGreen CTYellow 
Mon Feb 10 18:20:28 EET 2014	grey78 CTPurple CTPurple CTPurple CTPurple CTPurple CTPurple CTPurple CTYellow 
Mon Feb 10 18:20:28 EET 2014	grey78 grey78 CTGreen CTGreen CTGreen CTGreen CTGreen CTYellow CTYellow 
Mon Feb 10 18:20:28 EET 2014	CTGreen grey78 grey78 CTPurple CTPurple CTPurple CTYellow CTYellow CTGreen 
Mon Feb 10 18:20:28 EET 2014	CTGreen CTGreen grey78 grey78 CTGreen CTYellow CTYellow CTGreen CTGreen 
Mon Feb 10 18:20:28 EET 2014	CTGreen CTGreen CTGreen grey78 CTGreen CTYellow CTGreen CTGreen CTGreen 
Mon Feb 10 18:20:28 EET 2014	</squareColors>
Mon Feb 10 18:20:28 EET 2014	<goalPosition>
Mon Feb 10 18:20:28 EET 2014	Goal position: (R:0,C:0)
Mon Feb 10 18:20:28 EET 2014	<goalPosition>
Mon Feb 10 18:20:28 EET 2014	Goal position: (R:0,C:0)
Mon Feb 10 18:20:28 EET 2014	<firstPlayerPossibleGoal1>
Mon Feb 10 18:20:28 EET 2014	0.5
Mon Feb 10 18:20:28 EET 2014	0
Mon Feb 10 18:20:28 EET 2014	0
Mon Feb 10 18:20:28 EET 2014	</firstPlayerPossibleGoal1>
Mon Feb 10 18:20:28 EET 2014	<firstPlayerPossibleGoal2>
Mon Feb 10 18:20:28 EET 2014	0.5
Mon Feb 10 18:20:28 EET 2014	0
Mon Feb 10 18:20:28 EET 2014	8
Mon Feb 10 18:20:28 EET 2014	</firstPlayerPossibleGoal2>
Mon Feb 10 18:20:28 EET 2014	<numberOfPlayers>
Mon Feb 10 18:20:28 EET 2014	3
Mon Feb 10 18:20:28 EET 2014	<firstPlayerChips>
Mon Feb 10 18:20:28 EET 2014	Setting chips for player: 500 id:500
Mon Feb 10 18:20:28 EET 2014	{ chips  'CTRed':0 'CTGreen':0 'CTPurple':0 'grey78':12 'CTYellow':12 }
Mon Feb 10 18:20:28 EET 2014	Player position: (R:5,C:4)
Mon Feb 10 18:20:28 EET 2014	Setting chips for player: 530 id:530
Mon Feb 10 18:20:28 EET 2014	{ chips  'CTRed':33 'CTGreen':0 'CTPurple':7 'grey78':0 'CTYellow':0 }
Mon Feb 10 18:20:28 EET 2014	Player position: (R:0,C:8)
Mon Feb 10 18:20:28 EET 2014	Setting chips for player: 540 id:540
Mon Feb 10 18:20:28 EET 2014	{ chips  'CTRed':33 'CTGreen':0 'CTPurple':7 'grey78':0 'CTYellow':0 }
Mon Feb 10 18:20:28 EET 2014	Player position: (R:0,C:0)
Mon Feb 10 18:20:28 EET 2014	Creating board
Mon Feb 10 18:20:28 EET 2014	<colors>
Mon Feb 10 18:20:28 EET 2014	{ GamePalette  'CTPurple':0 'CTRed':1 'CTGreen':2 'grey78':3 'CTYellow':4 }
Mon Feb 10 18:20:28 EET 2014	<rows>
Mon Feb 10 18:20:28 EET 2014	6
Mon Feb 10 18:20:28 EET 2014	<columns>
Mon Feb 10 18:20:28 EET 2014	9
Mon Feb 10 18:20:28 EET 2014	<squaresColors>
Mon Feb 10 18:20:28 EET 2014	grey78 CTGreen CTGreen CTGreen CTGreen CTGreen CTGreen CTGreen CTYellow 
Mon Feb 10 18:20:28 EET 2014	grey78 CTPurple CTPurple CTPurple CTPurple CTPurple CTPurple CTPurple CTYellow 
Mon Feb 10 18:20:28 EET 2014	grey78 grey78 CTGreen CTGreen CTGreen CTGreen CTGreen CTYellow CTYellow 
Mon Feb 10 18:20:28 EET 2014	CTGreen grey78 grey78 CTPurple CTPurple CTPurple CTYellow CTYellow CTGreen 
Mon Feb 10 18:20:28 EET 2014	CTGreen CTGreen grey78 grey78 CTGreen CTYellow CTYellow CTGreen CTGreen 
Mon Feb 10 18:20:28 EET 2014	CTGreen CTGreen CTGreen grey78 CTGreen CTYellow CTGreen CTGreen CTGreen 
Mon Feb 10 18:20:28 EET 2014	</squareColors>
Mon Feb 10 18:20:28 EET 2014	<goalPosition>
Mon Feb 10 18:20:28 EET 2014	Goal position: (R:0,C:0)
Mon Feb 10 18:20:28 EET 2014	<goalPosition>
Mon Feb 10 18:20:28 EET 2014	Goal position: (R:0,C:0)
Mon Feb 10 18:20:28 EET 2014	<firstPlayerPossibleGoal1>
Mon Feb 10 18:20:28 EET 2014	0.5
Mon Feb 10 18:20:28 EET 2014	0
Mon Feb 10 18:20:28 EET 2014	0
Mon Feb 10 18:20:28 EET 2014	</firstPlayerPossibleGoal1>
Mon Feb 10 18:20:28 EET 2014	<firstPlayerPossibleGoal2>
Mon Feb 10 18:20:28 EET 2014	0.5
Mon Feb 10 18:20:28 EET 2014	0
Mon Feb 10 18:20:28 EET 2014	8
Mon Feb 10 18:20:28 EET 2014	</firstPlayerPossibleGoal2>
Mon Feb 10 18:20:28 EET 2014	<numberOfPlayers>
Mon Feb 10 18:20:28 EET 2014	3
Mon Feb 10 18:20:28 EET 2014	<firstPlayerChips>
Mon Feb 10 18:20:28 EET 2014	Setting chips for player: 500 id:500
Mon Feb 10 18:20:28 EET 2014	{ chips  'CTRed':0 'CTGreen':0 'CTPurple':0 'grey78':12 'CTYellow':12 }
Mon Feb 10 18:20:28 EET 2014	Player position: (R:5,C:4)
Mon Feb 10 18:20:28 EET 2014	Setting chips for player: 530 id:530
Mon Feb 10 18:20:28 EET 2014	{ chips  'CTRed':33 'CTGreen':0 'CTPurple':7 'grey78':0 'CTYellow':0 }
Mon Feb 10 18:20:28 EET 2014	Player position: (R:0,C:8)
Mon Feb 10 18:20:28 EET 2014	Setting chips for player: 540 id:540
Mon Feb 10 18:20:28 EET 2014	{ chips  'CTRed':33 'CTGreen':0 'CTPurple':7 'grey78':0 'CTYellow':0 }
Mon Feb 10 18:20:28 EET 2014	Player position: (R:0,C:0)
Mon Feb 10 18:20:28 EET 2014	Creating board
Mon Feb 10 18:20:28 EET 2014	<colors>
Mon Feb 10 18:20:28 EET 2014	{ GamePalette  'CTPurple':0 'CTRed':1 'CTGreen':2 'grey78':3 'CTYellow':4 }
Mon Feb 10 18:20:28 EET 2014	<rows>
Mon Feb 10 18:20:28 EET 2014	6
Mon Feb 10 18:20:28 EET 2014	<columns>
Mon Feb 10 18:20:28 EET 2014	9
Mon Feb 10 18:20:28 EET 2014	<squaresColors>
Mon Feb 10 18:20:28 EET 2014	grey78 CTGreen CTGreen CTGreen CTGreen CTGreen CTGreen CTGreen CTYellow 
Mon Feb 10 18:20:28 EET 2014	grey78 CTPurple CTPurple CTPurple CTPurple CTPurple CTPurple CTPurple CTYellow 
Mon Feb 10 18:20:28 EET 2014	grey78 grey78 CTGreen CTGreen CTGreen CTGreen CTGreen CTYellow CTYellow 
Mon Feb 10 18:20:28 EET 2014	CTGreen grey78 grey78 CTPurple CTPurple CTPurple CTYellow CTYellow CTGreen 
Mon Feb 10 18:20:28 EET 2014	CTGreen CTGreen grey78 grey78 CTGreen CTYellow CTYellow CTGreen CTGreen 
Mon Feb 10 18:20:28 EET 2014	CTGreen CTGreen CTGreen grey78 CTGreen CTYellow CTGreen CTGreen CTGreen 
Mon Feb 10 18:20:28 EET 2014	</squareColors>
Mon Feb 10 18:20:28 EET 2014	<goalPosition>
Mon Feb 10 18:20:28 EET 2014	Goal position: (R:0,C:0)
Mon Feb 10 18:20:28 EET 2014	<goalPosition>
Mon Feb 10 18:20:28 EET 2014	Goal position: (R:0,C:0)
Mon Feb 10 18:20:28 EET 2014	<firstPlayerPossibleGoal1>
Mon Feb 10 18:20:28 EET 2014	0.5
Mon Feb 10 18:20:28 EET 2014	0
Mon Feb 10 18:20:28 EET 2014	0
Mon Feb 10 18:20:28 EET 2014	</firstPlayerPossibleGoal1>
Mon Feb 10 18:20:28 EET 2014	<firstPlayerPossibleGoal2>
Mon Feb 10 18:20:28 EET 2014	0.5
Mon Feb 10 18:20:28 EET 2014	0
Mon Feb 10 18:20:28 EET 2014	8
Mon Feb 10 18:20:28 EET 2014	</firstPlayerPossibleGoal2>
Mon Feb 10 18:20:28 EET 2014	<numberOfPlayers>
Mon Feb 10 18:20:28 EET 2014	3
Mon Feb 10 18:20:28 EET 2014	<firstPlayerChips>
Mon Feb 10 18:20:28 EET 2014	Setting chips for player: 500 id:500
Mon Feb 10 18:20:28 EET 2014	{ chips  'CTRed':0 'CTGreen':0 'CTPurple':0 'grey78':12 'CTYellow':12 }
Mon Feb 10 18:20:28 EET 2014	Player position: (R:5,C:4)
Mon Feb 10 18:20:28 EET 2014	Setting chips for player: 530 id:530
Mon Feb 10 18:20:28 EET 2014	{ chips  'CTRed':33 'CTGreen':0 'CTPurple':7 'grey78':0 'CTYellow':0 }
Mon Feb 10 18:20:28 EET 2014	Player position: (R:0,C:8)
Mon Feb 10 18:20:28 EET 2014	Setting chips for player: 540 id:540
Mon Feb 10 18:20:28 EET 2014	{ chips  'CTRed':33 'CTGreen':0 'CTPurple':7 'grey78':0 'CTYellow':0 }
Mon Feb 10 18:20:28 EET 2014	Player position: (R:0,C:0)
Mon Feb 10 18:20:28 EET 2014	Creating board
Mon Feb 10 18:20:28 EET 2014	<colors>
Mon Feb 10 18:20:28 EET 2014	{ GamePalette  'CTPurple':0 'CTRed':1 'CTGreen':2 'grey78':3 'CTYellow':4 }
Mon Feb 10 18:20:28 EET 2014	<rows>
Mon Feb 10 18:20:28 EET 2014	6
Mon Feb 10 18:20:28 EET 2014	<columns>
Mon Feb 10 18:20:28 EET 2014	9
Mon Feb 10 18:20:28 EET 2014	<squaresColors>
Mon Feb 10 18:20:28 EET 2014	grey78 CTGreen CTGreen CTGreen CTGreen CTGreen CTGreen CTGreen CTYellow 
Mon Feb 10 18:20:28 EET 2014	grey78 CTPurple CTPurple CTPurple CTPurple CTPurple CTPurple CTPurple CTYellow 
Mon Feb 10 18:20:28 EET 2014	grey78 grey78 CTGreen CTGreen CTGreen CTGreen CTGreen CTYellow CTYellow 
Mon Feb 10 18:20:28 EET 2014	CTGreen grey78 grey78 CTPurple CTPurple CTPurple CTYellow CTYellow CTGreen 
Mon Feb 10 18:20:28 EET 2014	CTGreen CTGreen grey78 grey78 CTGreen CTYellow CTYellow CTGreen CTGreen 
Mon Feb 10 18:20:28 EET 2014	CTGreen CTGreen CTGreen grey78 CTGreen CTYellow CTGreen CTGreen CTGreen 
Mon Feb 10 18:20:28 EET 2014	</squareColors>
Mon Feb 10 18:20:28 EET 2014	<goalPosition>
Mon Feb 10 18:20:28 EET 2014	Goal position: (R:0,C:0)
Mon Feb 10 18:20:28 EET 2014	<goalPosition>
Mon Feb 10 18:20:28 EET 2014	Goal position: (R:0,C:0)
Mon Feb 10 18:20:28 EET 2014	<firstPlayerPossibleGoal1>
Mon Feb 10 18:20:28 EET 2014	0.5
Mon Feb 10 18:20:28 EET 2014	0
Mon Feb 10 18:20:28 EET 2014	0
Mon Feb 10 18:20:28 EET 2014	</firstPlayerPossibleGoal1>
Mon Feb 10 18:20:28 EET 2014	<firstPlayerPossibleGoal2>
Mon Feb 10 18:20:28 EET 2014	0.5
Mon Feb 10 18:20:28 EET 2014	0
Mon Feb 10 18:20:28 EET 2014	8
Mon Feb 10 18:20:28 EET 2014	</firstPlayerPossibleGoal2>
Mon Feb 10 18:20:28 EET 2014	<numberOfPlayers>
Mon Feb 10 18:20:28 EET 2014	3
Mon Feb 10 18:20:28 EET 2014	<firstPlayerChips>
Mon Feb 10 18:20:28 EET 2014	Setting chips for player: 500 id:500
Mon Feb 10 18:20:28 EET 2014	{ chips  'CTRed':0 'CTGreen':0 'CTPurple':0 'grey78':12 'CTYellow':12 }
Mon Feb 10 18:20:28 EET 2014	Player position: (R:5,C:4)
Mon Feb 10 18:20:28 EET 2014	Setting chips for player: 530 id:530
Mon Feb 10 18:20:28 EET 2014	{ chips  'CTRed':33 'CTGreen':0 'CTPurple':7 'grey78':0 'CTYellow':0 }
Mon Feb 10 18:20:28 EET 2014	Player position: (R:0,C:8)
Mon Feb 10 18:20:28 EET 2014	Setting chips for player: 540 id:540
Mon Feb 10 18:20:28 EET 2014	{ chips  'CTRed':33 'CTGreen':0 'CTPurple':7 'grey78':0 'CTYellow':0 }
Mon Feb 10 18:20:28 EET 2014	Player position: (R:0,C:0)
Mon Feb 10 18:20:28 EET 2014	Creating board
Mon Feb 10 18:20:28 EET 2014	<colors>
Mon Feb 10 18:20:28 EET 2014	{ GamePalette  'CTPurple':0 'CTRed':1 'CTGreen':2 'grey78':3 'CTYellow':4 }
Mon Feb 10 18:20:28 EET 2014	<rows>
Mon Feb 10 18:20:28 EET 2014	6
Mon Feb 10 18:20:28 EET 2014	<columns>
Mon Feb 10 18:20:28 EET 2014	9
Mon Feb 10 18:20:28 EET 2014	<squaresColors>
Mon Feb 10 18:20:28 EET 2014	grey78 CTGreen CTGreen CTGreen CTGreen CTGreen CTGreen CTGreen CTYellow 
Mon Feb 10 18:20:28 EET 2014	grey78 CTPurple CTPurple CTPurple CTPurple CTPurple CTPurple CTPurple CTYellow 
Mon Feb 10 18:20:28 EET 2014	grey78 grey78 CTGreen CTGreen CTGreen CTGreen CTGreen CTYellow CTYellow 
Mon Feb 10 18:20:28 EET 2014	CTGreen grey78 grey78 CTPurple CTPurple CTPurple CTYellow CTYellow CTGreen 
Mon Feb 10 18:20:28 EET 2014	CTGreen CTGreen grey78 grey78 CTGreen CTYellow CTYellow CTGreen CTGreen 
Mon Feb 10 18:20:28 EET 2014	CTGreen CTGreen CTGreen grey78 CTGreen CTYellow CTGreen CTGreen CTGreen 
Mon Feb 10 18:20:28 EET 2014	</squareColors>
Mon Feb 10 18:20:28 EET 2014	<goalPosition>
Mon Feb 10 18:20:28 EET 2014	Goal position: (R:0,C:0)
Mon Feb 10 18:20:28 EET 2014	<goalPosition>
Mon Feb 10 18:20:28 EET 2014	Goal position: (R:0,C:0)
Mon Feb 10 18:20:28 EET 2014	<firstPlayerPossibleGoal1>
Mon Feb 10 18:20:28 EET 2014	0.5
Mon Feb 10 18:20:28 EET 2014	0
Mon Feb 10 18:20:28 EET 2014	0
Mon Feb 10 18:20:28 EET 2014	</firstPlayerPossibleGoal1>
Mon Feb 10 18:20:28 EET 2014	<firstPlayerPossibleGoal2>
Mon Feb 10 18:20:28 EET 2014	0.5
Mon Feb 10 18:20:28 EET 2014	0
Mon Feb 10 18:20:28 EET 2014	8
Mon Feb 10 18:20:28 EET 2014	</firstPlayerPossibleGoal2>
Mon Feb 10 18:20:28 EET 2014	<numberOfPlayers>
Mon Feb 10 18:20:28 EET 2014	3
Mon Feb 10 18:20:28 EET 2014	<firstPlayerChips>
Mon Feb 10 18:20:28 EET 2014	Setting chips for player: 500 id:500
Mon Feb 10 18:20:28 EET 2014	{ chips  'CTRed':0 'CTGreen':0 'CTPurple':0 'grey78':12 'CTYellow':12 }
Mon Feb 10 18:20:28 EET 2014	Player position: (R:5,C:4)
Mon Feb 10 18:20:28 EET 2014	Setting chips for player: 530 id:530
Mon Feb 10 18:20:28 EET 2014	{ chips  'CTRed':33 'CTGreen':0 'CTPurple':7 'grey78':0 'CTYellow':0 }
Mon Feb 10 18:20:28 EET 2014	Player position: (R:0,C:8)
Mon Feb 10 18:20:28 EET 2014	Setting chips for player: 540 id:540
Mon Feb 10 18:20:28 EET 2014	{ chips  'CTRed':33 'CTGreen':0 'CTPurple':7 'grey78':0 'CTYellow':0 }
Mon Feb 10 18:20:28 EET 2014	Player position: (R:0,C:0)
Mon Feb 10 18:20:28 EET 2014	Creating board
Mon Feb 10 18:20:28 EET 2014	<colors>
Mon Feb 10 18:20:28 EET 2014	{ GamePalette  'CTPurple':0 'CTRed':1 'CTGreen':2 'grey78':3 'CTYellow':4 }
Mon Feb 10 18:20:28 EET 2014	<rows>
Mon Feb 10 18:20:28 EET 2014	6
Mon Feb 10 18:20:28 EET 2014	<columns>
Mon Feb 10 18:20:28 EET 2014	9
Mon Feb 10 18:20:28 EET 2014	<squaresColors>
Mon Feb 10 18:20:28 EET 2014	grey78 CTGreen CTGreen CTGreen CTGreen CTGreen CTGreen CTGreen CTYellow 
Mon Feb 10 18:20:28 EET 2014	grey78 CTPurple CTPurple CTPurple CTPurple CTPurple CTPurple CTPurple CTYellow 
Mon Feb 10 18:20:28 EET 2014	grey78 grey78 CTGreen CTGreen CTGreen CTGreen CTGreen CTYellow CTYellow 
Mon Feb 10 18:20:28 EET 2014	CTGreen grey78 grey78 CTPurple CTPurple CTPurple CTYellow CTYellow CTGreen 
Mon Feb 10 18:20:28 EET 2014	CTGreen CTGreen grey78 grey78 CTGreen CTYellow CTYellow CTGreen CTGreen 
Mon Feb 10 18:20:28 EET 2014	CTGreen CTGreen CTGreen grey78 CTGreen CTYellow CTGreen CTGreen CTGreen 
Mon Feb 10 18:20:28 EET 2014	</squareColors>
Mon Feb 10 18:20:28 EET 2014	<goalPosition>
Mon Feb 10 18:20:28 EET 2014	Goal position: (R:0,C:0)
Mon Feb 10 18:20:28 EET 2014	<goalPosition>
Mon Feb 10 18:20:28 EET 2014	Goal position: (R:0,C:0)
Mon Feb 10 18:20:28 EET 2014	<firstPlayerPossibleGoal1>
Mon Feb 10 18:20:28 EET 2014	0.5
Mon Feb 10 18:20:28 EET 2014	0
Mon Feb 10 18:20:28 EET 2014	0
Mon Feb 10 18:20:28 EET 2014	</firstPlayerPossibleGoal1>
Mon Feb 10 18:20:28 EET 2014	<firstPlayerPossibleGoal2>
Mon Feb 10 18:20:28 EET 2014	0.5
Mon Feb 10 18:20:28 EET 2014	0
Mon Feb 10 18:20:28 EET 2014	8
Mon Feb 10 18:20:28 EET 2014	</firstPlayerPossibleGoal2>
Mon Feb 10 18:20:28 EET 2014	<numberOfPlayers>
Mon Feb 10 18:20:28 EET 2014	3
Mon Feb 10 18:20:28 EET 2014	<firstPlayerChips>
Mon Feb 10 18:20:28 EET 2014	Setting chips for player: 500 id:500
Mon Feb 10 18:20:28 EET 2014	{ chips  'CTRed':0 'CTGreen':0 'CTPurple':0 'grey78':12 'CTYellow':12 }
Mon Feb 10 18:20:28 EET 2014	Player position: (R:5,C:4)
Mon Feb 10 18:20:28 EET 2014	Setting chips for player: 530 id:530
Mon Feb 10 18:20:28 EET 2014	{ chips  'CTRed':33 'CTGreen':0 'CTPurple':7 'grey78':0 'CTYellow':0 }
Mon Feb 10 18:20:28 EET 2014	Player position: (R:0,C:8)
Mon Feb 10 18:20:28 EET 2014	Setting chips for player: 540 id:540
Mon Feb 10 18:20:28 EET 2014	{ chips  'CTRed':33 'CTGreen':0 'CTPurple':7 'grey78':0 'CTYellow':0 }
Mon Feb 10 18:20:28 EET 2014	Player position: (R:0,C:0)
Mon Feb 10 18:20:28 EET 2014	Creating board
Mon Feb 10 18:20:28 EET 2014	<colors>
Mon Feb 10 18:20:28 EET 2014	{ GamePalette  'CTPurple':0 'CTRed':1 'CTGreen':2 'grey78':3 'CTYellow':4 }
Mon Feb 10 18:20:28 EET 2014	<rows>
Mon Feb 10 18:20:28 EET 2014	6
Mon Feb 10 18:20:28 EET 2014	<columns>
Mon Feb 10 18:20:28 EET 2014	9
Mon Feb 10 18:20:28 EET 2014	<squaresColors>
Mon Feb 10 18:20:28 EET 2014	grey78 CTGreen CTGreen CTGreen CTGreen CTGreen CTGreen CTGreen CTYellow 
Mon Feb 10 18:20:28 EET 2014	grey78 CTPurple CTPurple CTPurple CTPurple CTPurple CTPurple CTPurple CTYellow 
Mon Feb 10 18:20:28 EET 2014	grey78 grey78 CTGreen CTGreen CTGreen CTGreen CTGreen CTYellow CTYellow 
Mon Feb 10 18:20:28 EET 2014	CTGreen grey78 grey78 CTPurple CTPurple CTPurple CTYellow CTYellow CTGreen 
Mon Feb 10 18:20:28 EET 2014	CTGreen CTGreen grey78 grey78 CTGreen CTYellow CTYellow CTGreen CTGreen 
Mon Feb 10 18:20:28 EET 2014	CTGreen CTGreen CTGreen grey78 CTGreen CTYellow CTGreen CTGreen CTGreen 
Mon Feb 10 18:20:28 EET 2014	</squareColors>
Mon Feb 10 18:20:28 EET 2014	<goalPosition>
Mon Feb 10 18:20:28 EET 2014	Goal position: (R:0,C:0)
Mon Feb 10 18:20:28 EET 2014	<goalPosition>
Mon Feb 10 18:20:28 EET 2014	Goal position: (R:0,C:0)
Mon Feb 10 18:20:28 EET 2014	<firstPlayerPossibleGoal1>
Mon Feb 10 18:20:28 EET 2014	0.5
Mon Feb 10 18:20:28 EET 2014	0
Mon Feb 10 18:20:28 EET 2014	0
Mon Feb 10 18:20:28 EET 2014	</firstPlayerPossibleGoal1>
Mon Feb 10 18:20:28 EET 2014	<firstPlayerPossibleGoal2>
Mon Feb 10 18:20:28 EET 2014	0.5
Mon Feb 10 18:20:28 EET 2014	0
Mon Feb 10 18:20:28 EET 2014	8
Mon Feb 10 18:20:28 EET 2014	</firstPlayerPossibleGoal2>
Mon Feb 10 18:20:28 EET 2014	<numberOfPlayers>
Mon Feb 10 18:20:28 EET 2014	3
Mon Feb 10 18:20:28 EET 2014	<firstPlayerChips>
Mon Feb 10 18:20:28 EET 2014	Setting chips for player: 500 id:500
Mon Feb 10 18:20:28 EET 2014	{ chips  'CTRed':0 'CTGreen':0 'CTPurple':0 'grey78':12 'CTYellow':12 }
Mon Feb 10 18:20:28 EET 2014	Player position: (R:5,C:4)
Mon Feb 10 18:20:28 EET 2014	Setting chips for player: 530 id:530
Mon Feb 10 18:20:28 EET 2014	{ chips  'CTRed':33 'CTGreen':0 'CTPurple':7 'grey78':0 'CTYellow':0 }
Mon Feb 10 18:20:28 EET 2014	Player position: (R:0,C:8)
Mon Feb 10 18:20:28 EET 2014	Setting chips for player: 540 id:540
Mon Feb 10 18:20:28 EET 2014	{ chips  'CTRed':33 'CTGreen':0 'CTPurple':7 'grey78':0 'CTYellow':0 }
Mon Feb 10 18:20:28 EET 2014	Player position: (R:0,C:0)
Mon Feb 10 18:20:28 EET 2014	Creating board
Mon Feb 10 18:20:28 EET 2014	<colors>
Mon Feb 10 18:20:28 EET 2014	{ GamePalette  'CTPurple':0 'CTRed':1 'CTGreen':2 'grey78':3 'CTYellow':4 }
Mon Feb 10 18:20:28 EET 2014	<rows>
Mon Feb 10 18:20:28 EET 2014	6
Mon Feb 10 18:20:28 EET 2014	<columns>
Mon Feb 10 18:20:28 EET 2014	9
Mon Feb 10 18:20:28 EET 2014	<squaresColors>
Mon Feb 10 18:20:28 EET 2014	grey78 CTGreen CTGreen CTGreen CTGreen CTGreen CTGreen CTGreen CTYellow 
Mon Feb 10 18:20:28 EET 2014	grey78 CTPurple CTPurple CTPurple CTPurple CTPurple CTPurple CTPurple CTYellow 
Mon Feb 10 18:20:28 EET 2014	grey78 grey78 CTGreen CTGreen CTGreen CTGreen CTGreen CTYellow CTYellow 
Mon Feb 10 18:20:28 EET 2014	CTGreen grey78 grey78 CTPurple CTPurple CTPurple CTYellow CTYellow CTGreen 
Mon Feb 10 18:20:28 EET 2014	CTGreen CTGreen grey78 grey78 CTGreen CTYellow CTYellow CTGreen CTGreen 
Mon Feb 10 18:20:28 EET 2014	CTGreen CTGreen CTGreen grey78 CTGreen CTYellow CTGreen CTGreen CTGreen 
Mon Feb 10 18:20:28 EET 2014	</squareColors>
Mon Feb 10 18:20:28 EET 2014	<goalPosition>
Mon Feb 10 18:20:28 EET 2014	Goal position: (R:0,C:0)
Mon Feb 10 18:20:28 EET 2014	<goalPosition>
Mon Feb 10 18:20:28 EET 2014	Goal position: (R:0,C:0)
Mon Feb 10 18:20:28 EET 2014	<firstPlayerPossibleGoal1>
Mon Feb 10 18:20:28 EET 2014	0.5
Mon Feb 10 18:20:28 EET 2014	0
Mon Feb 10 18:20:28 EET 2014	0
Mon Feb 10 18:20:28 EET 2014	</firstPlayerPossibleGoal1>
Mon Feb 10 18:20:28 EET 2014	<firstPlayerPossibleGoal2>
Mon Feb 10 18:20:28 EET 2014	0.5
Mon Feb 10 18:20:28 EET 2014	0
Mon Feb 10 18:20:28 EET 2014	8
Mon Feb 10 18:20:28 EET 2014	</firstPlayerPossibleGoal2>
Mon Feb 10 18:20:28 EET 2014	<numberOfPlayers>
Mon Feb 10 18:20:28 EET 2014	3
Mon Feb 10 18:20:28 EET 2014	<firstPlayerChips>
Mon Feb 10 18:20:28 EET 2014	Setting chips for player: 500 id:500
Mon Feb 10 18:20:28 EET 2014	{ chips  'CTRed':0 'CTGreen':0 'CTPurple':0 'grey78':12 'CTYellow':12 }
Mon Feb 10 18:20:28 EET 2014	Player position: (R:5,C:4)
Mon Feb 10 18:20:28 EET 2014	Setting chips for player: 530 id:530
Mon Feb 10 18:20:28 EET 2014	{ chips  'CTRed':33 'CTGreen':0 'CTPurple':7 'grey78':0 'CTYellow':0 }
Mon Feb 10 18:20:28 EET 2014	Player position: (R:0,C:8)
Mon Feb 10 18:20:28 EET 2014	Setting chips for player: 540 id:540
Mon Feb 10 18:20:28 EET 2014	{ chips  'CTRed':33 'CTGreen':0 'CTPurple':7 'grey78':0 'CTYellow':0 }
Mon Feb 10 18:20:28 EET 2014	Player position: (R:0,C:0)
Mon Feb 10 18:20:28 EET 2014	Creating board
Mon Feb 10 18:20:28 EET 2014	<colors>
Mon Feb 10 18:20:28 EET 2014	{ GamePalette  'CTPurple':0 'CTRed':1 'CTGreen':2 'grey78':3 'CTYellow':4 }
Mon Feb 10 18:20:28 EET 2014	<rows>
Mon Feb 10 18:20:28 EET 2014	6
Mon Feb 10 18:20:28 EET 2014	<columns>
Mon Feb 10 18:20:28 EET 2014	9
Mon Feb 10 18:20:28 EET 2014	<squaresColors>
Mon Feb 10 18:20:28 EET 2014	grey78 CTGreen CTGreen CTGreen CTGreen CTGreen CTGreen CTGreen CTYellow 
Mon Feb 10 18:20:28 EET 2014	grey78 CTPurple CTPurple CTPurple CTPurple CTPurple CTPurple CTPurple CTYellow 
Mon Feb 10 18:20:28 EET 2014	grey78 grey78 CTGreen CTGreen CTGreen CTGreen CTGreen CTYellow CTYellow 
Mon Feb 10 18:20:28 EET 2014	CTGreen grey78 grey78 CTPurple CTPurple CTPurple CTYellow CTYellow CTGreen 
Mon Feb 10 18:20:28 EET 2014	CTGreen CTGreen grey78 grey78 CTGreen CTYellow CTYellow CTGreen CTGreen 
Mon Feb 10 18:20:28 EET 2014	CTGreen CTGreen CTGreen grey78 CTGreen CTYellow CTGreen CTGreen CTGreen 
Mon Feb 10 18:20:28 EET 2014	</squareColors>
Mon Feb 10 18:20:28 EET 2014	<goalPosition>
Mon Feb 10 18:20:28 EET 2014	Goal position: (R:0,C:0)
Mon Feb 10 18:20:28 EET 2014	<goalPosition>
Mon Feb 10 18:20:28 EET 2014	Goal position: (R:0,C:0)
Mon Feb 10 18:20:28 EET 2014	<firstPlayerPossibleGoal1>
Mon Feb 10 18:20:28 EET 2014	0.5
Mon Feb 10 18:20:28 EET 2014	0
Mon Feb 10 18:20:28 EET 2014	0
Mon Feb 10 18:20:28 EET 2014	</firstPlayerPossibleGoal1>
Mon Feb 10 18:20:28 EET 2014	<firstPlayerPossibleGoal2>
Mon Feb 10 18:20:28 EET 2014	0.5
Mon Feb 10 18:20:28 EET 2014	0
Mon Feb 10 18:20:28 EET 2014	8
Mon Feb 10 18:20:28 EET 2014	</firstPlayerPossibleGoal2>
Mon Feb 10 18:20:28 EET 2014	<numberOfPlayers>
Mon Feb 10 18:20:28 EET 2014	3
Mon Feb 10 18:20:28 EET 2014	<firstPlayerChips>
Mon Feb 10 18:20:28 EET 2014	Setting chips for player: 500 id:500
Mon Feb 10 18:20:28 EET 2014	{ chips  'CTRed':0 'CTGreen':0 'CTPurple':0 'grey78':12 'CTYellow':12 }
Mon Feb 10 18:20:28 EET 2014	Player position: (R:5,C:4)
Mon Feb 10 18:20:28 EET 2014	Setting chips for player: 530 id:530
Mon Feb 10 18:20:28 EET 2014	{ chips  'CTRed':33 'CTGreen':0 'CTPurple':7 'grey78':0 'CTYellow':0 }
Mon Feb 10 18:20:28 EET 2014	Player position: (R:0,C:8)
Mon Feb 10 18:20:28 EET 2014	Setting chips for player: 540 id:540
Mon Feb 10 18:20:28 EET 2014	{ chips  'CTRed':33 'CTGreen':0 'CTPurple':7 'grey78':0 'CTYellow':0 }
Mon Feb 10 18:20:28 EET 2014	Player position: (R:0,C:0)
Mon Feb 10 18:20:28 EET 2014	Creating board
Mon Feb 10 18:20:28 EET 2014	<colors>
Mon Feb 10 18:20:28 EET 2014	{ GamePalette  'CTPurple':0 'CTRed':1 'CTGreen':2 'grey78':3 'CTYellow':4 }
Mon Feb 10 18:20:28 EET 2014	<rows>
Mon Feb 10 18:20:28 EET 2014	6
Mon Feb 10 18:20:28 EET 2014	<columns>
Mon Feb 10 18:20:28 EET 2014	9
Mon Feb 10 18:20:28 EET 2014	<squaresColors>
Mon Feb 10 18:20:28 EET 2014	grey78 CTGreen CTGreen CTGreen CTGreen CTGreen CTGreen CTGreen CTYellow 
Mon Feb 10 18:20:28 EET 2014	grey78 CTPurple CTPurple CTPurple CTPurple CTPurple CTPurple CTPurple CTYellow 
Mon Feb 10 18:20:28 EET 2014	grey78 grey78 CTGreen CTGreen CTGreen CTGreen CTGreen CTYellow CTYellow 
Mon Feb 10 18:20:28 EET 2014	CTGreen grey78 grey78 CTPurple CTPurple CTPurple CTYellow CTYellow CTGreen 
Mon Feb 10 18:20:28 EET 2014	CTGreen CTGreen grey78 grey78 CTGreen CTYellow CTYellow CTGreen CTGreen 
Mon Feb 10 18:20:28 EET 2014	CTGreen CTGreen CTGreen grey78 CTGreen CTYellow CTGreen CTGreen CTGreen 
Mon Feb 10 18:20:28 EET 2014	</squareColors>
Mon Feb 10 18:20:28 EET 2014	<goalPosition>
Mon Feb 10 18:20:28 EET 2014	Goal position: (R:0,C:0)
Mon Feb 10 18:20:28 EET 2014	<goalPosition>
Mon Feb 10 18:20:28 EET 2014	Goal position: (R:0,C:0)
Mon Feb 10 18:20:28 EET 2014	<firstPlayerPossibleGoal1>
Mon Feb 10 18:20:28 EET 2014	0.5
Mon Feb 10 18:20:28 EET 2014	0
Mon Feb 10 18:20:28 EET 2014	0
Mon Feb 10 18:20:28 EET 2014	</firstPlayerPossibleGoal1>
Mon Feb 10 18:20:28 EET 2014	<firstPlayerPossibleGoal2>
Mon Feb 10 18:20:28 EET 2014	0.5
Mon Feb 10 18:20:28 EET 2014	0
Mon Feb 10 18:20:28 EET 2014	8
Mon Feb 10 18:20:28 EET 2014	</firstPlayerPossibleGoal2>
Mon Feb 10 18:20:28 EET 2014	<numberOfPlayers>
Mon Feb 10 18:20:28 EET 2014	3
Mon Feb 10 18:20:28 EET 2014	<firstPlayerChips>
Mon Feb 10 18:20:28 EET 2014	Setting chips for player: 500 id:500
Mon Feb 10 18:20:28 EET 2014	{ chips  'CTRed':0 'CTGreen':0 'CTPurple':0 'grey78':12 'CTYellow':12 }
Mon Feb 10 18:20:28 EET 2014	Player position: (R:5,C:4)
Mon Feb 10 18:20:28 EET 2014	Setting chips for player: 530 id:530
Mon Feb 10 18:20:28 EET 2014	{ chips  'CTRed':33 'CTGreen':0 'CTPurple':7 'grey78':0 'CTYellow':0 }
Mon Feb 10 18:20:28 EET 2014	Player position: (R:0,C:8)
Mon Feb 10 18:20:28 EET 2014	Setting chips for player: 540 id:540
Mon Feb 10 18:20:28 EET 2014	{ chips  'CTRed':33 'CTGreen':0 'CTPurple':7 'grey78':0 'CTYellow':0 }
Mon Feb 10 18:20:28 EET 2014	Player position: (R:0,C:0)
Mon Feb 10 18:20:28 EET 2014	Creating board
Mon Feb 10 18:20:28 EET 2014	<colors>
Mon Feb 10 18:20:28 EET 2014	{ GamePalette  'CTPurple':0 'CTRed':1 'CTGreen':2 'grey78':3 'CTYellow':4 }
Mon Feb 10 18:20:28 EET 2014	<rows>
Mon Feb 10 18:20:28 EET 2014	6
Mon Feb 10 18:20:28 EET 2014	<columns>
Mon Feb 10 18:20:28 EET 2014	9
Mon Feb 10 18:20:28 EET 2014	<squaresColors>
Mon Feb 10 18:20:28 EET 2014	grey78 CTGreen CTGreen CTGreen CTGreen CTGreen CTGreen CTGreen CTYellow 
Mon Feb 10 18:20:28 EET 2014	grey78 CTPurple CTPurple CTPurple CTPurple CTPurple CTPurple CTPurple CTYellow 
Mon Feb 10 18:20:28 EET 2014	grey78 grey78 CTGreen CTGreen CTGreen CTGreen CTGreen CTYellow CTYellow 
Mon Feb 10 18:20:28 EET 2014	CTGreen grey78 grey78 CTPurple CTPurple CTPurple CTYellow CTYellow CTGreen 
Mon Feb 10 18:20:28 EET 2014	CTGreen CTGreen grey78 grey78 CTGreen CTYellow CTYellow CTGreen CTGreen 
Mon Feb 10 18:20:28 EET 2014	CTGreen CTGreen CTGreen grey78 CTGreen CTYellow CTGreen CTGreen CTGreen 
Mon Feb 10 18:20:28 EET 2014	</squareColors>
Mon Feb 10 18:20:28 EET 2014	<goalPosition>
Mon Feb 10 18:20:28 EET 2014	Goal position: (R:0,C:0)
Mon Feb 10 18:20:28 EET 2014	<goalPosition>
Mon Feb 10 18:20:28 EET 2014	Goal position: (R:0,C:0)
Mon Feb 10 18:20:28 EET 2014	<firstPlayerPossibleGoal1>
Mon Feb 10 18:20:28 EET 2014	0.5
Mon Feb 10 18:20:28 EET 2014	0
Mon Feb 10 18:20:28 EET 2014	0
Mon Feb 10 18:20:28 EET 2014	</firstPlayerPossibleGoal1>
Mon Feb 10 18:20:28 EET 2014	<firstPlayerPossibleGoal2>
Mon Feb 10 18:20:28 EET 2014	0.5
Mon Feb 10 18:20:28 EET 2014	0
Mon Feb 10 18:20:28 EET 2014	8
Mon Feb 10 18:20:28 EET 2014	</firstPlayerPossibleGoal2>
Mon Feb 10 18:20:28 EET 2014	<numberOfPlayers>
Mon Feb 10 18:20:28 EET 2014	3
Mon Feb 10 18:20:28 EET 2014	<firstPlayerChips>
Mon Feb 10 18:20:28 EET 2014	Setting chips for player: 500 id:500
Mon Feb 10 18:20:28 EET 2014	{ chips  'CTRed':0 'CTGreen':0 'CTPurple':0 'grey78':12 'CTYellow':12 }
Mon Feb 10 18:20:28 EET 2014	Player position: (R:5,C:4)
Mon Feb 10 18:20:28 EET 2014	Setting chips for player: 530 id:530
Mon Feb 10 18:20:28 EET 2014	{ chips  'CTRed':33 'CTGreen':0 'CTPurple':7 'grey78':0 'CTYellow':0 }
Mon Feb 10 18:20:28 EET 2014	Player position: (R:0,C:8)
Mon Feb 10 18:20:28 EET 2014	Setting chips for player: 540 id:540
Mon Feb 10 18:20:28 EET 2014	{ chips  'CTRed':33 'CTGreen':0 'CTPurple':7 'grey78':0 'CTYellow':0 }
Mon Feb 10 18:20:28 EET 2014	Player position: (R:0,C:0)
Mon Feb 10 18:20:28 EET 2014	Creating board
Mon Feb 10 18:20:28 EET 2014	<colors>
Mon Feb 10 18:20:28 EET 2014	{ GamePalette  'CTPurple':0 'CTRed':1 'CTGreen':2 'grey78':3 'CTYellow':4 }
Mon Feb 10 18:20:28 EET 2014	<rows>
Mon Feb 10 18:20:28 EET 2014	6
Mon Feb 10 18:20:28 EET 2014	<columns>
Mon Feb 10 18:20:28 EET 2014	9
Mon Feb 10 18:20:28 EET 2014	<squaresColors>
Mon Feb 10 18:20:28 EET 2014	grey78 CTGreen CTGreen CTGreen CTGreen CTGreen CTGreen CTGreen CTYellow 
Mon Feb 10 18:20:28 EET 2014	grey78 CTPurple CTPurple CTPurple CTPurple CTPurple CTPurple CTPurple CTYellow 
Mon Feb 10 18:20:28 EET 2014	grey78 grey78 CTGreen CTGreen CTGreen CTGreen CTGreen CTYellow CTYellow 
Mon Feb 10 18:20:28 EET 2014	CTGreen grey78 grey78 CTPurple CTPurple CTPurple CTYellow CTYellow CTGreen 
Mon Feb 10 18:20:28 EET 2014	CTGreen CTGreen grey78 grey78 CTGreen CTYellow CTYellow CTGreen CTGreen 
Mon Feb 10 18:20:28 EET 2014	CTGreen CTGreen CTGreen grey78 CTGreen CTYellow CTGreen CTGreen CTGreen 
Mon Feb 10 18:20:28 EET 2014	</squareColors>
Mon Feb 10 18:20:28 EET 2014	<goalPosition>
Mon Feb 10 18:20:28 EET 2014	Goal position: (R:0,C:0)
Mon Feb 10 18:20:28 EET 2014	<goalPosition>
Mon Feb 10 18:20:28 EET 2014	Goal position: (R:0,C:0)
Mon Feb 10 18:20:28 EET 2014	<firstPlayerPossibleGoal1>
Mon Feb 10 18:20:28 EET 2014	0.5
Mon Feb 10 18:20:28 EET 2014	0
Mon Feb 10 18:20:28 EET 2014	0
Mon Feb 10 18:20:28 EET 2014	</firstPlayerPossibleGoal1>
Mon Feb 10 18:20:28 EET 2014	<firstPlayerPossibleGoal2>
Mon Feb 10 18:20:28 EET 2014	0.5
Mon Feb 10 18:20:28 EET 2014	0
Mon Feb 10 18:20:28 EET 2014	8
Mon Feb 10 18:20:28 EET 2014	</firstPlayerPossibleGoal2>
Mon Feb 10 18:20:28 EET 2014	<numberOfPlayers>
Mon Feb 10 18:20:28 EET 2014	3
Mon Feb 10 18:20:28 EET 2014	<firstPlayerChips>
Mon Feb 10 18:20:28 EET 2014	Setting chips for player: 500 id:500
Mon Feb 10 18:20:28 EET 2014	{ chips  'CTRed':0 'CTGreen':0 'CTPurple':0 'grey78':12 'CTYellow':12 }
Mon Feb 10 18:20:28 EET 2014	Player position: (R:5,C:4)
Mon Feb 10 18:20:28 EET 2014	Setting chips for player: 530 id:530
Mon Feb 10 18:20:28 EET 2014	{ chips  'CTRed':33 'CTGreen':0 'CTPurple':7 'grey78':0 'CTYellow':0 }
Mon Feb 10 18:20:28 EET 2014	Player position: (R:0,C:8)
Mon Feb 10 18:20:28 EET 2014	Setting chips for player: 540 id:540
Mon Feb 10 18:20:28 EET 2014	{ chips  'CTRed':33 'CTGreen':0 'CTPurple':7 'grey78':0 'CTYellow':0 }
Mon Feb 10 18:20:28 EET 2014	Player position: (R:0,C:0)
Mon Feb 10 18:20:28 EET 2014	Creating board
Mon Feb 10 18:20:28 EET 2014	<colors>
Mon Feb 10 18:20:28 EET 2014	{ GamePalette  'CTPurple':0 'CTRed':1 'CTGreen':2 'grey78':3 'CTYellow':4 }
Mon Feb 10 18:20:28 EET 2014	<rows>
Mon Feb 10 18:20:28 EET 2014	6
Mon Feb 10 18:20:28 EET 2014	<columns>
Mon Feb 10 18:20:28 EET 2014	9
Mon Feb 10 18:20:28 EET 2014	<squaresColors>
Mon Feb 10 18:20:28 EET 2014	grey78 CTGreen CTGreen CTGreen CTGreen CTGreen CTGreen CTGreen CTYellow 
Mon Feb 10 18:20:28 EET 2014	grey78 CTPurple CTPurple CTPurple CTPurple CTPurple CTPurple CTPurple CTYellow 
Mon Feb 10 18:20:28 EET 2014	grey78 grey78 CTGreen CTGreen CTGreen CTGreen CTGreen CTYellow CTYellow 
Mon Feb 10 18:20:28 EET 2014	CTGreen grey78 grey78 CTPurple CTPurple CTPurple CTYellow CTYellow CTGreen 
Mon Feb 10 18:20:28 EET 2014	CTGreen CTGreen grey78 grey78 CTGreen CTYellow CTYellow CTGreen CTGreen 
Mon Feb 10 18:20:28 EET 2014	CTGreen CTGreen CTGreen grey78 CTGreen CTYellow CTGreen CTGreen CTGreen 
Mon Feb 10 18:20:28 EET 2014	</squareColors>
Mon Feb 10 18:20:28 EET 2014	<goalPosition>
Mon Feb 10 18:20:28 EET 2014	Goal position: (R:0,C:0)
Mon Feb 10 18:20:28 EET 2014	<goalPosition>
Mon Feb 10 18:20:28 EET 2014	Goal position: (R:0,C:0)
Mon Feb 10 18:20:28 EET 2014	<firstPlayerPossibleGoal1>
Mon Feb 10 18:20:28 EET 2014	0.5
Mon Feb 10 18:20:28 EET 2014	0
Mon Feb 10 18:20:28 EET 2014	0
Mon Feb 10 18:20:28 EET 2014	</firstPlayerPossibleGoal1>
Mon Feb 10 18:20:28 EET 2014	<firstPlayerPossibleGoal2>
Mon Feb 10 18:20:28 EET 2014	0.5
Mon Feb 10 18:20:28 EET 2014	0
Mon Feb 10 18:20:28 EET 2014	8
Mon Feb 10 18:20:28 EET 2014	</firstPlayerPossibleGoal2>
Mon Feb 10 18:20:28 EET 2014	<numberOfPlayers>
Mon Feb 10 18:20:28 EET 2014	3
Mon Feb 10 18:20:28 EET 2014	<firstPlayerChips>
Mon Feb 10 18:20:28 EET 2014	Setting chips for player: 500 id:500
Mon Feb 10 18:20:28 EET 2014	{ chips  'CTRed':0 'CTGreen':0 'CTPurple':0 'grey78':12 'CTYellow':12 }
Mon Feb 10 18:20:28 EET 2014	Player position: (R:5,C:4)
Mon Feb 10 18:20:28 EET 2014	Setting chips for player: 530 id:530
Mon Feb 10 18:20:28 EET 2014	{ chips  'CTRed':33 'CTGreen':0 'CTPurple':7 'grey78':0 'CTYellow':0 }
Mon Feb 10 18:20:28 EET 2014	Player position: (R:0,C:8)
Mon Feb 10 18:20:28 EET 2014	Setting chips for player: 540 id:540
Mon Feb 10 18:20:28 EET 2014	{ chips  'CTRed':33 'CTGreen':0 'CTPurple':7 'grey78':0 'CTYellow':0 }
Mon Feb 10 18:20:28 EET 2014	Player position: (R:0,C:0)
