filename,round,propID,respID,IsPropCustomer,chipsToSend,chipsToReceive,accept,propCurrentScore,respCurrentScore,actualSent,ActualRcvd,propResultingScore,respResultingScore,#ofCustomerMovesInRound,customerRowPositionAfterMovePhase,customerColPositionAfterMovePhase,Player100ChipsAfterMovePhase,Player100ScoreAfterMovePhase,Player200ChipsAfterMovePhase,Player200ScoreAfterMovePhase,Player300ChipsAfterMovePhase,Player300ScoreAfterMovePhase,generosityLevel,ClientReachedGoal
3playersLog_1385157258550.csv,1,520,510,FALSE,{ chips  'CTRed':9 },{ chips  },TRUE,200,120,{ chips  'CTRed':9 'CTPurple':0 'CTGreen':0 'grey78':0 'CTYellow':0 },{ chips  'CTRed':0 'CTPurple':0 'CTGreen':0 'grey78':0 'CTYellow':0 },155,165,0,(R:5,C:4),{ chips  'CTRed':9 'CTGreen':0 'CTPurple':0 'grey78':12 'CTYellow':12 },165,{ chips  'CTRed':24 'CTGreen':0 'CTPurple':7 'grey78':0 'CTYellow':0 },155,{ chips  'CTRed':33 'CTGreen':0 'CTPurple':7 'grey78':0 'CTYellow':0 },200,,
3playersLog_1385157258550.csv,1,540,510,FALSE,{ chips  'CTRed':7 'CTPurple':3 },{ chips  'grey78':5 'CTYellow':3 },IGNORED,200,120,,,,,0,(R:5,C:4),{ chips  'CTRed':9 'CTGreen':0 'CTPurple':0 'grey78':12 'CTYellow':12 },165,{ chips  'CTRed':24 'CTGreen':0 'CTPurple':7 'grey78':0 'CTYellow':0 },155,{ chips  'CTRed':33 'CTGreen':0 'CTPurple':7 'grey78':0 'CTYellow':0 },200,,
3playersLog_1385157258550.csv,2,510,540,TRUE,{ chips  'CTYellow':11 },{ chips  'CTRed':33 'CTPurple':7 },FALSE,165,200,,,,,1,(R:5,C:3),{ chips  'CTRed':9 'CTGreen':0 'CTPurple':0 'grey78':11 'CTYellow':12 },160,{ chips  'CTRed':24 'CTGreen':0 'CTPurple':7 'grey78':0 'CTYellow':0 },155,{ chips  'CTRed':33 'CTGreen':0 'CTPurple':7 'grey78':0 'CTYellow':0 },200,,
3playersLog_1385157258550.csv,3,520,510,FALSE,{ chips  'CTPurple':3 },{ chips  'CTRed':2 },IGNORED,155,160,,,,,0,(R:5,C:3),{ chips  'CTRed':16 'CTGreen':0 'CTPurple':1 'grey78':7 'CTYellow':9 },165,{ chips  'CTRed':24 'CTGreen':0 'CTPurple':7 'grey78':0 'CTYellow':0 },155,{ chips  'CTRed':26 'CTGreen':0 'CTPurple':6 'grey78':4 'CTYellow':3 },195,,
3playersLog_1385157258550.csv,3,540,510,FALSE,{ chips  'CTRed':7 'CTPurple':1 },{ chips  'grey78':4 'CTYellow':3 },TRUE,200,160,{ chips  'CTRed':7 'CTPurple':1 'CTGreen':0 'grey78':0 'CTYellow':0 },{ chips  'CTRed':0 'CTPurple':0 'CTGreen':0 'grey78':4 'CTYellow':3 },195,165,0,(R:5,C:3),{ chips  'CTRed':16 'CTGreen':0 'CTPurple':1 'grey78':7 'CTYellow':9 },165,{ chips  'CTRed':24 'CTGreen':0 'CTPurple':7 'grey78':0 'CTYellow':0 },155,{ chips  'CTRed':26 'CTGreen':0 'CTPurple':6 'grey78':4 'CTYellow':3 },195,,
3playersLog_1385157258550.csv,4,510,540,TRUE,{ chips  'CTYellow':8 },{ chips  'CTRed':26 'CTPurple':6 'grey78':4 },FALSE,165,195,,,,,1,(R:4,C:3),{ chips  'CTRed':16 'CTGreen':0 'CTPurple':1 'grey78':6 'CTYellow':9 },160,{ chips  'CTRed':24 'CTGreen':0 'CTPurple':7 'grey78':0 'CTYellow':0 },155,{ chips  'CTRed':26 'CTGreen':0 'CTPurple':6 'grey78':4 'CTYellow':3 },195,,
3playersLog_1385157258550.csv,5,520,510,FALSE,{ chips  'CTRed':4 'CTPurple':2 },{ chips  },TRUE,155,160,{ chips  'CTRed':4 'CTPurple':2 'CTGreen':0 'grey78':0 'CTYellow':0 },{ chips  'CTRed':0 'CTPurple':0 'CTGreen':0 'grey78':0 'CTYellow':0 },125,190,0,(R:4,C:3),{ chips  'CTRed':20 'CTGreen':0 'CTPurple':3 'grey78':6 'CTYellow':9 },190,{ chips  'CTRed':20 'CTGreen':0 'CTPurple':5 'grey78':0 'CTYellow':0 },125,{ chips  'CTRed':26 'CTGreen':0 'CTPurple':6 'grey78':4 'CTYellow':3 },195,,
3playersLog_1385157258550.csv,5,540,510,FALSE,{ chips  'CTRed':4 'CTPurple':2 },{ chips  'grey78':3 'CTYellow':3 },IGNORED,195,160,,,,,0,(R:4,C:3),{ chips  'CTRed':20 'CTGreen':0 'CTPurple':3 'grey78':6 'CTYellow':9 },190,{ chips  'CTRed':20 'CTGreen':0 'CTPurple':5 'grey78':0 'CTYellow':0 },125,{ chips  'CTRed':26 'CTGreen':0 'CTPurple':6 'grey78':4 'CTYellow':3 },195,,
3playersLog_1385157258550.csv,6,510,540,TRUE,{ chips  'CTYellow':8 },{ chips  'CTRed':26 'CTPurple':6 'grey78':4 },FALSE,190,195,,,,,1,(R:3,C:3),{ chips  'CTRed':20 'CTGreen':0 'CTPurple':2 'grey78':6 'CTYellow':9 },185,{ chips  'CTRed':20 'CTGreen':0 'CTPurple':5 'grey78':0 'CTYellow':0 },125,{ chips  'CTRed':26 'CTGreen':0 'CTPurple':6 'grey78':4 'CTYellow':3 },195,,
3playersLog_1385157258550.csv,7,520,510,FALSE,{ chips  'CTRed':1 },{ chips  },IGNORED,125,185,,,,,0,(R:3,C:3),{ chips  'CTRed':22 'CTGreen':0 'CTPurple':5 'grey78':7 'CTYellow':5 },195,{ chips  'CTRed':20 'CTGreen':0 'CTPurple':5 'grey78':0 'CTYellow':0 },125,{ chips  'CTRed':24 'CTGreen':0 'CTPurple':3 'grey78':3 'CTYellow':7 },185,,
3playersLog_1385157258550.csv,7,540,510,FALSE,{ chips  'CTRed':2 'CTPurple':3 'grey78':1 },{ chips  'CTYellow':4 },TRUE,195,185,{ chips  'CTRed':2 'CTPurple':3 'CTGreen':0 'grey78':1 'CTYellow':0 },{ chips  'CTRed':0 'CTPurple':0 'CTGreen':0 'grey78':0 'CTYellow':4 },185,195,0,(R:3,C:3),{ chips  'CTRed':22 'CTGreen':0 'CTPurple':5 'grey78':7 'CTYellow':5 },195,{ chips  'CTRed':20 'CTGreen':0 'CTPurple':5 'grey78':0 'CTYellow':0 },125,{ chips  'CTRed':24 'CTGreen':0 'CTPurple':3 'grey78':3 'CTYellow':7 },185,,
3playersLog_1385157258550.csv,8,510,540,TRUE,{ chips  'CTYellow':4 },{ chips  'CTRed':24 'CTPurple':3 'grey78':3 },FALSE,195,185,,,,,1,(R:3,C:2),{ chips  'CTRed':22 'CTGreen':0 'CTPurple':5 'grey78':6 'CTYellow':5 },190,{ chips  'CTRed':20 'CTGreen':0 'CTPurple':5 'grey78':0 'CTYellow':0 },125,{ chips  'CTRed':24 'CTGreen':0 'CTPurple':3 'grey78':3 'CTYellow':7 },185,,
3playersLog_1385157258550.csv,9,540,510,FALSE,{ chips  'CTRed':2 'CTPurple':1 'grey78':1 },{ chips  'CTYellow':4 },IGNORED,185,190,,,,,0,(R:3,C:2),{ chips  'CTRed':22 'CTGreen':0 'CTPurple':5 'grey78':6 'CTYellow':5 },190,{ chips  'CTRed':20 'CTGreen':0 'CTPurple':5 'grey78':0 'CTYellow':0 },125,{ chips  'CTRed':24 'CTGreen':0 'CTPurple':3 'grey78':3 'CTYellow':7 },185,,
3playersLog_1385157258550.csv,10,510,540,TRUE,{ chips  'CTYellow':4 },{ chips  'CTRed':24 'CTPurple':3 'grey78':3 },FALSE,190,185,,,,,1,(R:3,C:1),{ chips  'CTRed':22 'CTGreen':0 'CTPurple':5 'grey78':5 'CTYellow':5 },185,{ chips  'CTRed':20 'CTGreen':0 'CTPurple':5 'grey78':0 'CTYellow':0 },125,{ chips  'CTRed':24 'CTGreen':0 'CTPurple':3 'grey78':3 'CTYellow':7 },185,,
3playersLog_1385157258550.csv,11,540,510,FALSE,{ chips  'CTRed':2 'CTYellow':1 },{ chips  'CTRed':1 'CTPurple':2 },IGNORED,185,185,,,,,0,(R:3,C:1),{ chips  'CTRed':22 'CTGreen':0 'CTPurple':5 'grey78':5 'CTYellow':5 },185,{ chips  'CTRed':20 'CTGreen':0 'CTPurple':5 'grey78':0 'CTYellow':0 },125,{ chips  'CTRed':24 'CTGreen':0 'CTPurple':3 'grey78':3 'CTYellow':7 },185,,
3playersLog_1385157258550.csv,12,510,540,TRUE,{ chips  'CTYellow':4 },{ chips  'CTRed':24 'CTPurple':3 'grey78':3 },FALSE,185,185,,,,,1,(R:2,C:1),{ chips  'CTRed':22 'CTGreen':0 'CTPurple':5 'grey78':4 'CTYellow':5 },180,{ chips  'CTRed':20 'CTGreen':0 'CTPurple':5 'grey78':0 'CTYellow':0 },125,{ chips  'CTRed':24 'CTGreen':0 'CTPurple':3 'grey78':3 'CTYellow':7 },185,,
3playersLog_1385157258550.csv,13,540,510,FALSE,{ chips  'CTRed':1 'CTPurple':1 },{ chips  'grey78':1 'CTYellow':1 },IGNORED,185,180,,,,,0,(R:2,C:1),{ chips  'CTRed':22 'CTGreen':0 'CTPurple':5 'grey78':4 'CTYellow':5 },180,{ chips  'CTRed':20 'CTGreen':0 'CTPurple':5 'grey78':0 'CTYellow':0 },125,{ chips  'CTRed':24 'CTGreen':0 'CTPurple':3 'grey78':3 'CTYellow':7 },185,,
3playersLog_1385157258550.csv,14,510,540,TRUE,{ chips  'CTYellow':4 },{ chips  'CTRed':24 'CTPurple':3 'grey78':3 },FALSE,180,185,,,,,1,(R:1,C:1),{ chips  'CTRed':22 'CTGreen':0 'CTPurple':4 'grey78':4 'CTYellow':5 },175,{ chips  'CTRed':20 'CTGreen':0 'CTPurple':5 'grey78':0 'CTYellow':0 },125,{ chips  'CTRed':24 'CTGreen':0 'CTPurple':3 'grey78':3 'CTYellow':7 },185,,
3playersLog_1385157258550.csv,15,540,510,FALSE,{ chips  'grey78':1 },{ chips  'CTPurple':1 },IGNORED,185,175,,,,,0,(R:1,C:1),{ chips  'CTRed':22 'CTGreen':0 'CTPurple':4 'grey78':4 'CTYellow':5 },175,{ chips  'CTRed':20 'CTGreen':0 'CTPurple':5 'grey78':0 'CTYellow':0 },125,{ chips  'CTRed':24 'CTGreen':0 'CTPurple':3 'grey78':3 'CTYellow':7 },185,,
3playersLog_1385157258550.csv,16,510,540,TRUE,{ chips  'CTYellow':4 },{ chips  'CTRed':24 'CTPurple':3 'grey78':3 },FALSE,175,185,,,,,1,(R:1,C:0),{ chips  'CTRed':22 'CTGreen':0 'CTPurple':4 'grey78':3 'CTYellow':5 },170,{ chips  'CTRed':20 'CTGreen':0 'CTPurple':5 'grey78':0 'CTYellow':0 },125,{ chips  'CTRed':24 'CTGreen':0 'CTPurple':3 'grey78':3 'CTYellow':7 },185,,
3playersLog_1385157258550.csv,17,,,,,,,,,,,,,0,(R:1,C:0),{ chips  'CTRed':22 'CTGreen':0 'CTPurple':4 'grey78':3 'CTYellow':5 },170,{ chips  'CTRed':20 'CTGreen':0 'CTPurple':5 'grey78':0 'CTYellow':0 },125,{ chips  'CTRed':24 'CTGreen':0 'CTPurple':3 'grey78':3 'CTYellow':7 },185,,
3playersLog_1385157258550.csv,18,510,540,TRUE,{ chips  'CTYellow':4 },{ chips  'CTRed':24 'CTPurple':3 'grey78':3 },FALSE,170,185,,,,,1,(R:0,C:0),{ chips  'CTRed':22 'CTGreen':0 'CTPurple':4 'grey78':2 'CTYellow':5 },315,{ chips  'CTRed':20 'CTGreen':0 'CTPurple':5 'grey78':0 'CTYellow':0 },125,{ chips  'CTRed':24 'CTGreen':0 'CTPurple':3 'grey78':3 'CTYellow':7 },335,,
3playersLog_1385157258550.csv,,,,,,,,,,,,,,,,,,,,,,,,TRUE
3playersLog_1385497429313.csv,1,520,510,FALSE,{ chips  'CTRed':33 'CTPurple':7 },{ chips  'grey78':12 },FALSE,200,120,,,,,0,(R:5,C:4),{ chips  'CTRed':0 'CTGreen':0 'CTPurple':0 'grey78':12 'CTYellow':12 },120,{ chips  'CTRed':33 'CTGreen':0 'CTPurple':7 'grey78':0 'CTYellow':0 },200,{ chips  'CTRed':33 'CTGreen':0 'CTPurple':7 'grey78':0 'CTYellow':0 },200,,
3playersLog_1385497429313.csv,1,540,510,FALSE,{ chips  },{ chips  },FALSE,200,120,,,,,0,(R:5,C:4),{ chips  'CTRed':0 'CTGreen':0 'CTPurple':0 'grey78':12 'CTYellow':12 },120,{ chips  'CTRed':33 'CTGreen':0 'CTPurple':7 'grey78':0 'CTYellow':0 },200,{ chips  'CTRed':33 'CTGreen':0 'CTPurple':7 'grey78':0 'CTYellow':0 },200,,
3playersLog_1385497429313.csv,2,510,520,TRUE,{ chips  'grey78':11 },{ chips  'CTRed':33 'CTPurple':7 },TRUE,120,200,{ chips  'grey78':11 },{ chips  'CTRed':33 'CTPurple':7 'CTYellow':0 },265,55,9,(R:0,C:8),{ chips  'CTRed':33 'CTGreen':0 'CTPurple':7 'grey78':1 'CTYellow':3 },370,{ chips  'CTRed':0 'CTGreen':0 'CTPurple':0 'grey78':11 'CTYellow':0 },205,{ chips  'CTRed':33 'CTGreen':0 'CTPurple':7 'grey78':0 'CTYellow':0 },200,,
3playersLog_1385497429313.csv,,,,,,,,,,,,,,,,,,,,,,,,TRUE
3playersLog_1385497714880.csv,1,520,510,FALSE,{ chips  'CTRed':5 'CTPurple':1 },{ chips  },TRUE,200,120,{ chips  'CTRed':5 'CTPurple':1 'CTGreen':0 'grey78':0 'CTYellow':0 },{ chips  'CTRed':0 'CTPurple':0 'CTGreen':0 'grey78':0 'CTYellow':0 },170,150,0,(R:5,C:4),{ chips  'CTRed':5 'CTGreen':0 'CTPurple':1 'grey78':12 'CTYellow':12 },150,{ chips  'CTRed':28 'CTGreen':0 'CTPurple':6 'grey78':0 'CTYellow':0 },170,{ chips  'CTRed':33 'CTGreen':0 'CTPurple':7 'grey78':0 'CTYellow':0 },200,,
3playersLog_1385497714880.csv,2,510,520,TRUE,{ chips  'grey78':11 },{ chips  'CTRed':28 'CTPurple':6 },FALSE,150,170,,,,,1,(R:5,C:3),{ chips  'CTRed':5 'CTGreen':0 'CTPurple':1 'grey78':11 'CTYellow':12 },145,{ chips  'CTRed':28 'CTGreen':0 'CTPurple':6 'grey78':0 'CTYellow':0 },170,{ chips  'CTRed':33 'CTGreen':0 'CTPurple':7 'grey78':0 'CTYellow':0 },200,,
3playersLog_1385497714880.csv,3,520,510,FALSE,{ chips  'CTRed':17 'CTPurple':3 },{ chips  'grey78':7 },TRUE,170,145,{ chips  'CTRed':17 'CTPurple':3 'CTGreen':0 'grey78':0 'CTYellow':0 },{ chips  'CTRed':0 'CTPurple':0 'CTGreen':0 'grey78':7 'CTYellow':0 },105,210,0,(R:5,C:3),{ chips  'CTRed':22 'CTGreen':0 'CTPurple':4 'grey78':4 'CTYellow':12 },210,{ chips  'CTRed':11 'CTGreen':0 'CTPurple':3 'grey78':7 'CTYellow':0 },105,{ chips  'CTRed':33 'CTGreen':0 'CTPurple':7 'grey78':0 'CTYellow':0 },200,,
3playersLog_1385497714880.csv,3,540,510,FALSE,{ chips  'CTPurple':3 },{ chips  },IGNORED,200,145,,,,,0,(R:5,C:3),{ chips  'CTRed':22 'CTGreen':0 'CTPurple':4 'grey78':4 'CTYellow':12 },210,{ chips  'CTRed':11 'CTGreen':0 'CTPurple':3 'grey78':7 'CTYellow':0 },105,{ chips  'CTRed':33 'CTGreen':0 'CTPurple':7 'grey78':0 'CTYellow':0 },200,,
3playersLog_1385497714880.csv,4,510,520,TRUE,{ chips  'grey78':2 },{ chips  'CTRed':11 'CTPurple':3 },FALSE,210,105,,,,,1,(R:4,C:3),{ chips  'CTRed':22 'CTGreen':0 'CTPurple':4 'grey78':3 'CTYellow':12 },205,{ chips  'CTRed':11 'CTGreen':0 'CTPurple':3 'grey78':7 'CTYellow':0 },105,{ chips  'CTRed':33 'CTGreen':0 'CTPurple':7 'grey78':0 'CTYellow':0 },200,,
3playersLog_1385497714880.csv,5,540,510,FALSE,{ chips  'CTPurple':3 },{ chips  'grey78':1 },TRUE,200,205,{ chips  'CTRed':0 'CTPurple':3 'CTGreen':0 'grey78':0 'CTYellow':0 },{ chips  'CTRed':0 'CTPurple':0 'CTGreen':0 'grey78':1 'CTYellow':0 },190,215,0,(R:4,C:3),{ chips  'CTRed':22 'CTGreen':0 'CTPurple':7 'grey78':2 'CTYellow':12 },215,{ chips  'CTRed':11 'CTGreen':0 'CTPurple':3 'grey78':7 'CTYellow':0 },105,{ chips  'CTRed':33 'CTGreen':0 'CTPurple':4 'grey78':1 'CTYellow':0 },190,,
3playersLog_1385497714880.csv,6,510,520,TRUE,{ chips  'grey78':2 },{ chips  'CTRed':11 'CTPurple':3 },FALSE,215,105,,,,,1,(R:3,C:3),{ chips  'CTRed':22 'CTGreen':0 'CTPurple':6 'grey78':2 'CTYellow':12 },210,{ chips  'CTRed':11 'CTGreen':0 'CTPurple':3 'grey78':7 'CTYellow':0 },105,{ chips  'CTRed':33 'CTGreen':0 'CTPurple':4 'grey78':1 'CTYellow':0 },190,,
3playersLog_1385497714880.csv,7,520,510,FALSE,{ chips  'CTRed':3 },{ chips  'CTPurple':2 },IGNORED,105,210,,,,,0,(R:3,C:3),{ chips  'CTRed':22 'CTGreen':0 'CTPurple':6 'grey78':2 'CTYellow':12 },210,{ chips  'CTRed':11 'CTGreen':0 'CTPurple':3 'grey78':7 'CTYellow':0 },105,{ chips  'CTRed':33 'CTGreen':0 'CTPurple':4 'grey78':1 'CTYellow':0 },190,,
3playersLog_1385497714880.csv,8,510,520,TRUE,{ chips  'grey78':2 },{ chips  'CTRed':11 'CTPurple':3 },FALSE,210,105,,,,,1,(R:3,C:4),{ chips  'CTRed':22 'CTGreen':0 'CTPurple':5 'grey78':2 'CTYellow':12 },205,{ chips  'CTRed':11 'CTGreen':0 'CTPurple':3 'grey78':7 'CTYellow':0 },105,{ chips  'CTRed':33 'CTGreen':0 'CTPurple':4 'grey78':1 'CTYellow':0 },190,,
3playersLog_1385497714880.csv,9,520,510,FALSE,{ chips  'CTRed':4 },{ chips  'CTPurple':2 },FALSE,105,205,,,,,0,(R:3,C:4),{ chips  'CTRed':22 'CTGreen':0 'CTPurple':5 'grey78':2 'CTYellow':12 },205,{ chips  'CTRed':11 'CTGreen':0 'CTPurple':3 'grey78':7 'CTYellow':0 },105,{ chips  'CTRed':33 'CTGreen':0 'CTPurple':4 'grey78':1 'CTYellow':0 },190,,
3playersLog_1385497714880.csv,9,540,510,FALSE,{ chips  },{ chips  },FALSE,190,205,,,,,0,(R:3,C:4),{ chips  'CTRed':22 'CTGreen':0 'CTPurple':5 'grey78':2 'CTYellow':12 },205,{ chips  'CTRed':11 'CTGreen':0 'CTPurple':3 'grey78':7 'CTYellow':0 },105,{ chips  'CTRed':33 'CTGreen':0 'CTPurple':4 'grey78':1 'CTYellow':0 },190,,
3playersLog_1385497714880.csv,10,510,520,TRUE,{ chips  'grey78':2 },{ chips  'CTRed':11 'CTPurple':3 },FALSE,205,105,,,,,1,(R:3,C:5),{ chips  'CTRed':22 'CTGreen':0 'CTPurple':4 'grey78':2 'CTYellow':12 },200,{ chips  'CTRed':11 'CTGreen':0 'CTPurple':3 'grey78':7 'CTYellow':0 },105,{ chips  'CTRed':33 'CTGreen':0 'CTPurple':4 'grey78':1 'CTYellow':0 },190,,
3playersLog_1385497714880.csv,11,520,510,FALSE,{ chips  'CTRed':3 },{ chips  'CTPurple':2 },FALSE,105,200,,,,,0,(R:3,C:5),{ chips  'CTRed':22 'CTGreen':0 'CTPurple':4 'grey78':2 'CTYellow':12 },200,{ chips  'CTRed':11 'CTGreen':0 'CTPurple':3 'grey78':7 'CTYellow':0 },105,{ chips  'CTRed':33 'CTGreen':0 'CTPurple':4 'grey78':1 'CTYellow':0 },190,,
3playersLog_1385497714880.csv,11,540,510,FALSE,{ chips  },{ chips  },FALSE,190,200,,,,,0,(R:3,C:5),{ chips  'CTRed':22 'CTGreen':0 'CTPurple':4 'grey78':2 'CTYellow':12 },200,{ chips  'CTRed':11 'CTGreen':0 'CTPurple':3 'grey78':7 'CTYellow':0 },105,{ chips  'CTRed':33 'CTGreen':0 'CTPurple':4 'grey78':1 'CTYellow':0 },190,,
3playersLog_1385497714880.csv,12,510,520,TRUE,{ chips  'grey78':2 },{ chips  'CTRed':11 'CTPurple':3 },FALSE,200,105,,,,,1,(R:3,C:6),{ chips  'CTRed':22 'CTGreen':0 'CTPurple':4 'grey78':2 'CTYellow':11 },195,{ chips  'CTRed':11 'CTGreen':0 'CTPurple':3 'grey78':7 'CTYellow':0 },105,{ chips  'CTRed':33 'CTGreen':0 'CTPurple':4 'grey78':1 'CTYellow':0 },190,,
3playersLog_1385497714880.csv,13,520,510,FALSE,{ chips  },{ chips  },FALSE,105,195,,,,,0,(R:3,C:6),{ chips  'CTRed':22 'CTGreen':0 'CTPurple':4 'grey78':2 'CTYellow':11 },195,{ chips  'CTRed':11 'CTGreen':0 'CTPurple':3 'grey78':7 'CTYellow':0 },105,{ chips  'CTRed':33 'CTGreen':0 'CTPurple':4 'grey78':1 'CTYellow':0 },190,,
3playersLog_1385497714880.csv,13,540,510,FALSE,{ chips  },{ chips  'CTPurple':3 'CTYellow':2 },FALSE,190,195,,,,,0,(R:3,C:6),{ chips  'CTRed':22 'CTGreen':0 'CTPurple':4 'grey78':2 'CTYellow':11 },195,{ chips  'CTRed':11 'CTGreen':0 'CTPurple':3 'grey78':7 'CTYellow':0 },105,{ chips  'CTRed':33 'CTGreen':0 'CTPurple':4 'grey78':1 'CTYellow':0 },190,,
3playersLog_1385497714880.csv,14,510,520,TRUE,{ chips  'grey78':2 },{ chips  'CTRed':11 'CTPurple':3 },FALSE,195,105,,,,,1,(R:3,C:7),{ chips  'CTRed':22 'CTGreen':0 'CTPurple':4 'grey78':2 'CTYellow':10 },190,{ chips  'CTRed':11 'CTGreen':0 'CTPurple':3 'grey78':7 'CTYellow':0 },105,{ chips  'CTRed':33 'CTGreen':0 'CTPurple':4 'grey78':1 'CTYellow':0 },190,,
3playersLog_1385497714880.csv,15,520,510,FALSE,{ chips  'CTRed':3 },{ chips  'CTPurple':2 },FALSE,105,190,,,,,0,(R:3,C:7),{ chips  'CTRed':22 'CTGreen':0 'CTPurple':4 'grey78':2 'CTYellow':10 },190,{ chips  'CTRed':11 'CTGreen':0 'CTPurple':3 'grey78':7 'CTYellow':0 },105,{ chips  'CTRed':33 'CTGreen':0 'CTPurple':4 'grey78':1 'CTYellow':0 },190,,
3playersLog_1385497714880.csv,15,540,510,FALSE,{ chips  },{ chips  'CTPurple':3 'CTYellow':2 },FALSE,190,190,,,,,0,(R:3,C:7),{ chips  'CTRed':22 'CTGreen':0 'CTPurple':4 'grey78':2 'CTYellow':10 },190,{ chips  'CTRed':11 'CTGreen':0 'CTPurple':3 'grey78':7 'CTYellow':0 },105,{ chips  'CTRed':33 'CTGreen':0 'CTPurple':4 'grey78':1 'CTYellow':0 },190,,
3playersLog_1385497714880.csv,16,510,520,TRUE,{ chips  'grey78':2 },{ chips  'CTRed':11 'CTPurple':3 },FALSE,190,105,,,,,1,(R:2,C:7),{ chips  'CTRed':22 'CTGreen':0 'CTPurple':4 'grey78':2 'CTYellow':9 },185,{ chips  'CTRed':11 'CTGreen':0 'CTPurple':3 'grey78':7 'CTYellow':0 },105,{ chips  'CTRed':33 'CTGreen':0 'CTPurple':4 'grey78':1 'CTYellow':0 },190,,
3playersLog_1385497714880.csv,17,520,510,FALSE,{ chips  'CTRed':4 },{ chips  'CTPurple':2 },FALSE,105,185,,,,,0,(R:2,C:7),{ chips  'CTRed':22 'CTGreen':0 'CTPurple':4 'grey78':2 'CTYellow':9 },185,{ chips  'CTRed':11 'CTGreen':0 'CTPurple':3 'grey78':7 'CTYellow':0 },105,{ chips  'CTRed':33 'CTGreen':0 'CTPurple':4 'grey78':1 'CTYellow':0 },190,,
3playersLog_1385497714880.csv,17,540,510,FALSE,{ chips  },{ chips  },FALSE,190,185,,,,,0,(R:2,C:7),{ chips  'CTRed':22 'CTGreen':0 'CTPurple':4 'grey78':2 'CTYellow':9 },185,{ chips  'CTRed':11 'CTGreen':0 'CTPurple':3 'grey78':7 'CTYellow':0 },105,{ chips  'CTRed':33 'CTGreen':0 'CTPurple':4 'grey78':1 'CTYellow':0 },190,,
3playersLog_1385497714880.csv,18,510,520,TRUE,{ chips  'grey78':2 },{ chips  'CTRed':11 'CTPurple':3 },FALSE,185,105,,,,,1,(R:1,C:7),{ chips  'CTRed':22 'CTGreen':0 'CTPurple':3 'grey78':2 'CTYellow':9 },180,{ chips  'CTRed':11 'CTGreen':0 'CTPurple':3 'grey78':7 'CTYellow':0 },105,{ chips  'CTRed':33 'CTGreen':0 'CTPurple':4 'grey78':1 'CTYellow':0 },190,,
3playersLog_1385497714880.csv,19,520,510,FALSE,{ chips  'CTRed':5 },{ chips  'grey78':2 },FALSE,105,180,,,,,0,(R:1,C:7),{ chips  'CTRed':22 'CTGreen':0 'CTPurple':3 'grey78':2 'CTYellow':9 },180,{ chips  'CTRed':11 'CTGreen':0 'CTPurple':3 'grey78':7 'CTYellow':0 },105,{ chips  'CTRed':33 'CTGreen':0 'CTPurple':4 'grey78':1 'CTYellow':0 },190,,
3playersLog_1385497714880.csv,19,540,510,FALSE,{ chips  },{ chips  },FALSE,190,180,,,,,0,(R:1,C:7),{ chips  'CTRed':22 'CTGreen':0 'CTPurple':3 'grey78':2 'CTYellow':9 },180,{ chips  'CTRed':11 'CTGreen':0 'CTPurple':3 'grey78':7 'CTYellow':0 },105,{ chips  'CTRed':33 'CTGreen':0 'CTPurple':4 'grey78':1 'CTYellow':0 },190,,
3playersLog_1385497714880.csv,20,510,520,TRUE,{ chips  'grey78':2 },{ chips  'CTRed':11 'CTPurple':3 },FALSE,180,105,,,,,1,(R:1,C:8),{ chips  'CTRed':22 'CTGreen':0 'CTPurple':3 'grey78':2 'CTYellow':8 },175,{ chips  'CTRed':11 'CTGreen':0 'CTPurple':3 'grey78':7 'CTYellow':0 },105,{ chips  'CTRed':33 'CTGreen':0 'CTPurple':4 'grey78':1 'CTYellow':0 },190,,
3playersLog_1385497714880.csv,21,520,510,FALSE,{ chips  },{ chips  },IGNORED,105,175,,,,,0,(R:1,C:8),{ chips  'CTRed':23 'CTGreen':0 'CTPurple':3 'grey78':2 'CTYellow':8 },180,{ chips  'CTRed':11 'CTGreen':0 'CTPurple':3 'grey78':7 'CTYellow':0 },105,{ chips  'CTRed':32 'CTGreen':0 'CTPurple':4 'grey78':1 'CTYellow':0 },185,,
3playersLog_1385497714880.csv,21,540,510,FALSE,{ chips  'CTRed':1 },{ chips  },TRUE,190,175,{ chips  'CTRed':1 'CTPurple':0 'CTGreen':0 'grey78':0 'CTYellow':0 },{ chips  'CTRed':0 'CTPurple':0 'CTGreen':0 'grey78':0 'CTYellow':0 },185,180,0,(R:1,C:8),{ chips  'CTRed':23 'CTGreen':0 'CTPurple':3 'grey78':2 'CTYellow':8 },180,{ chips  'CTRed':11 'CTGreen':0 'CTPurple':3 'grey78':7 'CTYellow':0 },105,{ chips  'CTRed':32 'CTGreen':0 'CTPurple':4 'grey78':1 'CTYellow':0 },185,,
3playersLog_1385497714880.csv,22,510,520,TRUE,{ chips  'grey78':2 },{ chips  'CTRed':11 'CTPurple':3 },FALSE,180,105,,,,,1,(R:0,C:8),{ chips  'CTRed':23 'CTGreen':0 'CTPurple':3 'grey78':2 'CTYellow':7 },325,{ chips  'CTRed':11 'CTGreen':0 'CTPurple':3 'grey78':7 'CTYellow':0 },255,{ chips  'CTRed':32 'CTGreen':0 'CTPurple':4 'grey78':1 'CTYellow':0 },185,,
3playersLog_1385497714880.csv,,,,,,,,,,,,,,,,,,,,,,,,TRUE
3playersLog_1385502513473.csv,1,520,510,FALSE,{ chips  'CTRed':10 },{ chips  },TRUE,200,120,{ chips  'CTRed':10 'CTPurple':0 'CTGreen':0 'grey78':0 'CTYellow':0 },{ chips  'CTRed':0 'CTPurple':0 'CTGreen':0 'grey78':0 'CTYellow':0 },150,170,0,(R:5,C:4),{ chips  'CTRed':10 'CTGreen':0 'CTPurple':0 'grey78':12 'CTYellow':12 },170,{ chips  'CTRed':23 'CTGreen':0 'CTPurple':7 'grey78':0 'CTYellow':0 },150,{ chips  'CTRed':33 'CTGreen':0 'CTPurple':7 'grey78':0 'CTYellow':0 },200,,
3playersLog_1385502513473.csv,1,540,510,FALSE,{ chips  'CTRed':2 'CTPurple':1 },{ chips  'CTYellow':2 },IGNORED,200,120,,,,,0,(R:5,C:4),{ chips  'CTRed':10 'CTGreen':0 'CTPurple':0 'grey78':12 'CTYellow':12 },170,{ chips  'CTRed':23 'CTGreen':0 'CTPurple':7 'grey78':0 'CTYellow':0 },150,{ chips  'CTRed':33 'CTGreen':0 'CTPurple':7 'grey78':0 'CTYellow':0 },200,,
3playersLog_1385502513473.csv,2,510,540,TRUE,{ chips  'CTYellow':11 },{ chips  'CTRed':33 'CTPurple':7 },FALSE,170,200,,,,,1,(R:5,C:5),{ chips  'CTRed':10 'CTGreen':0 'CTPurple':0 'grey78':12 'CTYellow':11 },165,{ chips  'CTRed':23 'CTGreen':0 'CTPurple':7 'grey78':0 'CTYellow':0 },150,{ chips  'CTRed':33 'CTGreen':0 'CTPurple':7 'grey78':0 'CTYellow':0 },200,,
3playersLog_1385502513473.csv,3,520,510,FALSE,{ chips  },{ chips  },FALSE,150,165,,,,,0,(R:5,C:5),{ chips  'CTRed':10 'CTGreen':0 'CTPurple':0 'grey78':12 'CTYellow':11 },165,{ chips  'CTRed':23 'CTGreen':0 'CTPurple':7 'grey78':0 'CTYellow':0 },150,{ chips  'CTRed':33 'CTGreen':0 'CTPurple':7 'grey78':0 'CTYellow':0 },200,,
3playersLog_1385502513473.csv,3,540,510,FALSE,{ chips  'CTRed':12 'CTPurple':2 },{ chips  'CTYellow':6 },FALSE,200,165,,,,,0,(R:5,C:5),{ chips  'CTRed':10 'CTGreen':0 'CTPurple':0 'grey78':12 'CTYellow':11 },165,{ chips  'CTRed':23 'CTGreen':0 'CTPurple':7 'grey78':0 'CTYellow':0 },150,{ chips  'CTRed':33 'CTGreen':0 'CTPurple':7 'grey78':0 'CTYellow':0 },200,,
3playersLog_1385502513473.csv,4,510,520,TRUE,{ chips  'grey78':11 },{ chips  'CTRed':23 'CTPurple':7 },FALSE,165,150,,,,,1,(R:4,C:5),{ chips  'CTRed':10 'CTGreen':0 'CTPurple':0 'grey78':12 'CTYellow':10 },160,{ chips  'CTRed':23 'CTGreen':0 'CTPurple':7 'grey78':0 'CTYellow':0 },150,{ chips  'CTRed':33 'CTGreen':0 'CTPurple':7 'grey78':0 'CTYellow':0 },200,,
3playersLog_1385502513473.csv,5,520,510,FALSE,{ chips  },{ chips  },IGNORED,150,160,,,,,0,(R:4,C:5),{ chips  'CTRed':23 'CTGreen':0 'CTPurple':2 'grey78':12 'CTYellow':5 },210,{ chips  'CTRed':23 'CTGreen':0 'CTPurple':7 'grey78':0 'CTYellow':0 },150,{ chips  'CTRed':20 'CTGreen':0 'CTPurple':5 'grey78':0 'CTYellow':5 },150,,
3playersLog_1385502513473.csv,5,540,510,FALSE,{ chips  'CTRed':13 'CTPurple':2 },{ chips  'CTYellow':5 },TRUE,200,160,{ chips  'CTRed':13 'CTPurple':2 'CTGreen':0 'grey78':0 'CTYellow':0 },{ chips  'CTRed':0 'CTPurple':0 'CTGreen':0 'grey78':0 'CTYellow':5 },150,210,0,(R:4,C:5),{ chips  'CTRed':23 'CTGreen':0 'CTPurple':2 'grey78':12 'CTYellow':5 },210,{ chips  'CTRed':23 'CTGreen':0 'CTPurple':7 'grey78':0 'CTYellow':0 },150,{ chips  'CTRed':20 'CTGreen':0 'CTPurple':5 'grey78':0 'CTYellow':5 },150,,
3playersLog_1385502513473.csv,6,510,520,TRUE,{ chips  'grey78':11 },{ chips  'CTRed':23 'CTPurple':7 },TRUE,210,150,{ chips  'grey78':11 },{ chips  'CTRed':23 'CTPurple':7 'CTYellow':0 },305,55,7,(R:0,C:8),{ chips  'CTRed':46 'CTGreen':0 'CTPurple':7 'grey78':1 'CTYellow':0 },420,{ chips  'CTRed':0 'CTGreen':0 'CTPurple':0 'grey78':11 'CTYellow':0 },205,{ chips  'CTRed':20 'CTGreen':0 'CTPurple':5 'grey78':0 'CTYellow':5 },150,,
3playersLog_1385502513473.csv,,,,,,,,,,,,,,,,,,,,,,,,TRUE
3playersLog_1385502670646.csv,1,540,510,FALSE,{ chips  'CTRed':6 'CTPurple':2 },{ chips  },TRUE,200,120,{ chips  'CTRed':6 'CTPurple':2 'CTGreen':0 'grey78':0 'CTYellow':0 },{ chips  'CTRed':0 'CTPurple':0 'CTGreen':0 'grey78':0 'CTYellow':0 },160,160,0,(R:5,C:4),{ chips  'CTRed':6 'CTGreen':0 'CTPurple':2 'grey78':12 'CTYellow':12 },160,{ chips  'CTRed':33 'CTGreen':0 'CTPurple':7 'grey78':0 'CTYellow':0 },200,{ chips  'CTRed':27 'CTGreen':0 'CTPurple':5 'grey78':0 'CTYellow':0 },160,,
3playersLog_1385502670646.csv,2,510,520,TRUE,{ chips  'grey78':11 },{ chips  'CTRed':33 'CTPurple':7 },FALSE,160,200,,,,,1,(R:5,C:3),{ chips  'CTRed':6 'CTGreen':0 'CTPurple':2 'grey78':11 'CTYellow':12 },155,{ chips  'CTRed':33 'CTGreen':0 'CTPurple':7 'grey78':0 'CTYellow':0 },200,{ chips  'CTRed':27 'CTGreen':0 'CTPurple':5 'grey78':0 'CTYellow':0 },160,,
3playersLog_1385502670646.csv,3,520,510,FALSE,{ chips  'CTRed':7 'CTPurple':2 },{ chips  'CTRed':2 'grey78':4 },TRUE,200,155,{ chips  'CTRed':7 'CTPurple':2 'CTGreen':0 'grey78':0 'CTYellow':0 },{ chips  'CTRed':2 'CTPurple':0 'CTGreen':0 'grey78':4 'CTYellow':0 },185,170,0,(R:5,C:3),{ chips  'CTRed':11 'CTGreen':0 'CTPurple':4 'grey78':7 'CTYellow':12 },170,{ chips  'CTRed':28 'CTGreen':0 'CTPurple':5 'grey78':4 'CTYellow':0 },185,{ chips  'CTRed':27 'CTGreen':0 'CTPurple':5 'grey78':0 'CTYellow':0 },160,,
3playersLog_1385502670646.csv,3,540,510,FALSE,{ chips  'CTRed':6 },{ chips  'CTYellow':4 },IGNORED,160,155,,,,,0,(R:5,C:3),{ chips  'CTRed':11 'CTGreen':0 'CTPurple':4 'grey78':7 'CTYellow':12 },170,{ chips  'CTRed':28 'CTGreen':0 'CTPurple':5 'grey78':4 'CTYellow':0 },185,{ chips  'CTRed':27 'CTGreen':0 'CTPurple':5 'grey78':0 'CTYellow':0 },160,,
3playersLog_1385502670646.csv,4,510,540,TRUE,{ chips  'CTYellow':11 },{ chips  'CTRed':27 'CTPurple':5 },FALSE,170,160,,,,,1,(R:4,C:3),{ chips  'CTRed':11 'CTGreen':0 'CTPurple':4 'grey78':6 'CTYellow':12 },165,{ chips  'CTRed':28 'CTGreen':0 'CTPurple':5 'grey78':4 'CTYellow':0 },185,{ chips  'CTRed':27 'CTGreen':0 'CTPurple':5 'grey78':0 'CTYellow':0 },160,,
3playersLog_1385502670646.csv,5,520,510,FALSE,{ chips  'CTRed':3 'CTPurple':2 },{ chips  'grey78':4 },IGNORED,185,165,,,,,0,(R:4,C:3),{ chips  'CTRed':19 'CTGreen':0 'CTPurple':4 'grey78':6 'CTYellow':8 },185,{ chips  'CTRed':28 'CTGreen':0 'CTPurple':5 'grey78':4 'CTYellow':0 },185,{ chips  'CTRed':19 'CTGreen':0 'CTPurple':5 'grey78':0 'CTYellow':4 },140,,
3playersLog_1385502670646.csv,5,540,510,FALSE,{ chips  'CTRed':8 },{ chips  'CTYellow':4 },TRUE,160,165,{ chips  'CTRed':8 'CTPurple':0 'CTGreen':0 'grey78':0 'CTYellow':0 },{ chips  'CTRed':0 'CTPurple':0 'CTGreen':0 'grey78':0 'CTYellow':4 },140,185,0,(R:4,C:3),{ chips  'CTRed':19 'CTGreen':0 'CTPurple':4 'grey78':6 'CTYellow':8 },185,{ chips  'CTRed':28 'CTGreen':0 'CTPurple':5 'grey78':4 'CTYellow':0 },185,{ chips  'CTRed':19 'CTGreen':0 'CTPurple':5 'grey78':0 'CTYellow':4 },140,,
3playersLog_1385502670646.csv,6,510,540,TRUE,{ chips  'CTYellow':7 },{ chips  'CTRed':19 'CTPurple':5 },FALSE,185,140,,,,,1,(R:3,C:3),{ chips  'CTRed':19 'CTGreen':0 'CTPurple':3 'grey78':6 'CTYellow':8 },180,{ chips  'CTRed':28 'CTGreen':0 'CTPurple':5 'grey78':4 'CTYellow':0 },185,{ chips  'CTRed':19 'CTGreen':0 'CTPurple':5 'grey78':0 'CTYellow':4 },140,,
3playersLog_1385502670646.csv,7,520,510,FALSE,{ chips  'CTRed':5 'CTPurple':3 },{ chips  'grey78':4 },TRUE,185,180,{ chips  'CTRed':5 'CTPurple':3 'CTGreen':0 'grey78':0 'CTYellow':0 },{ chips  'CTRed':0 'CTPurple':0 'CTGreen':0 'grey78':4 'CTYellow':0 },165,200,0,(R:3,C:3),{ chips  'CTRed':24 'CTGreen':0 'CTPurple':6 'grey78':2 'CTYellow':8 },200,{ chips  'CTRed':23 'CTGreen':0 'CTPurple':2 'grey78':8 'CTYellow':0 },165,{ chips  'CTRed':19 'CTGreen':0 'CTPurple':5 'grey78':0 'CTYellow':4 },140,,
3playersLog_1385502670646.csv,7,540,510,FALSE,{ chips  'CTRed':1 },{ chips  'CTPurple':1 },IGNORED,140,180,,,,,0,(R:3,C:3),{ chips  'CTRed':24 'CTGreen':0 'CTPurple':6 'grey78':2 'CTYellow':8 },200,{ chips  'CTRed':23 'CTGreen':0 'CTPurple':2 'grey78':8 'CTYellow':0 },165,{ chips  'CTRed':19 'CTGreen':0 'CTPurple':5 'grey78':0 'CTYellow':4 },140,,
3playersLog_1385502670646.csv,8,510,520,TRUE,{ chips  'grey78':1 },{ chips  'CTRed':23 'CTPurple':2 },FALSE,200,165,,,,,1,(R:3,C:4),{ chips  'CTRed':24 'CTGreen':0 'CTPurple':5 'grey78':2 'CTYellow':8 },195,{ chips  'CTRed':23 'CTGreen':0 'CTPurple':2 'grey78':8 'CTYellow':0 },165,{ chips  'CTRed':19 'CTGreen':0 'CTPurple':5 'grey78':0 'CTYellow':4 },140,,
3playersLog_1385502670646.csv,9,520,510,FALSE,{ chips  'CTRed':7 },{ chips  'CTPurple':2 'grey78':1 },IGNORED,165,195,,,,,0,(R:3,C:4),{ chips  'CTRed':28 'CTGreen':0 'CTPurple':5 'grey78':2 'CTYellow':5 },200,{ chips  'CTRed':23 'CTGreen':0 'CTPurple':2 'grey78':8 'CTYellow':0 },165,{ chips  'CTRed':15 'CTGreen':0 'CTPurple':5 'grey78':0 'CTYellow':7 },135,,
3playersLog_1385502670646.csv,9,540,510,FALSE,{ chips  'CTRed':4 },{ chips  'CTYellow':3 },TRUE,140,195,{ chips  'CTRed':4 'CTPurple':0 'CTGreen':0 'grey78':0 'CTYellow':0 },{ chips  'CTRed':0 'CTPurple':0 'CTGreen':0 'grey78':0 'CTYellow':3 },135,200,0,(R:3,C:4),{ chips  'CTRed':28 'CTGreen':0 'CTPurple':5 'grey78':2 'CTYellow':5 },200,{ chips  'CTRed':23 'CTGreen':0 'CTPurple':2 'grey78':8 'CTYellow':0 },165,{ chips  'CTRed':15 'CTGreen':0 'CTPurple':5 'grey78':0 'CTYellow':7 },135,,
3playersLog_1385502670646.csv,10,510,520,TRUE,{ chips  'grey78':1 },{ chips  'CTRed':23 'CTPurple':2 },FALSE,200,165,,,,,1,(R:3,C:5),{ chips  'CTRed':28 'CTGreen':0 'CTPurple':4 'grey78':2 'CTYellow':5 },195,{ chips  'CTRed':23 'CTGreen':0 'CTPurple':2 'grey78':8 'CTYellow':0 },165,{ chips  'CTRed':15 'CTGreen':0 'CTPurple':5 'grey78':0 'CTYellow':7 },135,,
3playersLog_1385502670646.csv,11,520,510,FALSE,{ chips  'CTPurple':2 },{ chips  'grey78':2 },IGNORED,165,195,,,,,0,(R:3,C:5),{ chips  'CTRed':28 'CTGreen':0 'CTPurple':4 'grey78':2 'CTYellow':5 },195,{ chips  'CTRed':23 'CTGreen':0 'CTPurple':2 'grey78':8 'CTYellow':0 },165,{ chips  'CTRed':15 'CTGreen':0 'CTPurple':5 'grey78':0 'CTYellow':7 },135,,
3playersLog_1385502670646.csv,11,540,510,FALSE,{ chips  'CTPurple':1 },{ chips  'CTRed':4 'CTYellow':1 },IGNORED,135,195,,,,,0,(R:3,C:5),{ chips  'CTRed':28 'CTGreen':0 'CTPurple':4 'grey78':2 'CTYellow':5 },195,{ chips  'CTRed':23 'CTGreen':0 'CTPurple':2 'grey78':8 'CTYellow':0 },165,{ chips  'CTRed':15 'CTGreen':0 'CTPurple':5 'grey78':0 'CTYellow':7 },135,,
3playersLog_1385502670646.csv,12,510,520,TRUE,{ chips  'grey78':1 },{ chips  'CTRed':23 'CTPurple':2 },FALSE,195,165,,,,,1,(R:3,C:6),{ chips  'CTRed':28 'CTGreen':0 'CTPurple':4 'grey78':2 'CTYellow':4 },190,{ chips  'CTRed':23 'CTGreen':0 'CTPurple':2 'grey78':8 'CTYellow':0 },165,{ chips  'CTRed':15 'CTGreen':0 'CTPurple':5 'grey78':0 'CTYellow':7 },135,,
3playersLog_1385502670646.csv,13,520,510,FALSE,{ chips  'CTPurple':1 },{ chips  'CTRed':6 },FALSE,165,190,,,,,0,(R:3,C:6),{ chips  'CTRed':28 'CTGreen':0 'CTPurple':4 'grey78':2 'CTYellow':4 },190,{ chips  'CTRed':23 'CTGreen':0 'CTPurple':2 'grey78':8 'CTYellow':0 },165,{ chips  'CTRed':15 'CTGreen':0 'CTPurple':5 'grey78':0 'CTYellow':7 },135,,
3playersLog_1385502670646.csv,13,540,510,FALSE,{ chips  'CTPurple':5 },{ chips  'CTRed':5 },FALSE,135,190,,,,,0,(R:3,C:6),{ chips  'CTRed':28 'CTGreen':0 'CTPurple':4 'grey78':2 'CTYellow':4 },190,{ chips  'CTRed':23 'CTGreen':0 'CTPurple':2 'grey78':8 'CTYellow':0 },165,{ chips  'CTRed':15 'CTGreen':0 'CTPurple':5 'grey78':0 'CTYellow':7 },135,,
3playersLog_1385502670646.csv,14,510,520,TRUE,{ chips  'grey78':1 },{ chips  'CTRed':23 'CTPurple':2 },FALSE,190,165,,,,,1,(R:3,C:7),{ chips  'CTRed':28 'CTGreen':0 'CTPurple':4 'grey78':2 'CTYellow':3 },185,{ chips  'CTRed':23 'CTGreen':0 'CTPurple':2 'grey78':8 'CTYellow':0 },165,{ chips  'CTRed':15 'CTGreen':0 'CTPurple':5 'grey78':0 'CTYellow':7 },135,,
3playersLog_1385502670646.csv,15,520,510,FALSE,{ chips  'CTPurple':1 },{ chips  'CTRed':4 },FALSE,165,185,,,,,0,(R:3,C:7),{ chips  'CTRed':28 'CTGreen':0 'CTPurple':4 'grey78':2 'CTYellow':3 },185,{ chips  'CTRed':23 'CTGreen':0 'CTPurple':2 'grey78':8 'CTYellow':0 },165,{ chips  'CTRed':15 'CTGreen':0 'CTPurple':5 'grey78':0 'CTYellow':7 },135,,
3playersLog_1385502670646.csv,15,540,510,FALSE,{ chips  'CTPurple':5 },{ chips  'CTRed':2 'CTYellow':1 },FALSE,135,185,,,,,0,(R:3,C:7),{ chips  'CTRed':28 'CTGreen':0 'CTPurple':4 'grey78':2 'CTYellow':3 },185,{ chips  'CTRed':23 'CTGreen':0 'CTPurple':2 'grey78':8 'CTYellow':0 },165,{ chips  'CTRed':15 'CTGreen':0 'CTPurple':5 'grey78':0 'CTYellow':7 },135,,
3playersLog_1385502670646.csv,16,510,520,TRUE,{ chips  'grey78':1 },{ chips  'CTRed':23 'CTPurple':2 },FALSE,185,165,,,,,1,(R:2,C:7),{ chips  'CTRed':28 'CTGreen':0 'CTPurple':4 'grey78':2 'CTYellow':2 },180,{ chips  'CTRed':23 'CTGreen':0 'CTPurple':2 'grey78':8 'CTYellow':0 },165,{ chips  'CTRed':15 'CTGreen':0 'CTPurple':5 'grey78':0 'CTYellow':7 },135,,
3playersLog_1385502670646.csv,17,520,510,FALSE,{ chips  'CTPurple':1 },{ chips  'CTRed':5 },FALSE,165,180,,,,,0,(R:2,C:7),{ chips  'CTRed':28 'CTGreen':0 'CTPurple':4 'grey78':2 'CTYellow':2 },180,{ chips  'CTRed':23 'CTGreen':0 'CTPurple':2 'grey78':8 'CTYellow':0 },165,{ chips  'CTRed':15 'CTGreen':0 'CTPurple':5 'grey78':0 'CTYellow':7 },135,,
3playersLog_1385502670646.csv,17,540,510,FALSE,{ chips  },{ chips  },FALSE,135,180,,,,,0,(R:2,C:7),{ chips  'CTRed':28 'CTGreen':0 'CTPurple':4 'grey78':2 'CTYellow':2 },180,{ chips  'CTRed':23 'CTGreen':0 'CTPurple':2 'grey78':8 'CTYellow':0 },165,{ chips  'CTRed':15 'CTGreen':0 'CTPurple':5 'grey78':0 'CTYellow':7 },135,,
3playersLog_1385502670646.csv,18,510,520,TRUE,{ chips  'grey78':1 },{ chips  'CTRed':23 'CTPurple':2 },FALSE,180,165,,,,,1,(R:1,C:7),{ chips  'CTRed':28 'CTGreen':0 'CTPurple':3 'grey78':2 'CTYellow':2 },175,{ chips  'CTRed':23 'CTGreen':0 'CTPurple':2 'grey78':8 'CTYellow':0 },165,{ chips  'CTRed':15 'CTGreen':0 'CTPurple':5 'grey78':0 'CTYellow':7 },135,,
3playersLog_1385502670646.csv,19,520,510,FALSE,{ chips  'CTPurple':1 },{ chips  'CTRed':3 'grey78':1 },FALSE,165,175,,,,,0,(R:1,C:7),{ chips  'CTRed':28 'CTGreen':0 'CTPurple':3 'grey78':2 'CTYellow':2 },175,{ chips  'CTRed':23 'CTGreen':0 'CTPurple':2 'grey78':8 'CTYellow':0 },165,{ chips  'CTRed':15 'CTGreen':0 'CTPurple':5 'grey78':0 'CTYellow':7 },135,,
3playersLog_1385502670646.csv,19,540,510,FALSE,{ chips  'CTRed':3 'CTPurple':5 },{ chips  'CTYellow':2 },FALSE,135,175,,,,,0,(R:1,C:7),{ chips  'CTRed':28 'CTGreen':0 'CTPurple':3 'grey78':2 'CTYellow':2 },175,{ chips  'CTRed':23 'CTGreen':0 'CTPurple':2 'grey78':8 'CTYellow':0 },165,{ chips  'CTRed':15 'CTGreen':0 'CTPurple':5 'grey78':0 'CTYellow':7 },135,,
3playersLog_1385502670646.csv,20,510,520,TRUE,{ chips  'grey78':1 },{ chips  'CTRed':23 'CTPurple':2 },FALSE,175,165,,,,,1,(R:1,C:8),{ chips  'CTRed':28 'CTGreen':0 'CTPurple':3 'grey78':2 'CTYellow':1 },170,{ chips  'CTRed':23 'CTGreen':0 'CTPurple':2 'grey78':8 'CTYellow':0 },165,{ chips  'CTRed':15 'CTGreen':0 'CTPurple':5 'grey78':0 'CTYellow':7 },135,,
3playersLog_1385502670646.csv,21,520,510,FALSE,{ chips  'CTPurple':2 },{ chips  'CTRed':5 'grey78':1 },FALSE,165,170,,,,,0,(R:1,C:8),{ chips  'CTRed':28 'CTGreen':0 'CTPurple':3 'grey78':2 'CTYellow':1 },170,{ chips  'CTRed':23 'CTGreen':0 'CTPurple':2 'grey78':8 'CTYellow':0 },165,{ chips  'CTRed':15 'CTGreen':0 'CTPurple':5 'grey78':0 'CTYellow':7 },135,,
3playersLog_1385502670646.csv,21,540,510,FALSE,{ chips  'CTRed':3 'CTPurple':5 },{ chips  'CTYellow':1 },FALSE,135,170,,,,,0,(R:1,C:8),{ chips  'CTRed':28 'CTGreen':0 'CTPurple':3 'grey78':2 'CTYellow':1 },170,{ chips  'CTRed':23 'CTGreen':0 'CTPurple':2 'grey78':8 'CTYellow':0 },165,{ chips  'CTRed':15 'CTGreen':0 'CTPurple':5 'grey78':0 'CTYellow':7 },135,,
3playersLog_1385502670646.csv,22,510,520,TRUE,{ chips  'grey78':1 },{ chips  'CTRed':23 'CTPurple':2 },FALSE,170,165,,,,,1,(R:0,C:8),{ chips  'CTRed':28 'CTGreen':0 'CTPurple':3 'grey78':2 'CTYellow':0 },315,{ chips  'CTRed':23 'CTGreen':0 'CTPurple':2 'grey78':8 'CTYellow':0 },315,{ chips  'CTRed':15 'CTGreen':0 'CTPurple':5 'grey78':0 'CTYellow':7 },135,,
3playersLog_1385502670646.csv,,,,,,,,,,,,,,,,,,,,,,,,TRUE
3playersLog_1386100111233.csv,1,520,510,FALSE,{ chips  'CTRed':10 'CTPurple':2 },{ chips  'grey78':4 },TRUE,200,120,{ chips  'CTRed':10 'CTPurple':2 'CTGreen':0 'grey78':0 'CTYellow':0 },{ chips  'CTRed':0 'CTPurple':0 'CTGreen':0 'grey78':4 'CTYellow':0 },160,160,0,(R:5,C:4),{ chips  'CTRed':10 'CTGreen':0 'CTPurple':2 'grey78':8 'CTYellow':12 },160,{ chips  'CTRed':23 'CTGreen':0 'CTPurple':5 'grey78':4 'CTYellow':0 },160,{ chips  'CTRed':33 'CTGreen':0 'CTPurple':7 'grey78':0 'CTYellow':0 },200,,
3playersLog_1386100111233.csv,1,540,510,FALSE,{ chips  'CTRed':3 'CTPurple':3 },{ chips  },IGNORED,200,120,,,,,0,(R:5,C:4),{ chips  'CTRed':10 'CTGreen':0 'CTPurple':2 'grey78':8 'CTYellow':12 },160,{ chips  'CTRed':23 'CTGreen':0 'CTPurple':5 'grey78':4 'CTYellow':0 },160,{ chips  'CTRed':33 'CTGreen':0 'CTPurple':7 'grey78':0 'CTYellow':0 },200,,
3playersLog_1386100111233.csv,2,510,540,TRUE,{ chips  'CTYellow':11 },{ chips  'CTRed':33 'CTPurple':7 },FALSE,160,200,,,,,1,(R:5,C:3),{ chips  'CTRed':10 'CTGreen':0 'CTPurple':2 'grey78':7 'CTYellow':12 },155,{ chips  'CTRed':23 'CTGreen':0 'CTPurple':5 'grey78':4 'CTYellow':0 },160,{ chips  'CTRed':33 'CTGreen':0 'CTPurple':7 'grey78':0 'CTYellow':0 },200,,
3playersLog_1386100111233.csv,3,520,510,FALSE,{ chips  'CTPurple':1 },{ chips  },IGNORED,160,155,,,,,0,(R:5,C:3),{ chips  'CTRed':15 'CTGreen':0 'CTPurple':4 'grey78':7 'CTYellow':9 },175,{ chips  'CTRed':23 'CTGreen':0 'CTPurple':5 'grey78':4 'CTYellow':0 },160,{ chips  'CTRed':28 'CTGreen':0 'CTPurple':5 'grey78':0 'CTYellow':3 },180,,
3playersLog_1386100111233.csv,3,540,510,FALSE,{ chips  'CTRed':5 'CTPurple':2 },{ chips  'CTYellow':3 },TRUE,200,155,{ chips  'CTRed':5 'CTPurple':2 'CTGreen':0 'grey78':0 'CTYellow':0 },{ chips  'CTRed':0 'CTPurple':0 'CTGreen':0 'grey78':0 'CTYellow':3 },180,175,0,(R:5,C:3),{ chips  'CTRed':15 'CTGreen':0 'CTPurple':4 'grey78':7 'CTYellow':9 },175,{ chips  'CTRed':23 'CTGreen':0 'CTPurple':5 'grey78':4 'CTYellow':0 },160,{ chips  'CTRed':28 'CTGreen':0 'CTPurple':5 'grey78':0 'CTYellow':3 },180,,
3playersLog_1386100111233.csv,4,510,540,TRUE,{ chips  'CTYellow':8 },{ chips  'CTRed':28 'CTPurple':5 },TRUE,175,160,{ chips  'CTYellow':8 },{ chips  'CTRed':28 'CTPurple':5 'grey78':0 },300,55,8,(R:0,C:0),{ chips  'CTRed':43 'CTGreen':0 'CTPurple':8 'grey78':0 'CTYellow':1 },410,{ chips  'CTRed':23 'CTGreen':0 'CTPurple':5 'grey78':4 'CTYellow':0 },160,{ chips  'CTRed':0 'CTGreen':0 'CTPurple':0 'grey78':0 'CTYellow':11 },205,,
3playersLog_1386100111233.csv,,,,,,,,,,,,,,,,,,,,,,,,TRUE
3playersLog_1386105730358.csv,1,520,510,FALSE,{ chips  'CTPurple':7 },{ chips  },IGNORED,200,120,,,,,0,(R:5,C:4),{ chips  'CTRed':12 'CTGreen':0 'CTPurple':0 'grey78':12 'CTYellow':8 },160,{ chips  'CTRed':33 'CTGreen':0 'CTPurple':7 'grey78':0 'CTYellow':0 },200,{ chips  'CTRed':21 'CTGreen':0 'CTPurple':7 'grey78':0 'CTYellow':4 },160,,
3playersLog_1386105730358.csv,1,540,510,FALSE,{ chips  'CTRed':12 },{ chips  'CTYellow':4 },TRUE,200,120,{ chips  'CTRed':12 'CTPurple':0 'CTGreen':0 'grey78':0 'CTYellow':0 },{ chips  'CTRed':0 'CTPurple':0 'CTGreen':0 'grey78':0 'CTYellow':4 },160,160,0,(R:5,C:4),{ chips  'CTRed':12 'CTGreen':0 'CTPurple':0 'grey78':12 'CTYellow':8 },160,{ chips  'CTRed':33 'CTGreen':0 'CTPurple':7 'grey78':0 'CTYellow':0 },200,{ chips  'CTRed':21 'CTGreen':0 'CTPurple':7 'grey78':0 'CTYellow':4 },160,,
3playersLog_1386105730358.csv,2,510,540,TRUE,{ chips  'CTYellow':7 },{ chips  'CTRed':21 'CTPurple':7 },FALSE,160,160,,,,,1,(R:5,C:3),{ chips  'CTRed':12 'CTGreen':0 'CTPurple':0 'grey78':11 'CTYellow':8 },155,{ chips  'CTRed':33 'CTGreen':0 'CTPurple':7 'grey78':0 'CTYellow':0 },200,{ chips  'CTRed':21 'CTGreen':0 'CTPurple':7 'grey78':0 'CTYellow':4 },160,,
3playersLog_1386105730358.csv,3,520,510,FALSE,{ chips  'CTPurple':4 },{ chips  'grey78':4 },FALSE,200,155,,,,,0,(R:5,C:3),{ chips  'CTRed':12 'CTGreen':0 'CTPurple':0 'grey78':11 'CTYellow':8 },155,{ chips  'CTRed':33 'CTGreen':0 'CTPurple':7 'grey78':0 'CTYellow':0 },200,{ chips  'CTRed':21 'CTGreen':0 'CTPurple':7 'grey78':0 'CTYellow':4 },160,,
3playersLog_1386105730358.csv,3,540,510,FALSE,{ chips  'CTRed':16 },{ chips  'CTYellow':8 },FALSE,160,155,,,,,0,(R:5,C:3),{ chips  'CTRed':12 'CTGreen':0 'CTPurple':0 'grey78':11 'CTYellow':8 },155,{ chips  'CTRed':33 'CTGreen':0 'CTPurple':7 'grey78':0 'CTYellow':0 },200,{ chips  'CTRed':21 'CTGreen':0 'CTPurple':7 'grey78':0 'CTYellow':4 },160,,
3playersLog_1386105730358.csv,4,510,540,TRUE,{ chips  'CTYellow':7 },{ chips  'CTRed':21 'CTPurple':7 },TRUE,155,200,{ chips  'CTYellow':7 },{ chips  'CTRed':21 'CTPurple':7 'grey78':0 },260,55,8,(R:0,C:0),{ chips  'CTRed':33 'CTGreen':0 'CTPurple':5 'grey78':5 'CTYellow':1 },370,{ chips  'CTRed':33 'CTGreen':0 'CTPurple':7 'grey78':0 'CTYellow':0 },200,{ chips  'CTRed':0 'CTGreen':0 'CTPurple':0 'grey78':0 'CTYellow':11 },205,,
3playersLog_1386105730358.csv,,,,,,,,,,,,,,,,,,,,,,,,TRUE
3playersLog_1386175492256.csv,1,520,510,FALSE,{ chips  'CTRed':1 'CTPurple':2 },{ chips  'CTYellow':3 },IGNORED,200,120,,,,,0,(R:5,C:4),{ chips  'CTRed':5 'CTGreen':0 'CTPurple':0 'grey78':12 'CTYellow':10 },135,{ chips  'CTRed':33 'CTGreen':0 'CTPurple':7 'grey78':0 'CTYellow':0 },200,{ chips  'CTRed':28 'CTGreen':0 'CTPurple':7 'grey78':0 'CTYellow':2 },185,,
3playersLog_1386175492256.csv,1,540,510,FALSE,{ chips  'CTRed':5 },{ chips  'CTYellow':2 },TRUE,200,120,{ chips  'CTRed':5 'CTPurple':0 'CTGreen':0 'grey78':0 'CTYellow':0 },{ chips  'CTRed':0 'CTPurple':0 'CTGreen':0 'grey78':0 'CTYellow':2 },185,135,0,(R:5,C:4),{ chips  'CTRed':5 'CTGreen':0 'CTPurple':0 'grey78':12 'CTYellow':10 },135,{ chips  'CTRed':33 'CTGreen':0 'CTPurple':7 'grey78':0 'CTYellow':0 },200,{ chips  'CTRed':28 'CTGreen':0 'CTPurple':7 'grey78':0 'CTYellow':2 },185,,
3playersLog_1386175492256.csv,2,510,540,TRUE,{ chips  'CTYellow':9 },{ chips  'CTRed':28 'CTPurple':7 },TRUE,135,200,{ chips  'CTYellow':9 },{ chips  'CTRed':28 'CTPurple':7 'grey78':0 },265,55,9,(R:0,C:0),{ chips  'CTRed':33 'CTGreen':0 'CTPurple':6 'grey78':4 'CTYellow':1 },370,{ chips  'CTRed':33 'CTGreen':0 'CTPurple':7 'grey78':0 'CTYellow':0 },200,{ chips  'CTRed':0 'CTGreen':0 'CTPurple':0 'grey78':0 'CTYellow':11 },205,,
3playersLog_1386175492256.csv,,,,,,,,,,,,,,,,,,,,,,,,TRUE
3playersLog_1386186396396.csv,1,520,510,FALSE,{ chips  'CTPurple':7 },{ chips  'grey78':1 'CTYellow':1 },TRUE,200,120,{ chips  'CTRed':0 'CTPurple':7 'CTGreen':0 'grey78':0 'CTYellow':0 },{ chips  'CTRed':0 'CTPurple':0 'CTGreen':0 'grey78':1 'CTYellow':1 },175,145,0,(R:5,C:4),{ chips  'CTRed':0 'CTGreen':0 'CTPurple':7 'grey78':11 'CTYellow':11 },145,{ chips  'CTRed':33 'CTGreen':0 'CTPurple':0 'grey78':1 'CTYellow':1 },175,{ chips  'CTRed':33 'CTGreen':0 'CTPurple':7 'grey78':0 'CTYellow':0 },200,,
3playersLog_1386186396396.csv,1,540,510,FALSE,{ chips  'CTRed':15 'CTPurple':2 },{ chips  'CTYellow':12 },IGNORED,200,120,,,,,0,(R:5,C:4),{ chips  'CTRed':0 'CTGreen':0 'CTPurple':7 'grey78':11 'CTYellow':11 },145,{ chips  'CTRed':33 'CTGreen':0 'CTPurple':0 'grey78':1 'CTYellow':1 },175,{ chips  'CTRed':33 'CTGreen':0 'CTPurple':7 'grey78':0 'CTYellow':0 },200,,
3playersLog_1386186396396.csv,2,510,520,TRUE,{ chips  'grey78':10 },{ chips  'CTRed':33 'CTYellow':1 },FALSE,145,175,,,,,1,(R:5,C:5),{ chips  'CTRed':0 'CTGreen':0 'CTPurple':7 'grey78':11 'CTYellow':10 },140,{ chips  'CTRed':33 'CTGreen':0 'CTPurple':0 'grey78':1 'CTYellow':1 },175,{ chips  'CTRed':33 'CTGreen':0 'CTPurple':7 'grey78':0 'CTYellow':0 },200,,
3playersLog_1386186396396.csv,3,520,510,FALSE,{ chips  'CTRed':15 },{ chips  'grey78':5 },IGNORED,175,140,,,,,0,(R:5,C:5),{ chips  'CTRed':20 'CTGreen':0 'CTPurple':14 'grey78':11 'CTYellow':10 },275,{ chips  'CTRed':33 'CTGreen':0 'CTPurple':0 'grey78':1 'CTYellow':1 },175,{ chips  'CTRed':13 'CTGreen':0 'CTPurple':0 'grey78':0 'CTYellow':0 },65,,
3playersLog_1386186396396.csv,3,540,510,FALSE,{ chips  'CTRed':20 'CTPurple':7 },{ chips  },TRUE,200,140,{ chips  'CTRed':20 'CTPurple':7 'CTGreen':0 'grey78':0 'CTYellow':0 },{ chips  'CTRed':0 'CTPurple':0 'CTGreen':0 'grey78':0 'CTYellow':0 },65,275,0,(R:5,C:5),{ chips  'CTRed':20 'CTGreen':0 'CTPurple':14 'grey78':11 'CTYellow':10 },275,{ chips  'CTRed':33 'CTGreen':0 'CTPurple':0 'grey78':1 'CTYellow':1 },175,{ chips  'CTRed':13 'CTGreen':0 'CTPurple':0 'grey78':0 'CTYellow':0 },65,,
3playersLog_1386186396396.csv,4,510,520,TRUE,{ chips  'grey78':10 },{ chips  'CTRed':33 'CTYellow':1 },TRUE,275,175,{ chips  'grey78':10 },{ chips  'CTRed':33 'CTPurple':0 'CTYellow':1 },395,55,8,(R:0,C:8),{ chips  'CTRed':53 'CTGreen':0 'CTPurple':12 'grey78':1 'CTYellow':5 },505,{ chips  'CTRed':0 'CTGreen':0 'CTPurple':0 'grey78':11 'CTYellow':0 },205,{ chips  'CTRed':13 'CTGreen':0 'CTPurple':0 'grey78':0 'CTYellow':0 },65,,
3playersLog_1386186396396.csv,,,,,,,,,,,,,,,,,,,,,,,,TRUE
3playersLog_1386602668988.csv,1,520,510,FALSE,{ chips  'CTRed':15 'CTPurple':1 },{ chips  'grey78':10 },TRUE,200,120,{ chips  'CTRed':15 'CTPurple':1 'CTGreen':0 'grey78':0 'CTYellow':0 },{ chips  'CTRed':0 'CTPurple':0 'CTGreen':0 'grey78':10 'CTYellow':0 },170,150,0,(R:5,C:4),{ chips  'CTRed':15 'CTGreen':0 'CTPurple':1 'grey78':2 'CTYellow':12 },150,{ chips  'CTRed':18 'CTGreen':0 'CTPurple':6 'grey78':10 'CTYellow':0 },170,{ chips  'CTRed':33 'CTGreen':0 'CTPurple':7 'grey78':0 'CTYellow':0 },200,,
3playersLog_1386602668988.csv,1,540,510,FALSE,{ chips  'CTRed':5 },{ chips  },IGNORED,200,120,,,,,0,(R:5,C:4),{ chips  'CTRed':15 'CTGreen':0 'CTPurple':1 'grey78':2 'CTYellow':12 },150,{ chips  'CTRed':18 'CTGreen':0 'CTPurple':6 'grey78':10 'CTYellow':0 },170,{ chips  'CTRed':33 'CTGreen':0 'CTPurple':7 'grey78':0 'CTYellow':0 },200,,
3playersLog_1386602668988.csv,2,510,520,TRUE,{ chips  'grey78':1 },{ chips  'CTRed':18 'CTPurple':6 },FALSE,150,170,,,,,1,(R:5,C:5),{ chips  'CTRed':15 'CTGreen':0 'CTPurple':1 'grey78':2 'CTYellow':11 },145,{ chips  'CTRed':18 'CTGreen':0 'CTPurple':6 'grey78':10 'CTYellow':0 },170,{ chips  'CTRed':33 'CTGreen':0 'CTPurple':7 'grey78':0 'CTYellow':0 },200,,
3playersLog_1386602668988.csv,3,520,510,FALSE,{ chips  'CTRed':5 },{ chips  'grey78':2 },FALSE,170,145,,,,,0,(R:5,C:5),{ chips  'CTRed':15 'CTGreen':0 'CTPurple':1 'grey78':2 'CTYellow':11 },145,{ chips  'CTRed':18 'CTGreen':0 'CTPurple':6 'grey78':10 'CTYellow':0 },170,{ chips  'CTRed':33 'CTGreen':0 'CTPurple':7 'grey78':0 'CTYellow':0 },200,,
3playersLog_1386602668988.csv,3,540,510,FALSE,{ chips  },{ chips  },FALSE,200,145,,,,,0,(R:5,C:5),{ chips  'CTRed':15 'CTGreen':0 'CTPurple':1 'grey78':2 'CTYellow':11 },145,{ chips  'CTRed':18 'CTGreen':0 'CTPurple':6 'grey78':10 'CTYellow':0 },170,{ chips  'CTRed':33 'CTGreen':0 'CTPurple':7 'grey78':0 'CTYellow':0 },200,,
3playersLog_1386602668988.csv,4,510,520,TRUE,{ chips  'grey78':1 },{ chips  'CTRed':18 'CTPurple':6 },FALSE,145,170,,,,,1,(R:4,C:5),{ chips  'CTRed':15 'CTGreen':0 'CTPurple':1 'grey78':2 'CTYellow':10 },140,{ chips  'CTRed':18 'CTGreen':0 'CTPurple':6 'grey78':10 'CTYellow':0 },170,{ chips  'CTRed':33 'CTGreen':0 'CTPurple':7 'grey78':0 'CTYellow':0 },200,,
3playersLog_1386602668988.csv,5,520,510,FALSE,{ chips  'CTPurple':2 },{ chips  'CTRed':5 },FALSE,170,140,,,,,0,(R:4,C:5),{ chips  'CTRed':15 'CTGreen':0 'CTPurple':1 'grey78':2 'CTYellow':10 },140,{ chips  'CTRed':18 'CTGreen':0 'CTPurple':6 'grey78':10 'CTYellow':0 },170,{ chips  'CTRed':33 'CTGreen':0 'CTPurple':7 'grey78':0 'CTYellow':0 },200,,
3playersLog_1386602668988.csv,5,540,510,FALSE,{ chips  },{ chips  },FALSE,200,140,,,,,0,(R:4,C:5),{ chips  'CTRed':15 'CTGreen':0 'CTPurple':1 'grey78':2 'CTYellow':10 },140,{ chips  'CTRed':18 'CTGreen':0 'CTPurple':6 'grey78':10 'CTYellow':0 },170,{ chips  'CTRed':33 'CTGreen':0 'CTPurple':7 'grey78':0 'CTYellow':0 },200,,
3playersLog_1386602668988.csv,6,510,520,TRUE,{ chips  'grey78':1 },{ chips  'CTRed':18 'CTPurple':6 },FALSE,140,170,,,,,1,(R:4,C:6),{ chips  'CTRed':15 'CTGreen':0 'CTPurple':1 'grey78':2 'CTYellow':9 },135,{ chips  'CTRed':18 'CTGreen':0 'CTPurple':6 'grey78':10 'CTYellow':0 },170,{ chips  'CTRed':33 'CTGreen':0 'CTPurple':7 'grey78':0 'CTYellow':0 },200,,
3playersLog_1386602668988.csv,7,520,510,FALSE,{ chips  'CTPurple':2 },{ chips  'CTRed':2 'grey78':2 },FALSE,170,135,,,,,0,(R:4,C:6),{ chips  'CTRed':15 'CTGreen':0 'CTPurple':1 'grey78':2 'CTYellow':9 },135,{ chips  'CTRed':18 'CTGreen':0 'CTPurple':6 'grey78':10 'CTYellow':0 },170,{ chips  'CTRed':33 'CTGreen':0 'CTPurple':7 'grey78':0 'CTYellow':0 },200,,
3playersLog_1386602668988.csv,7,540,510,FALSE,{ chips  },{ chips  },FALSE,200,135,,,,,0,(R:4,C:6),{ chips  'CTRed':15 'CTGreen':0 'CTPurple':1 'grey78':2 'CTYellow':9 },135,{ chips  'CTRed':18 'CTGreen':0 'CTPurple':6 'grey78':10 'CTYellow':0 },170,{ chips  'CTRed':33 'CTGreen':0 'CTPurple':7 'grey78':0 'CTYellow':0 },200,,
3playersLog_1386602668988.csv,8,510,520,TRUE,{ chips  'grey78':1 },{ chips  'CTRed':18 'CTPurple':6 },FALSE,135,170,,,,,1,(R:3,C:6),{ chips  'CTRed':15 'CTGreen':0 'CTPurple':1 'grey78':2 'CTYellow':8 },130,{ chips  'CTRed':18 'CTGreen':0 'CTPurple':6 'grey78':10 'CTYellow':0 },170,{ chips  'CTRed':33 'CTGreen':0 'CTPurple':7 'grey78':0 'CTYellow':0 },200,,
3playersLog_1386602668988.csv,9,520,510,FALSE,{ chips  'CTRed':2 },{ chips  'grey78':2 },FALSE,170,130,,,,,0,(R:3,C:6),{ chips  'CTRed':15 'CTGreen':0 'CTPurple':1 'grey78':2 'CTYellow':8 },130,{ chips  'CTRed':18 'CTGreen':0 'CTPurple':6 'grey78':10 'CTYellow':0 },170,{ chips  'CTRed':33 'CTGreen':0 'CTPurple':7 'grey78':0 'CTYellow':0 },200,,
3playersLog_1386602668988.csv,9,540,510,FALSE,{ chips  },{ chips  },FALSE,200,130,,,,,0,(R:3,C:6),{ chips  'CTRed':15 'CTGreen':0 'CTPurple':1 'grey78':2 'CTYellow':8 },130,{ chips  'CTRed':18 'CTGreen':0 'CTPurple':6 'grey78':10 'CTYellow':0 },170,{ chips  'CTRed':33 'CTGreen':0 'CTPurple':7 'grey78':0 'CTYellow':0 },200,,
3playersLog_1386602668988.csv,10,510,520,TRUE,{ chips  'grey78':1 },{ chips  'CTRed':18 'CTPurple':6 },FALSE,130,170,,,,,1,(R:3,C:7),{ chips  'CTRed':15 'CTGreen':0 'CTPurple':1 'grey78':2 'CTYellow':7 },125,{ chips  'CTRed':18 'CTGreen':0 'CTPurple':6 'grey78':10 'CTYellow':0 },170,{ chips  'CTRed':33 'CTGreen':0 'CTPurple':7 'grey78':0 'CTYellow':0 },200,,
3playersLog_1386602668988.csv,11,520,510,FALSE,{ chips  'CTRed':3 },{ chips  'grey78':2 },FALSE,170,125,,,,,0,(R:3,C:7),{ chips  'CTRed':15 'CTGreen':0 'CTPurple':1 'grey78':2 'CTYellow':7 },125,{ chips  'CTRed':18 'CTGreen':0 'CTPurple':6 'grey78':10 'CTYellow':0 },170,{ chips  'CTRed':33 'CTGreen':0 'CTPurple':7 'grey78':0 'CTYellow':0 },200,,
3playersLog_1386602668988.csv,11,540,510,FALSE,{ chips  },{ chips  },FALSE,200,125,,,,,0,(R:3,C:7),{ chips  'CTRed':15 'CTGreen':0 'CTPurple':1 'grey78':2 'CTYellow':7 },125,{ chips  'CTRed':18 'CTGreen':0 'CTPurple':6 'grey78':10 'CTYellow':0 },170,{ chips  'CTRed':33 'CTGreen':0 'CTPurple':7 'grey78':0 'CTYellow':0 },200,,
3playersLog_1386602668988.csv,12,510,520,TRUE,{ chips  'grey78':1 },{ chips  'CTRed':18 'CTPurple':6 },FALSE,125,170,,,,,1,(R:2,C:7),{ chips  'CTRed':15 'CTGreen':0 'CTPurple':1 'grey78':2 'CTYellow':6 },120,{ chips  'CTRed':18 'CTGreen':0 'CTPurple':6 'grey78':10 'CTYellow':0 },170,{ chips  'CTRed':33 'CTGreen':0 'CTPurple':7 'grey78':0 'CTYellow':0 },200,,
3playersLog_1386602668988.csv,13,520,510,FALSE,{ chips  'CTRed':4 },{ chips  'grey78':2 },FALSE,170,120,,,,,0,(R:2,C:7),{ chips  'CTRed':15 'CTGreen':0 'CTPurple':1 'grey78':2 'CTYellow':6 },120,{ chips  'CTRed':18 'CTGreen':0 'CTPurple':6 'grey78':10 'CTYellow':0 },170,{ chips  'CTRed':33 'CTGreen':0 'CTPurple':7 'grey78':0 'CTYellow':0 },200,,
3playersLog_1386602668988.csv,13,540,510,FALSE,{ chips  },{ chips  },FALSE,200,120,,,,,0,(R:2,C:7),{ chips  'CTRed':15 'CTGreen':0 'CTPurple':1 'grey78':2 'CTYellow':6 },120,{ chips  'CTRed':18 'CTGreen':0 'CTPurple':6 'grey78':10 'CTYellow':0 },170,{ chips  'CTRed':33 'CTGreen':0 'CTPurple':7 'grey78':0 'CTYellow':0 },200,,
3playersLog_1386602668988.csv,14,510,520,TRUE,{ chips  'grey78':1 },{ chips  'CTRed':18 'CTPurple':6 },FALSE,120,170,,,,,1,(R:2,C:8),{ chips  'CTRed':15 'CTGreen':0 'CTPurple':1 'grey78':2 'CTYellow':5 },115,{ chips  'CTRed':18 'CTGreen':0 'CTPurple':6 'grey78':10 'CTYellow':0 },170,{ chips  'CTRed':33 'CTGreen':0 'CTPurple':7 'grey78':0 'CTYellow':0 },200,,
3playersLog_1386602668988.csv,15,520,510,FALSE,{ chips  'CTRed':5 },{ chips  'grey78':2 },FALSE,170,115,,,,,0,(R:2,C:8),{ chips  'CTRed':15 'CTGreen':0 'CTPurple':1 'grey78':2 'CTYellow':5 },115,{ chips  'CTRed':18 'CTGreen':0 'CTPurple':6 'grey78':10 'CTYellow':0 },170,{ chips  'CTRed':33 'CTGreen':0 'CTPurple':7 'grey78':0 'CTYellow':0 },200,,
3playersLog_1386602668988.csv,15,540,510,FALSE,{ chips  },{ chips  },FALSE,200,115,,,,,0,(R:2,C:8),{ chips  'CTRed':15 'CTGreen':0 'CTPurple':1 'grey78':2 'CTYellow':5 },115,{ chips  'CTRed':18 'CTGreen':0 'CTPurple':6 'grey78':10 'CTYellow':0 },170,{ chips  'CTRed':33 'CTGreen':0 'CTPurple':7 'grey78':0 'CTYellow':0 },200,,
3playersLog_1386602668988.csv,16,510,520,TRUE,{ chips  'grey78':1 },{ chips  'CTRed':18 'CTPurple':6 },FALSE,115,170,,,,,1,(R:1,C:8),{ chips  'CTRed':15 'CTGreen':0 'CTPurple':1 'grey78':2 'CTYellow':4 },110,{ chips  'CTRed':18 'CTGreen':0 'CTPurple':6 'grey78':10 'CTYellow':0 },170,{ chips  'CTRed':33 'CTGreen':0 'CTPurple':7 'grey78':0 'CTYellow':0 },200,,
3playersLog_1386602668988.csv,17,520,510,FALSE,{ chips  'grey78':1 },{ chips  'CTRed':15 },FALSE,170,110,,,,,0,(R:1,C:8),{ chips  'CTRed':15 'CTGreen':0 'CTPurple':1 'grey78':2 'CTYellow':4 },110,{ chips  'CTRed':18 'CTGreen':0 'CTPurple':6 'grey78':10 'CTYellow':0 },170,{ chips  'CTRed':33 'CTGreen':0 'CTPurple':7 'grey78':0 'CTYellow':0 },200,,
3playersLog_1386602668988.csv,17,540,510,FALSE,{ chips  },{ chips  },FALSE,200,110,,,,,0,(R:1,C:8),{ chips  'CTRed':15 'CTGreen':0 'CTPurple':1 'grey78':2 'CTYellow':4 },110,{ chips  'CTRed':18 'CTGreen':0 'CTPurple':6 'grey78':10 'CTYellow':0 },170,{ chips  'CTRed':33 'CTGreen':0 'CTPurple':7 'grey78':0 'CTYellow':0 },200,,
3playersLog_1386602668988.csv,18,510,520,TRUE,{ chips  'grey78':1 },{ chips  'CTRed':18 'CTPurple':6 },FALSE,110,170,,,,,1,(R:0,C:8),{ chips  'CTRed':15 'CTGreen':0 'CTPurple':1 'grey78':2 'CTYellow':3 },255,{ chips  'CTRed':18 'CTGreen':0 'CTPurple':6 'grey78':10 'CTYellow':0 },320,{ chips  'CTRed':33 'CTGreen':0 'CTPurple':7 'grey78':0 'CTYellow':0 },200,,
3playersLog_1386602668988.csv,,,,,,,,,,,,,,,,,,,,,,,,TRUE
3playersLog_1386602904826.csv,1,540,510,FALSE,{ chips  'CTPurple':2 },{ chips  },TRUE,200,120,{ chips  'CTRed':0 'CTPurple':2 'CTGreen':0 'grey78':0 'CTYellow':0 },{ chips  'CTRed':0 'CTPurple':0 'CTGreen':0 'grey78':0 'CTYellow':0 },190,130,0,(R:5,C:4),{ chips  'CTRed':0 'CTGreen':0 'CTPurple':2 'grey78':12 'CTYellow':12 },130,{ chips  'CTRed':33 'CTGreen':0 'CTPurple':7 'grey78':0 'CTYellow':0 },200,{ chips  'CTRed':33 'CTGreen':0 'CTPurple':5 'grey78':0 'CTYellow':0 },190,,
3playersLog_1386602904826.csv,2,510,540,TRUE,{ chips  'CTYellow':11 },{ chips  'CTRed':33 'CTPurple':5 },FALSE,130,190,,,,,1,(R:5,C:5),{ chips  'CTRed':0 'CTGreen':0 'CTPurple':2 'grey78':12 'CTYellow':11 },125,{ chips  'CTRed':33 'CTGreen':0 'CTPurple':7 'grey78':0 'CTYellow':0 },200,{ chips  'CTRed':33 'CTGreen':0 'CTPurple':5 'grey78':0 'CTYellow':0 },190,,
3playersLog_1386602904826.csv,3,520,510,FALSE,{ chips  },{ chips  'CTYellow':8 },FALSE,200,125,,,,,0,(R:5,C:5),{ chips  'CTRed':0 'CTGreen':0 'CTPurple':2 'grey78':12 'CTYellow':11 },125,{ chips  'CTRed':33 'CTGreen':0 'CTPurple':7 'grey78':0 'CTYellow':0 },200,{ chips  'CTRed':33 'CTGreen':0 'CTPurple':5 'grey78':0 'CTYellow':0 },190,,
3playersLog_1386602904826.csv,3,540,510,FALSE,{ chips  'CTRed':3 },{ chips  'CTYellow':6 },FALSE,190,125,,,,,0,(R:5,C:5),{ chips  'CTRed':0 'CTGreen':0 'CTPurple':2 'grey78':12 'CTYellow':11 },125,{ chips  'CTRed':33 'CTGreen':0 'CTPurple':7 'grey78':0 'CTYellow':0 },200,{ chips  'CTRed':33 'CTGreen':0 'CTPurple':5 'grey78':0 'CTYellow':0 },190,,
3playersLog_1386602904826.csv,4,510,520,TRUE,{ chips  'grey78':11 },{ chips  'CTRed':33 'CTPurple':7 },FALSE,125,200,,,,,1,(R:4,C:5),{ chips  'CTRed':0 'CTGreen':0 'CTPurple':2 'grey78':12 'CTYellow':10 },120,{ chips  'CTRed':33 'CTGreen':0 'CTPurple':7 'grey78':0 'CTYellow':0 },200,{ chips  'CTRed':33 'CTGreen':0 'CTPurple':5 'grey78':0 'CTYellow':0 },190,,
3playersLog_1386602904826.csv,5,520,510,FALSE,{ chips  },{ chips  'CTPurple':1 'CTYellow':6 },IGNORED,200,120,,,,,0,(R:4,C:5),{ chips  'CTRed':0 'CTGreen':0 'CTPurple':4 'grey78':12 'CTYellow':9 },125,{ chips  'CTRed':33 'CTGreen':0 'CTPurple':7 'grey78':0 'CTYellow':0 },200,{ chips  'CTRed':33 'CTGreen':0 'CTPurple':3 'grey78':0 'CTYellow':1 },185,,
3playersLog_1386602904826.csv,5,540,510,FALSE,{ chips  'CTPurple':2 },{ chips  'CTYellow':1 },TRUE,190,120,{ chips  'CTRed':0 'CTPurple':2 'CTGreen':0 'grey78':0 'CTYellow':0 },{ chips  'CTRed':0 'CTPurple':0 'CTGreen':0 'grey78':0 'CTYellow':1 },185,125,0,(R:4,C:5),{ chips  'CTRed':0 'CTGreen':0 'CTPurple':4 'grey78':12 'CTYellow':9 },125,{ chips  'CTRed':33 'CTGreen':0 'CTPurple':7 'grey78':0 'CTYellow':0 },200,{ chips  'CTRed':33 'CTGreen':0 'CTPurple':3 'grey78':0 'CTYellow':1 },185,,
3playersLog_1386602904826.csv,6,510,520,TRUE,{ chips  'grey78':11 },{ chips  'CTRed':33 'CTPurple':7 },TRUE,125,200,{ chips  'grey78':11 },{ chips  'CTRed':33 'CTPurple':7 'CTYellow':0 },270,55,7,(R:0,C:8),{ chips  'CTRed':33 'CTGreen':0 'CTPurple':9 'grey78':1 'CTYellow':4 },385,{ chips  'CTRed':0 'CTGreen':0 'CTPurple':0 'grey78':11 'CTYellow':0 },205,{ chips  'CTRed':33 'CTGreen':0 'CTPurple':3 'grey78':0 'CTYellow':1 },185,,
3playersLog_1386602904826.csv,,,,,,,,,,,,,,,,,,,,,,,,TRUE
3playersLog_1386603234655.csv,1,520,510,FALSE,{ chips  'CTRed':3 },{ chips  'CTYellow':1 },IGNORED,200,120,,,,,0,(R:5,C:4),{ chips  'CTRed':20 'CTGreen':0 'CTPurple':3 'grey78':12 'CTYellow':12 },235,{ chips  'CTRed':33 'CTGreen':0 'CTPurple':7 'grey78':0 'CTYellow':0 },200,{ chips  'CTRed':13 'CTGreen':0 'CTPurple':4 'grey78':0 'CTYellow':0 },85,,
3playersLog_1386603234655.csv,1,540,510,FALSE,{ chips  'CTRed':20 'CTPurple':3 },{ chips  },TRUE,200,120,{ chips  'CTRed':20 'CTPurple':3 'CTGreen':0 'grey78':0 'CTYellow':0 },{ chips  'CTRed':0 'CTPurple':0 'CTGreen':0 'grey78':0 'CTYellow':0 },85,235,0,(R:5,C:4),{ chips  'CTRed':20 'CTGreen':0 'CTPurple':3 'grey78':12 'CTYellow':12 },235,{ chips  'CTRed':33 'CTGreen':0 'CTPurple':7 'grey78':0 'CTYellow':0 },200,{ chips  'CTRed':13 'CTGreen':0 'CTPurple':4 'grey78':0 'CTYellow':0 },85,,
3playersLog_1386603234655.csv,2,510,520,TRUE,{ chips  'grey78':11 },{ chips  'CTRed':33 'CTPurple':7 },FALSE,235,200,,,,,1,(R:5,C:3),{ chips  'CTRed':20 'CTGreen':0 'CTPurple':3 'grey78':11 'CTYellow':12 },230,{ chips  'CTRed':33 'CTGreen':0 'CTPurple':7 'grey78':0 'CTYellow':0 },200,{ chips  'CTRed':13 'CTGreen':0 'CTPurple':4 'grey78':0 'CTYellow':0 },85,,
3playersLog_1386603234655.csv,3,520,510,FALSE,{ chips  'CTRed':8 'CTPurple':3 },{ chips  'grey78':1 'CTYellow':2 },TRUE,200,230,{ chips  'CTRed':8 'CTPurple':3 'CTGreen':0 'grey78':0 'CTYellow':0 },{ chips  'CTRed':0 'CTPurple':0 'CTGreen':0 'grey78':1 'CTYellow':2 },160,270,0,(R:5,C:3),{ chips  'CTRed':28 'CTGreen':0 'CTPurple':6 'grey78':10 'CTYellow':10 },270,{ chips  'CTRed':25 'CTGreen':0 'CTPurple':4 'grey78':1 'CTYellow':2 },160,{ chips  'CTRed':13 'CTGreen':0 'CTPurple':4 'grey78':0 'CTYellow':0 },85,,
3playersLog_1386603234655.csv,3,540,510,FALSE,{ chips  'CTRed':2 'CTPurple':1 },{ chips  'CTRed':16 'CTPurple':2 'grey78':9 'CTYellow':1 },IGNORED,85,230,,,,,0,(R:5,C:3),{ chips  'CTRed':28 'CTGreen':0 'CTPurple':6 'grey78':10 'CTYellow':10 },270,{ chips  'CTRed':25 'CTGreen':0 'CTPurple':4 'grey78':1 'CTYellow':2 },160,{ chips  'CTRed':13 'CTGreen':0 'CTPurple':4 'grey78':0 'CTYellow':0 },85,,
3playersLog_1386603234655.csv,4,510,540,TRUE,{ chips  },{ chips  'CTRed':9 'CTPurple':1 },FALSE,270,85,,,,,1,(R:4,C:3),{ chips  'CTRed':28 'CTGreen':0 'CTPurple':6 'grey78':9 'CTYellow':10 },265,{ chips  'CTRed':25 'CTGreen':0 'CTPurple':4 'grey78':1 'CTYellow':2 },160,{ chips  'CTRed':13 'CTGreen':0 'CTPurple':4 'grey78':0 'CTYellow':0 },85,,
3playersLog_1386603234655.csv,5,520,510,FALSE,{ chips  'CTRed':4 'CTPurple':2 'CTYellow':2 },{ chips  'grey78':4 },TRUE,160,265,{ chips  'CTRed':4 'CTPurple':2 'CTGreen':0 'grey78':0 'CTYellow':2 },{ chips  'CTRed':0 'CTPurple':0 'CTGreen':0 'grey78':4 'CTYellow':0 },140,285,0,(R:4,C:3),{ chips  'CTRed':32 'CTGreen':0 'CTPurple':8 'grey78':5 'CTYellow':12 },285,{ chips  'CTRed':21 'CTGreen':0 'CTPurple':2 'grey78':5 'CTYellow':0 },140,{ chips  'CTRed':13 'CTGreen':0 'CTPurple':4 'grey78':0 'CTYellow':0 },85,,
3playersLog_1386603234655.csv,5,540,510,FALSE,{ chips  'CTRed':3 'CTPurple':2 },{ chips  'CTRed':14 'CTPurple':3 'grey78':1 'CTYellow':1 },IGNORED,85,265,,,,,0,(R:4,C:3),{ chips  'CTRed':32 'CTGreen':0 'CTPurple':8 'grey78':5 'CTYellow':12 },285,{ chips  'CTRed':21 'CTGreen':0 'CTPurple':2 'grey78':5 'CTYellow':0 },140,{ chips  'CTRed':13 'CTGreen':0 'CTPurple':4 'grey78':0 'CTYellow':0 },85,,
3playersLog_1386603234655.csv,6,510,540,TRUE,{ chips  'CTYellow':11 },{ chips  'CTRed':13 'CTPurple':4 },TRUE,285,140,{ chips  'CTYellow':11 },{ chips  'CTRed':13 'CTPurple':4 'grey78':0 },315,55,7,(R:0,C:0),{ chips  'CTRed':45 'CTGreen':0 'CTPurple':10 'grey78':0 'CTYellow':1 },430,{ chips  'CTRed':21 'CTGreen':0 'CTPurple':2 'grey78':5 'CTYellow':0 },140,{ chips  'CTRed':0 'CTGreen':0 'CTPurple':0 'grey78':0 'CTYellow':11 },205,,
3playersLog_1386603234655.csv,,,,,,,,,,,,,,,,,,,,,,,,TRUE
3playersLog_1386624677410.csv,1,520,510,FALSE,{ chips  },{ chips  'grey78':8 },IGNORED,200,120,,,,,0,(R:5,C:4),{ chips  'CTRed':5 'CTGreen':0 'CTPurple':2 'grey78':8 'CTYellow':12 },135,{ chips  'CTRed':33 'CTGreen':0 'CTPurple':7 'grey78':0 'CTYellow':0 },200,{ chips  'CTRed':28 'CTGreen':0 'CTPurple':5 'grey78':4 'CTYellow':0 },185,,
3playersLog_1386624677410.csv,1,540,510,FALSE,{ chips  'CTRed':5 'CTPurple':2 },{ chips  'grey78':4 },TRUE,200,120,{ chips  'CTRed':5 'CTPurple':2 'CTGreen':0 'grey78':0 'CTYellow':0 },{ chips  'CTRed':0 'CTPurple':0 'CTGreen':0 'grey78':4 'CTYellow':0 },185,135,0,(R:5,C:4),{ chips  'CTRed':5 'CTGreen':0 'CTPurple':2 'grey78':8 'CTYellow':12 },135,{ chips  'CTRed':33 'CTGreen':0 'CTPurple':7 'grey78':0 'CTYellow':0 },200,{ chips  'CTRed':28 'CTGreen':0 'CTPurple':5 'grey78':4 'CTYellow':0 },185,,
3playersLog_1386624677410.csv,2,510,540,TRUE,{ chips  'CTYellow':11 },{ chips  'CTRed':28 'CTPurple':5 'grey78':4 },TRUE,135,200,{ chips  'CTYellow':11 },{ chips  'CTRed':28 'CTPurple':5 'grey78':4 },265,55,9,(R:0,C:0),{ chips  'CTRed':33 'CTGreen':0 'CTPurple':6 'grey78':4 'CTYellow':1 },370,{ chips  'CTRed':33 'CTGreen':0 'CTPurple':7 'grey78':0 'CTYellow':0 },200,{ chips  'CTRed':0 'CTGreen':0 'CTPurple':0 'grey78':0 'CTYellow':11 },205,,
3playersLog_1386624677410.csv,,,,,,,,,,,,,,,,,,,,,,,,TRUE
3playersLog_1386625567636.csv,1,520,510,FALSE,{ chips  },{ chips  },IGNORED,200,120,,,,,0,(R:5,C:4),{ chips  'CTRed':0 'CTGreen':0 'CTPurple':2 'grey78':12 'CTYellow':11 },125,{ chips  'CTRed':33 'CTGreen':0 'CTPurple':7 'grey78':0 'CTYellow':0 },200,{ chips  'CTRed':33 'CTGreen':0 'CTPurple':5 'grey78':0 'CTYellow':1 },195,,
3playersLog_1386625567636.csv,1,540,510,FALSE,{ chips  'CTPurple':2 },{ chips  'CTYellow':1 },TRUE,200,120,{ chips  'CTRed':0 'CTPurple':2 'CTGreen':0 'grey78':0 'CTYellow':0 },{ chips  'CTRed':0 'CTPurple':0 'CTGreen':0 'grey78':0 'CTYellow':1 },195,125,0,(R:5,C:4),{ chips  'CTRed':0 'CTGreen':0 'CTPurple':2 'grey78':12 'CTYellow':11 },125,{ chips  'CTRed':33 'CTGreen':0 'CTPurple':7 'grey78':0 'CTYellow':0 },200,{ chips  'CTRed':33 'CTGreen':0 'CTPurple':5 'grey78':0 'CTYellow':1 },195,,
3playersLog_1386625567636.csv,2,510,540,TRUE,{ chips  'CTYellow':10 },{ chips  'CTRed':33 'CTPurple':5 },FALSE,125,195,,,,,1,(R:5,C:3),{ chips  'CTRed':0 'CTGreen':0 'CTPurple':2 'grey78':11 'CTYellow':11 },120,{ chips  'CTRed':33 'CTGreen':0 'CTPurple':7 'grey78':0 'CTYellow':0 },200,{ chips  'CTRed':33 'CTGreen':0 'CTPurple':5 'grey78':0 'CTYellow':1 },195,,
3playersLog_1386625567636.csv,3,520,510,FALSE,{ chips  },{ chips  },FALSE,200,120,,,,,0,(R:5,C:3),{ chips  'CTRed':0 'CTGreen':0 'CTPurple':2 'grey78':11 'CTYellow':11 },120,{ chips  'CTRed':33 'CTGreen':0 'CTPurple':7 'grey78':0 'CTYellow':0 },200,{ chips  'CTRed':33 'CTGreen':0 'CTPurple':5 'grey78':0 'CTYellow':1 },195,,
3playersLog_1386625567636.csv,3,540,510,FALSE,{ chips  'CTRed':12 'CTPurple':5 },{ chips  'CTYellow':10 },FALSE,195,120,,,,,0,(R:5,C:3),{ chips  'CTRed':0 'CTGreen':0 'CTPurple':2 'grey78':11 'CTYellow':11 },120,{ chips  'CTRed':33 'CTGreen':0 'CTPurple':7 'grey78':0 'CTYellow':0 },200,{ chips  'CTRed':33 'CTGreen':0 'CTPurple':5 'grey78':0 'CTYellow':1 },195,,
3playersLog_1386625567636.csv,4,510,540,TRUE,{ chips  'CTYellow':10 },{ chips  'CTRed':33 'CTPurple':5 },FALSE,120,195,,,,,1,(R:4,C:3),{ chips  'CTRed':0 'CTGreen':0 'CTPurple':2 'grey78':10 'CTYellow':11 },115,{ chips  'CTRed':33 'CTGreen':0 'CTPurple':7 'grey78':0 'CTYellow':0 },200,{ chips  'CTRed':33 'CTGreen':0 'CTPurple':5 'grey78':0 'CTYellow':1 },195,,
3playersLog_1386625567636.csv,5,520,510,FALSE,{ chips  },{ chips  },FALSE,200,115,,,,,0,(R:4,C:3),{ chips  'CTRed':0 'CTGreen':0 'CTPurple':2 'grey78':10 'CTYellow':11 },115,{ chips  'CTRed':33 'CTGreen':0 'CTPurple':7 'grey78':0 'CTYellow':0 },200,{ chips  'CTRed':33 'CTGreen':0 'CTPurple':5 'grey78':0 'CTYellow':1 },195,,
3playersLog_1386625567636.csv,5,540,510,FALSE,{ chips  'CTRed':12 'CTPurple':5 },{ chips  'CTYellow':10 },FALSE,195,115,,,,,0,(R:4,C:3),{ chips  'CTRed':0 'CTGreen':0 'CTPurple':2 'grey78':10 'CTYellow':11 },115,{ chips  'CTRed':33 'CTGreen':0 'CTPurple':7 'grey78':0 'CTYellow':0 },200,{ chips  'CTRed':33 'CTGreen':0 'CTPurple':5 'grey78':0 'CTYellow':1 },195,,
3playersLog_1386625567636.csv,6,510,540,TRUE,{ chips  'CTYellow':10 },{ chips  'CTRed':33 'CTPurple':5 },FALSE,115,195,,,,,1,(R:4,C:2),{ chips  'CTRed':0 'CTGreen':0 'CTPurple':2 'grey78':9 'CTYellow':11 },110,{ chips  'CTRed':33 'CTGreen':0 'CTPurple':7 'grey78':0 'CTYellow':0 },200,{ chips  'CTRed':33 'CTGreen':0 'CTPurple':5 'grey78':0 'CTYellow':1 },195,,
3playersLog_1386625567636.csv,7,520,510,FALSE,{ chips  },{ chips  },IGNORED,200,110,,,,,0,(R:4,C:2),{ chips  'CTRed':12 'CTGreen':0 'CTPurple':7 'grey78':9 'CTYellow':11 },195,{ chips  'CTRed':33 'CTGreen':0 'CTPurple':7 'grey78':0 'CTYellow':0 },200,{ chips  'CTRed':21 'CTGreen':0 'CTPurple':0 'grey78':0 'CTYellow':1 },110,,
3playersLog_1386625567636.csv,7,540,510,FALSE,{ chips  'CTRed':12 'CTPurple':5 },{ chips  },TRUE,195,110,{ chips  'CTRed':12 'CTPurple':5 'CTGreen':0 'grey78':0 'CTYellow':0 },{ chips  'CTRed':0 'CTPurple':0 'CTGreen':0 'grey78':0 'CTYellow':0 },110,195,0,(R:4,C:2),{ chips  'CTRed':12 'CTGreen':0 'CTPurple':7 'grey78':9 'CTYellow':11 },195,{ chips  'CTRed':33 'CTGreen':0 'CTPurple':7 'grey78':0 'CTYellow':0 },200,{ chips  'CTRed':21 'CTGreen':0 'CTPurple':0 'grey78':0 'CTYellow':1 },110,,
3playersLog_1386625567636.csv,8,510,540,TRUE,{ chips  'CTYellow':10 },{ chips  'CTRed':21 },TRUE,195,200,{ chips  'CTYellow':10 },{ chips  'CTRed':21 'CTPurple':0 'grey78':0 },250,55,6,(R:0,C:0),{ chips  'CTRed':33 'CTGreen':0 'CTPurple':7 'grey78':3 'CTYellow':1 },370,{ chips  'CTRed':33 'CTGreen':0 'CTPurple':7 'grey78':0 'CTYellow':0 },200,{ chips  'CTRed':0 'CTGreen':0 'CTPurple':0 'grey78':0 'CTYellow':11 },205,,
3playersLog_1386625567636.csv,,,,,,,,,,,,,,,,,,,,,,,,TRUE
3playersLog_1386861924679.csv,1,520,510,FALSE,{ chips  'CTRed':10 },{ chips  'grey78':5 },TRUE,200,120,{ chips  'CTRed':10 'CTPurple':0 'CTGreen':0 'grey78':0 'CTYellow':0 },{ chips  'CTRed':0 'CTPurple':0 'CTGreen':0 'grey78':5 'CTYellow':0 },175,145,0,(R:5,C:4),{ chips  'CTRed':10 'CTGreen':0 'CTPurple':0 'grey78':7 'CTYellow':12 },145,{ chips  'CTRed':23 'CTGreen':0 'CTPurple':7 'grey78':5 'CTYellow':0 },175,{ chips  'CTRed':33 'CTGreen':0 'CTPurple':7 'grey78':0 'CTYellow':0 },200,,
3playersLog_1386861924679.csv,1,540,510,FALSE,{ chips  'CTRed':4 },{ chips  },IGNORED,200,120,,,,,0,(R:5,C:4),{ chips  'CTRed':10 'CTGreen':0 'CTPurple':0 'grey78':7 'CTYellow':12 },145,{ chips  'CTRed':23 'CTGreen':0 'CTPurple':7 'grey78':5 'CTYellow':0 },175,{ chips  'CTRed':33 'CTGreen':0 'CTPurple':7 'grey78':0 'CTYellow':0 },200,,
3playersLog_1386861924679.csv,2,510,520,TRUE,{ chips  'grey78':6 },{ chips  'CTRed':23 'CTPurple':7 },FALSE,145,175,,,,,1,(R:5,C:5),{ chips  'CTRed':10 'CTGreen':0 'CTPurple':0 'grey78':7 'CTYellow':11 },140,{ chips  'CTRed':23 'CTGreen':0 'CTPurple':7 'grey78':5 'CTYellow':0 },175,{ chips  'CTRed':33 'CTGreen':0 'CTPurple':7 'grey78':0 'CTYellow':0 },200,,
3playersLog_1386861924679.csv,3,520,510,FALSE,{ chips  'CTPurple':6 },{ chips  'grey78':3 },IGNORED,175,140,,,,,0,(R:5,C:5),{ chips  'CTRed':18 'CTGreen':0 'CTPurple':3 'grey78':7 'CTYellow':11 },195,{ chips  'CTRed':23 'CTGreen':0 'CTPurple':7 'grey78':5 'CTYellow':0 },175,{ chips  'CTRed':25 'CTGreen':0 'CTPurple':4 'grey78':0 'CTYellow':0 },145,,
3playersLog_1386861924679.csv,3,540,510,FALSE,{ chips  'CTRed':8 'CTPurple':3 },{ chips  },TRUE,200,140,{ chips  'CTRed':8 'CTPurple':3 'CTGreen':0 'grey78':0 'CTYellow':0 },{ chips  'CTRed':0 'CTPurple':0 'CTGreen':0 'grey78':0 'CTYellow':0 },145,195,0,(R:5,C:5),{ chips  'CTRed':18 'CTGreen':0 'CTPurple':3 'grey78':7 'CTYellow':11 },195,{ chips  'CTRed':23 'CTGreen':0 'CTPurple':7 'grey78':5 'CTYellow':0 },175,{ chips  'CTRed':25 'CTGreen':0 'CTPurple':4 'grey78':0 'CTYellow':0 },145,,
3playersLog_1386861924679.csv,4,510,520,TRUE,{ chips  'grey78':6 },{ chips  'CTRed':23 'CTPurple':7 },FALSE,195,175,,,,,1,(R:4,C:5),{ chips  'CTRed':18 'CTGreen':0 'CTPurple':3 'grey78':7 'CTYellow':10 },190,{ chips  'CTRed':23 'CTGreen':0 'CTPurple':7 'grey78':5 'CTYellow':0 },175,{ chips  'CTRed':25 'CTGreen':0 'CTPurple':4 'grey78':0 'CTYellow':0 },145,,
3playersLog_1386861924679.csv,5,520,510,FALSE,{ chips  'CTRed':12 },{ chips  'CTPurple':3 },IGNORED,175,190,,,,,0,(R:4,C:5),{ chips  'CTRed':38 'CTGreen':0 'CTPurple':5 'grey78':7 'CTYellow':10 },300,{ chips  'CTRed':23 'CTGreen':0 'CTPurple':7 'grey78':5 'CTYellow':0 },175,{ chips  'CTRed':5 'CTGreen':0 'CTPurple':2 'grey78':0 'CTYellow':0 },35,,
3playersLog_1386861924679.csv,5,540,510,FALSE,{ chips  'CTRed':20 'CTPurple':2 },{ chips  },TRUE,145,190,{ chips  'CTRed':20 'CTPurple':2 'CTGreen':0 'grey78':0 'CTYellow':0 },{ chips  'CTRed':0 'CTPurple':0 'CTGreen':0 'grey78':0 'CTYellow':0 },35,300,0,(R:4,C:5),{ chips  'CTRed':38 'CTGreen':0 'CTPurple':5 'grey78':7 'CTYellow':10 },300,{ chips  'CTRed':23 'CTGreen':0 'CTPurple':7 'grey78':5 'CTYellow':0 },175,{ chips  'CTRed':5 'CTGreen':0 'CTPurple':2 'grey78':0 'CTYellow':0 },35,,
3playersLog_1386861924679.csv,6,510,520,TRUE,{ chips  'grey78':6 },{ chips  'CTRed':23 'CTPurple':7 },FALSE,300,175,,,,,1,(R:3,C:5),{ chips  'CTRed':38 'CTGreen':0 'CTPurple':4 'grey78':7 'CTYellow':10 },295,{ chips  'CTRed':23 'CTGreen':0 'CTPurple':7 'grey78':5 'CTYellow':0 },175,{ chips  'CTRed':5 'CTGreen':0 'CTPurple':2 'grey78':0 'CTYellow':0 },35,,
3playersLog_1386861924679.csv,7,520,510,FALSE,{ chips  'CTRed':20 },{ chips  'grey78':2 },TRUE,175,295,{ chips  'CTRed':20 'CTPurple':0 'CTGreen':0 'grey78':0 'CTYellow':0 },{ chips  'CTRed':0 'CTPurple':0 'CTGreen':0 'grey78':2 'CTYellow':0 },85,385,0,(R:3,C:5),{ chips  'CTRed':58 'CTGreen':0 'CTPurple':4 'grey78':5 'CTYellow':10 },385,{ chips  'CTRed':3 'CTGreen':0 'CTPurple':7 'grey78':7 'CTYellow':0 },85,{ chips  'CTRed':5 'CTGreen':0 'CTPurple':2 'grey78':0 'CTYellow':0 },35,,
3playersLog_1386861924679.csv,7,540,510,FALSE,{ chips  'CTRed':3 },{ chips  },IGNORED,35,295,,,,,0,(R:3,C:5),{ chips  'CTRed':58 'CTGreen':0 'CTPurple':4 'grey78':5 'CTYellow':10 },385,{ chips  'CTRed':3 'CTGreen':0 'CTPurple':7 'grey78':7 'CTYellow':0 },85,{ chips  'CTRed':5 'CTGreen':0 'CTPurple':2 'grey78':0 'CTYellow':0 },35,,
3playersLog_1386861924679.csv,8,510,520,TRUE,{ chips  'grey78':4 },{ chips  'CTRed':3 'CTPurple':7 },FALSE,385,85,,,,,1,(R:3,C:6),{ chips  'CTRed':58 'CTGreen':0 'CTPurple':4 'grey78':5 'CTYellow':9 },380,{ chips  'CTRed':3 'CTGreen':0 'CTPurple':7 'grey78':7 'CTYellow':0 },85,{ chips  'CTRed':5 'CTGreen':0 'CTPurple':2 'grey78':0 'CTYellow':0 },35,,
3playersLog_1386861924679.csv,9,520,510,FALSE,{ chips  },{ chips  },IGNORED,85,380,,,,,0,(R:3,C:6),{ chips  'CTRed':62 'CTGreen':0 'CTPurple':5 'grey78':5 'CTYellow':9 },405,{ chips  'CTRed':3 'CTGreen':0 'CTPurple':7 'grey78':7 'CTYellow':0 },85,{ chips  'CTRed':1 'CTGreen':0 'CTPurple':1 'grey78':0 'CTYellow':0 },10,,
3playersLog_1386861924679.csv,9,540,510,FALSE,{ chips  'CTRed':4 'CTPurple':1 },{ chips  },TRUE,35,380,{ chips  'CTRed':4 'CTPurple':1 'CTGreen':0 'grey78':0 'CTYellow':0 },{ chips  'CTRed':0 'CTPurple':0 'CTGreen':0 'grey78':0 'CTYellow':0 },10,405,0,(R:3,C:6),{ chips  'CTRed':62 'CTGreen':0 'CTPurple':5 'grey78':5 'CTYellow':9 },405,{ chips  'CTRed':3 'CTGreen':0 'CTPurple':7 'grey78':7 'CTYellow':0 },85,{ chips  'CTRed':1 'CTGreen':0 'CTPurple':1 'grey78':0 'CTYellow':0 },10,,
3playersLog_1386861924679.csv,10,510,520,TRUE,{ chips  'grey78':4 },{ chips  'CTRed':3 'CTPurple':7 },FALSE,405,85,,,,,1,(R:3,C:7),{ chips  'CTRed':62 'CTGreen':0 'CTPurple':5 'grey78':5 'CTYellow':8 },400,{ chips  'CTRed':3 'CTGreen':0 'CTPurple':7 'grey78':7 'CTYellow':0 },85,{ chips  'CTRed':1 'CTGreen':0 'CTPurple':1 'grey78':0 'CTYellow':0 },10,,
3playersLog_1386861924679.csv,11,520,510,FALSE,{ chips  },{ chips  },IGNORED,85,400,,,,,0,(R:3,C:7),{ chips  'CTRed':62 'CTGreen':0 'CTPurple':5 'grey78':5 'CTYellow':8 },400,{ chips  'CTRed':3 'CTGreen':0 'CTPurple':7 'grey78':7 'CTYellow':0 },85,{ chips  'CTRed':1 'CTGreen':0 'CTPurple':1 'grey78':0 'CTYellow':0 },10,,
3playersLog_1386861924679.csv,12,510,520,TRUE,{ chips  'grey78':4 },{ chips  'CTRed':3 'CTPurple':7 },FALSE,400,85,,,,,1,(R:2,C:7),{ chips  'CTRed':62 'CTGreen':0 'CTPurple':5 'grey78':5 'CTYellow':7 },395,{ chips  'CTRed':3 'CTGreen':0 'CTPurple':7 'grey78':7 'CTYellow':0 },85,{ chips  'CTRed':1 'CTGreen':0 'CTPurple':1 'grey78':0 'CTYellow':0 },10,,
3playersLog_1386861924679.csv,13,520,510,FALSE,{ chips  },{ chips  'CTRed':62 'CTPurple':5 'grey78':5 },IGNORED,85,395,,,,,0,(R:2,C:7),{ chips  'CTRed':62 'CTGreen':0 'CTPurple':6 'grey78':5 'CTYellow':7 },400,{ chips  'CTRed':3 'CTGreen':0 'CTPurple':7 'grey78':7 'CTYellow':0 },85,{ chips  'CTRed':1 'CTGreen':0 'CTPurple':0 'grey78':0 'CTYellow':0 },5,,
3playersLog_1386861924679.csv,13,540,510,FALSE,{ chips  'CTPurple':1 },{ chips  },TRUE,10,395,{ chips  'CTRed':0 'CTPurple':1 'CTGreen':0 'grey78':0 'CTYellow':0 },{ chips  'CTRed':0 'CTPurple':0 'CTGreen':0 'grey78':0 'CTYellow':0 },5,400,0,(R:2,C:7),{ chips  'CTRed':62 'CTGreen':0 'CTPurple':6 'grey78':5 'CTYellow':7 },400,{ chips  'CTRed':3 'CTGreen':0 'CTPurple':7 'grey78':7 'CTYellow':0 },85,{ chips  'CTRed':1 'CTGreen':0 'CTPurple':0 'grey78':0 'CTYellow':0 },5,,
3playersLog_1386861924679.csv,14,510,520,TRUE,{ chips  'grey78':4 },{ chips  'CTRed':3 'CTPurple':7 },FALSE,400,85,,,,,1,(R:1,C:7),{ chips  'CTRed':62 'CTGreen':0 'CTPurple':5 'grey78':5 'CTYellow':7 },395,{ chips  'CTRed':3 'CTGreen':0 'CTPurple':7 'grey78':7 'CTYellow':0 },85,{ chips  'CTRed':1 'CTGreen':0 'CTPurple':0 'grey78':0 'CTYellow':0 },5,,
3playersLog_1386861924679.csv,15,520,510,FALSE,{ chips  },{ chips  },IGNORED,85,395,,,,,0,(R:1,C:7),{ chips  'CTRed':63 'CTGreen':0 'CTPurple':5 'grey78':5 'CTYellow':7 },400,{ chips  'CTRed':3 'CTGreen':0 'CTPurple':7 'grey78':7 'CTYellow':0 },85,{ chips  'CTRed':0 'CTGreen':0 'CTPurple':0 'grey78':0 'CTYellow':0 },0,,
3playersLog_1386861924679.csv,15,540,510,FALSE,{ chips  'CTRed':1 },{ chips  },TRUE,5,395,{ chips  'CTRed':1 'CTPurple':0 'CTGreen':0 'grey78':0 'CTYellow':0 },{ chips  'CTRed':0 'CTPurple':0 'CTGreen':0 'grey78':0 'CTYellow':0 },0,400,0,(R:1,C:7),{ chips  'CTRed':63 'CTGreen':0 'CTPurple':5 'grey78':5 'CTYellow':7 },400,{ chips  'CTRed':3 'CTGreen':0 'CTPurple':7 'grey78':7 'CTYellow':0 },85,{ chips  'CTRed':0 'CTGreen':0 'CTPurple':0 'grey78':0 'CTYellow':0 },0,,
3playersLog_1386861924679.csv,16,510,520,TRUE,{ chips  'grey78':4 },{ chips  'CTRed':3 'CTPurple':7 },FALSE,400,85,,,,,1,(R:1,C:8),{ chips  'CTRed':63 'CTGreen':0 'CTPurple':5 'grey78':5 'CTYellow':6 },395,{ chips  'CTRed':3 'CTGreen':0 'CTPurple':7 'grey78':7 'CTYellow':0 },85,{ chips  'CTRed':0 'CTGreen':0 'CTPurple':0 'grey78':0 'CTYellow':0 },0,,
3playersLog_1386861924679.csv,17,520,510,FALSE,{ chips  'CTPurple':1 },{ chips  'CTRed':15 },FALSE,85,395,,,,,0,(R:1,C:8),{ chips  'CTRed':63 'CTGreen':0 'CTPurple':5 'grey78':5 'CTYellow':6 },395,{ chips  'CTRed':3 'CTGreen':0 'CTPurple':7 'grey78':7 'CTYellow':0 },85,{ chips  'CTRed':0 'CTGreen':0 'CTPurple':0 'grey78':0 'CTYellow':0 },0,,
3playersLog_1386861924679.csv,17,540,510,FALSE,{ chips  },{ chips  'CTRed':6 'CTPurple':3 },FALSE,0,395,,,,,0,(R:1,C:8),{ chips  'CTRed':63 'CTGreen':0 'CTPurple':5 'grey78':5 'CTYellow':6 },395,{ chips  'CTRed':3 'CTGreen':0 'CTPurple':7 'grey78':7 'CTYellow':0 },85,{ chips  'CTRed':0 'CTGreen':0 'CTPurple':0 'grey78':0 'CTYellow':0 },0,,
3playersLog_1386861924679.csv,18,510,520,TRUE,{ chips  'grey78':4 },{ chips  'CTRed':3 'CTPurple':7 },FALSE,395,85,,,,,1,(R:0,C:8),{ chips  'CTRed':63 'CTGreen':0 'CTPurple':5 'grey78':5 'CTYellow':5 },540,{ chips  'CTRed':3 'CTGreen':0 'CTPurple':7 'grey78':7 'CTYellow':0 },235,{ chips  'CTRed':0 'CTGreen':0 'CTPurple':0 'grey78':0 'CTYellow':0 },0,,
3playersLog_1386861924679.csv,,,,,,,,,,,,,,,,,,,,,,,,TRUE
