filename,round,propID,respID,IsPropCustomer,chipsToSend,chipsToReceive,accept,propCurrentScore,respCurrentScore,actualSent,ActualRcvd,propResultingScore,respResultingScore,#ofCustomerMovesInRound,customerRowPositionAfterMovePhase,customerColPositionAfterMovePhase,Player100ChipsAfterMovePhase,Player100ScoreAfterMovePhase,Player200ChipsAfterMovePhase,Player200ScoreAfterMovePhase,Player300ChipsAfterMovePhase,Player300ScoreAfterMovePhase,isCommitment,generosityLevel,ClientReachedGoal
3playersLog_1382717933430.csv,1,300,100,false,{ chips  'CTPurple':2 },{ chips  'CTYellow':2 },IGNORED,200,100,,,200,100,4,(R:3,C:6),{ chips  'CTRed':0 'CTGreen':0 'CTPurple':0 'grey78':12 'CTYellow':8 },100,{ chips  'CTRed':33 'CTGreen':0 'CTPurple':7 'grey78':0 'CTYellow':0 },200,{ chips  'CTRed':33 'CTGreen':0 'CTPurple':7 'grey78':0 'CTYellow':0 },200,false,,
3playersLog_1382717933430.csv,2,100,300,true,{ chips  'CTYellow':4 },{ chips  'CTRed':5 'CTPurple':3 },TRUE,100,200,{ chips  'CTRed':0 'CTPurple':0 'CTGreen':0 'grey78':0 'CTYellow':4 },{ chips  'CTRed':5 'CTPurple':3 'CTGreen':0 'grey78':0 'CTYellow':0 },120,180,8,(R:1,C:0),{ chips  'CTRed':5 'CTGreen':0 'CTPurple':0 'grey78':7 'CTYellow':4 },80,{ chips  'CTRed':33 'CTGreen':0 'CTPurple':7 'grey78':0 'CTYellow':0 },200,{ chips  'CTRed':28 'CTGreen':0 'CTPurple':4 'grey78':0 'CTYellow':4 },180,false,,
3playersLog_1382717933430.csv,3,200,100,false,{ chips  'CTPurple':5 },{ chips  'grey78':5 },FALSE,200,80,,,200,80,0,(R:1,C:0),{ chips  'CTRed':5 'CTGreen':0 'CTPurple':0 'grey78':7 'CTYellow':4 },80,{ chips  'CTRed':33 'CTGreen':0 'CTPurple':7 'grey78':0 'CTYellow':0 },200,{ chips  'CTRed':28 'CTGreen':0 'CTPurple':4 'grey78':0 'CTYellow':4 },180,false,,
3playersLog_1382717933430.csv,3,300,100,false,{ chips  'CTPurple':2 },{ chips  'CTRed':1 },FALSE,180,80,,,175,85,0,(R:1,C:0),{ chips  'CTRed':5 'CTGreen':0 'CTPurple':0 'grey78':7 'CTYellow':4 },80,{ chips  'CTRed':33 'CTGreen':0 'CTPurple':7 'grey78':0 'CTYellow':0 },200,{ chips  'CTRed':28 'CTGreen':0 'CTPurple':4 'grey78':0 'CTYellow':4 },180,false,,
3playersLog_1382717933430.csv,4,100,200,true,{ chips  'CTYellow':2 },{ chips  'CTRed':12 'CTPurple':7 },TRUE,80,200,{ chips  'CTRed':0 'CTPurple':0 'CTGreen':0 'grey78':0 'CTYellow':2 },{ chips  'CTRed':12 'CTPurple':7 'CTGreen':0 'grey78':0 'CTYellow':0 },165,115,9,(R:0,C:8),{ chips  'CTRed':17 'CTGreen':0 'CTPurple':0 'grey78':7 'CTYellow':0 },270,{ chips  'CTRed':21 'CTGreen':0 'CTPurple':0 'grey78':0 'CTYellow':2 },265,{ chips  'CTRed':28 'CTGreen':0 'CTPurple':4 'grey78':0 'CTYellow':4 },180,false,,
3playersLog_1382717933430.csv,4,100,200,true,{ chips  'CTYellow':2 },{ chips  'CTRed':12 'CTPurple':7 },TRUE,80,200,{ chips  'CTRed':0 'CTPurple':0 'CTGreen':0 'grey78':0 'CTYellow':2 },{ chips  'CTRed':12 'CTPurple':7 'CTGreen':0 'grey78':0 'CTYellow':0 },165,115,9,(R:0,C:8),{ chips  'CTRed':17 'CTGreen':0 'CTPurple':0 'grey78':7 'CTYellow':0 },270,{ chips  'CTRed':21 'CTGreen':0 'CTPurple':0 'grey78':0 'CTYellow':2 },265,{ chips  'CTRed':28 'CTGreen':0 'CTPurple':4 'grey78':0 'CTYellow':4 },180,false,,TRUE
3playersLog_1382723288479.csv,1,300,100,false,{ chips  'CTPurple':2 },{ chips  },FALSE,200,120,,,190,130,0,(R:5,C:4),{ chips  'CTRed':0 'CTGreen':0 'CTPurple':0 'grey78':12 'CTYellow':12 },120,{ chips  'CTRed':33 'CTGreen':0 'CTPurple':7 'grey78':0 'CTYellow':0 },200,{ chips  'CTRed':33 'CTGreen':0 'CTPurple':7 'grey78':0 'CTYellow':0 },200,false,,
3playersLog_1382723288479.csv,1,200,100,false,{ chips  'CTPurple':2 },{ chips  },FALSE,200,120,,,190,130,0,(R:5,C:4),{ chips  'CTRed':0 'CTGreen':0 'CTPurple':0 'grey78':12 'CTYellow':12 },120,{ chips  'CTRed':33 'CTGreen':0 'CTPurple':7 'grey78':0 'CTYellow':0 },200,{ chips  'CTRed':33 'CTGreen':0 'CTPurple':7 'grey78':0 'CTYellow':0 },200,false,,
3playersLog_1382723288479.csv,2,100,300,true,{ chips  'grey78':1 'CTYellow':1 },{ chips  },TRUE,120,200,{ chips  'CTRed':0 'CTPurple':0 'CTGreen':0 'grey78':1 'CTYellow':1 },{ chips  'CTRed':0 'CTPurple':0 'CTGreen':0 'grey78':0 'CTYellow':0 },110,210,1,(R:5,C:5),{ chips  'CTRed':0 'CTGreen':0 'CTPurple':0 'grey78':11 'CTYellow':10 },105,{ chips  'CTRed':33 'CTGreen':0 'CTPurple':7 'grey78':1 'CTYellow':1 },210,{ chips  'CTRed':33 'CTGreen':0 'CTPurple':7 'grey78':0 'CTYellow':0 },200,false,,
3playersLog_1382723288479.csv,3,300,100,false,{ chips  'CTPurple':1 },{ chips  'grey78':2 },FALSE,210,125,,,215,120,3,(R:3,C:4),{ chips  'CTRed':1 'CTGreen':0 'CTPurple':1 'grey78':11 'CTYellow':9 },110,{ chips  'CTRed':33 'CTGreen':0 'CTPurple':7 'grey78':1 'CTYellow':1 },210,{ chips  'CTRed':32 'CTGreen':0 'CTPurple':4 'grey78':0 'CTYellow':0 },180,false,,
3playersLog_1382723288479.csv,3,200,100,false,{ chips  'CTRed':1 'CTPurple':3 },{ chips  },TRUE,200,105,{ chips  'CTRed':1 'CTPurple':3 'CTGreen':0 'grey78':0 'CTYellow':0 },{ chips  'CTRed':0 'CTPurple':0 'CTGreen':0 'grey78':0 'CTYellow':0 },180,125,3,(R:3,C:4),{ chips  'CTRed':1 'CTGreen':0 'CTPurple':1 'grey78':11 'CTYellow':9 },110,{ chips  'CTRed':33 'CTGreen':0 'CTPurple':7 'grey78':1 'CTYellow':1 },210,{ chips  'CTRed':32 'CTGreen':0 'CTPurple':4 'grey78':0 'CTYellow':0 },180,false,,
3playersLog_1382723288479.csv,4,100,200,true,{ chips  },{ chips  'CTRed':32 },TRUE,110,180,{ chips  'CTRed':0 'CTPurple':0 'CTGreen':0 'grey78':0 'CTYellow':0 },{ chips  'CTRed':32 'CTPurple':0 'CTGreen':0 'grey78':0 'CTYellow':0 },270,20,5,(R:2,C:0),{ chips  'CTRed':33 'CTGreen':0 'CTPurple':0 'grey78':7 'CTYellow':9 },245,{ chips  'CTRed':33 'CTGreen':0 'CTPurple':7 'grey78':1 'CTYellow':1 },210,{ chips  'CTRed':0 'CTGreen':0 'CTPurple':4 'grey78':0 'CTYellow':0 },20,false,,
3playersLog_1382723288479.csv,5,300,100,false,{ chips  'CTPurple':7 },{ chips  },TRUE,210,245,{ chips  'CTRed':0 'CTPurple':7 'CTGreen':0 'grey78':0 'CTYellow':0 },{ chips  'CTRed':0 'CTPurple':0 'CTGreen':0 'grey78':0 'CTYellow':0 },175,280,0,(R:2,C:0),{ chips  'CTRed':33 'CTGreen':0 'CTPurple':7 'grey78':7 'CTYellow':9 },280,{ chips  'CTRed':33 'CTGreen':0 'CTPurple':0 'grey78':1 'CTYellow':1 },175,{ chips  'CTRed':0 'CTGreen':0 'CTPurple':4 'grey78':0 'CTYellow':0 },20,false,,
3playersLog_1382723288479.csv,5,200,100,false,{ chips  },{ chips  },FALSE,20,280,,,20,280,0,(R:2,C:0),{ chips  'CTRed':33 'CTGreen':0 'CTPurple':7 'grey78':7 'CTYellow':9 },280,{ chips  'CTRed':33 'CTGreen':0 'CTPurple':0 'grey78':1 'CTYellow':1 },175,{ chips  'CTRed':0 'CTGreen':0 'CTPurple':4 'grey78':0 'CTYellow':0 },20,false,,
3playersLog_1382723288479.csv,6,100,300,true,{ chips  },{ chips  'CTRed':33 },TRUE,280,175,{ chips  'CTRed':0 'CTPurple':0 'CTGreen':0 'grey78':0 'CTYellow':0 },{ chips  'CTRed':33 'CTPurple':0 'CTGreen':0 'grey78':0 'CTYellow':0 },445,10,4,(R:1,C:3),{ chips  'CTRed':66 'CTGreen':0 'CTPurple':4 'grey78':6 'CTYellow':9 },425,{ chips  'CTRed':0 'CTGreen':0 'CTPurple':0 'grey78':1 'CTYellow':1 },10,{ chips  'CTRed':0 'CTGreen':0 'CTPurple':4 'grey78':0 'CTYellow':0 },20,false,,
3playersLog_1382723288479.csv,7,300,100,false,{ chips  'CTYellow':1 },{ chips  'CTRed':1 },FALSE,10,420,,,10,420,1,(R:1,C:3),{ chips  'CTRed':66 'CTGreen':0 'CTPurple':2 'grey78':6 'CTYellow':9 },415,{ chips  'CTRed':0 'CTGreen':0 'CTPurple':0 'grey78':1 'CTYellow':1 },10,{ chips  'CTRed':0 'CTGreen':0 'CTPurple':4 'grey78':0 'CTYellow':0 },20,false,,
3playersLog_1382723288479.csv,7,200,100,false,{ chips  'CTPurple':2 },{ chips  },FALSE,20,420,,,10,430,1,(R:1,C:3),{ chips  'CTRed':66 'CTGreen':0 'CTPurple':2 'grey78':6 'CTYellow':9 },415,{ chips  'CTRed':0 'CTGreen':0 'CTPurple':0 'grey78':1 'CTYellow':1 },10,{ chips  'CTRed':0 'CTGreen':0 'CTPurple':4 'grey78':0 'CTYellow':0 },20,false,,
3playersLog_1382723288479.csv,8,100,200,true,{ chips  },{ chips  'CTPurple':4 },FALSE,415,20,,,435,0,0,(R:1,C:3),{ chips  'CTRed':66 'CTGreen':0 'CTPurple':2 'grey78':6 'CTYellow':9 },415,{ chips  'CTRed':0 'CTGreen':0 'CTPurple':0 'grey78':1 'CTYellow':1 },10,{ chips  'CTRed':0 'CTGreen':0 'CTPurple':4 'grey78':0 'CTYellow':0 },20,false,,
3playersLog_1382723288479.csv,9,300,100,false,{ chips  },{ chips  },FALSE,10,420,,,10,420,1,(R:1,C:2),{ chips  'CTRed':66 'CTGreen':0 'CTPurple':2 'grey78':6 'CTYellow':9 },415,{ chips  'CTRed':0 'CTGreen':0 'CTPurple':0 'grey78':1 'CTYellow':1 },10,{ chips  'CTRed':0 'CTGreen':0 'CTPurple':3 'grey78':0 'CTYellow':0 },15,true,,
3playersLog_1382723288479.csv,9,200,100,false,{ chips  'CTPurple':1 },{ chips  },TRUE,20,415,{ chips  'CTRed':0 'CTPurple':1 'CTGreen':0 'grey78':0 'CTYellow':0 },{ chips  'CTRed':0 'CTPurple':0 'CTGreen':0 'grey78':0 'CTYellow':0 },15,420,1,(R:1,C:2),{ chips  'CTRed':66 'CTGreen':0 'CTPurple':2 'grey78':6 'CTYellow':9 },415,{ chips  'CTRed':0 'CTGreen':0 'CTPurple':0 'grey78':1 'CTYellow':1 },10,{ chips  'CTRed':0 'CTGreen':0 'CTPurple':3 'grey78':0 'CTYellow':0 },15,false,,
3playersLog_1382723288479.csv,10,100,200,true,{ chips  },{ chips  'CTPurple':3 },FALSE,415,15,,,430,0,0,(R:1,C:2),{ chips  'CTRed':66 'CTGreen':0 'CTPurple':2 'grey78':6 'CTYellow':9 },415,{ chips  'CTRed':0 'CTGreen':0 'CTPurple':0 'grey78':1 'CTYellow':1 },10,{ chips  'CTRed':0 'CTGreen':0 'CTPurple':3 'grey78':0 'CTYellow':0 },15,false,,
3playersLog_1382723288479.csv,11,300,100,false,{ chips  },{ chips  },TRUE,10,415,{ chips  'CTRed':0 'CTPurple':0 'CTGreen':0 'grey78':0 'CTYellow':0 },{ chips  'CTRed':0 'CTPurple':0 'CTGreen':0 'grey78':0 'CTYellow':0 },10,415,1,(R:1,C:1),{ chips  'CTRed':66 'CTGreen':0 'CTPurple':1 'grey78':6 'CTYellow':9 },410,{ chips  'CTRed':0 'CTGreen':0 'CTPurple':0 'grey78':1 'CTYellow':1 },10,{ chips  'CTRed':0 'CTGreen':0 'CTPurple':3 'grey78':0 'CTYellow':0 },15,true,,
3playersLog_1382723288479.csv,11,200,100,false,{ chips  },{ chips  },IGNORED,15,415,,,15,415,1,(R:1,C:1),{ chips  'CTRed':66 'CTGreen':0 'CTPurple':1 'grey78':6 'CTYellow':9 },410,{ chips  'CTRed':0 'CTGreen':0 'CTPurple':0 'grey78':1 'CTYellow':1 },10,{ chips  'CTRed':0 'CTGreen':0 'CTPurple':3 'grey78':0 'CTYellow':0 },15,false,,
3playersLog_1382723288479.csv,12,100,200,true,{ chips  },{ chips  'CTPurple':2 },FALSE,410,15,,,420,5,0,(R:1,C:1),{ chips  'CTRed':66 'CTGreen':0 'CTPurple':1 'grey78':6 'CTYellow':9 },410,{ chips  'CTRed':0 'CTGreen':0 'CTPurple':0 'grey78':1 'CTYellow':1 },10,{ chips  'CTRed':0 'CTGreen':0 'CTPurple':3 'grey78':0 'CTYellow':0 },15,false,,
3playersLog_1382723288479.csv,13,200,100,false,{ chips  },{ chips  'CTRed':10 },IGNORED,15,405,,,65,355,1,(R:1,C:0),{ chips  'CTRed':66 'CTGreen':0 'CTPurple':1 'grey78':5 'CTYellow':9 },405,{ chips  'CTRed':0 'CTGreen':0 'CTPurple':0 'grey78':1 'CTYellow':1 },10,{ chips  'CTRed':0 'CTGreen':0 'CTPurple':3 'grey78':0 'CTYellow':0 },15,false,,
3playersLog_1382723288479.csv,14,100,300,true,{ chips  },{ chips  'grey78':1 'CTYellow':1 },FALSE,405,10,,,415,0,0,(R:1,C:0),{ chips  'CTRed':66 'CTGreen':0 'CTPurple':1 'grey78':5 'CTYellow':9 },405,{ chips  'CTRed':0 'CTGreen':0 'CTPurple':0 'grey78':1 'CTYellow':1 },10,{ chips  'CTRed':0 'CTGreen':0 'CTPurple':3 'grey78':0 'CTYellow':0 },15,true,,
3playersLog_1382723288479.csv,15,300,100,false,{ chips  'CTYellow':1 },{ chips  'CTRed':60 },FALSE,10,405,,,305,110,1,(R:0,C:0),{ chips  'CTRed':66 'CTGreen':0 'CTPurple':1 'grey78':4 'CTYellow':9 },550,{ chips  'CTRed':0 'CTGreen':0 'CTPurple':0 'grey78':1 'CTYellow':1 },10,{ chips  'CTRed':0 'CTGreen':0 'CTPurple':3 'grey78':0 'CTYellow':0 },165,true,,
3playersLog_1382723288479.csv,15,200,100,false,{ chips  'CTPurple':1 },{ chips  'CTRed':8 },FALSE,15,405,,,50,370,1,(R:0,C:0),{ chips  'CTRed':66 'CTGreen':0 'CTPurple':1 'grey78':4 'CTYellow':9 },550,{ chips  'CTRed':0 'CTGreen':0 'CTPurple':0 'grey78':1 'CTYellow':1 },10,{ chips  'CTRed':0 'CTGreen':0 'CTPurple':3 'grey78':0 'CTYellow':0 },165,false,,
3playersLog_1382723288479.csv,15,200,100,false,{ chips  'CTPurple':1 },{ chips  'CTRed':8 },FALSE,15,405,,,50,370,1,(R:0,C:0),{ chips  'CTRed':66 'CTGreen':0 'CTPurple':1 'grey78':4 'CTYellow':9 },550,{ chips  'CTRed':0 'CTGreen':0 'CTPurple':0 'grey78':1 'CTYellow':1 },10,{ chips  'CTRed':0 'CTGreen':0 'CTPurple':3 'grey78':0 'CTYellow':0 },165,false,,TRUE
3playersLog_1382729019606.csv,1,200,100,false,{ chips  'CTRed':5 },{ chips  },IGNORED,200,225,,,175,250,9,(R:0,C:0),{ chips  'CTRed':0 'CTGreen':0 'CTPurple':0 'grey78':3 'CTYellow':12 },225,{ chips  'CTRed':33 'CTGreen':0 'CTPurple':7 'grey78':0 'CTYellow':0 },200,{ chips  'CTRed':33 'CTGreen':0 'CTPurple':7 'grey78':0 'CTYellow':0 },350,false,,
3playersLog_1382729019606.csv,1,200,100,false,{ chips  'CTRed':5 },{ chips  },IGNORED,200,225,,,175,250,9,(R:0,C:0),{ chips  'CTRed':0 'CTGreen':0 'CTPurple':0 'grey78':3 'CTYellow':12 },225,{ chips  'CTRed':33 'CTGreen':0 'CTPurple':7 'grey78':0 'CTYellow':0 },200,{ chips  'CTRed':33 'CTGreen':0 'CTPurple':7 'grey78':0 'CTYellow':0 },350,false,,TRUE
3playersLog_1383839627205.csv,1,200,100,false,{ chips  'CTRed':3 },{ chips  },TRUE,200,120,{ chips  'CTRed':3 'CTPurple':0 'CTGreen':0 'grey78':0 'CTYellow':0 },{ chips  'CTRed':0 'CTPurple':0 'CTGreen':0 'grey78':0 'CTYellow':0 },185,135,2,(R:4,C:5),{ chips  'CTRed':3 'CTGreen':0 'CTPurple':0 'grey78':12 'CTYellow':10 },125,{ chips  'CTRed':30 'CTGreen':0 'CTPurple':7 'grey78':0 'CTYellow':0 },185,{ chips  'CTRed':33 'CTGreen':0 'CTPurple':7 'grey78':0 'CTYellow':0 },200,false,,
3playersLog_1383839627205.csv,2,100,300,true,{ chips  },{ chips  'CTPurple':5 },TRUE,125,185,{ chips  'CTRed':0 'CTPurple':0 'CTGreen':0 'grey78':0 'CTYellow':0 },{ chips  'CTRed':0 'CTPurple':5 'CTGreen':0 'grey78':0 'CTYellow':0 },150,175,2,(R:3,C:4),{ chips  'CTRed':3 'CTGreen':0 'CTPurple':3 'grey78':12 'CTYellow':10 },140,{ chips  'CTRed':30 'CTGreen':0 'CTPurple':7 'grey78':0 'CTYellow':0 },185,{ chips  'CTRed':33 'CTGreen':0 'CTPurple':2 'grey78':0 'CTYellow':0 },175,false,,
3playersLog_1383839627205.csv,3,200,100,false,{ chips  'CTRed':3 'CTPurple':1 },{ chips  'grey78':2 },FALSE,185,140,,,175,150,3,(R:3,C:1),{ chips  'CTRed':3 'CTGreen':0 'CTPurple':2 'grey78':10 'CTYellow':10 },125,{ chips  'CTRed':30 'CTGreen':0 'CTPurple':7 'grey78':0 'CTYellow':0 },185,{ chips  'CTRed':33 'CTGreen':0 'CTPurple':2 'grey78':0 'CTYellow':0 },175,false,,
3playersLog_1383839627205.csv,3,300,100,false,{ chips  },{ chips  },FALSE,175,140,,,175,140,3,(R:3,C:1),{ chips  'CTRed':3 'CTGreen':0 'CTPurple':2 'grey78':10 'CTYellow':10 },125,{ chips  'CTRed':30 'CTGreen':0 'CTPurple':7 'grey78':0 'CTYellow':0 },185,{ chips  'CTRed':33 'CTGreen':0 'CTPurple':2 'grey78':0 'CTYellow':0 },175,false,,
3playersLog_1383839627205.csv,4,100,200,true,{ chips  },{ chips  'CTRed':30 },FALSE,125,185,,,275,35,4,(R:0,C:0),{ chips  'CTRed':3 'CTGreen':0 'CTPurple':2 'grey78':6 'CTYellow':10 },255,{ chips  'CTRed':30 'CTGreen':0 'CTPurple':7 'grey78':0 'CTYellow':0 },185,{ chips  'CTRed':33 'CTGreen':0 'CTPurple':2 'grey78':0 'CTYellow':0 },325,false,,
3playersLog_1383839627205.csv,4,100,200,true,{ chips  },{ chips  'CTRed':30 },FALSE,125,185,,,275,35,4,(R:0,C:0),{ chips  'CTRed':3 'CTGreen':0 'CTPurple':2 'grey78':6 'CTYellow':10 },255,{ chips  'CTRed':30 'CTGreen':0 'CTPurple':7 'grey78':0 'CTYellow':0 },185,{ chips  'CTRed':33 'CTGreen':0 'CTPurple':2 'grey78':0 'CTYellow':0 },325,false,,TRUE
3playersLog_1383945565429.csv,1,200,100,false,{ chips  'CTPurple':4 },{ chips  },FALSE,200,120,,,180,140,0,(R:5,C:4),{ chips  'CTRed':0 'CTGreen':0 'CTPurple':0 'grey78':12 'CTYellow':12 },120,{ chips  'CTRed':33 'CTGreen':0 'CTPurple':7 'grey78':0 'CTYellow':0 },200,{ chips  'CTRed':33 'CTGreen':0 'CTPurple':7 'grey78':0 'CTYellow':0 },200,false,,
3playersLog_1383945565429.csv,1,300,100,false,{ chips  'CTPurple':3 },{ chips  },FALSE,200,120,,,185,135,0,(R:5,C:4),{ chips  'CTRed':0 'CTGreen':0 'CTPurple':0 'grey78':12 'CTYellow':12 },120,{ chips  'CTRed':33 'CTGreen':0 'CTPurple':7 'grey78':0 'CTYellow':0 },200,{ chips  'CTRed':33 'CTGreen':0 'CTPurple':7 'grey78':0 'CTYellow':0 },200,false,,
3playersLog_1383945565429.csv,2,100,200,true,{ chips  'grey78':3 },{ chips  },FALSE,120,200,,,105,215,9,(R:0,C:8),{ chips  'CTRed':0 'CTGreen':0 'CTPurple':0 'grey78':12 'CTYellow':3 },225,{ chips  'CTRed':33 'CTGreen':0 'CTPurple':7 'grey78':0 'CTYellow':0 },350,{ chips  'CTRed':33 'CTGreen':0 'CTPurple':7 'grey78':0 'CTYellow':0 },200,false,,
3playersLog_1383945565429.csv,2,100,200,true,{ chips  'grey78':3 },{ chips  },FALSE,120,200,,,105,215,9,(R:0,C:8),{ chips  'CTRed':0 'CTGreen':0 'CTPurple':0 'grey78':12 'CTYellow':3 },225,{ chips  'CTRed':33 'CTGreen':0 'CTPurple':7 'grey78':0 'CTYellow':0 },350,{ chips  'CTRed':33 'CTGreen':0 'CTPurple':7 'grey78':0 'CTYellow':0 },200,false,,TRUE
3playersLog_1383946150887.csv,1,300,100,false,{ chips  'CTPurple':3 },{ chips  },TRUE,200,120,{ chips  'CTRed':0 'CTPurple':3 'CTGreen':0 'grey78':0 'CTYellow':0 },{ chips  'CTRed':0 'CTPurple':0 'CTGreen':0 'grey78':0 'CTYellow':0 },185,135,0,(R:5,C:4),{ chips  'CTRed':0 'CTGreen':0 'CTPurple':3 'grey78':12 'CTYellow':12 },135,{ chips  'CTRed':33 'CTGreen':0 'CTPurple':7 'grey78':0 'CTYellow':0 },200,{ chips  'CTRed':33 'CTGreen':0 'CTPurple':4 'grey78':0 'CTYellow':0 },185,false,,
3playersLog_1383946150887.csv,2,100,300,true,{ chips  'grey78':5 },{ chips  'CTRed':10 },IGNORED,135,185,,,160,160,0,(R:5,C:4),{ chips  'CTRed':0 'CTGreen':0 'CTPurple':3 'grey78':12 'CTYellow':12 },135,{ chips  'CTRed':33 'CTGreen':0 'CTPurple':7 'grey78':0 'CTYellow':0 },200,{ chips  'CTRed':33 'CTGreen':0 'CTPurple':4 'grey78':0 'CTYellow':0 },185,false,,
3playersLog_1383946150887.csv,2,100,300,true,{ chips  'grey78':5 },{ chips  'CTRed':10 },IGNORED,135,185,,,160,160,0,(R:5,C:4),{ chips  'CTRed':0 'CTGreen':0 'CTPurple':3 'grey78':12 'CTYellow':12 },135,{ chips  'CTRed':33 'CTGreen':0 'CTPurple':7 'grey78':0 'CTYellow':0 },200,{ chips  'CTRed':33 'CTGreen':0 'CTPurple':4 'grey78':0 'CTYellow':0 },185,false,,FALSE
3playersLog_1384530470989.csv,1,200,100,false,{ chips  'CTRed':7 'CTPurple':2 },{ chips  },TRUE,200,120,{ chips  'CTRed':7 'CTPurple':2 'CTGreen':0 'grey78':0 'CTYellow':0 },{ chips  'CTRed':0 'CTPurple':0 'CTGreen':0 'grey78':0 'CTYellow':0 },155,165,4,(R:3,C:6),{ chips  'CTRed':7 'CTGreen':0 'CTPurple':1 'grey78':12 'CTYellow':9 },145,{ chips  'CTRed':26 'CTGreen':0 'CTPurple':5 'grey78':0 'CTYellow':0 },155,{ chips  'CTRed':33 'CTGreen':0 'CTPurple':7 'grey78':0 'CTYellow':0 },200,false,,
3playersLog_1384530470989.csv,1,300,100,false,{ chips  'CTPurple':2 },{ chips  },IGNORED,200,120,,,190,130,4,(R:3,C:6),{ chips  'CTRed':7 'CTGreen':0 'CTPurple':1 'grey78':12 'CTYellow':9 },145,{ chips  'CTRed':26 'CTGreen':0 'CTPurple':5 'grey78':0 'CTYellow':0 },155,{ chips  'CTRed':33 'CTGreen':0 'CTPurple':7 'grey78':0 'CTYellow':0 },200,false,,
3playersLog_1384530470989.csv,2,100,300,true,{ chips  'CTYellow':3 },{ chips  'CTRed':1 'CTPurple':4 },TRUE,145,155,{ chips  'CTRed':0 'CTPurple':0 'CTGreen':0 'grey78':0 'CTYellow':3 },{ chips  'CTRed':1 'CTPurple':4 'CTGreen':0 'grey78':0 'CTYellow':0 },155,190,9,(R:0,C:0),{ chips  'CTRed':8 'CTGreen':0 'CTPurple':2 'grey78':6 'CTYellow':6 },260,{ chips  'CTRed':26 'CTGreen':0 'CTPurple':5 'grey78':0 'CTYellow':0 },155,{ chips  'CTRed':32 'CTGreen':0 'CTPurple':3 'grey78':0 'CTYellow':3 },340,false,,
3playersLog_1384530470989.csv,2,100,300,true,{ chips  'CTYellow':3 },{ chips  'CTRed':1 'CTPurple':4 },TRUE,145,155,{ chips  'CTRed':0 'CTPurple':0 'CTGreen':0 'grey78':0 'CTYellow':3 },{ chips  'CTRed':1 'CTPurple':4 'CTGreen':0 'grey78':0 'CTYellow':0 },155,190,9,(R:0,C:0),{ chips  'CTRed':8 'CTGreen':0 'CTPurple':2 'grey78':6 'CTYellow':6 },260,{ chips  'CTRed':26 'CTGreen':0 'CTPurple':5 'grey78':0 'CTYellow':0 },155,{ chips  'CTRed':32 'CTGreen':0 'CTPurple':3 'grey78':0 'CTYellow':3 },340,false,,TRUE
3playersLog_1384530715002.csv,1,200,100,false,{ chips  'CTRed':1 'CTPurple':1 },{ chips  },FALSE,200,120,,,190,130,0,(R:5,C:4),{ chips  'CTRed':14 'CTGreen':0 'CTPurple':0 'grey78':12 'CTYellow':8 },170,{ chips  'CTRed':33 'CTGreen':0 'CTPurple':7 'grey78':0 'CTYellow':0 },200,{ chips  'CTRed':19 'CTGreen':0 'CTPurple':7 'grey78':0 'CTYellow':4 },150,false,,
3playersLog_1384530715002.csv,1,300,100,false,{ chips  'CTRed':14 },{ chips  'CTYellow':4 },TRUE,200,120,{ chips  'CTRed':14 'CTPurple':0 'CTGreen':0 'grey78':0 'CTYellow':0 },{ chips  'CTRed':0 'CTPurple':0 'CTGreen':0 'grey78':0 'CTYellow':4 },150,170,0,(R:5,C:4),{ chips  'CTRed':14 'CTGreen':0 'CTPurple':0 'grey78':12 'CTYellow':8 },170,{ chips  'CTRed':33 'CTGreen':0 'CTPurple':7 'grey78':0 'CTYellow':0 },200,{ chips  'CTRed':19 'CTGreen':0 'CTPurple':7 'grey78':0 'CTYellow':4 },150,false,,
3playersLog_1384530715002.csv,2,100,300,true,{ chips  'CTRed':5 'CTYellow':2 },{ chips  'CTPurple':2 },TRUE,170,200,{ chips  'CTRed':5 'CTPurple':0 'CTGreen':0 'grey78':0 'CTYellow':2 },{ chips  'CTRed':0 'CTPurple':2 'CTGreen':0 'grey78':0 'CTYellow':0 },145,175,6,(R:2,C:1),{ chips  'CTRed':9 'CTGreen':0 'CTPurple':2 'grey78':6 'CTYellow':6 },115,{ chips  'CTRed':33 'CTGreen':0 'CTPurple':7 'grey78':0 'CTYellow':0 },200,{ chips  'CTRed':24 'CTGreen':0 'CTPurple':5 'grey78':0 'CTYellow':6 },175,false,,
3playersLog_1384530715002.csv,3,200,100,false,{ chips  'CTRed':2 'CTPurple':1 },{ chips  'CTRed':1 'CTPurple':1 },FALSE,200,250,,,195,255,3,(R:0,C:0),{ chips  'CTRed':9 'CTGreen':0 'CTPurple':2 'grey78':3 'CTYellow':6 },250,{ chips  'CTRed':33 'CTGreen':0 'CTPurple':7 'grey78':0 'CTYellow':0 },200,{ chips  'CTRed':24 'CTGreen':0 'CTPurple':5 'grey78':0 'CTYellow':6 },325,false,,
3playersLog_1384530715002.csv,3,300,100,false,{ chips  'CTRed':1 },{ chips  'CTRed':2 },FALSE,325,250,,,330,245,3,(R:0,C:0),{ chips  'CTRed':9 'CTGreen':0 'CTPurple':2 'grey78':3 'CTYellow':6 },250,{ chips  'CTRed':33 'CTGreen':0 'CTPurple':7 'grey78':0 'CTYellow':0 },200,{ chips  'CTRed':24 'CTGreen':0 'CTPurple':5 'grey78':0 'CTYellow':6 },325,false,,
3playersLog_1384530715002.csv,3,300,100,false,{ chips  'CTRed':1 },{ chips  'CTRed':2 },FALSE,325,250,,,330,245,3,(R:0,C:0),{ chips  'CTRed':9 'CTGreen':0 'CTPurple':2 'grey78':3 'CTYellow':6 },250,{ chips  'CTRed':33 'CTGreen':0 'CTPurple':7 'grey78':0 'CTYellow':0 },200,{ chips  'CTRed':24 'CTGreen':0 'CTPurple':5 'grey78':0 'CTYellow':6 },325,false,,TRUE
3playersLog_1384550986298.csv,1,200,100,false,{ chips  },{ chips  },FALSE,200,120,,,200,120,9,(R:0,C:0),{ chips  'CTRed':0 'CTGreen':0 'CTPurple':0 'grey78':3 'CTYellow':12 },225,{ chips  'CTRed':33 'CTGreen':0 'CTPurple':7 'grey78':0 'CTYellow':0 },200,{ chips  'CTRed':33 'CTGreen':0 'CTPurple':7 'grey78':0 'CTYellow':0 },350,false,,
3playersLog_1384550986298.csv,1,300,100,false,{ chips  },{ chips  },FALSE,200,120,,,200,120,9,(R:0,C:0),{ chips  'CTRed':0 'CTGreen':0 'CTPurple':0 'grey78':3 'CTYellow':12 },225,{ chips  'CTRed':33 'CTGreen':0 'CTPurple':7 'grey78':0 'CTYellow':0 },200,{ chips  'CTRed':33 'CTGreen':0 'CTPurple':7 'grey78':0 'CTYellow':0 },350,false,,
3playersLog_1384550986298.csv,1,300,100,false,{ chips  },{ chips  },FALSE,200,120,,,200,120,9,(R:0,C:0),{ chips  'CTRed':0 'CTGreen':0 'CTPurple':0 'grey78':3 'CTYellow':12 },225,{ chips  'CTRed':33 'CTGreen':0 'CTPurple':7 'grey78':0 'CTYellow':0 },200,{ chips  'CTRed':33 'CTGreen':0 'CTPurple':7 'grey78':0 'CTYellow':0 },350,false,,TRUE
3playersLog_1384890614280.csv,1,200,100,false,{ chips  'CTPurple':2 },{ chips  'CTYellow':2 },IGNORED,200,120,,,200,120,3,(R:3,C:3),{ chips  'CTRed':2 'CTGreen':0 'CTPurple':0 'grey78':10 'CTYellow':12 },120,{ chips  'CTRed':33 'CTGreen':0 'CTPurple':7 'grey78':0 'CTYellow':0 },200,{ chips  'CTRed':31 'CTGreen':0 'CTPurple':6 'grey78':0 'CTYellow':0 },185,false,,
3playersLog_1384890614280.csv,1,300,100,false,{ chips  'CTRed':2 'CTPurple':1 },{ chips  },TRUE,200,120,{ chips  'CTRed':2 'CTPurple':1 'CTGreen':0 'grey78':0 'CTYellow':0 },{ chips  'CTRed':0 'CTPurple':0 'CTGreen':0 'grey78':0 'CTYellow':0 },185,135,3,(R:3,C:3),{ chips  'CTRed':2 'CTGreen':0 'CTPurple':0 'grey78':10 'CTYellow':12 },120,{ chips  'CTRed':33 'CTGreen':0 'CTPurple':7 'grey78':0 'CTYellow':0 },200,{ chips  'CTRed':31 'CTGreen':0 'CTPurple':6 'grey78':0 'CTYellow':0 },185,false,,
3playersLog_1384890614280.csv,2,100,200,true,{ chips  },{ chips  'CTRed':4 'CTPurple':3 },TRUE,120,200,{ chips  'CTRed':0 'CTPurple':0 'CTGreen':0 'grey78':0 'CTYellow':0 },{ chips  'CTRed':4 'CTPurple':3 'CTGreen':0 'grey78':0 'CTYellow':0 },155,165,2,(R:3,C:5),{ chips  'CTRed':6 'CTGreen':0 'CTPurple':1 'grey78':10 'CTYellow':12 },145,{ chips  'CTRed':29 'CTGreen':0 'CTPurple':4 'grey78':0 'CTYellow':0 },165,{ chips  'CTRed':31 'CTGreen':0 'CTPurple':6 'grey78':0 'CTYellow':0 },185,false,,
3playersLog_1384890614280.csv,3,200,100,false,{ chips  'CTPurple':2 },{ chips  },TRUE,165,145,{ chips  'CTRed':0 'CTPurple':2 'CTGreen':0 'grey78':0 'CTYellow':0 },{ chips  'CTRed':0 'CTPurple':0 'CTGreen':0 'grey78':0 'CTYellow':0 },155,155,1,(R:3,C:6),{ chips  'CTRed':6 'CTGreen':0 'CTPurple':3 'grey78':10 'CTYellow':11 },150,{ chips  'CTRed':29 'CTGreen':0 'CTPurple':2 'grey78':0 'CTYellow':0 },155,{ chips  'CTRed':31 'CTGreen':0 'CTPurple':6 'grey78':0 'CTYellow':0 },185,false,,
3playersLog_1384890614280.csv,3,300,100,false,{ chips  'CTRed':3 },{ chips  'grey78':1 'CTYellow':2 },IGNORED,185,145,,,185,145,1,(R:3,C:6),{ chips  'CTRed':6 'CTGreen':0 'CTPurple':3 'grey78':10 'CTYellow':11 },150,{ chips  'CTRed':29 'CTGreen':0 'CTPurple':2 'grey78':0 'CTYellow':0 },155,{ chips  'CTRed':31 'CTGreen':0 'CTPurple':6 'grey78':0 'CTYellow':0 },185,false,,
3playersLog_1384890614280.csv,4,100,300,true,{ chips  },{ chips  'CTRed':6 'CTPurple':1 },TRUE,150,155,{ chips  'CTRed':0 'CTPurple':0 'CTGreen':0 'grey78':0 'CTYellow':0 },{ chips  'CTRed':6 'CTPurple':1 'CTGreen':0 'grey78':0 'CTYellow':0 },185,150,3,(R:3,C:3),{ chips  'CTRed':12 'CTGreen':0 'CTPurple':1 'grey78':10 'CTYellow':11 },170,{ chips  'CTRed':29 'CTGreen':0 'CTPurple':2 'grey78':0 'CTYellow':0 },155,{ chips  'CTRed':25 'CTGreen':0 'CTPurple':5 'grey78':0 'CTYellow':0 },150,false,,
3playersLog_1384890614280.csv,5,200,100,false,{ chips  'CTPurple':1 },{ chips  'grey78':1 },IGNORED,155,170,,,155,170,0,(R:3,C:3),{ chips  'CTRed':14 'CTGreen':0 'CTPurple':2 'grey78':9 'CTYellow':9 },170,{ chips  'CTRed':29 'CTGreen':0 'CTPurple':2 'grey78':0 'CTYellow':0 },155,{ chips  'CTRed':23 'CTGreen':0 'CTPurple':4 'grey78':1 'CTYellow':2 },150,false,,
3playersLog_1384890614280.csv,5,300,100,false,{ chips  'CTRed':2 'CTPurple':1 },{ chips  'grey78':1 'CTYellow':2 },TRUE,150,170,{ chips  'CTRed':2 'CTPurple':1 'CTGreen':0 'grey78':0 'CTYellow':0 },{ chips  'CTRed':0 'CTPurple':0 'CTGreen':0 'grey78':1 'CTYellow':2 },150,170,0,(R:3,C:3),{ chips  'CTRed':14 'CTGreen':0 'CTPurple':2 'grey78':9 'CTYellow':9 },170,{ chips  'CTRed':29 'CTGreen':0 'CTPurple':2 'grey78':0 'CTYellow':0 },155,{ chips  'CTRed':23 'CTGreen':0 'CTPurple':4 'grey78':1 'CTYellow':2 },150,false,,
3playersLog_1384890614280.csv,6,100,200,true,{ chips  'grey78':1 },{ chips  'CTRed':3 },FALSE,170,155,,,180,145,2,(R:3,C:5),{ chips  'CTRed':14 'CTGreen':0 'CTPurple':0 'grey78':9 'CTYellow':9 },160,{ chips  'CTRed':29 'CTGreen':0 'CTPurple':2 'grey78':0 'CTYellow':0 },155,{ chips  'CTRed':23 'CTGreen':0 'CTPurple':4 'grey78':1 'CTYellow':2 },150,false,,
3playersLog_1384890614280.csv,7,200,100,false,{ chips  'CTRed':3 },{ chips  'grey78':2 },TRUE,155,160,{ chips  'CTRed':3 'CTPurple':0 'CTGreen':0 'grey78':0 'CTYellow':0 },{ chips  'CTRed':0 'CTPurple':0 'CTGreen':0 'grey78':2 'CTYellow':0 },150,165,1,(R:3,C:6),{ chips  'CTRed':17 'CTGreen':0 'CTPurple':0 'grey78':7 'CTYellow':8 },160,{ chips  'CTRed':26 'CTGreen':0 'CTPurple':2 'grey78':2 'CTYellow':0 },150,{ chips  'CTRed':23 'CTGreen':0 'CTPurple':4 'grey78':1 'CTYellow':2 },150,false,,
3playersLog_1384890614280.csv,7,300,100,false,{ chips  'CTRed':3 'CTPurple':1 'CTYellow':1 },{ chips  'CTRed':2 'grey78':3 },IGNORED,150,160,,,150,160,1,(R:3,C:6),{ chips  'CTRed':17 'CTGreen':0 'CTPurple':0 'grey78':7 'CTYellow':8 },160,{ chips  'CTRed':26 'CTGreen':0 'CTPurple':2 'grey78':2 'CTYellow':0 },150,{ chips  'CTRed':23 'CTGreen':0 'CTPurple':4 'grey78':1 'CTYellow':2 },150,false,,
3playersLog_1384890614280.csv,8,100,300,true,{ chips  'CTYellow':1 },{ chips  'CTRed':4 'CTPurple':3 },FALSE,160,150,,,190,120,1,(R:3,C:7),{ chips  'CTRed':17 'CTGreen':0 'CTPurple':0 'grey78':7 'CTYellow':7 },155,{ chips  'CTRed':26 'CTGreen':0 'CTPurple':2 'grey78':2 'CTYellow':0 },150,{ chips  'CTRed':23 'CTGreen':0 'CTPurple':4 'grey78':1 'CTYellow':2 },150,false,,
3playersLog_1384890614280.csv,9,200,100,false,{ chips  'CTRed':4 },{ chips  'grey78':2 },TRUE,150,155,{ chips  'CTRed':4 'CTPurple':0 'CTGreen':0 'grey78':0 'CTYellow':0 },{ chips  'CTRed':0 'CTPurple':0 'CTGreen':0 'grey78':2 'CTYellow':0 },140,165,1,(R:2,C:7),{ chips  'CTRed':21 'CTGreen':0 'CTPurple':0 'grey78':5 'CTYellow':6 },160,{ chips  'CTRed':22 'CTGreen':0 'CTPurple':2 'grey78':4 'CTYellow':0 },140,{ chips  'CTRed':23 'CTGreen':0 'CTPurple':4 'grey78':1 'CTYellow':2 },150,false,,
3playersLog_1384890614280.csv,9,300,100,false,{ chips  'CTRed':2 'CTPurple':1 'CTYellow':1 },{ chips  'CTRed':1 'grey78':4 },IGNORED,150,155,,,155,150,1,(R:2,C:7),{ chips  'CTRed':21 'CTGreen':0 'CTPurple':0 'grey78':5 'CTYellow':6 },160,{ chips  'CTRed':22 'CTGreen':0 'CTPurple':2 'grey78':4 'CTYellow':0 },140,{ chips  'CTRed':23 'CTGreen':0 'CTPurple':4 'grey78':1 'CTYellow':2 },150,false,,
3playersLog_1384890614280.csv,10,100,300,true,{ chips  'CTYellow':2 },{ chips  'CTRed':10 'CTPurple':3 },FALSE,160,150,,,215,95,1,(R:3,C:7),{ chips  'CTRed':21 'CTGreen':0 'CTPurple':0 'grey78':5 'CTYellow':5 },155,{ chips  'CTRed':22 'CTGreen':0 'CTPurple':2 'grey78':4 'CTYellow':0 },140,{ chips  'CTRed':23 'CTGreen':0 'CTPurple':4 'grey78':1 'CTYellow':2 },150,false,,
3playersLog_1384890614280.csv,11,200,100,false,{ chips  'CTRed':2 'CTPurple':1 },{ chips  'grey78':1 },TRUE,140,155,{ chips  'CTRed':2 'CTPurple':1 'CTGreen':0 'grey78':0 'CTYellow':0 },{ chips  'CTRed':0 'CTPurple':0 'CTGreen':0 'grey78':1 'CTYellow':0 },130,165,1,(R:3,C:6),{ chips  'CTRed':23 'CTGreen':0 'CTPurple':1 'grey78':4 'CTYellow':4 },160,{ chips  'CTRed':20 'CTGreen':0 'CTPurple':1 'grey78':5 'CTYellow':0 },130,{ chips  'CTRed':23 'CTGreen':0 'CTPurple':4 'grey78':1 'CTYellow':2 },150,false,,
3playersLog_1384890614280.csv,11,300,100,false,{ chips  'CTPurple':1 'CTYellow':2 },{ chips  'CTRed':5 },IGNORED,150,155,,,160,145,1,(R:3,C:6),{ chips  'CTRed':23 'CTGreen':0 'CTPurple':1 'grey78':4 'CTYellow':4 },160,{ chips  'CTRed':20 'CTGreen':0 'CTPurple':1 'grey78':5 'CTYellow':0 },130,{ chips  'CTRed':23 'CTGreen':0 'CTPurple':4 'grey78':1 'CTYellow':2 },150,false,,
3playersLog_1384890614280.csv,12,100,200,true,{ chips  'grey78':4 },{ chips  'CTRed':6 },TRUE,160,130,{ chips  'CTRed':0 'CTPurple':0 'CTGreen':0 'grey78':4 'CTYellow':0 },{ chips  'CTRed':6 'CTPurple':0 'CTGreen':0 'grey78':0 'CTYellow':0 },170,120,5,(R:0,C:8),{ chips  'CTRed':29 'CTGreen':0 'CTPurple':0 'grey78':0 'CTYellow':0 },295,{ chips  'CTRed':14 'CTGreen':0 'CTPurple':1 'grey78':9 'CTYellow':0 },270,{ chips  'CTRed':23 'CTGreen':0 'CTPurple':4 'grey78':1 'CTYellow':2 },150,true,,
3playersLog_1384890614280.csv,12,100,200,true,{ chips  'grey78':4 },{ chips  'CTRed':6 },TRUE,160,130,{ chips  'CTRed':0 'CTPurple':0 'CTGreen':0 'grey78':4 'CTYellow':0 },{ chips  'CTRed':6 'CTPurple':0 'CTGreen':0 'grey78':0 'CTYellow':0 },170,120,5,(R:0,C:8),{ chips  'CTRed':29 'CTGreen':0 'CTPurple':0 'grey78':0 'CTYellow':0 },295,{ chips  'CTRed':14 'CTGreen':0 'CTPurple':1 'grey78':9 'CTYellow':0 },270,{ chips  'CTRed':23 'CTGreen':0 'CTPurple':4 'grey78':1 'CTYellow':2 },150,true,,TRUE
3playersLog_1384978600845.csv,1,200,100,false,{ chips  'CTPurple':2 },{ chips  },FALSE,200,120,,,190,130,10,(R:3,C:2),{ chips  'CTRed':10 'CTGreen':0 'CTPurple':2 'grey78':3 'CTYellow':12 },135,{ chips  'CTRed':33 'CTGreen':0 'CTPurple':7 'grey78':0 'CTYellow':0 },200,{ chips  'CTRed':23 'CTGreen':0 'CTPurple':4 'grey78':0 'CTYellow':0 },135,false,,
3playersLog_1384978600845.csv,1,300,100,false,{ chips  'CTRed':10 'CTPurple':3 },{ chips  },TRUE,200,120,{ chips  'CTRed':10 'CTPurple':3 'CTGreen':0 'grey78':0 'CTYellow':0 },{ chips  'CTRed':0 'CTPurple':0 'CTGreen':0 'grey78':0 'CTYellow':0 },135,185,10,(R:3,C:2),{ chips  'CTRed':10 'CTGreen':0 'CTPurple':2 'grey78':3 'CTYellow':12 },135,{ chips  'CTRed':33 'CTGreen':0 'CTPurple':7 'grey78':0 'CTYellow':0 },200,{ chips  'CTRed':23 'CTGreen':0 'CTPurple':4 'grey78':0 'CTYellow':0 },135,false,,
3playersLog_1384978600845.csv,2,100,200,true,{ chips  'grey78':2 },{ chips  'CTRed':18 'CTPurple':7 },TRUE,135,200,{ chips  'CTRed':0 'CTPurple':0 'CTGreen':0 'grey78':2 'CTYellow':0 },{ chips  'CTRed':18 'CTPurple':7 'CTGreen':0 'grey78':0 'CTYellow':0 },250,85,0,(R:3,C:2),{ chips  'CTRed':28 'CTGreen':0 'CTPurple':9 'grey78':1 'CTYellow':12 },250,{ chips  'CTRed':15 'CTGreen':0 'CTPurple':0 'grey78':2 'CTYellow':0 },85,{ chips  'CTRed':23 'CTGreen':0 'CTPurple':4 'grey78':0 'CTYellow':0 },135,true,,
3playersLog_1384978600845.csv,3,200,100,false,{ chips  'grey78':2 },{ chips  'CTRed':5 },TRUE,85,250,{ chips  'CTRed':0 'CTPurple':0 'CTGreen':0 'grey78':2 'CTYellow':0 },{ chips  'CTRed':5 'CTPurple':0 'CTGreen':0 'grey78':0 'CTYellow':0 },100,235,9,(R:0,C:8),{ chips  'CTRed':23 'CTGreen':0 'CTPurple':6 'grey78':3 'CTYellow':6 },340,{ chips  'CTRed':20 'CTGreen':0 'CTPurple':0 'grey78':0 'CTYellow':0 },250,{ chips  'CTRed':23 'CTGreen':0 'CTPurple':4 'grey78':0 'CTYellow':0 },135,false,,
3playersLog_1384978600845.csv,3,200,100,false,{ chips  'grey78':2 },{ chips  'CTRed':5 },TRUE,85,250,{ chips  'CTRed':0 'CTPurple':0 'CTGreen':0 'grey78':2 'CTYellow':0 },{ chips  'CTRed':5 'CTPurple':0 'CTGreen':0 'grey78':0 'CTYellow':0 },100,235,9,(R:0,C:8),{ chips  'CTRed':23 'CTGreen':0 'CTPurple':6 'grey78':3 'CTYellow':6 },340,{ chips  'CTRed':20 'CTGreen':0 'CTPurple':0 'grey78':0 'CTYellow':0 },250,{ chips  'CTRed':23 'CTGreen':0 'CTPurple':4 'grey78':0 'CTYellow':0 },135,false,,TRUE
3playersLog_1384984174669.csv,1,200,100,false,{ chips  'CTPurple':4 },{ chips  },TRUE,200,120,{ chips  'CTRed':0 'CTPurple':4 'CTGreen':0 'grey78':0 'CTYellow':0 },{ chips  'CTRed':0 'CTPurple':0 'CTGreen':0 'grey78':0 'CTYellow':0 },180,140,0,(R:5,C:4),{ chips  'CTRed':0 'CTGreen':0 'CTPurple':4 'grey78':12 'CTYellow':12 },140,{ chips  'CTRed':33 'CTGreen':0 'CTPurple':3 'grey78':0 'CTYellow':0 },180,{ chips  'CTRed':33 'CTGreen':0 'CTPurple':7 'grey78':0 'CTYellow':0 },200,false,,
3playersLog_1384984174669.csv,1,300,100,false,{ chips  'CTPurple':1 },{ chips  'grey78':1 },IGNORED,200,120,,,200,120,0,(R:5,C:4),{ chips  'CTRed':0 'CTGreen':0 'CTPurple':4 'grey78':12 'CTYellow':12 },140,{ chips  'CTRed':33 'CTGreen':0 'CTPurple':3 'grey78':0 'CTYellow':0 },180,{ chips  'CTRed':33 'CTGreen':0 'CTPurple':7 'grey78':0 'CTYellow':0 },200,false,,
3playersLog_1384984174669.csv,2,100,300,true,{ chips  'grey78':2 },{ chips  'CTRed':4 },TRUE,140,180,{ chips  'CTRed':0 'CTPurple':0 'CTGreen':0 'grey78':2 'CTYellow':0 },{ chips  'CTRed':4 'CTPurple':0 'CTGreen':0 'grey78':0 'CTYellow':0 },150,190,2,(R:4,C:3),{ chips  'CTRed':4 'CTGreen':0 'CTPurple':4 'grey78':8 'CTYellow':12 },140,{ chips  'CTRed':33 'CTGreen':0 'CTPurple':3 'grey78':0 'CTYellow':0 },180,{ chips  'CTRed':29 'CTGreen':0 'CTPurple':7 'grey78':2 'CTYellow':0 },190,false,,
3playersLog_1384984174669.csv,3,200,100,false,{ chips  'CTPurple':2 },{ chips  'CTYellow':2 },TRUE,180,140,{ chips  'CTRed':0 'CTPurple':2 'CTGreen':0 'grey78':0 'CTYellow':0 },{ chips  'CTRed':0 'CTPurple':0 'CTGreen':0 'grey78':0 'CTYellow':2 },180,140,2,(R:3,C:2),{ chips  'CTRed':4 'CTGreen':0 'CTPurple':6 'grey78':6 'CTYellow':10 },130,{ chips  'CTRed':33 'CTGreen':0 'CTPurple':1 'grey78':0 'CTYellow':2 },180,{ chips  'CTRed':29 'CTGreen':0 'CTPurple':7 'grey78':2 'CTYellow':0 },190,false,,
3playersLog_1384984174669.csv,3,300,100,false,{ chips  'grey78':2 },{ chips  'CTYellow':4 },IGNORED,190,140,,,200,130,2,(R:3,C:2),{ chips  'CTRed':4 'CTGreen':0 'CTPurple':6 'grey78':6 'CTYellow':10 },130,{ chips  'CTRed':33 'CTGreen':0 'CTPurple':1 'grey78':0 'CTYellow':2 },180,{ chips  'CTRed':29 'CTGreen':0 'CTPurple':7 'grey78':2 'CTYellow':0 },190,false,,
3playersLog_1384984174669.csv,4,100,200,true,{ chips  'CTYellow':3 },{ chips  'CTRed':6 },TRUE,130,180,{ chips  'CTRed':0 'CTPurple':0 'CTGreen':0 'grey78':0 'CTYellow':3 },{ chips  'CTRed':6 'CTPurple':0 'CTGreen':0 'grey78':0 'CTYellow':0 },145,165,3,(R:2,C:0),{ chips  'CTRed':10 'CTGreen':0 'CTPurple':6 'grey78':3 'CTYellow':7 },130,{ chips  'CTRed':27 'CTGreen':0 'CTPurple':1 'grey78':0 'CTYellow':5 },165,{ chips  'CTRed':29 'CTGreen':0 'CTPurple':7 'grey78':2 'CTYellow':0 },190,false,,
3playersLog_1384984174669.csv,5,200,100,false,{ chips  'CTRed':3 'CTPurple':1 'CTYellow':2 },{ chips  'grey78':2 },IGNORED,165,130,,,145,150,1,(R:1,C:0),{ chips  'CTRed':14 'CTGreen':0 'CTPurple':3 'grey78':4 'CTYellow':7 },140,{ chips  'CTRed':27 'CTGreen':0 'CTPurple':1 'grey78':0 'CTYellow':5 },165,{ chips  'CTRed':25 'CTGreen':0 'CTPurple':10 'grey78':0 'CTYellow':0 },175,false,,
3playersLog_1384984174669.csv,5,300,100,false,{ chips  'CTRed':4 'grey78':2 },{ chips  'CTPurple':3 },TRUE,190,130,{ chips  'CTRed':4 'CTPurple':0 'CTGreen':0 'grey78':2 'CTYellow':0 },{ chips  'CTRed':0 'CTPurple':3 'CTGreen':0 'grey78':0 'CTYellow':0 },175,145,1,(R:1,C:0),{ chips  'CTRed':14 'CTGreen':0 'CTPurple':3 'grey78':4 'CTYellow':7 },140,{ chips  'CTRed':27 'CTGreen':0 'CTPurple':1 'grey78':0 'CTYellow':5 },165,{ chips  'CTRed':25 'CTGreen':0 'CTPurple':10 'grey78':0 'CTYellow':0 },175,false,,
3playersLog_1384984174669.csv,6,100,200,true,{ chips  'CTYellow':3 },{ chips  'CTRed':7 },FALSE,140,165,,,160,145,1,(R:0,C:0),{ chips  'CTRed':14 'CTGreen':0 'CTPurple':3 'grey78':3 'CTYellow':7 },285,{ chips  'CTRed':27 'CTGreen':0 'CTPurple':1 'grey78':0 'CTYellow':5 },165,{ chips  'CTRed':25 'CTGreen':0 'CTPurple':10 'grey78':0 'CTYellow':0 },325,false,,
3playersLog_1384984174669.csv,6,100,200,true,{ chips  'CTYellow':3 },{ chips  'CTRed':7 },FALSE,140,165,,,160,145,1,(R:0,C:0),{ chips  'CTRed':14 'CTGreen':0 'CTPurple':3 'grey78':3 'CTYellow':7 },285,{ chips  'CTRed':27 'CTGreen':0 'CTPurple':1 'grey78':0 'CTYellow':5 },165,{ chips  'CTRed':25 'CTGreen':0 'CTPurple':10 'grey78':0 'CTYellow':0 },325,false,,TRUE
3playersLog_1385151383981.csv,1,200,100,false,{ chips  'CTRed':10 'CTPurple':5 },{ chips  'grey78':4 },TRUE,200,120,{ chips  'CTRed':10 'CTPurple':5 'CTGreen':0 'grey78':0 'CTYellow':0 },{ chips  'CTRed':0 'CTPurple':0 'CTGreen':0 'grey78':4 'CTYellow':0 },145,175,9,(R:0,C:8),{ chips  'CTRed':10 'CTGreen':0 'CTPurple':5 'grey78':8 'CTYellow':3 },280,{ chips  'CTRed':23 'CTGreen':0 'CTPurple':2 'grey78':4 'CTYellow':0 },295,{ chips  'CTRed':33 'CTGreen':0 'CTPurple':7 'grey78':0 'CTYellow':0 },200,false,,
3playersLog_1385151383981.csv,1,300,100,false,{ chips  'CTRed':15 'CTPurple':5 },{ chips  'CTYellow':12 },IGNORED,200,120,,,160,160,9,(R:0,C:8),{ chips  'CTRed':10 'CTGreen':0 'CTPurple':5 'grey78':8 'CTYellow':3 },280,{ chips  'CTRed':23 'CTGreen':0 'CTPurple':2 'grey78':4 'CTYellow':0 },295,{ chips  'CTRed':33 'CTGreen':0 'CTPurple':7 'grey78':0 'CTYellow':0 },200,false,,
3playersLog_1385151383981.csv,1,300,100,false,{ chips  'CTRed':15 'CTPurple':5 },{ chips  'CTYellow':12 },IGNORED,200,120,,,160,160,9,(R:0,C:8),{ chips  'CTRed':10 'CTGreen':0 'CTPurple':5 'grey78':8 'CTYellow':3 },280,{ chips  'CTRed':23 'CTGreen':0 'CTPurple':2 'grey78':4 'CTYellow':0 },295,{ chips  'CTRed':33 'CTGreen':0 'CTPurple':7 'grey78':0 'CTYellow':0 },200,false,,TRUE
3playersLog_1384462199015.csv,1,200,100,false,{ chips  'CTRed':5 'CTPurple':7 },{ chips  'grey78':9 },FALSE,200,120,,,185,135,0,(R:5,C:4),{ chips  'CTRed':0 'CTGreen':0 'CTPurple':0 'grey78':12 'CTYellow':12 },120,{ chips  'CTRed':33 'CTGreen':0 'CTPurple':7 'grey78':0 'CTYellow':0 },200,{ chips  'CTRed':33 'CTGreen':0 'CTPurple':7 'grey78':0 'CTYellow':0 },200,false,,
3playersLog_1384462199015.csv,1,300,100,false,{ chips  'CTRed':1 },{ chips  'grey78':1 },FALSE,200,120,,,200,120,0,(R:5,C:4),{ chips  'CTRed':0 'CTGreen':0 'CTPurple':0 'grey78':12 'CTYellow':12 },120,{ chips  'CTRed':33 'CTGreen':0 'CTPurple':7 'grey78':0 'CTYellow':0 },200,{ chips  'CTRed':33 'CTGreen':0 'CTPurple':7 'grey78':0 'CTYellow':0 },200,false,,
3playersLog_1384462199015.csv,2,100,200,true,{ chips  'grey78':1 },{ chips  },TRUE,120,200,{ chips  'CTRed':0 'CTPurple':0 'CTGreen':0 'grey78':1 'CTYellow':0 },{ chips  'CTRed':0 'CTPurple':0 'CTGreen':0 'grey78':0 'CTYellow':0 },115,205,4,(R:3,C:2),{ chips  'CTRed':0 'CTGreen':0 'CTPurple':0 'grey78':7 'CTYellow':12 },95,{ chips  'CTRed':33 'CTGreen':0 'CTPurple':7 'grey78':1 'CTYellow':0 },205,{ chips  'CTRed':33 'CTGreen':0 'CTPurple':7 'grey78':0 'CTYellow':0 },200,false,,
3playersLog_1384462199015.csv,3,300,100,false,{ chips  'CTRed':3 },{ chips  'CTYellow':2 },TRUE,200,95,{ chips  'CTRed':3 'CTPurple':0 'CTGreen':0 'grey78':0 'CTYellow':0 },{ chips  'CTRed':0 'CTPurple':0 'CTGreen':0 'grey78':0 'CTYellow':2 },195,100,4,(R:1,C:0),{ chips  'CTRed':3 'CTGreen':0 'CTPurple':0 'grey78':3 'CTYellow':10 },80,{ chips  'CTRed':33 'CTGreen':0 'CTPurple':7 'grey78':1 'CTYellow':0 },205,{ chips  'CTRed':30 'CTGreen':0 'CTPurple':7 'grey78':0 'CTYellow':2 },195,false,,
3playersLog_1384462199015.csv,4,100,200,true,{ chips  'CTYellow':1 },{ chips  'CTPurple':7 },TRUE,80,205,{ chips  'CTRed':0 'CTPurple':0 'CTGreen':0 'grey78':0 'CTYellow':1 },{ chips  'CTRed':0 'CTPurple':7 'CTGreen':0 'grey78':0 'CTYellow':0 },110,175,1,(R:0,C:0),{ chips  'CTRed':3 'CTGreen':0 'CTPurple':7 'grey78':2 'CTYellow':9 },255,{ chips  'CTRed':33 'CTGreen':0 'CTPurple':0 'grey78':1 'CTYellow':1 },175,{ chips  'CTRed':30 'CTGreen':0 'CTPurple':7 'grey78':0 'CTYellow':2 },345,false,,
3playersLog_1384462199015.csv,4,100,200,true,{ chips  'CTYellow':1 },{ chips  'CTPurple':7 },TRUE,80,205,{ chips  'CTRed':0 'CTPurple':0 'CTGreen':0 'grey78':0 'CTYellow':1 },{ chips  'CTRed':0 'CTPurple':7 'CTGreen':0 'grey78':0 'CTYellow':0 },110,175,1,(R:0,C:0),{ chips  'CTRed':3 'CTGreen':0 'CTPurple':7 'grey78':2 'CTYellow':9 },255,{ chips  'CTRed':33 'CTGreen':0 'CTPurple':0 'grey78':1 'CTYellow':1 },175,{ chips  'CTRed':30 'CTGreen':0 'CTPurple':7 'grey78':0 'CTYellow':2 },345,false,,TRUE
3playersLog_1384468152161.csv,1,300,100,false,{ chips  'CTRed':20 'CTPurple':3 },{ chips  },TRUE,200,120,{ chips  'CTRed':20 'CTPurple':3 'CTGreen':0 'grey78':0 'CTYellow':0 },{ chips  'CTRed':0 'CTPurple':0 'CTGreen':0 'grey78':0 'CTYellow':0 },85,235,9,(R:4,C:5),{ chips  'CTRed':20 'CTGreen':0 'CTPurple':3 'grey78':12 'CTYellow':10 },225,{ chips  'CTRed':33 'CTGreen':0 'CTPurple':7 'grey78':0 'CTYellow':0 },200,{ chips  'CTRed':13 'CTGreen':0 'CTPurple':4 'grey78':0 'CTYellow':0 },85,false,,
3playersLog_1384468152161.csv,2,100,200,true,{ chips  'CTPurple':1 'grey78':1 },{ chips  },TRUE,200,200,{ chips  'CTRed':0 'CTPurple':1 'CTGreen':0 'grey78':1 'CTYellow':0 },{ chips  'CTRed':0 'CTPurple':0 'CTGreen':0 'grey78':0 'CTYellow':0 },190,210,9,(R:0,C:8),{ chips  'CTRed':20 'CTGreen':0 'CTPurple':2 'grey78':11 'CTYellow':3 },330,{ chips  'CTRed':33 'CTGreen':0 'CTPurple':8 'grey78':1 'CTYellow':0 },360,{ chips  'CTRed':13 'CTGreen':0 'CTPurple':4 'grey78':0 'CTYellow':0 },85,false,,
3playersLog_1384468152161.csv,2,100,200,true,{ chips  'CTPurple':1 'grey78':1 },{ chips  },TRUE,200,200,{ chips  'CTRed':0 'CTPurple':1 'CTGreen':0 'grey78':1 'CTYellow':0 },{ chips  'CTRed':0 'CTPurple':0 'CTGreen':0 'grey78':0 'CTYellow':0 },190,210,9,(R:0,C:8),{ chips  'CTRed':20 'CTGreen':0 'CTPurple':2 'grey78':11 'CTYellow':3 },330,{ chips  'CTRed':33 'CTGreen':0 'CTPurple':8 'grey78':1 'CTYellow':0 },360,{ chips  'CTRed':13 'CTGreen':0 'CTPurple':4 'grey78':0 'CTYellow':0 },85,false,,TRUE
,,,,,,,,,,,,,,,,,,,,,,,,
,,,,,,,,,,,,,,,,,,,,,,,,
,4.459183673,,,,,,,,,,,,,,,,,226.8367347,,168.1122449,,174.5408163,,
