Wed Dec 04 14:46:36 EST 2013	This is the CT debug logger; svn version 638; sep 27 09
Wed Dec 04 14:46:36 EST 2013	Wed Dec 04 14:46:36 EST 2013
Wed Dec 04 14:46:36 EST 2013	ID Number: 66411
Wed Dec 04 14:46:36 EST 2013	Creating board
Wed Dec 04 14:46:36 EST 2013	<colors>
Wed Dec 04 14:46:36 EST 2013	{ GamePalette  'CTPurple':0 'CTRed':1 'CTGreen':2 'grey78':3 'CTYellow':4 }
Wed Dec 04 14:46:36 EST 2013	<rows>
Wed Dec 04 14:46:36 EST 2013	6
Wed Dec 04 14:46:36 EST 2013	<columns>
Wed Dec 04 14:46:36 EST 2013	9
Wed Dec 04 14:46:36 EST 2013	<squaresColors>
Wed Dec 04 14:46:36 EST 2013	grey78 CTGreen CTGreen CTGreen CTGreen CTGreen CTGreen CTGreen CTYellow 
Wed Dec 04 14:46:36 EST 2013	grey78 CTPurple CTPurple CTPurple CTPurple CTPurple CTPurple CTPurple CTYellow 
Wed Dec 04 14:46:36 EST 2013	grey78 grey78 CTGreen CTGreen CTGreen CTGreen CTGreen CTYellow CTYellow 
Wed Dec 04 14:46:36 EST 2013	CTGreen grey78 grey78 CTPurple CTPurple CTPurple CTYellow CTYellow CTGreen 
Wed Dec 04 14:46:36 EST 2013	CTGreen CTGreen grey78 grey78 CTGreen CTYellow CTYellow CTGreen CTGreen 
Wed Dec 04 14:46:36 EST 2013	CTGreen CTGreen CTGreen grey78 CTGreen CTYellow CTGreen CTGreen CTGreen 
Wed Dec 04 14:46:36 EST 2013	</squareColors>
Wed Dec 04 14:46:36 EST 2013	<goalPosition>
Wed Dec 04 14:46:36 EST 2013	Goal position: (R:0,C:0)
Wed Dec 04 14:46:36 EST 2013	<goalPosition>
Wed Dec 04 14:46:36 EST 2013	Goal position: (R:0,C:0)
Wed Dec 04 14:46:36 EST 2013	<firstPlayerPossibleGoal1>
Wed Dec 04 14:46:36 EST 2013	0.5
Wed Dec 04 14:46:36 EST 2013	0
Wed Dec 04 14:46:36 EST 2013	0
Wed Dec 04 14:46:36 EST 2013	</firstPlayerPossibleGoal1>
Wed Dec 04 14:46:36 EST 2013	<firstPlayerPossibleGoal2>
Wed Dec 04 14:46:36 EST 2013	0.5
Wed Dec 04 14:46:36 EST 2013	0
Wed Dec 04 14:46:36 EST 2013	8
Wed Dec 04 14:46:36 EST 2013	</firstPlayerPossibleGoal2>
Wed Dec 04 14:46:36 EST 2013	<numberOfPlayers>
Wed Dec 04 14:46:36 EST 2013	3
Wed Dec 04 14:46:36 EST 2013	<firstPlayerChips>
Wed Dec 04 14:46:36 EST 2013	Setting chips for player: 510 id:0
Wed Dec 04 14:46:36 EST 2013	{ chips  'CTRed':0 'CTGreen':0 'CTPurple':0 'grey78':12 'CTYellow':12 }
Wed Dec 04 14:46:36 EST 2013	Player position: (R:5,C:4)
Wed Dec 04 14:46:36 EST 2013	Setting chips for player: 520 id:1
Wed Dec 04 14:46:36 EST 2013	{ chips  'CTRed':33 'CTGreen':0 'CTPurple':7 'grey78':0 'CTYellow':0 }
Wed Dec 04 14:46:36 EST 2013	Player position: (R:0,C:8)
Wed Dec 04 14:46:36 EST 2013	Setting chips for player: 540 id:2
Wed Dec 04 14:46:36 EST 2013	{ chips  'CTRed':33 'CTGreen':0 'CTPurple':7 'grey78':0 'CTYellow':0 }
Wed Dec 04 14:46:36 EST 2013	Player position: (R:0,C:0)
Wed Dec 04 14:46:36 EST 2013	Protocol: A New Phase Began: Strategy Prep Phase. loop is true
Wed Dec 04 14:46:36 EST 2013	---------- Beginning Strategy Prep Phase at round 0 ----------
Wed Dec 04 14:47:36 EST 2013	A Phase Ended: Strategy Prep Phase
Wed Dec 04 14:47:36 EST 2013	Protocol: A New Phase Began: Communication Phase. loop is true
Wed Dec 04 14:47:36 EST 2013	---------- Beginning Communication Phase at round 1 ----------
Wed Dec 04 14:48:23 EST 2013	Received communication message 
Wed Dec 04 14:48:23 EST 2013	From player: 520
Wed Dec 04 14:48:23 EST 2013	To player: 510
Wed Dec 04 14:48:23 EST 2013	Chips to send by proposer: { chips  'CTRed':0 'CTPurple':7 'CTGreen':0 'grey78':0 'CTYellow':0 }
Wed Dec 04 14:48:23 EST 2013	Chips to send by responder: { chips  'CTRed':0 'CTPurple':0 'CTGreen':0 'grey78':1 'CTYellow':1 }
Wed Dec 04 14:48:50 EST 2013	Received communication message 
Wed Dec 04 14:48:50 EST 2013	From player: 540
Wed Dec 04 14:48:50 EST 2013	To player: 510
Wed Dec 04 14:48:50 EST 2013	Chips to send by proposer: { chips  'CTRed':15 'CTPurple':2 'CTGreen':0 'grey78':0 'CTYellow':0 }
Wed Dec 04 14:48:50 EST 2013	Chips to send by responder: { chips  'CTRed':0 'CTPurple':0 'CTGreen':0 'grey78':0 'CTYellow':12 }
Wed Dec 04 14:49:00 EST 2013	Received communication message 
Wed Dec 04 14:49:00 EST 2013	Proposer 0 accepted? true
Wed Dec 04 14:49:00 EST 2013	A Phase Ended: Communication Phase
Wed Dec 04 14:49:00 EST 2013	Protocol: A New Phase Began: Movement Phase. loop is true
Wed Dec 04 14:49:00 EST 2013	---------- Beginning Movement Phase at round 1 ----------
Wed Dec 04 14:49:00 EST 2013	remove strategy phase. 
Wed Dec 04 14:49:00 EST 2013	Received communication message 
Wed Dec 04 14:49:00 EST 2013	Proposer 1 accepted? false
Wed Dec 04 14:49:44 EST 2013	A Phase Ended: Movement Phase
Wed Dec 04 14:49:44 EST 2013	Protocol: A New Phase Began: Feedback Phase. loop is true
Wed Dec 04 14:49:44 EST 2013	---------- Beginning Feedback Phase at round 1 ----------
Wed Dec 04 14:49:44 EST 2013	Number of consecutive no movements for player 510 is 1
Wed Dec 04 14:49:44 EST 2013	TDPlayerPosition is(R:5,C:4)goal location 0(R:0,C:0)goal location 1(R:0,C:8)
Wed Dec 04 14:49:44 EST 2013	ended is false
Wed Dec 04 14:49:49 EST 2013	A Phase Ended: Feedback Phase
Wed Dec 04 14:49:49 EST 2013	 numberofMoves in round 1 is 0
Wed Dec 04 14:49:49 EST 2013	Swaping roles:
Wed Dec 04 14:49:49 EST 2013	Protocol: A New Phase Began: Communication Phase. loop is true
Wed Dec 04 14:49:49 EST 2013	---------- Beginning Communication Phase at round 2 ----------
Wed Dec 04 14:49:50 EST 2013	Received communication message 
Wed Dec 04 14:49:50 EST 2013	From player: 510
Wed Dec 04 14:49:50 EST 2013	To player: 520
Wed Dec 04 14:49:50 EST 2013	Chips to send by proposer: { chips  'grey78':10 }
Wed Dec 04 14:49:50 EST 2013	Chips to send by responder: { chips  'CTRed':33 'CTPurple':0 'CTYellow':1 }
Wed Dec 04 14:50:11 EST 2013	Received communication message 
Wed Dec 04 14:50:11 EST 2013	Proposer 0 accepted? false
Wed Dec 04 14:50:11 EST 2013	case that we had one reject, and one accept
Wed Dec 04 14:50:11 EST 2013	A Phase Ended: Communication Phase
Wed Dec 04 14:50:11 EST 2013	Protocol: A New Phase Began: Movement Phase. loop is true
Wed Dec 04 14:50:11 EST 2013	---------- Beginning Movement Phase at round 2 ----------
Wed Dec 04 14:50:56 EST 2013	A Phase Ended: Movement Phase
Wed Dec 04 14:50:56 EST 2013	Protocol: A New Phase Began: Feedback Phase. loop is true
Wed Dec 04 14:50:56 EST 2013	---------- Beginning Feedback Phase at round 2 ----------
Wed Dec 04 14:50:56 EST 2013	Number of consecutive no movements for player 510 is 0
Wed Dec 04 14:50:56 EST 2013	TDPlayerPosition is(R:5,C:5)goal location 0(R:0,C:0)goal location 1(R:0,C:8)
Wed Dec 04 14:50:56 EST 2013	ended is false
Wed Dec 04 14:51:01 EST 2013	A Phase Ended: Feedback Phase
Wed Dec 04 14:51:01 EST 2013	 numberofMoves in round 2 is 1
Wed Dec 04 14:51:01 EST 2013	Swaping roles:
Wed Dec 04 14:51:01 EST 2013	Protocol: A New Phase Began: Communication Phase. loop is true
Wed Dec 04 14:51:01 EST 2013	---------- Beginning Communication Phase at round 3 ----------
Wed Dec 04 14:51:36 EST 2013	Received communication message 
Wed Dec 04 14:51:36 EST 2013	From player: 520
Wed Dec 04 14:51:36 EST 2013	To player: 510
Wed Dec 04 14:51:36 EST 2013	Chips to send by proposer: { chips  'CTRed':15 'CTPurple':0 'CTGreen':0 'grey78':0 'CTYellow':0 }
Wed Dec 04 14:51:36 EST 2013	Chips to send by responder: { chips  'CTRed':0 'CTPurple':0 'CTGreen':0 'grey78':5 'CTYellow':0 }
Wed Dec 04 14:51:51 EST 2013	Received communication message 
Wed Dec 04 14:51:51 EST 2013	From player: 540
Wed Dec 04 14:51:51 EST 2013	To player: 510
Wed Dec 04 14:51:51 EST 2013	Chips to send by proposer: { chips  'CTRed':20 'CTPurple':7 'CTGreen':0 'grey78':0 'CTYellow':0 }
Wed Dec 04 14:51:51 EST 2013	Chips to send by responder: { chips  'CTRed':0 'CTPurple':0 'CTGreen':0 'grey78':0 'CTYellow':0 }
Wed Dec 04 14:51:51 EST 2013	Received communication message 
Wed Dec 04 14:51:51 EST 2013	Proposer 1 accepted? true
Wed Dec 04 14:51:51 EST 2013	A Phase Ended: Communication Phase
Wed Dec 04 14:51:51 EST 2013	Protocol: A New Phase Began: Movement Phase. loop is true
Wed Dec 04 14:51:51 EST 2013	---------- Beginning Movement Phase at round 3 ----------
Wed Dec 04 14:51:51 EST 2013	Received communication message 
Wed Dec 04 14:51:51 EST 2013	Proposer 0 accepted? false
Wed Dec 04 14:52:35 EST 2013	A Phase Ended: Movement Phase
Wed Dec 04 14:52:35 EST 2013	Protocol: A New Phase Began: Feedback Phase. loop is true
Wed Dec 04 14:52:35 EST 2013	---------- Beginning Feedback Phase at round 3 ----------
Wed Dec 04 14:52:35 EST 2013	Number of consecutive no movements for player 510 is 1
Wed Dec 04 14:52:35 EST 2013	TDPlayerPosition is(R:5,C:5)goal location 0(R:0,C:0)goal location 1(R:0,C:8)
Wed Dec 04 14:52:35 EST 2013	ended is false
Wed Dec 04 14:52:40 EST 2013	A Phase Ended: Feedback Phase
Wed Dec 04 14:52:40 EST 2013	 numberofMoves in round 3 is 0
Wed Dec 04 14:52:40 EST 2013	Swaping roles:
Wed Dec 04 14:52:40 EST 2013	Protocol: A New Phase Began: Communication Phase. loop is true
Wed Dec 04 14:52:40 EST 2013	---------- Beginning Communication Phase at round 4 ----------
Wed Dec 04 14:52:40 EST 2013	Received communication message 
Wed Dec 04 14:52:40 EST 2013	From player: 510
Wed Dec 04 14:52:40 EST 2013	To player: 520
Wed Dec 04 14:52:40 EST 2013	Chips to send by proposer: { chips  'grey78':10 }
Wed Dec 04 14:52:40 EST 2013	Chips to send by responder: { chips  'CTRed':33 'CTPurple':0 'CTYellow':1 }
Wed Dec 04 14:53:08 EST 2013	Received communication message 
Wed Dec 04 14:53:08 EST 2013	Proposer 0 accepted? true
Wed Dec 04 14:53:08 EST 2013	A Phase Ended: Communication Phase
Wed Dec 04 14:53:08 EST 2013	Protocol: A New Phase Began: Movement Phase. loop is true
Wed Dec 04 14:53:08 EST 2013	---------- Beginning Movement Phase at round 4 ----------
Wed Dec 04 14:53:53 EST 2013	A Phase Ended: Movement Phase
Wed Dec 04 14:53:53 EST 2013	Protocol: A New Phase Began: Feedback Phase. loop is true
Wed Dec 04 14:53:53 EST 2013	---------- Beginning Feedback Phase at round 4 ----------
Wed Dec 04 14:53:53 EST 2013	The TD player reached the goal, end the game
Wed Dec 04 14:53:53 EST 2013	ended is true
Wed Dec 04 14:53:58 EST 2013	A Phase Ended: Feedback Phase
Wed Dec 04 14:53:58 EST 2013	 numberofMoves in round 4 is 8
Wed Dec 04 14:53:58 EST 2013	Loop status: false
Wed Dec 04 14:53:58 EST 2013	Player: 540 ,role: Responder score is: 65
Wed Dec 04 14:53:58 EST 2013	Player: 540Game Ended
Wed Dec 04 14:53:58 EST 2013	Player: 520 ,role: Responder score is: 205
Wed Dec 04 14:53:58 EST 2013	Player: 520Game Ended
Wed Dec 04 14:53:58 EST 2013	Player: 510 ,role: Proposer score is: 505
Wed Dec 04 14:53:58 EST 2013	Player: 510Game Ended
Wed Dec 04 14:53:58 EST 2013	Protocol: A New Phase Began: Communication Phase. loop is false
Wed Dec 04 14:53:58 EST 2013	---------- Beginning Communication Phase at round 4 ----------
