filename,round,propID,respID,IsPropCustomer,chipsToSend,chipsToReceive,accept,propCurrentScore,respCurrentScore,actualSent,ActualRcvd,propResultingScore,respResultingScore,#ofCustomerMovesInRound,customerRowPositionAfterMovePhase,customerColPositionAfterMovePhase,Player100ChipsAfterMovePhase,Player100ScoreAfterMovePhase,Player200ChipsAfterMovePhase,Player200ScoreAfterMovePhase,Player300ChipsAfterMovePhase,Player300ScoreAfterMovePhase,generosityLevel,ClientReachedGoal
3playersLog_1386186396396.csv,1,520,510,false,{ chips  'CTPurple':7 },{ chips  'grey78':1 'CTYellow':1 },TRUE,200,120,{ chips  'CTRed':0 'CTPurple':7 'CTGreen':0 'grey78':0 'CTYellow':0 },{ chips  'CTRed':0 'CTPurple':0 'CTGreen':0 'grey78':1 'CTYellow':1 },175,145,0,(R:5,C:4),{ chips  'CTRed':0 'CTGreen':0 'CTPurple':7 'grey78':11 'CTYellow':11 },145,{ chips  'CTRed':33 'CTGreen':0 'CTPurple':0 'grey78':1 'CTYellow':1 },175,{ chips  'CTRed':33 'CTGreen':0 'CTPurple':7 'grey78':0 'CTYellow':0 },200
3playersLog_1386186396396.csv,1,540,510,false,{ chips  'CTRed':15 'CTPurple':2 },{ chips  'CTYellow':12 },IGNORED,200,120,,,,,0,(R:5,C:4),{ chips  'CTRed':0 'CTGreen':0 'CTPurple':7 'grey78':11 'CTYellow':11 },145,{ chips  'CTRed':33 'CTGreen':0 'CTPurple':0 'grey78':1 'CTYellow':1 },175,{ chips  'CTRed':33 'CTGreen':0 'CTPurple':7 'grey78':0 'CTYellow':0 },200
3playersLog_1386186396396.csv,2,510,520,true,{ chips  'grey78':10 },{ chips  'CTRed':33 'CTYellow':1 },FALSE,145,175,,,,,1,(R:5,C:5),{ chips  'CTRed':0 'CTGreen':0 'CTPurple':7 'grey78':11 'CTYellow':10 },140,{ chips  'CTRed':33 'CTGreen':0 'CTPurple':0 'grey78':1 'CTYellow':1 },175,{ chips  'CTRed':33 'CTGreen':0 'CTPurple':7 'grey78':0 'CTYellow':0 },200
3playersLog_1386186396396.csv,3,520,510,false,{ chips  'CTRed':15 },{ chips  'grey78':5 },IGNORED,175,140,,,,,0,(R:5,C:5),{ chips  'CTRed':20 'CTGreen':0 'CTPurple':14 'grey78':11 'CTYellow':10 },275,{ chips  'CTRed':33 'CTGreen':0 'CTPurple':0 'grey78':1 'CTYellow':1 },175,{ chips  'CTRed':13 'CTGreen':0 'CTPurple':0 'grey78':0 'CTYellow':0 },65
3playersLog_1386186396396.csv,3,540,510,false,{ chips  'CTRed':20 'CTPurple':7 },{ chips  },TRUE,200,140,{ chips  'CTRed':20 'CTPurple':7 'CTGreen':0 'grey78':0 'CTYellow':0 },{ chips  'CTRed':0 'CTPurple':0 'CTGreen':0 'grey78':0 'CTYellow':0 },65,275,0,(R:5,C:5),{ chips  'CTRed':20 'CTGreen':0 'CTPurple':14 'grey78':11 'CTYellow':10 },275,{ chips  'CTRed':33 'CTGreen':0 'CTPurple':0 'grey78':1 'CTYellow':1 },175,{ chips  'CTRed':13 'CTGreen':0 'CTPurple':0 'grey78':0 'CTYellow':0 },65
3playersLog_1386186396396.csv,4,510,520,true,{ chips  'grey78':10 },{ chips  'CTRed':33 'CTYellow':1 },TRUE,275,175,{ chips  'grey78':10 },{ chips  'CTRed':33 'CTPurple':0 'CTYellow':1 },395,55,8,(R:0,C:8),{ chips  'CTRed':53 'CTGreen':0 'CTPurple':12 'grey78':1 'CTYellow':5 },505,{ chips  'CTRed':0 'CTGreen':0 'CTPurple':0 'grey78':11 'CTYellow':0 },205,{ chips  'CTRed':13 'CTGreen':0 'CTPurple':0 'grey78':0 'CTYellow':0 },65
3playersLog_1386186396396.csv,,,,,,,,,,,,,,,,,,,,,,,,true
