Participant Number ,Ip-Server,Date,Gender,Age,Nationality,Religion,Major,Year,How religious,Marital
200,C3,Wed Dec 04 2013 11:42:57 GMT-0500 (Eastern Standard Time),M,22,English/Portuguese,none,IT,3,1,n/a
300,C5,Wed Dec 04 2013 11:43:17 GMT-0500 (Eastern Standard Time),Female,24,USA,N/A,Neuroscience ,Post Bac ,2,
200,C3,Wed Dec 04 2013 14:43:58 GMT-0500 (Eastern Standard Time),male,22,African American,Christian,Economics,Senior,3,Single
300,C5,Wed Dec 04 2013 14:45:06 GMT-0500 (Eastern Standard Time),F,21,White,Christian,Classics,2014,7,Single
