filename,round,propID,respID,IsPropCustomer,chipsToSend,chipsToReceive,accept,propCurrentScore,respCurrentScore,actualSent,ActualRcvd,propResultingScore,respResultingScore,#ofCustomerMovesInRound,customerRowPositionAfterMovePhase,customerColPositionAfterMovePhase,Player100ChipsAfterMovePhase,Player100ScoreAfterMovePhase,Player200ChipsAfterMovePhase,Player200ScoreAfterMovePhase,Player300ChipsAfterMovePhase,Player300ScoreAfterMovePhase,generosityLevel,ClientReachedGoal
3playersLog_1387803377484.csv,1,200,100,false,{ chips  'CTRed':6 'CTPurple':2 },{ chips  },TRUE,200,120,{ chips  'CTRed':6 'CTPurple':2 'CTGreen':0 'grey78':0 'CTYellow':0 },{ chips  'CTRed':0 'CTPurple':0 'CTGreen':0 'grey78':0 'CTYellow':0 },160,160,9,(R:0,C:8),{ chips  'CTRed':6 'CTGreen':0 'CTPurple':2 'grey78':12 'CTYellow':3 },265,{ chips  'CTRed':27 'CTGreen':0 'CTPurple':5 'grey78':0 'CTYellow':0 },310,{ chips  'CTRed':33 'CTGreen':0 'CTPurple':7 'grey78':0 'CTYellow':0 },200
3playersLog_1387803377484.csv,1,300,100,false,{ chips  'CTRed':5 },{ chips  },IGNORED,200,120,,,,,9,(R:0,C:8),{ chips  'CTRed':6 'CTGreen':0 'CTPurple':2 'grey78':12 'CTYellow':3 },265,{ chips  'CTRed':27 'CTGreen':0 'CTPurple':5 'grey78':0 'CTYellow':0 },310,{ chips  'CTRed':33 'CTGreen':0 'CTPurple':7 'grey78':0 'CTYellow':0 },200
3playersLog_1387803377484.csv,,,,,,,,,,,,,,,,,,,,,,,,true
