Tue Dec 04 07:40:24 IST 2012	This is the CT debug logger; svn version 638; sep 27 09
Tue Dec 04 07:40:24 IST 2012	Tue Dec 04 07:40:24 IST 2012
Tue Dec 04 07:40:24 IST 2012	A new Alternative Offers game has began
Tue Dec 04 07:40:24 IST 2012	ID Number: 34245
Tue Dec 04 07:40:24 IST 2012	Creating board
Tue Dec 04 07:40:24 IST 2012	<colors>
Tue Dec 04 07:40:24 IST 2012	{ GamePalette  'CTRed':0 'CTPurple':1 'CTGreen':2 'grey78':3 'CTYellow':4 }
Tue Dec 04 07:40:24 IST 2012	<rows>
Tue Dec 04 07:40:24 IST 2012	7
Tue Dec 04 07:40:24 IST 2012	<columns>
Tue Dec 04 07:40:24 IST 2012	5
Tue Dec 04 07:40:24 IST 2012	<squaresColors>
Tue Dec 04 07:40:24 IST 2012	CTPurple CTRed CTRed CTGreen CTPurple 
Tue Dec 04 07:40:24 IST 2012	CTPurple grey78 CTPurple CTYellow CTPurple 
Tue Dec 04 07:40:24 IST 2012	CTPurple CTRed CTPurple CTGreen CTPurple 
Tue Dec 04 07:40:24 IST 2012	CTPurple grey78 CTPurple CTYellow CTPurple 
Tue Dec 04 07:40:24 IST 2012	CTPurple CTRed CTPurple CTGreen CTPurple 
Tue Dec 04 07:40:24 IST 2012	CTPurple grey78 CTPurple CTYellow CTPurple 
Tue Dec 04 07:40:24 IST 2012	CTPurple CTRed CTPurple CTGreen CTPurple 
Tue Dec 04 07:40:24 IST 2012	</squareColors>
Tue Dec 04 07:40:24 IST 2012	<goalPosition>
Tue Dec 04 07:40:24 IST 2012	Goal position: (R:0,C:2)
Tue Dec 04 07:40:24 IST 2012	<numberOfPlayers>
Tue Dec 04 07:40:24 IST 2012	2
Tue Dec 04 07:40:24 IST 2012	<firstPlayerChips>
Tue Dec 04 07:40:24 IST 2012	Setting chips for player: 337 id:0
Tue Dec 04 07:40:24 IST 2012	{ chips  'CTRed':5 'CTGreen':10 'CTPurple':0 'grey78':0 'CTYellow':9 }
Tue Dec 04 07:40:24 IST 2012	Player position: (R:6,C:0)
Tue Dec 04 07:40:24 IST 2012	Setting chips for player: 310 id:1
Tue Dec 04 07:40:24 IST 2012	{ chips  'CTRed':1 'CTGreen':13 'CTPurple':0 'grey78':10 'CTYellow':0 }
Tue Dec 04 07:40:24 IST 2012	Player position: (R:6,C:4)
Tue Dec 04 07:40:24 IST 2012	Protocol: A New Phase Began: Strategy Prep Phase
Tue Dec 04 07:40:24 IST 2012	Protocol: Strategy Preparation phase, Round: 0
Tue Dec 04 07:40:24 IST 2012	Maximum number of rounds with no consecutive movement is 3
Tue Dec 04 07:40:24 IST 2012	In begin comm. phase, set counter offers count to: 0
Tue Dec 04 07:40:24 IST 2012	In begin comm. phase, get counter offers returned: 0
Tue Dec 04 07:40:44 IST 2012	A Phase Ended: Strategy Prep Phase
Tue Dec 04 07:40:44 IST 2012	Protocol: A New Phase Began: Communication Phase
Tue Dec 04 07:40:44 IST 2012	Protocol: Communication phase, Round: 0
Tue Dec 04 07:41:44 IST 2012	Received communication message 
Tue Dec 04 07:41:44 IST 2012	From player: 337
Tue Dec 04 07:41:44 IST 2012	To player: 310
Tue Dec 04 07:41:44 IST 2012	Message type: basicproposal
Tue Dec 04 07:41:44 IST 2012	Chips to send by proposer: { chips  'CTGreen':1 }
Tue Dec 04 07:41:44 IST 2012	Chips to send by responder: { chips  'grey78':2 }
Tue Dec 04 07:41:57 IST 2012	Received communication message 
Tue Dec 04 07:41:57 IST 2012	From player: 310
Tue Dec 04 07:41:57 IST 2012	To player: 337
Tue Dec 04 07:41:57 IST 2012	Message type: basicproposaldiscussion
Tue Dec 04 07:41:57 IST 2012	Player 310 accepted offer
Tue Dec 04 07:41:57 IST 2012	Prop accepted, set counter offers count to: 0
Tue Dec 04 07:41:57 IST 2012	Prop accepted, get counter offers returned: 0
Tue Dec 04 07:41:57 IST 2012	A Phase Ended: Communication Phase
Tue Dec 04 07:41:57 IST 2012	Protocol: A New Phase Began: Exchange Phase
Tue Dec 04 07:41:57 IST 2012	Protocol: Exchange phase, Round: 0
Tue Dec 04 07:41:57 IST 2012	In begin exch.phase, get counter offers returned: 0
Tue Dec 04 07:42:26 IST 2012	A Phase Ended: Exchange Phase
Tue Dec 04 07:42:26 IST 2012	Proposer 337 sent: { chips  'CTRed':0 'CTPurple':0 'CTGreen':1 'grey78':0 'CTYellow':0 }
Tue Dec 04 07:42:26 IST 2012	Responder 310 sent: { chips  'CTRed':0 'CTPurple':0 'CTGreen':0 'grey78':2 'CTYellow':0 }
Tue Dec 04 07:42:26 IST 2012	Protocol: A New Phase Began: Movement Phase
Tue Dec 04 07:42:26 IST 2012	Protocol: Movement phase, Round: 0
Tue Dec 04 07:42:45 IST 2012	A Phase Ended: Movement Phase
Tue Dec 04 07:42:45 IST 2012	Swaping roles:
Tue Dec 04 07:42:45 IST 2012	Proposer is: 310
Tue Dec 04 07:42:45 IST 2012	Responder is: 337
Tue Dec 04 07:42:45 IST 2012	Protocol: A New Phase Began: Feedback Phase
Tue Dec 04 07:42:45 IST 2012	Protocol: Feedback phase, Round: 0
Tue Dec 04 07:42:45 IST 2012	Number of consecutive no movements for player 337 is 1
Tue Dec 04 07:42:45 IST 2012	Number of consecutive no movements for player 310 is 1
Tue Dec 04 07:42:50 IST 2012	A Phase Ended: Feedback Phase
Tue Dec 04 07:42:50 IST 2012	Protocol: A New Phase Began: Communication Phase
Tue Dec 04 07:42:50 IST 2012	Protocol: Communication phase, Round: 1
Tue Dec 04 07:43:12 IST 2012	Received communication message 
Tue Dec 04 07:43:12 IST 2012	From player: 310
Tue Dec 04 07:43:12 IST 2012	To player: 337
Tue Dec 04 07:43:12 IST 2012	Message type: basicproposal
Tue Dec 04 07:43:12 IST 2012	Chips to send by proposer: { chips  'CTRed':0 'CTPurple':0 'CTGreen':6 'grey78':1 'CTYellow':0 }
Tue Dec 04 07:43:12 IST 2012	Chips to send by responder: { chips  'CTRed':0 'CTPurple':0 'CTGreen':0 'grey78':0 'CTYellow':1 }
Tue Dec 04 07:44:10 IST 2012	Received communication message 
Tue Dec 04 07:44:10 IST 2012	From player: 337
Tue Dec 04 07:44:10 IST 2012	To player: 310
Tue Dec 04 07:44:10 IST 2012	Message type: basicproposaldiscussion
Tue Dec 04 07:44:10 IST 2012	Player 337 rejected offer
Tue Dec 04 07:44:10 IST 2012	Swaping roles:
Tue Dec 04 07:44:10 IST 2012	Proposer is: 337
Tue Dec 04 07:44:10 IST 2012	Responder is: 310
Tue Dec 04 07:44:10 IST 2012	Prop rejected, set counter offers count to: 1
Tue Dec 04 07:44:10 IST 2012	Prop rejected, get counter offers returned: 1
Tue Dec 04 07:44:14 IST 2012	Slept 4 seconds
Tue Dec 04 07:44:14 IST 2012	Sent role changed msgs
Tue Dec 04 07:45:14 IST 2012	Received communication message 
Tue Dec 04 07:45:14 IST 2012	From player: 337
Tue Dec 04 07:45:14 IST 2012	To player: 310
Tue Dec 04 07:45:14 IST 2012	Message type: basicproposal
Tue Dec 04 07:45:14 IST 2012	Chips to send by proposer: { chips  'CTRed':0 'CTPurple':0 'CTGreen':0 'grey78':0 'CTYellow':2 }
Tue Dec 04 07:45:14 IST 2012	Chips to send by responder: { chips  'CTRed':0 'CTPurple':0 'CTGreen':0 'grey78':1 'CTYellow':0 }
Tue Dec 04 07:45:26 IST 2012	Received communication message 
Tue Dec 04 07:45:26 IST 2012	From player: 310
Tue Dec 04 07:45:26 IST 2012	To player: 337
Tue Dec 04 07:45:26 IST 2012	Message type: basicproposaldiscussion
Tue Dec 04 07:45:26 IST 2012	Player 310 rejected offer
Tue Dec 04 07:45:26 IST 2012	Set counter offers count to: 0
Tue Dec 04 07:45:26 IST 2012	A Phase Ended: Communication Phase
Tue Dec 04 07:45:26 IST 2012	Protocol: A New Phase Began: Exchange Phase
Tue Dec 04 07:45:26 IST 2012	Protocol: Exchange phase, Round: 1
Tue Dec 04 07:45:26 IST 2012	In begin exch.phase, get counter offers returned: 0
Tue Dec 04 07:46:06 IST 2012	A Phase Ended: Exchange Phase
Tue Dec 04 07:46:06 IST 2012	Proposer 337 sent: { chips  }
Tue Dec 04 07:46:06 IST 2012	Protocol: A New Phase Began: Movement Phase
Tue Dec 04 07:46:06 IST 2012	Protocol: Movement phase, Round: 1
Tue Dec 04 07:46:26 IST 2012	A Phase Ended: Movement Phase
Tue Dec 04 07:46:26 IST 2012	Protocol: A New Phase Began: Feedback Phase
Tue Dec 04 07:46:26 IST 2012	Protocol: Feedback phase, Round: 1
Tue Dec 04 07:46:26 IST 2012	Number of consecutive no movements for player 337 is 2
Tue Dec 04 07:46:26 IST 2012	Number of consecutive no movements for player 310 is 2
Tue Dec 04 07:46:31 IST 2012	A Phase Ended: Feedback Phase
Tue Dec 04 07:46:31 IST 2012	Protocol: A New Phase Began: Communication Phase
Tue Dec 04 07:46:31 IST 2012	Protocol: Communication phase, Round: 2
Tue Dec 04 07:47:31 IST 2012	Received communication message 
Tue Dec 04 07:47:31 IST 2012	From player: 337
Tue Dec 04 07:47:31 IST 2012	To player: 310
Tue Dec 04 07:47:31 IST 2012	Message type: basicproposal
Tue Dec 04 07:47:31 IST 2012	Chips to send by proposer: { chips  'CTYellow':2 }
Tue Dec 04 07:47:31 IST 2012	Chips to send by responder: { chips  'CTGreen':1 'grey78':1 }
Tue Dec 04 07:47:40 IST 2012	Received communication message 
Tue Dec 04 07:47:40 IST 2012	From player: 310
Tue Dec 04 07:47:40 IST 2012	To player: 337
Tue Dec 04 07:47:40 IST 2012	Message type: basicproposaldiscussion
Tue Dec 04 07:47:40 IST 2012	Player 310 rejected offer
Tue Dec 04 07:47:40 IST 2012	Swaping roles:
Tue Dec 04 07:47:40 IST 2012	Proposer is: 310
Tue Dec 04 07:47:40 IST 2012	Responder is: 337
Tue Dec 04 07:47:40 IST 2012	Prop rejected, set counter offers count to: 1
Tue Dec 04 07:47:40 IST 2012	Prop rejected, get counter offers returned: 1
Tue Dec 04 07:47:44 IST 2012	Slept 4 seconds
Tue Dec 04 07:47:44 IST 2012	Sent role changed msgs
Tue Dec 04 07:48:11 IST 2012	Received communication message 
Tue Dec 04 07:48:11 IST 2012	From player: 310
Tue Dec 04 07:48:11 IST 2012	To player: 337
Tue Dec 04 07:48:11 IST 2012	Message type: basicproposal
Tue Dec 04 07:48:11 IST 2012	Chips to send by proposer: { chips  'CTRed':0 'CTPurple':0 'CTGreen':6 'grey78':1 'CTYellow':0 }
Tue Dec 04 07:48:11 IST 2012	Chips to send by responder: { chips  'CTRed':0 'CTPurple':0 'CTGreen':0 'grey78':0 'CTYellow':3 }
Tue Dec 04 07:48:54 IST 2012	Received communication message 
Tue Dec 04 07:48:54 IST 2012	From player: 337
Tue Dec 04 07:48:54 IST 2012	To player: 310
Tue Dec 04 07:48:54 IST 2012	Message type: basicproposaldiscussion
Tue Dec 04 07:48:54 IST 2012	Player 337 rejected offer
Tue Dec 04 07:48:54 IST 2012	Set counter offers count to: 0
Tue Dec 04 07:48:54 IST 2012	A Phase Ended: Communication Phase
Tue Dec 04 07:48:54 IST 2012	Protocol: A New Phase Began: Exchange Phase
Tue Dec 04 07:48:54 IST 2012	Protocol: Exchange phase, Round: 2
Tue Dec 04 07:48:54 IST 2012	In begin exch.phase, get counter offers returned: 0
Tue Dec 04 07:49:34 IST 2012	A Phase Ended: Exchange Phase
Tue Dec 04 07:49:34 IST 2012	Responder 337 sent: { chips  }
Tue Dec 04 07:49:34 IST 2012	Protocol: A New Phase Began: Movement Phase
Tue Dec 04 07:49:34 IST 2012	Protocol: Movement phase, Round: 2
Tue Dec 04 07:49:34 IST 2012	Player 310 moved to (R:6,C:3)
Tue Dec 04 07:49:34 IST 2012	Player 337 moved to (R:6,C:1)
Tue Dec 04 07:49:54 IST 2012	A Phase Ended: Movement Phase
Tue Dec 04 07:49:54 IST 2012	Protocol: A New Phase Began: Feedback Phase
Tue Dec 04 07:49:54 IST 2012	Protocol: Feedback phase, Round: 2
Tue Dec 04 07:49:54 IST 2012	Number of consecutive no movements for player 337 is 0
Tue Dec 04 07:49:54 IST 2012	Number of consecutive no movements for player 310 is 0
Tue Dec 04 07:49:59 IST 2012	A Phase Ended: Feedback Phase
Tue Dec 04 07:49:59 IST 2012	Protocol: A New Phase Began: Communication Phase
Tue Dec 04 07:49:59 IST 2012	Protocol: Communication phase, Round: 3
Tue Dec 04 07:50:21 IST 2012	Received communication message 
Tue Dec 04 07:50:21 IST 2012	From player: 310
Tue Dec 04 07:50:21 IST 2012	To player: 337
Tue Dec 04 07:50:21 IST 2012	Message type: basicproposal
Tue Dec 04 07:50:21 IST 2012	Chips to send by proposer: { chips  'CTRed':0 'CTPurple':0 'CTGreen':1 'grey78':1 'CTYellow':0 }
Tue Dec 04 07:50:21 IST 2012	Chips to send by responder: { chips  'CTRed':0 'CTPurple':0 'CTGreen':0 'grey78':0 'CTYellow':1 }
Tue Dec 04 07:51:07 IST 2012	Received communication message 
Tue Dec 04 07:51:07 IST 2012	From player: 337
Tue Dec 04 07:51:07 IST 2012	To player: 310
Tue Dec 04 07:51:07 IST 2012	Message type: basicproposaldiscussion
Tue Dec 04 07:51:07 IST 2012	Player 337 rejected offer
Tue Dec 04 07:51:07 IST 2012	Swaping roles:
Tue Dec 04 07:51:07 IST 2012	Proposer is: 337
Tue Dec 04 07:51:07 IST 2012	Responder is: 310
Tue Dec 04 07:51:07 IST 2012	Prop rejected, set counter offers count to: 1
Tue Dec 04 07:51:07 IST 2012	Prop rejected, get counter offers returned: 1
Tue Dec 04 07:51:11 IST 2012	Slept 4 seconds
Tue Dec 04 07:51:11 IST 2012	Sent role changed msgs
Tue Dec 04 07:52:11 IST 2012	Received communication message 
Tue Dec 04 07:52:11 IST 2012	From player: 337
Tue Dec 04 07:52:11 IST 2012	To player: 310
Tue Dec 04 07:52:11 IST 2012	Message type: basicproposal
Tue Dec 04 07:52:11 IST 2012	Chips to send by proposer: { chips  'CTRed':0 'CTPurple':0 'CTGreen':0 'grey78':0 'CTYellow':3 }
Tue Dec 04 07:52:11 IST 2012	Chips to send by responder: { chips  'CTRed':0 'CTPurple':0 'CTGreen':0 'grey78':1 'CTYellow':0 }
Tue Dec 04 07:52:23 IST 2012	Received communication message 
Tue Dec 04 07:52:23 IST 2012	From player: 310
Tue Dec 04 07:52:23 IST 2012	To player: 337
Tue Dec 04 07:52:23 IST 2012	Message type: basicproposaldiscussion
Tue Dec 04 07:52:23 IST 2012	Player 310 accepted offer
Tue Dec 04 07:52:23 IST 2012	Prop accepted, set counter offers count to: 0
Tue Dec 04 07:52:23 IST 2012	Prop accepted, get counter offers returned: 0
Tue Dec 04 07:52:23 IST 2012	A Phase Ended: Communication Phase
Tue Dec 04 07:52:23 IST 2012	Protocol: A New Phase Began: Exchange Phase
Tue Dec 04 07:52:23 IST 2012	Protocol: Exchange phase, Round: 3
Tue Dec 04 07:52:23 IST 2012	In begin exch.phase, get counter offers returned: 0
Tue Dec 04 07:52:51 IST 2012	A Phase Ended: Exchange Phase
Tue Dec 04 07:52:51 IST 2012	Proposer 337 sent: { chips  'CTRed':0 'CTPurple':0 'CTGreen':0 'grey78':0 'CTYellow':3 }
Tue Dec 04 07:52:51 IST 2012	Responder 310 sent: { chips  'CTRed':0 'CTPurple':0 'CTGreen':0 'grey78':1 'CTYellow':0 }
Tue Dec 04 07:52:51 IST 2012	Protocol: A New Phase Began: Movement Phase
Tue Dec 04 07:52:51 IST 2012	Protocol: Movement phase, Round: 3
Tue Dec 04 07:52:51 IST 2012	Player 310 moved to (R:5,C:3)
Tue Dec 04 07:53:11 IST 2012	A Phase Ended: Movement Phase
Tue Dec 04 07:53:11 IST 2012	Protocol: A New Phase Began: Feedback Phase
Tue Dec 04 07:53:11 IST 2012	Protocol: Feedback phase, Round: 3
Tue Dec 04 07:53:11 IST 2012	Number of consecutive no movements for player 337 is 1
Tue Dec 04 07:53:11 IST 2012	Number of consecutive no movements for player 310 is 0
Tue Dec 04 07:53:11 IST 2012	All players have all needed chips to get to goal, end the game
Tue Dec 04 07:53:11 IST 2012	Player: 310 ,role: Responder score is: 185
Tue Dec 04 07:53:11 IST 2012	Player: 337 ,role: Proposer score is: 175
