Mon Dec 03 04:32:02 IST 2012	This is the CT debug logger; svn version 638; sep 27 09
Mon Dec 03 04:32:02 IST 2012	Mon Dec 03 04:32:02 IST 2012
Mon Dec 03 04:32:02 IST 2012	A new Alternative Offers game has began
Mon Dec 03 04:32:02 IST 2012	ID Number: 32336
Mon Dec 03 04:32:02 IST 2012	Creating board
Mon Dec 03 04:32:02 IST 2012	<colors>
Mon Dec 03 04:32:02 IST 2012	{ GamePalette  'CTRed':0 'CTPurple':1 'CTGreen':2 'grey78':3 'CTYellow':4 }
Mon Dec 03 04:32:02 IST 2012	<rows>
Mon Dec 03 04:32:02 IST 2012	7
Mon Dec 03 04:32:02 IST 2012	<columns>
Mon Dec 03 04:32:02 IST 2012	5
Mon Dec 03 04:32:02 IST 2012	<squaresColors>
Mon Dec 03 04:32:02 IST 2012	CTPurple CTRed CTRed CTGreen CTPurple 
Mon Dec 03 04:32:02 IST 2012	CTPurple grey78 CTPurple CTYellow CTPurple 
Mon Dec 03 04:32:02 IST 2012	CTPurple CTRed CTPurple CTGreen CTPurple 
Mon Dec 03 04:32:02 IST 2012	CTPurple grey78 CTPurple CTYellow CTPurple 
Mon Dec 03 04:32:02 IST 2012	CTPurple CTRed CTPurple CTGreen CTPurple 
Mon Dec 03 04:32:02 IST 2012	CTPurple grey78 CTPurple CTYellow CTPurple 
Mon Dec 03 04:32:02 IST 2012	CTPurple CTRed CTPurple CTGreen CTPurple 
Mon Dec 03 04:32:02 IST 2012	</squareColors>
Mon Dec 03 04:32:02 IST 2012	<goalPosition>
Mon Dec 03 04:32:02 IST 2012	Goal position: (R:0,C:2)
Mon Dec 03 04:32:02 IST 2012	<numberOfPlayers>
Mon Dec 03 04:32:02 IST 2012	2
Mon Dec 03 04:32:02 IST 2012	<firstPlayerChips>
Mon Dec 03 04:32:02 IST 2012	Setting chips for player: 337 id:0
Mon Dec 03 04:32:02 IST 2012	{ chips  'CTRed':5 'CTGreen':10 'CTPurple':0 'grey78':0 'CTYellow':9 }
Mon Dec 03 04:32:02 IST 2012	Player position: (R:6,C:0)
Mon Dec 03 04:32:02 IST 2012	Setting chips for player: 310 id:1
Mon Dec 03 04:32:02 IST 2012	{ chips  'CTRed':1 'CTGreen':13 'CTPurple':0 'grey78':10 'CTYellow':0 }
Mon Dec 03 04:32:02 IST 2012	Player position: (R:6,C:4)
Mon Dec 03 04:32:02 IST 2012	Protocol: A New Phase Began: Strategy Prep Phase
Mon Dec 03 04:32:02 IST 2012	Protocol: Strategy Preparation phase, Round: 0
Mon Dec 03 04:32:02 IST 2012	Maximum number of rounds with no consecutive movement is 3
Mon Dec 03 04:32:02 IST 2012	In begin comm. phase, set counter offers count to: 0
Mon Dec 03 04:32:02 IST 2012	In begin comm. phase, get counter offers returned: 0
Mon Dec 03 04:32:22 IST 2012	A Phase Ended: Strategy Prep Phase
Mon Dec 03 04:32:22 IST 2012	Protocol: A New Phase Began: Communication Phase
Mon Dec 03 04:32:22 IST 2012	Protocol: Communication phase, Round: 0
Mon Dec 03 04:33:22 IST 2012	Received communication message 
Mon Dec 03 04:33:22 IST 2012	From player: 337
Mon Dec 03 04:33:22 IST 2012	To player: 310
Mon Dec 03 04:33:22 IST 2012	Message type: basicproposal
Mon Dec 03 04:33:22 IST 2012	Chips to send by proposer: { chips  'CTYellow':1 }
Mon Dec 03 04:33:22 IST 2012	Chips to send by responder: { chips  'grey78':1 }
Mon Dec 03 04:33:37 IST 2012	Received communication message 
Mon Dec 03 04:33:37 IST 2012	From player: 310
Mon Dec 03 04:33:37 IST 2012	To player: 337
Mon Dec 03 04:33:37 IST 2012	Message type: basicproposaldiscussion
Mon Dec 03 04:33:37 IST 2012	Player 310 accepted offer
Mon Dec 03 04:33:37 IST 2012	Prop accepted, set counter offers count to: 0
Mon Dec 03 04:33:37 IST 2012	Prop accepted, get counter offers returned: 0
Mon Dec 03 04:33:37 IST 2012	A Phase Ended: Communication Phase
Mon Dec 03 04:33:37 IST 2012	Protocol: A New Phase Began: Exchange Phase
Mon Dec 03 04:33:37 IST 2012	Protocol: Exchange phase, Round: 0
Mon Dec 03 04:33:37 IST 2012	In begin exch.phase, get counter offers returned: 0
Mon Dec 03 04:34:06 IST 2012	A Phase Ended: Exchange Phase
Mon Dec 03 04:34:06 IST 2012	Proposer 337 sent: { chips  'CTRed':0 'CTPurple':0 'CTGreen':0 'grey78':0 'CTYellow':1 }
Mon Dec 03 04:34:06 IST 2012	Responder 310 sent: { chips  'CTRed':0 'CTPurple':0 'CTGreen':0 'grey78':1 'CTYellow':0 }
Mon Dec 03 04:34:06 IST 2012	Protocol: A New Phase Began: Movement Phase
Mon Dec 03 04:34:06 IST 2012	Protocol: Movement phase, Round: 0
Mon Dec 03 04:34:26 IST 2012	A Phase Ended: Movement Phase
Mon Dec 03 04:34:26 IST 2012	Swaping roles:
Mon Dec 03 04:34:26 IST 2012	Proposer is: 310
Mon Dec 03 04:34:26 IST 2012	Responder is: 337
Mon Dec 03 04:34:26 IST 2012	Protocol: A New Phase Began: Feedback Phase
Mon Dec 03 04:34:26 IST 2012	Protocol: Feedback phase, Round: 0
Mon Dec 03 04:34:26 IST 2012	Number of consecutive no movements for player 337 is 1
Mon Dec 03 04:34:26 IST 2012	Number of consecutive no movements for player 310 is 1
Mon Dec 03 04:34:31 IST 2012	A Phase Ended: Feedback Phase
Mon Dec 03 04:34:31 IST 2012	Protocol: A New Phase Began: Communication Phase
Mon Dec 03 04:34:31 IST 2012	Protocol: Communication phase, Round: 1
Mon Dec 03 04:34:55 IST 2012	Received communication message 
Mon Dec 03 04:34:55 IST 2012	From player: 310
Mon Dec 03 04:34:55 IST 2012	To player: 337
Mon Dec 03 04:34:55 IST 2012	Message type: basicproposal
Mon Dec 03 04:34:55 IST 2012	Chips to send by proposer: { chips  'CTRed':0 'CTPurple':0 'CTGreen':3 'grey78':2 'CTYellow':0 }
Mon Dec 03 04:34:55 IST 2012	Chips to send by responder: { chips  'CTRed':0 'CTPurple':0 'CTGreen':0 'grey78':0 'CTYellow':2 }
Mon Dec 03 04:35:50 IST 2012	Received communication message 
Mon Dec 03 04:35:50 IST 2012	From player: 337
Mon Dec 03 04:35:50 IST 2012	To player: 310
Mon Dec 03 04:35:50 IST 2012	Message type: basicproposaldiscussion
Mon Dec 03 04:35:50 IST 2012	Player 337 rejected offer
Mon Dec 03 04:35:50 IST 2012	Swaping roles:
Mon Dec 03 04:35:50 IST 2012	Proposer is: 337
Mon Dec 03 04:35:50 IST 2012	Responder is: 310
Mon Dec 03 04:35:50 IST 2012	Prop rejected, set counter offers count to: 1
Mon Dec 03 04:35:50 IST 2012	Prop rejected, get counter offers returned: 1
Mon Dec 03 04:35:54 IST 2012	Slept 4 seconds
Mon Dec 03 04:35:54 IST 2012	Sent role changed msgs
Mon Dec 03 04:36:54 IST 2012	Received communication message 
Mon Dec 03 04:36:54 IST 2012	From player: 337
Mon Dec 03 04:36:54 IST 2012	To player: 310
Mon Dec 03 04:36:54 IST 2012	Message type: basicproposal
Mon Dec 03 04:36:54 IST 2012	Chips to send by proposer: { chips  'CTRed':0 'CTPurple':0 'CTGreen':0 'grey78':0 'CTYellow':1 }
Mon Dec 03 04:36:54 IST 2012	Chips to send by responder: { chips  'CTRed':0 'CTPurple':0 'CTGreen':1 'grey78':1 'CTYellow':0 }
Mon Dec 03 04:37:04 IST 2012	Received communication message 
Mon Dec 03 04:37:04 IST 2012	From player: 310
Mon Dec 03 04:37:04 IST 2012	To player: 337
Mon Dec 03 04:37:04 IST 2012	Message type: basicproposaldiscussion
Mon Dec 03 04:37:04 IST 2012	Player 310 accepted offer
Mon Dec 03 04:37:04 IST 2012	Prop accepted, set counter offers count to: 0
Mon Dec 03 04:37:04 IST 2012	Prop accepted, get counter offers returned: 0
Mon Dec 03 04:37:04 IST 2012	A Phase Ended: Communication Phase
Mon Dec 03 04:37:04 IST 2012	Protocol: A New Phase Began: Exchange Phase
Mon Dec 03 04:37:04 IST 2012	Protocol: Exchange phase, Round: 1
Mon Dec 03 04:37:04 IST 2012	In begin exch.phase, get counter offers returned: 0
Mon Dec 03 04:37:33 IST 2012	A Phase Ended: Exchange Phase
Mon Dec 03 04:37:33 IST 2012	Proposer 337 sent: { chips  'CTRed':0 'CTPurple':0 'CTGreen':0 'grey78':0 'CTYellow':1 }
Mon Dec 03 04:37:33 IST 2012	Responder 310 sent: { chips  'CTRed':0 'CTPurple':0 'CTGreen':0 'grey78':1 'CTYellow':0 }
Mon Dec 03 04:37:33 IST 2012	Protocol: A New Phase Began: Movement Phase
Mon Dec 03 04:37:33 IST 2012	Protocol: Movement phase, Round: 1
Mon Dec 03 04:37:53 IST 2012	A Phase Ended: Movement Phase
Mon Dec 03 04:37:53 IST 2012	Protocol: A New Phase Began: Feedback Phase
Mon Dec 03 04:37:53 IST 2012	Protocol: Feedback phase, Round: 1
Mon Dec 03 04:37:53 IST 2012	Number of consecutive no movements for player 337 is 2
Mon Dec 03 04:37:53 IST 2012	Number of consecutive no movements for player 310 is 2
Mon Dec 03 04:37:58 IST 2012	A Phase Ended: Feedback Phase
Mon Dec 03 04:37:58 IST 2012	Protocol: A New Phase Began: Communication Phase
Mon Dec 03 04:37:58 IST 2012	Protocol: Communication phase, Round: 2
Mon Dec 03 04:38:58 IST 2012	Received communication message 
Mon Dec 03 04:38:58 IST 2012	From player: 337
Mon Dec 03 04:38:58 IST 2012	To player: 310
Mon Dec 03 04:38:58 IST 2012	Message type: basicproposal
Mon Dec 03 04:38:58 IST 2012	Chips to send by proposer: { chips  'CTYellow':1 }
Mon Dec 03 04:38:58 IST 2012	Chips to send by responder: { chips  'CTGreen':2 'grey78':1 }
Mon Dec 03 04:39:07 IST 2012	Received communication message 
Mon Dec 03 04:39:07 IST 2012	From player: 310
Mon Dec 03 04:39:07 IST 2012	To player: 337
Mon Dec 03 04:39:07 IST 2012	Message type: basicproposaldiscussion
Mon Dec 03 04:39:07 IST 2012	Player 310 accepted offer
Mon Dec 03 04:39:07 IST 2012	Prop accepted, set counter offers count to: 0
Mon Dec 03 04:39:07 IST 2012	Prop accepted, get counter offers returned: 0
Mon Dec 03 04:39:07 IST 2012	A Phase Ended: Communication Phase
Mon Dec 03 04:39:07 IST 2012	Protocol: A New Phase Began: Exchange Phase
Mon Dec 03 04:39:07 IST 2012	Protocol: Exchange phase, Round: 2
Mon Dec 03 04:39:07 IST 2012	In begin exch.phase, get counter offers returned: 0
Mon Dec 03 04:39:27 IST 2012	A Phase Ended: Exchange Phase
Mon Dec 03 04:39:27 IST 2012	Proposer 337 sent: { chips  'CTRed':0 'CTPurple':0 'CTGreen':0 'grey78':0 'CTYellow':0 }
Mon Dec 03 04:39:27 IST 2012	Responder 310 sent: { chips  }
Mon Dec 03 04:39:27 IST 2012	Protocol: A New Phase Began: Movement Phase
Mon Dec 03 04:39:27 IST 2012	Protocol: Movement phase, Round: 2
Mon Dec 03 04:39:27 IST 2012	Player 337 moved to (R:6,C:1)
Mon Dec 03 04:39:27 IST 2012	Player 310 moved to (R:6,C:3)
Mon Dec 03 04:39:46 IST 2012	A Phase Ended: Movement Phase
Mon Dec 03 04:39:46 IST 2012	Swaping roles:
Mon Dec 03 04:39:46 IST 2012	Proposer is: 310
Mon Dec 03 04:39:46 IST 2012	Responder is: 337
Mon Dec 03 04:39:46 IST 2012	Protocol: A New Phase Began: Feedback Phase
Mon Dec 03 04:39:46 IST 2012	Protocol: Feedback phase, Round: 2
Mon Dec 03 04:39:46 IST 2012	Number of consecutive no movements for player 337 is 0
Mon Dec 03 04:39:46 IST 2012	Number of consecutive no movements for player 310 is 0
Mon Dec 03 04:39:51 IST 2012	A Phase Ended: Feedback Phase
Mon Dec 03 04:39:51 IST 2012	Protocol: A New Phase Began: Communication Phase
Mon Dec 03 04:39:51 IST 2012	Protocol: Communication phase, Round: 3
Mon Dec 03 04:40:10 IST 2012	Received communication message 
Mon Dec 03 04:40:10 IST 2012	From player: 310
Mon Dec 03 04:40:10 IST 2012	To player: 337
Mon Dec 03 04:40:10 IST 2012	Message type: basicproposal
Mon Dec 03 04:40:10 IST 2012	Chips to send by proposer: { chips  'CTRed':0 'CTPurple':0 'CTGreen':4 'grey78':1 'CTYellow':0 }
Mon Dec 03 04:40:10 IST 2012	Chips to send by responder: { chips  'CTRed':0 'CTPurple':0 'CTGreen':0 'grey78':0 'CTYellow':1 }
Mon Dec 03 04:40:44 IST 2012	Received communication message 
Mon Dec 03 04:40:44 IST 2012	From player: 337
Mon Dec 03 04:40:44 IST 2012	To player: 310
Mon Dec 03 04:40:44 IST 2012	Message type: basicproposaldiscussion
Mon Dec 03 04:40:44 IST 2012	Player 337 rejected offer
Mon Dec 03 04:40:44 IST 2012	Swaping roles:
Mon Dec 03 04:40:44 IST 2012	Proposer is: 337
Mon Dec 03 04:40:44 IST 2012	Responder is: 310
Mon Dec 03 04:40:44 IST 2012	Prop rejected, set counter offers count to: 1
Mon Dec 03 04:40:44 IST 2012	Prop rejected, get counter offers returned: 1
Mon Dec 03 04:40:48 IST 2012	Slept 4 seconds
Mon Dec 03 04:40:48 IST 2012	Sent role changed msgs
Mon Dec 03 04:41:48 IST 2012	Received communication message 
Mon Dec 03 04:41:48 IST 2012	From player: 337
Mon Dec 03 04:41:48 IST 2012	To player: 310
Mon Dec 03 04:41:48 IST 2012	Message type: basicproposal
Mon Dec 03 04:41:48 IST 2012	Chips to send by proposer: { chips  'CTRed':0 'CTPurple':0 'CTGreen':0 'grey78':0 'CTYellow':1 }
Mon Dec 03 04:41:48 IST 2012	Chips to send by responder: { chips  'CTRed':0 'CTPurple':0 'CTGreen':1 'grey78':1 'CTYellow':0 }
Mon Dec 03 04:42:00 IST 2012	Received communication message 
Mon Dec 03 04:42:00 IST 2012	From player: 310
Mon Dec 03 04:42:00 IST 2012	To player: 337
Mon Dec 03 04:42:00 IST 2012	Message type: basicproposaldiscussion
Mon Dec 03 04:42:00 IST 2012	Player 310 accepted offer
Mon Dec 03 04:42:00 IST 2012	Prop accepted, set counter offers count to: 0
Mon Dec 03 04:42:00 IST 2012	Prop accepted, get counter offers returned: 0
Mon Dec 03 04:42:00 IST 2012	A Phase Ended: Communication Phase
Mon Dec 03 04:42:00 IST 2012	Protocol: A New Phase Began: Exchange Phase
Mon Dec 03 04:42:00 IST 2012	Protocol: Exchange phase, Round: 3
Mon Dec 03 04:42:00 IST 2012	In begin exch.phase, get counter offers returned: 0
Mon Dec 03 04:42:24 IST 2012	A Phase Ended: Exchange Phase
Mon Dec 03 04:42:24 IST 2012	Proposer 337 sent: { chips  'CTRed':0 'CTPurple':0 'CTGreen':0 'grey78':0 'CTYellow':1 }
Mon Dec 03 04:42:24 IST 2012	Responder 310 sent: { chips  }
Mon Dec 03 04:42:24 IST 2012	Protocol: A New Phase Began: Movement Phase
Mon Dec 03 04:42:24 IST 2012	Protocol: Movement phase, Round: 3
Mon Dec 03 04:42:24 IST 2012	Player 310 moved to (R:5,C:3)
Mon Dec 03 04:42:44 IST 2012	A Phase Ended: Movement Phase
Mon Dec 03 04:42:44 IST 2012	Protocol: A New Phase Began: Feedback Phase
Mon Dec 03 04:42:44 IST 2012	Protocol: Feedback phase, Round: 3
Mon Dec 03 04:42:44 IST 2012	Number of consecutive no movements for player 337 is 1
Mon Dec 03 04:42:44 IST 2012	Number of consecutive no movements for player 310 is 0
Mon Dec 03 04:42:49 IST 2012	A Phase Ended: Feedback Phase
Mon Dec 03 04:42:49 IST 2012	Protocol: A New Phase Began: Communication Phase
Mon Dec 03 04:42:49 IST 2012	Protocol: Communication phase, Round: 4
Mon Dec 03 04:43:49 IST 2012	Received communication message 
Mon Dec 03 04:43:49 IST 2012	From player: 337
Mon Dec 03 04:43:49 IST 2012	To player: 310
Mon Dec 03 04:43:49 IST 2012	Message type: basicproposal
Mon Dec 03 04:43:49 IST 2012	Chips to send by proposer: { chips  'CTGreen':1 }
Mon Dec 03 04:43:49 IST 2012	Chips to send by responder: { chips  'grey78':1 }
Mon Dec 03 04:44:03 IST 2012	Received communication message 
Mon Dec 03 04:44:03 IST 2012	From player: 310
Mon Dec 03 04:44:03 IST 2012	To player: 337
Mon Dec 03 04:44:03 IST 2012	Message type: basicproposaldiscussion
Mon Dec 03 04:44:03 IST 2012	Player 310 accepted offer
Mon Dec 03 04:44:03 IST 2012	Prop accepted, set counter offers count to: 0
Mon Dec 03 04:44:03 IST 2012	Prop accepted, get counter offers returned: 0
Mon Dec 03 04:44:03 IST 2012	A Phase Ended: Communication Phase
Mon Dec 03 04:44:03 IST 2012	Protocol: A New Phase Began: Exchange Phase
Mon Dec 03 04:44:03 IST 2012	Protocol: Exchange phase, Round: 4
Mon Dec 03 04:44:03 IST 2012	In begin exch.phase, get counter offers returned: 0
Mon Dec 03 04:44:20 IST 2012	A Phase Ended: Exchange Phase
Mon Dec 03 04:44:20 IST 2012	Proposer 337 sent: { chips  'CTRed':0 'CTPurple':0 'CTGreen':1 'grey78':0 'CTYellow':0 }
Mon Dec 03 04:44:20 IST 2012	Responder 310 sent: { chips  }
Mon Dec 03 04:44:20 IST 2012	Protocol: A New Phase Began: Movement Phase
Mon Dec 03 04:44:20 IST 2012	Protocol: Movement phase, Round: 4
Mon Dec 03 04:44:20 IST 2012	Player 310 moved to (R:4,C:3)
Mon Dec 03 04:44:39 IST 2012	A Phase Ended: Movement Phase
Mon Dec 03 04:44:39 IST 2012	Swaping roles:
Mon Dec 03 04:44:39 IST 2012	Proposer is: 310
Mon Dec 03 04:44:39 IST 2012	Responder is: 337
Mon Dec 03 04:44:39 IST 2012	Protocol: A New Phase Began: Feedback Phase
Mon Dec 03 04:44:39 IST 2012	Protocol: Feedback phase, Round: 4
Mon Dec 03 04:44:39 IST 2012	Number of consecutive no movements for player 337 is 2
Mon Dec 03 04:44:39 IST 2012	Number of consecutive no movements for player 310 is 0
Mon Dec 03 04:44:45 IST 2012	A Phase Ended: Feedback Phase
Mon Dec 03 04:44:45 IST 2012	Protocol: A New Phase Began: Communication Phase
Mon Dec 03 04:44:45 IST 2012	Protocol: Communication phase, Round: 5
Mon Dec 03 04:45:04 IST 2012	Received communication message 
Mon Dec 03 04:45:04 IST 2012	From player: 310
Mon Dec 03 04:45:04 IST 2012	To player: 337
Mon Dec 03 04:45:04 IST 2012	Message type: basicproposal
Mon Dec 03 04:45:04 IST 2012	Chips to send by proposer: { chips  'CTRed':0 'CTPurple':0 'CTGreen':0 'grey78':1 'CTYellow':0 }
Mon Dec 03 04:45:04 IST 2012	Chips to send by responder: { chips  'CTRed':0 'CTPurple':0 'CTGreen':3 'grey78':0 'CTYellow':0 }
Mon Dec 03 04:45:31 IST 2012	Received communication message 
Mon Dec 03 04:45:31 IST 2012	From player: 337
Mon Dec 03 04:45:31 IST 2012	To player: 310
Mon Dec 03 04:45:31 IST 2012	Message type: basicproposaldiscussion
Mon Dec 03 04:45:31 IST 2012	Player 337 rejected offer
Mon Dec 03 04:45:31 IST 2012	Swaping roles:
Mon Dec 03 04:45:31 IST 2012	Proposer is: 337
Mon Dec 03 04:45:31 IST 2012	Responder is: 310
Mon Dec 03 04:45:31 IST 2012	Prop rejected, set counter offers count to: 1
Mon Dec 03 04:45:31 IST 2012	Prop rejected, get counter offers returned: 1
Mon Dec 03 04:45:35 IST 2012	Slept 4 seconds
Mon Dec 03 04:45:35 IST 2012	Sent role changed msgs
Mon Dec 03 04:46:35 IST 2012	Received communication message 
Mon Dec 03 04:46:35 IST 2012	From player: 337
Mon Dec 03 04:46:35 IST 2012	To player: 310
Mon Dec 03 04:46:35 IST 2012	Message type: basicproposal
Mon Dec 03 04:46:35 IST 2012	Chips to send by proposer: { chips  'CTRed':0 'CTPurple':0 'CTGreen':1 'grey78':0 'CTYellow':0 }
Mon Dec 03 04:46:35 IST 2012	Chips to send by responder: { chips  'CTRed':0 'CTPurple':0 'CTGreen':0 'grey78':1 'CTYellow':0 }
Mon Dec 03 04:46:49 IST 2012	Received communication message 
Mon Dec 03 04:46:49 IST 2012	From player: 310
Mon Dec 03 04:46:49 IST 2012	To player: 337
Mon Dec 03 04:46:49 IST 2012	Message type: basicproposaldiscussion
Mon Dec 03 04:46:49 IST 2012	Player 310 accepted offer
Mon Dec 03 04:46:49 IST 2012	Prop accepted, set counter offers count to: 0
Mon Dec 03 04:46:49 IST 2012	Prop accepted, get counter offers returned: 0
Mon Dec 03 04:46:49 IST 2012	A Phase Ended: Communication Phase
Mon Dec 03 04:46:49 IST 2012	Protocol: A New Phase Began: Exchange Phase
Mon Dec 03 04:46:49 IST 2012	Protocol: Exchange phase, Round: 5
Mon Dec 03 04:46:49 IST 2012	In begin exch.phase, get counter offers returned: 0
Mon Dec 03 04:47:10 IST 2012	A Phase Ended: Exchange Phase
Mon Dec 03 04:47:10 IST 2012	Proposer 337 sent: { chips  'CTRed':0 'CTPurple':0 'CTGreen':1 'grey78':0 'CTYellow':0 }
Mon Dec 03 04:47:10 IST 2012	Responder 310 sent: { chips  }
Mon Dec 03 04:47:10 IST 2012	Protocol: A New Phase Began: Movement Phase
Mon Dec 03 04:47:10 IST 2012	Protocol: Movement phase, Round: 5
Mon Dec 03 04:47:10 IST 2012	Player 337 moved to (R:5,C:1)
Mon Dec 03 04:47:10 IST 2012	Player 310 moved to (R:3,C:3)
Mon Dec 03 04:47:30 IST 2012	A Phase Ended: Movement Phase
Mon Dec 03 04:47:30 IST 2012	Protocol: A New Phase Began: Feedback Phase
Mon Dec 03 04:47:30 IST 2012	Protocol: Feedback phase, Round: 5
Mon Dec 03 04:47:30 IST 2012	Number of consecutive no movements for player 337 is 0
Mon Dec 03 04:47:30 IST 2012	Number of consecutive no movements for player 310 is 0
Mon Dec 03 04:47:35 IST 2012	A Phase Ended: Feedback Phase
Mon Dec 03 04:47:35 IST 2012	Protocol: A New Phase Began: Communication Phase
Mon Dec 03 04:47:35 IST 2012	Protocol: Communication phase, Round: 6
Mon Dec 03 04:48:35 IST 2012	Received communication message 
Mon Dec 03 04:48:35 IST 2012	From player: 337
Mon Dec 03 04:48:35 IST 2012	To player: 310
Mon Dec 03 04:48:35 IST 2012	Message type: basicproposal
Mon Dec 03 04:48:35 IST 2012	Chips to send by proposer: { chips  'CTGreen':1 }
Mon Dec 03 04:48:35 IST 2012	Chips to send by responder: { chips  'grey78':1 }
Mon Dec 03 04:48:49 IST 2012	Received communication message 
Mon Dec 03 04:48:49 IST 2012	From player: 310
Mon Dec 03 04:48:49 IST 2012	To player: 337
Mon Dec 03 04:48:49 IST 2012	Message type: basicproposaldiscussion
Mon Dec 03 04:48:49 IST 2012	Player 310 accepted offer
Mon Dec 03 04:48:49 IST 2012	Prop accepted, set counter offers count to: 0
Mon Dec 03 04:48:49 IST 2012	Prop accepted, get counter offers returned: 0
Mon Dec 03 04:48:49 IST 2012	A Phase Ended: Communication Phase
Mon Dec 03 04:48:49 IST 2012	Protocol: A New Phase Began: Exchange Phase
Mon Dec 03 04:48:49 IST 2012	Protocol: Exchange phase, Round: 6
Mon Dec 03 04:48:49 IST 2012	In begin exch.phase, get counter offers returned: 0
Mon Dec 03 04:49:04 IST 2012	A Phase Ended: Exchange Phase
Mon Dec 03 04:49:04 IST 2012	Proposer 337 sent: { chips  'CTRed':0 'CTPurple':0 'CTGreen':0 'grey78':0 'CTYellow':0 }
Mon Dec 03 04:49:04 IST 2012	Responder 310 sent: { chips  }
Mon Dec 03 04:49:04 IST 2012	Protocol: A New Phase Began: Movement Phase
Mon Dec 03 04:49:04 IST 2012	Protocol: Movement phase, Round: 6
Mon Dec 03 04:49:04 IST 2012	Player 310 moved to (R:2,C:3)
Mon Dec 03 04:49:24 IST 2012	A Phase Ended: Movement Phase
Mon Dec 03 04:49:24 IST 2012	Swaping roles:
Mon Dec 03 04:49:24 IST 2012	Proposer is: 310
Mon Dec 03 04:49:24 IST 2012	Responder is: 337
Mon Dec 03 04:49:24 IST 2012	Protocol: A New Phase Began: Feedback Phase
Mon Dec 03 04:49:24 IST 2012	Protocol: Feedback phase, Round: 6
Mon Dec 03 04:49:24 IST 2012	Number of consecutive no movements for player 337 is 1
Mon Dec 03 04:49:24 IST 2012	Number of consecutive no movements for player 310 is 0
Mon Dec 03 04:49:29 IST 2012	A Phase Ended: Feedback Phase
Mon Dec 03 04:49:29 IST 2012	Protocol: A New Phase Began: Communication Phase
Mon Dec 03 04:49:29 IST 2012	Protocol: Communication phase, Round: 7
Mon Dec 03 04:49:45 IST 2012	Received communication message 
Mon Dec 03 04:49:45 IST 2012	From player: 310
Mon Dec 03 04:49:45 IST 2012	To player: 337
Mon Dec 03 04:49:45 IST 2012	Message type: basicproposal
Mon Dec 03 04:49:45 IST 2012	Chips to send by proposer: { chips  'CTRed':0 'CTPurple':0 'CTGreen':0 'grey78':1 'CTYellow':0 }
Mon Dec 03 04:49:45 IST 2012	Chips to send by responder: { chips  'CTRed':0 'CTPurple':0 'CTGreen':2 'grey78':0 'CTYellow':0 }
Mon Dec 03 04:50:08 IST 2012	Received communication message 
Mon Dec 03 04:50:08 IST 2012	From player: 337
Mon Dec 03 04:50:08 IST 2012	To player: 310
Mon Dec 03 04:50:08 IST 2012	Message type: basicproposaldiscussion
Mon Dec 03 04:50:08 IST 2012	Player 337 rejected offer
Mon Dec 03 04:50:08 IST 2012	Swaping roles:
Mon Dec 03 04:50:08 IST 2012	Proposer is: 337
Mon Dec 03 04:50:08 IST 2012	Responder is: 310
Mon Dec 03 04:50:08 IST 2012	Prop rejected, set counter offers count to: 1
Mon Dec 03 04:50:08 IST 2012	Prop rejected, get counter offers returned: 1
Mon Dec 03 04:50:12 IST 2012	Slept 4 seconds
Mon Dec 03 04:50:12 IST 2012	Sent role changed msgs
Mon Dec 03 04:51:12 IST 2012	Received communication message 
Mon Dec 03 04:51:12 IST 2012	From player: 337
Mon Dec 03 04:51:12 IST 2012	To player: 310
Mon Dec 03 04:51:12 IST 2012	Message type: basicproposal
Mon Dec 03 04:51:12 IST 2012	Chips to send by proposer: { chips  'CTRed':0 'CTPurple':0 'CTGreen':0 'grey78':0 'CTYellow':1 }
Mon Dec 03 04:51:12 IST 2012	Chips to send by responder: { chips  'CTRed':0 'CTPurple':0 'CTGreen':0 'grey78':1 'CTYellow':0 }
Mon Dec 03 04:51:22 IST 2012	Received communication message 
Mon Dec 03 04:51:22 IST 2012	From player: 310
Mon Dec 03 04:51:22 IST 2012	To player: 337
Mon Dec 03 04:51:22 IST 2012	Message type: basicproposaldiscussion
Mon Dec 03 04:51:22 IST 2012	Player 310 accepted offer
Mon Dec 03 04:51:22 IST 2012	Prop accepted, set counter offers count to: 0
Mon Dec 03 04:51:22 IST 2012	Prop accepted, get counter offers returned: 0
Mon Dec 03 04:51:22 IST 2012	A Phase Ended: Communication Phase
Mon Dec 03 04:51:22 IST 2012	Protocol: A New Phase Began: Exchange Phase
Mon Dec 03 04:51:22 IST 2012	Protocol: Exchange phase, Round: 7
Mon Dec 03 04:51:22 IST 2012	In begin exch.phase, get counter offers returned: 0
Mon Dec 03 04:51:41 IST 2012	A Phase Ended: Exchange Phase
Mon Dec 03 04:51:41 IST 2012	Proposer 337 sent: { chips  'CTRed':0 'CTPurple':0 'CTGreen':0 'grey78':0 'CTYellow':1 }
Mon Dec 03 04:51:41 IST 2012	Responder 310 sent: { chips  }
Mon Dec 03 04:51:41 IST 2012	Protocol: A New Phase Began: Movement Phase
Mon Dec 03 04:51:41 IST 2012	Protocol: Movement phase, Round: 7
Mon Dec 03 04:51:41 IST 2012	Player 310 moved to (R:1,C:3)
Mon Dec 03 04:52:01 IST 2012	A Phase Ended: Movement Phase
Mon Dec 03 04:52:01 IST 2012	Protocol: A New Phase Began: Feedback Phase
Mon Dec 03 04:52:01 IST 2012	Protocol: Feedback phase, Round: 7
Mon Dec 03 04:52:01 IST 2012	Number of consecutive no movements for player 337 is 2
Mon Dec 03 04:52:01 IST 2012	Number of consecutive no movements for player 310 is 0
Mon Dec 03 04:52:06 IST 2012	A Phase Ended: Feedback Phase
Mon Dec 03 04:52:06 IST 2012	Protocol: A New Phase Began: Communication Phase
Mon Dec 03 04:52:06 IST 2012	Protocol: Communication phase, Round: 8
Mon Dec 03 04:53:06 IST 2012	Received communication message 
Mon Dec 03 04:53:06 IST 2012	From player: 337
Mon Dec 03 04:53:06 IST 2012	To player: 310
Mon Dec 03 04:53:06 IST 2012	Message type: basicproposal
Mon Dec 03 04:53:06 IST 2012	Chips to send by proposer: { chips  'CTGreen':1 }
Mon Dec 03 04:53:06 IST 2012	Chips to send by responder: { chips  'grey78':1 }
Mon Dec 03 04:53:12 IST 2012	Received communication message 
Mon Dec 03 04:53:12 IST 2012	From player: 310
Mon Dec 03 04:53:12 IST 2012	To player: 337
Mon Dec 03 04:53:12 IST 2012	Message type: basicproposaldiscussion
Mon Dec 03 04:53:12 IST 2012	Player 310 accepted offer
Mon Dec 03 04:53:12 IST 2012	Prop accepted, set counter offers count to: 0
Mon Dec 03 04:53:12 IST 2012	Prop accepted, get counter offers returned: 0
Mon Dec 03 04:53:12 IST 2012	A Phase Ended: Communication Phase
Mon Dec 03 04:53:12 IST 2012	Protocol: A New Phase Began: Exchange Phase
Mon Dec 03 04:53:12 IST 2012	Protocol: Exchange phase, Round: 8
Mon Dec 03 04:53:12 IST 2012	In begin exch.phase, get counter offers returned: 0
Mon Dec 03 04:53:28 IST 2012	A Phase Ended: Exchange Phase
Mon Dec 03 04:53:28 IST 2012	Proposer 337 sent: { chips  'CTRed':0 'CTPurple':0 'CTGreen':1 'grey78':0 'CTYellow':0 }
Mon Dec 03 04:53:28 IST 2012	Responder 310 sent: { chips  }
Mon Dec 03 04:53:28 IST 2012	Protocol: A New Phase Began: Movement Phase
Mon Dec 03 04:53:28 IST 2012	Protocol: Movement phase, Round: 8
Mon Dec 03 04:53:28 IST 2012	Player 310 moved to (R:0,C:3)
Mon Dec 03 04:53:28 IST 2012	Player 337 moved to (R:4,C:1)
Mon Dec 03 04:53:47 IST 2012	A Phase Ended: Movement Phase
Mon Dec 03 04:53:47 IST 2012	Swaping roles:
Mon Dec 03 04:53:47 IST 2012	Proposer is: 310
Mon Dec 03 04:53:47 IST 2012	Responder is: 337
Mon Dec 03 04:53:47 IST 2012	Protocol: A New Phase Began: Feedback Phase
Mon Dec 03 04:53:47 IST 2012	Protocol: Feedback phase, Round: 8
Mon Dec 03 04:53:47 IST 2012	Number of consecutive no movements for player 337 is 0
Mon Dec 03 04:53:47 IST 2012	Number of consecutive no movements for player 310 is 0
Mon Dec 03 04:53:52 IST 2012	A Phase Ended: Feedback Phase
Mon Dec 03 04:53:52 IST 2012	Protocol: A New Phase Began: Communication Phase
Mon Dec 03 04:53:52 IST 2012	Protocol: Communication phase, Round: 9
Mon Dec 03 04:54:11 IST 2012	Received communication message 
Mon Dec 03 04:54:11 IST 2012	From player: 310
Mon Dec 03 04:54:11 IST 2012	To player: 337
Mon Dec 03 04:54:11 IST 2012	Message type: basicproposal
Mon Dec 03 04:54:11 IST 2012	Chips to send by proposer: { chips  'CTRed':0 'CTPurple':0 'CTGreen':0 'grey78':1 'CTYellow':0 }
Mon Dec 03 04:54:11 IST 2012	Chips to send by responder: { chips  'CTRed':0 'CTPurple':0 'CTGreen':3 'grey78':0 'CTYellow':0 }
Mon Dec 03 04:54:25 IST 2012	Received communication message 
Mon Dec 03 04:54:25 IST 2012	From player: 337
Mon Dec 03 04:54:25 IST 2012	To player: 310
Mon Dec 03 04:54:25 IST 2012	Message type: basicproposaldiscussion
Mon Dec 03 04:54:25 IST 2012	Player 337 rejected offer
Mon Dec 03 04:54:25 IST 2012	Swaping roles:
Mon Dec 03 04:54:25 IST 2012	Proposer is: 337
Mon Dec 03 04:54:25 IST 2012	Responder is: 310
Mon Dec 03 04:54:25 IST 2012	Prop rejected, set counter offers count to: 1
Mon Dec 03 04:54:25 IST 2012	Prop rejected, get counter offers returned: 1
Mon Dec 03 04:54:29 IST 2012	Slept 4 seconds
Mon Dec 03 04:54:29 IST 2012	Sent role changed msgs
Mon Dec 03 04:55:11 IST 2012	Received communication message 
Mon Dec 03 04:55:11 IST 2012	From player: 337
Mon Dec 03 04:55:11 IST 2012	To player: 310
Mon Dec 03 04:55:11 IST 2012	Message type: basicproposal
Mon Dec 03 04:55:11 IST 2012	Chips to send by proposer: { chips  'CTRed':0 'CTPurple':0 'CTGreen':1 'grey78':0 'CTYellow':0 }
Mon Dec 03 04:55:11 IST 2012	Chips to send by responder: { chips  'CTRed':0 'CTPurple':0 'CTGreen':0 'grey78':1 'CTYellow':0 }
Mon Dec 03 04:55:25 IST 2012	Received communication message 
Mon Dec 03 04:55:25 IST 2012	From player: 310
Mon Dec 03 04:55:25 IST 2012	To player: 337
Mon Dec 03 04:55:25 IST 2012	Message type: basicproposaldiscussion
Mon Dec 03 04:55:25 IST 2012	Player 310 accepted offer
Mon Dec 03 04:55:25 IST 2012	Prop accepted, set counter offers count to: 0
Mon Dec 03 04:55:25 IST 2012	Prop accepted, get counter offers returned: 0
Mon Dec 03 04:55:25 IST 2012	A Phase Ended: Communication Phase
Mon Dec 03 04:55:25 IST 2012	Protocol: A New Phase Began: Exchange Phase
Mon Dec 03 04:55:25 IST 2012	Protocol: Exchange phase, Round: 9
Mon Dec 03 04:55:25 IST 2012	In begin exch.phase, get counter offers returned: 0
Mon Dec 03 04:55:36 IST 2012	A Phase Ended: Exchange Phase
Mon Dec 03 04:55:36 IST 2012	Proposer 337 sent: { chips  'CTRed':0 'CTPurple':0 'CTGreen':1 'grey78':0 'CTYellow':0 }
Mon Dec 03 04:55:36 IST 2012	Responder 310 sent: { chips  }
Mon Dec 03 04:55:36 IST 2012	Protocol: A New Phase Began: Movement Phase
Mon Dec 03 04:55:36 IST 2012	Protocol: Movement phase, Round: 9
Mon Dec 03 04:55:36 IST 2012	Player 310 moved to (R:0,C:2)
Mon Dec 03 04:55:40 IST 2012	Slept 4 seconds
Mon Dec 03 04:55:40 IST 2012	Player 310 got to goal, advance the other and end game
Mon Dec 03 04:55:40 IST 2012	Player: 310 ,role: Responder score is: 210
Mon Dec 03 04:55:40 IST 2012	Player: 337 ,role: Proposer score is: 35
