Tue Dec 04 17:18:58 IST 2012	This is the CT debug logger; svn version 638; sep 27 09
Tue Dec 04 17:18:58 IST 2012	Tue Dec 04 17:18:58 IST 2012
Tue Dec 04 17:18:58 IST 2012	A new Alternative Offers game has began
Tue Dec 04 17:18:58 IST 2012	ID Number: 38671
Tue Dec 04 17:18:58 IST 2012	Creating board
Tue Dec 04 17:18:58 IST 2012	<colors>
Tue Dec 04 17:18:58 IST 2012	{ GamePalette  'CTRed':0 'CTPurple':1 'CTGreen':2 'grey78':3 'CTYellow':4 }
Tue Dec 04 17:18:58 IST 2012	<rows>
Tue Dec 04 17:18:58 IST 2012	7
Tue Dec 04 17:18:58 IST 2012	<columns>
Tue Dec 04 17:18:58 IST 2012	5
Tue Dec 04 17:18:58 IST 2012	<squaresColors>
Tue Dec 04 17:18:58 IST 2012	CTPurple CTRed CTRed CTGreen CTPurple 
Tue Dec 04 17:18:58 IST 2012	CTPurple grey78 CTPurple CTYellow CTPurple 
Tue Dec 04 17:18:58 IST 2012	CTPurple CTRed CTPurple CTGreen CTPurple 
Tue Dec 04 17:18:58 IST 2012	CTPurple grey78 CTPurple CTYellow CTPurple 
Tue Dec 04 17:18:58 IST 2012	CTPurple CTRed CTPurple CTGreen CTPurple 
Tue Dec 04 17:18:58 IST 2012	CTPurple grey78 CTPurple CTYellow CTPurple 
Tue Dec 04 17:18:58 IST 2012	CTPurple CTRed CTPurple CTGreen CTPurple 
Tue Dec 04 17:18:58 IST 2012	</squareColors>
Tue Dec 04 17:18:58 IST 2012	<goalPosition>
Tue Dec 04 17:18:58 IST 2012	Goal position: (R:0,C:2)
Tue Dec 04 17:18:58 IST 2012	<numberOfPlayers>
Tue Dec 04 17:18:58 IST 2012	2
Tue Dec 04 17:18:58 IST 2012	<firstPlayerChips>
Tue Dec 04 17:18:58 IST 2012	Setting chips for player: 337 id:0
Tue Dec 04 17:18:58 IST 2012	{ chips  'CTRed':5 'CTGreen':10 'CTPurple':0 'grey78':0 'CTYellow':9 }
Tue Dec 04 17:18:58 IST 2012	Player position: (R:6,C:0)
Tue Dec 04 17:18:58 IST 2012	Setting chips for player: 310 id:1
Tue Dec 04 17:18:58 IST 2012	{ chips  'CTRed':1 'CTGreen':13 'CTPurple':0 'grey78':10 'CTYellow':0 }
Tue Dec 04 17:18:58 IST 2012	Player position: (R:6,C:4)
Tue Dec 04 17:18:58 IST 2012	Protocol: A New Phase Began: Strategy Prep Phase
Tue Dec 04 17:18:58 IST 2012	Protocol: Strategy Preparation phase, Round: 0
Tue Dec 04 17:18:58 IST 2012	Maximum number of rounds with no consecutive movement is 3
Tue Dec 04 17:18:58 IST 2012	In begin comm. phase, set counter offers count to: 0
Tue Dec 04 17:18:58 IST 2012	In begin comm. phase, get counter offers returned: 0
Tue Dec 04 17:19:18 IST 2012	A Phase Ended: Strategy Prep Phase
Tue Dec 04 17:19:18 IST 2012	Protocol: A New Phase Began: Communication Phase
Tue Dec 04 17:19:18 IST 2012	Protocol: Communication phase, Round: 0
Tue Dec 04 17:20:18 IST 2012	Received communication message 
Tue Dec 04 17:20:18 IST 2012	From player: 337
Tue Dec 04 17:20:18 IST 2012	To player: 310
Tue Dec 04 17:20:18 IST 2012	Message type: basicproposal
Tue Dec 04 17:20:18 IST 2012	Chips to send by proposer: { chips  'CTGreen':1 }
Tue Dec 04 17:20:18 IST 2012	Chips to send by responder: { chips  'grey78':1 }
Tue Dec 04 17:20:26 IST 2012	Received communication message 
Tue Dec 04 17:20:26 IST 2012	From player: 310
Tue Dec 04 17:20:26 IST 2012	To player: 337
Tue Dec 04 17:20:26 IST 2012	Message type: basicproposaldiscussion
Tue Dec 04 17:20:26 IST 2012	Player 310 accepted offer
Tue Dec 04 17:20:26 IST 2012	Prop accepted, set counter offers count to: 0
Tue Dec 04 17:20:26 IST 2012	Prop accepted, get counter offers returned: 0
Tue Dec 04 17:20:26 IST 2012	A Phase Ended: Communication Phase
Tue Dec 04 17:20:26 IST 2012	Protocol: A New Phase Began: Exchange Phase
Tue Dec 04 17:20:26 IST 2012	Protocol: Exchange phase, Round: 0
Tue Dec 04 17:20:26 IST 2012	In begin exch.phase, get counter offers returned: 0
Tue Dec 04 17:20:55 IST 2012	A Phase Ended: Exchange Phase
Tue Dec 04 17:20:55 IST 2012	Proposer 337 sent: { chips  'CTRed':0 'CTPurple':0 'CTGreen':1 'grey78':0 'CTYellow':0 }
Tue Dec 04 17:20:55 IST 2012	Responder 310 sent: { chips  'CTRed':0 'CTPurple':0 'CTGreen':0 'grey78':1 'CTYellow':0 }
Tue Dec 04 17:20:55 IST 2012	Protocol: A New Phase Began: Movement Phase
Tue Dec 04 17:20:55 IST 2012	Protocol: Movement phase, Round: 0
Tue Dec 04 17:21:14 IST 2012	A Phase Ended: Movement Phase
Tue Dec 04 17:21:14 IST 2012	Swaping roles:
Tue Dec 04 17:21:14 IST 2012	Proposer is: 310
Tue Dec 04 17:21:14 IST 2012	Responder is: 337
Tue Dec 04 17:21:14 IST 2012	Protocol: A New Phase Began: Feedback Phase
Tue Dec 04 17:21:14 IST 2012	Protocol: Feedback phase, Round: 0
Tue Dec 04 17:21:14 IST 2012	Number of consecutive no movements for player 337 is 1
Tue Dec 04 17:21:14 IST 2012	Number of consecutive no movements for player 310 is 1
Tue Dec 04 17:21:19 IST 2012	A Phase Ended: Feedback Phase
Tue Dec 04 17:21:19 IST 2012	Protocol: A New Phase Began: Communication Phase
Tue Dec 04 17:21:19 IST 2012	Protocol: Communication phase, Round: 1
Tue Dec 04 17:22:05 IST 2012	Received communication message 
Tue Dec 04 17:22:05 IST 2012	From player: 310
Tue Dec 04 17:22:05 IST 2012	To player: 337
Tue Dec 04 17:22:05 IST 2012	Message type: basicproposal
Tue Dec 04 17:22:05 IST 2012	Chips to send by proposer: { chips  'CTRed':0 'CTPurple':0 'CTGreen':0 'grey78':2 'CTYellow':0 }
Tue Dec 04 17:22:05 IST 2012	Chips to send by responder: { chips  'CTRed':0 'CTPurple':0 'CTGreen':2 'grey78':0 'CTYellow':1 }
Tue Dec 04 17:22:47 IST 2012	Received communication message 
Tue Dec 04 17:22:47 IST 2012	From player: 337
Tue Dec 04 17:22:47 IST 2012	To player: 310
Tue Dec 04 17:22:47 IST 2012	Message type: basicproposaldiscussion
Tue Dec 04 17:22:47 IST 2012	Player 337 rejected offer
Tue Dec 04 17:22:47 IST 2012	Swaping roles:
Tue Dec 04 17:22:47 IST 2012	Proposer is: 337
Tue Dec 04 17:22:47 IST 2012	Responder is: 310
Tue Dec 04 17:22:47 IST 2012	Prop rejected, set counter offers count to: 1
Tue Dec 04 17:22:47 IST 2012	Prop rejected, get counter offers returned: 1
Tue Dec 04 17:22:51 IST 2012	Slept 4 seconds
Tue Dec 04 17:22:51 IST 2012	Sent role changed msgs
Tue Dec 04 17:23:51 IST 2012	Received communication message 
Tue Dec 04 17:23:51 IST 2012	From player: 337
Tue Dec 04 17:23:51 IST 2012	To player: 310
Tue Dec 04 17:23:51 IST 2012	Message type: basicproposal
Tue Dec 04 17:23:51 IST 2012	Chips to send by proposer: { chips  'CTRed':0 'CTPurple':0 'CTGreen':0 'grey78':0 'CTYellow':1 }
Tue Dec 04 17:23:51 IST 2012	Chips to send by responder: { chips  'CTRed':0 'CTPurple':0 'CTGreen':0 'grey78':1 'CTYellow':0 }
Tue Dec 04 17:24:06 IST 2012	Received communication message 
Tue Dec 04 17:24:06 IST 2012	From player: 310
Tue Dec 04 17:24:06 IST 2012	To player: 337
Tue Dec 04 17:24:06 IST 2012	Message type: basicproposaldiscussion
Tue Dec 04 17:24:06 IST 2012	Player 310 accepted offer
Tue Dec 04 17:24:06 IST 2012	Prop accepted, set counter offers count to: 0
Tue Dec 04 17:24:06 IST 2012	Prop accepted, get counter offers returned: 0
Tue Dec 04 17:24:06 IST 2012	A Phase Ended: Communication Phase
Tue Dec 04 17:24:06 IST 2012	Protocol: A New Phase Began: Exchange Phase
Tue Dec 04 17:24:06 IST 2012	Protocol: Exchange phase, Round: 1
Tue Dec 04 17:24:06 IST 2012	In begin exch.phase, get counter offers returned: 0
Tue Dec 04 17:24:35 IST 2012	A Phase Ended: Exchange Phase
Tue Dec 04 17:24:35 IST 2012	Proposer 337 sent: { chips  'CTRed':0 'CTPurple':0 'CTGreen':0 'grey78':0 'CTYellow':1 }
Tue Dec 04 17:24:35 IST 2012	Responder 310 sent: { chips  'CTRed':0 'CTPurple':0 'CTGreen':0 'grey78':1 'CTYellow':0 }
Tue Dec 04 17:24:35 IST 2012	Protocol: A New Phase Began: Movement Phase
Tue Dec 04 17:24:35 IST 2012	Protocol: Movement phase, Round: 1
Tue Dec 04 17:24:54 IST 2012	A Phase Ended: Movement Phase
Tue Dec 04 17:24:54 IST 2012	Protocol: A New Phase Began: Feedback Phase
Tue Dec 04 17:24:54 IST 2012	Protocol: Feedback phase, Round: 1
Tue Dec 04 17:24:54 IST 2012	Number of consecutive no movements for player 337 is 2
Tue Dec 04 17:24:54 IST 2012	Number of consecutive no movements for player 310 is 2
Tue Dec 04 17:24:59 IST 2012	A Phase Ended: Feedback Phase
Tue Dec 04 17:24:59 IST 2012	Protocol: A New Phase Began: Communication Phase
Tue Dec 04 17:24:59 IST 2012	Protocol: Communication phase, Round: 2
Tue Dec 04 17:25:59 IST 2012	Received communication message 
Tue Dec 04 17:25:59 IST 2012	From player: 337
Tue Dec 04 17:25:59 IST 2012	To player: 310
Tue Dec 04 17:25:59 IST 2012	Message type: basicproposal
Tue Dec 04 17:25:59 IST 2012	Chips to send by proposer: { chips  'CTYellow':1 }
Tue Dec 04 17:25:59 IST 2012	Chips to send by responder: { chips  'CTGreen':2 'grey78':1 }
Tue Dec 04 17:26:13 IST 2012	Received communication message 
Tue Dec 04 17:26:13 IST 2012	From player: 310
Tue Dec 04 17:26:13 IST 2012	To player: 337
Tue Dec 04 17:26:13 IST 2012	Message type: basicproposaldiscussion
Tue Dec 04 17:26:13 IST 2012	Player 310 rejected offer
Tue Dec 04 17:26:13 IST 2012	Swaping roles:
Tue Dec 04 17:26:13 IST 2012	Proposer is: 310
Tue Dec 04 17:26:13 IST 2012	Responder is: 337
Tue Dec 04 17:26:13 IST 2012	Prop rejected, set counter offers count to: 1
Tue Dec 04 17:26:13 IST 2012	Prop rejected, get counter offers returned: 1
Tue Dec 04 17:26:17 IST 2012	Slept 4 seconds
Tue Dec 04 17:26:17 IST 2012	Sent role changed msgs
Tue Dec 04 17:26:37 IST 2012	Received communication message 
Tue Dec 04 17:26:37 IST 2012	From player: 310
Tue Dec 04 17:26:37 IST 2012	To player: 337
Tue Dec 04 17:26:37 IST 2012	Message type: basicproposal
Tue Dec 04 17:26:37 IST 2012	Chips to send by proposer: { chips  'CTRed':0 'CTPurple':0 'CTGreen':0 'grey78':1 'CTYellow':0 }
Tue Dec 04 17:26:37 IST 2012	Chips to send by responder: { chips  'CTRed':0 'CTPurple':0 'CTGreen':0 'grey78':0 'CTYellow':1 }
Tue Dec 04 17:27:06 IST 2012	Received communication message 
Tue Dec 04 17:27:06 IST 2012	From player: 337
Tue Dec 04 17:27:06 IST 2012	To player: 310
Tue Dec 04 17:27:06 IST 2012	Message type: basicproposaldiscussion
Tue Dec 04 17:27:06 IST 2012	Player 337 rejected offer
Tue Dec 04 17:27:06 IST 2012	Set counter offers count to: 0
Tue Dec 04 17:27:06 IST 2012	A Phase Ended: Communication Phase
Tue Dec 04 17:27:06 IST 2012	Protocol: A New Phase Began: Exchange Phase
Tue Dec 04 17:27:06 IST 2012	Protocol: Exchange phase, Round: 2
Tue Dec 04 17:27:06 IST 2012	In begin exch.phase, get counter offers returned: 0
Tue Dec 04 17:27:46 IST 2012	A Phase Ended: Exchange Phase
Tue Dec 04 17:27:46 IST 2012	Responder 337 sent: { chips  }
Tue Dec 04 17:27:46 IST 2012	Protocol: A New Phase Began: Movement Phase
Tue Dec 04 17:27:46 IST 2012	Protocol: Movement phase, Round: 2
Tue Dec 04 17:27:46 IST 2012	Player 337 moved to (R:6,C:1)
Tue Dec 04 17:27:46 IST 2012	Player 310 moved to (R:6,C:3)
Tue Dec 04 17:28:06 IST 2012	A Phase Ended: Movement Phase
Tue Dec 04 17:28:06 IST 2012	Protocol: A New Phase Began: Feedback Phase
Tue Dec 04 17:28:06 IST 2012	Protocol: Feedback phase, Round: 2
Tue Dec 04 17:28:06 IST 2012	Number of consecutive no movements for player 337 is 0
Tue Dec 04 17:28:06 IST 2012	Number of consecutive no movements for player 310 is 0
Tue Dec 04 17:28:11 IST 2012	A Phase Ended: Feedback Phase
Tue Dec 04 17:28:11 IST 2012	Protocol: A New Phase Began: Communication Phase
Tue Dec 04 17:28:11 IST 2012	Protocol: Communication phase, Round: 3
Tue Dec 04 17:28:32 IST 2012	Received communication message 
Tue Dec 04 17:28:32 IST 2012	From player: 310
Tue Dec 04 17:28:32 IST 2012	To player: 337
Tue Dec 04 17:28:32 IST 2012	Message type: basicproposal
Tue Dec 04 17:28:32 IST 2012	Chips to send by proposer: { chips  'CTRed':0 'CTPurple':0 'CTGreen':0 'grey78':1 'CTYellow':0 }
Tue Dec 04 17:28:32 IST 2012	Chips to send by responder: { chips  'CTRed':0 'CTPurple':0 'CTGreen':0 'grey78':0 'CTYellow':1 }
Tue Dec 04 17:29:01 IST 2012	Received communication message 
Tue Dec 04 17:29:01 IST 2012	From player: 337
Tue Dec 04 17:29:01 IST 2012	To player: 310
Tue Dec 04 17:29:01 IST 2012	Message type: basicproposaldiscussion
Tue Dec 04 17:29:01 IST 2012	Player 337 rejected offer
Tue Dec 04 17:29:01 IST 2012	Swaping roles:
Tue Dec 04 17:29:01 IST 2012	Proposer is: 337
Tue Dec 04 17:29:01 IST 2012	Responder is: 310
Tue Dec 04 17:29:01 IST 2012	Prop rejected, set counter offers count to: 1
Tue Dec 04 17:29:01 IST 2012	Prop rejected, get counter offers returned: 1
Tue Dec 04 17:29:05 IST 2012	Slept 4 seconds
Tue Dec 04 17:29:05 IST 2012	Sent role changed msgs
Tue Dec 04 17:30:05 IST 2012	Received communication message 
Tue Dec 04 17:30:05 IST 2012	From player: 337
Tue Dec 04 17:30:05 IST 2012	To player: 310
Tue Dec 04 17:30:05 IST 2012	Message type: basicproposal
Tue Dec 04 17:30:05 IST 2012	Chips to send by proposer: { chips  'CTRed':0 'CTPurple':0 'CTGreen':0 'grey78':0 'CTYellow':2 }
Tue Dec 04 17:30:05 IST 2012	Chips to send by responder: { chips  'CTRed':0 'CTPurple':0 'CTGreen':2 'grey78':1 'CTYellow':0 }
Tue Dec 04 17:30:18 IST 2012	Received communication message 
Tue Dec 04 17:30:18 IST 2012	From player: 310
Tue Dec 04 17:30:18 IST 2012	To player: 337
Tue Dec 04 17:30:18 IST 2012	Message type: basicproposaldiscussion
Tue Dec 04 17:30:18 IST 2012	Player 310 accepted offer
Tue Dec 04 17:30:18 IST 2012	Prop accepted, set counter offers count to: 0
Tue Dec 04 17:30:18 IST 2012	Prop accepted, get counter offers returned: 0
Tue Dec 04 17:30:18 IST 2012	A Phase Ended: Communication Phase
Tue Dec 04 17:30:18 IST 2012	Protocol: A New Phase Began: Exchange Phase
Tue Dec 04 17:30:18 IST 2012	Protocol: Exchange phase, Round: 3
Tue Dec 04 17:30:18 IST 2012	In begin exch.phase, get counter offers returned: 0
Tue Dec 04 17:30:45 IST 2012	A Phase Ended: Exchange Phase
Tue Dec 04 17:30:45 IST 2012	Proposer 337 sent: { chips  'CTRed':0 'CTPurple':0 'CTGreen':0 'grey78':0 'CTYellow':0 }
Tue Dec 04 17:30:45 IST 2012	Responder 310 sent: { chips  }
Tue Dec 04 17:30:45 IST 2012	Protocol: A New Phase Began: Movement Phase
Tue Dec 04 17:30:45 IST 2012	Protocol: Movement phase, Round: 3
Tue Dec 04 17:31:05 IST 2012	A Phase Ended: Movement Phase
Tue Dec 04 17:31:05 IST 2012	Protocol: A New Phase Began: Feedback Phase
Tue Dec 04 17:31:05 IST 2012	Protocol: Feedback phase, Round: 3
Tue Dec 04 17:31:05 IST 2012	Number of consecutive no movements for player 337 is 1
Tue Dec 04 17:31:05 IST 2012	Number of consecutive no movements for player 310 is 1
Tue Dec 04 17:31:10 IST 2012	A Phase Ended: Feedback Phase
Tue Dec 04 17:31:10 IST 2012	Protocol: A New Phase Began: Communication Phase
Tue Dec 04 17:31:10 IST 2012	Protocol: Communication phase, Round: 4
Tue Dec 04 17:32:10 IST 2012	Received communication message 
Tue Dec 04 17:32:10 IST 2012	From player: 337
Tue Dec 04 17:32:10 IST 2012	To player: 310
Tue Dec 04 17:32:10 IST 2012	Message type: basicproposal
Tue Dec 04 17:32:10 IST 2012	Chips to send by proposer: { chips  'CTYellow':1 }
Tue Dec 04 17:32:10 IST 2012	Chips to send by responder: { chips  'CTGreen':2 'grey78':1 }
Tue Dec 04 17:32:24 IST 2012	Received communication message 
Tue Dec 04 17:32:24 IST 2012	From player: 310
Tue Dec 04 17:32:24 IST 2012	To player: 337
Tue Dec 04 17:32:24 IST 2012	Message type: basicproposaldiscussion
Tue Dec 04 17:32:24 IST 2012	Player 310 accepted offer
Tue Dec 04 17:32:24 IST 2012	Prop accepted, set counter offers count to: 0
Tue Dec 04 17:32:24 IST 2012	Prop accepted, get counter offers returned: 0
Tue Dec 04 17:32:24 IST 2012	A Phase Ended: Communication Phase
Tue Dec 04 17:32:24 IST 2012	Protocol: A New Phase Began: Exchange Phase
Tue Dec 04 17:32:24 IST 2012	Protocol: Exchange phase, Round: 4
Tue Dec 04 17:32:24 IST 2012	In begin exch.phase, get counter offers returned: 0
Tue Dec 04 17:32:53 IST 2012	A Phase Ended: Exchange Phase
Tue Dec 04 17:32:53 IST 2012	Proposer 337 sent: { chips  'CTRed':0 'CTPurple':0 'CTGreen':0 'grey78':0 'CTYellow':1 }
Tue Dec 04 17:32:53 IST 2012	Responder 310 sent: { chips  }
Tue Dec 04 17:32:53 IST 2012	Protocol: A New Phase Began: Movement Phase
Tue Dec 04 17:32:53 IST 2012	Protocol: Movement phase, Round: 4
Tue Dec 04 17:33:12 IST 2012	A Phase Ended: Movement Phase
Tue Dec 04 17:33:12 IST 2012	Swaping roles:
Tue Dec 04 17:33:12 IST 2012	Proposer is: 310
Tue Dec 04 17:33:12 IST 2012	Responder is: 337
Tue Dec 04 17:33:12 IST 2012	Protocol: A New Phase Began: Feedback Phase
Tue Dec 04 17:33:12 IST 2012	Protocol: Feedback phase, Round: 4
Tue Dec 04 17:33:12 IST 2012	Number of consecutive no movements for player 337 is 2
Tue Dec 04 17:33:12 IST 2012	Number of consecutive no movements for player 310 is 2
Tue Dec 04 17:33:17 IST 2012	A Phase Ended: Feedback Phase
Tue Dec 04 17:33:17 IST 2012	Protocol: A New Phase Began: Communication Phase
Tue Dec 04 17:33:17 IST 2012	Protocol: Communication phase, Round: 5
Tue Dec 04 17:33:35 IST 2012	Received communication message 
Tue Dec 04 17:33:35 IST 2012	From player: 310
Tue Dec 04 17:33:35 IST 2012	To player: 337
Tue Dec 04 17:33:35 IST 2012	Message type: basicproposal
Tue Dec 04 17:33:35 IST 2012	Chips to send by proposer: { chips  'CTRed':0 'CTPurple':0 'CTGreen':4 'grey78':1 'CTYellow':0 }
Tue Dec 04 17:33:35 IST 2012	Chips to send by responder: { chips  'CTRed':0 'CTPurple':0 'CTGreen':0 'grey78':0 'CTYellow':1 }
Tue Dec 04 17:34:05 IST 2012	Received communication message 
Tue Dec 04 17:34:05 IST 2012	From player: 337
Tue Dec 04 17:34:05 IST 2012	To player: 310
Tue Dec 04 17:34:05 IST 2012	Message type: basicproposaldiscussion
Tue Dec 04 17:34:05 IST 2012	Player 337 accepted offer
Tue Dec 04 17:34:05 IST 2012	Prop accepted, set counter offers count to: 0
Tue Dec 04 17:34:05 IST 2012	Prop accepted, get counter offers returned: 0
Tue Dec 04 17:34:05 IST 2012	A Phase Ended: Communication Phase
Tue Dec 04 17:34:05 IST 2012	Protocol: A New Phase Began: Exchange Phase
Tue Dec 04 17:34:05 IST 2012	Protocol: Exchange phase, Round: 5
Tue Dec 04 17:34:05 IST 2012	In begin exch.phase, get counter offers returned: 0
Tue Dec 04 17:34:34 IST 2012	A Phase Ended: Exchange Phase
Tue Dec 04 17:34:34 IST 2012	Proposer 310 sent: { chips  }
Tue Dec 04 17:34:34 IST 2012	Responder 337 sent: { chips  'CTRed':0 'CTPurple':0 'CTGreen':0 'grey78':0 'CTYellow':1 }
Tue Dec 04 17:34:34 IST 2012	Protocol: A New Phase Began: Movement Phase
Tue Dec 04 17:34:34 IST 2012	Protocol: Movement phase, Round: 5
Tue Dec 04 17:34:34 IST 2012	Player 310 moved to (R:5,C:3)
Tue Dec 04 17:34:34 IST 2012	Player 337 moved to (R:5,C:1)
Tue Dec 04 17:34:53 IST 2012	A Phase Ended: Movement Phase
Tue Dec 04 17:34:53 IST 2012	Swaping roles:
Tue Dec 04 17:34:53 IST 2012	Proposer is: 337
Tue Dec 04 17:34:53 IST 2012	Responder is: 310
Tue Dec 04 17:34:53 IST 2012	Protocol: A New Phase Began: Feedback Phase
Tue Dec 04 17:34:53 IST 2012	Protocol: Feedback phase, Round: 5
Tue Dec 04 17:34:53 IST 2012	Number of consecutive no movements for player 337 is 0
Tue Dec 04 17:34:53 IST 2012	Number of consecutive no movements for player 310 is 0
Tue Dec 04 17:34:58 IST 2012	A Phase Ended: Feedback Phase
Tue Dec 04 17:34:58 IST 2012	Protocol: A New Phase Began: Communication Phase
Tue Dec 04 17:34:58 IST 2012	Protocol: Communication phase, Round: 6
Tue Dec 04 17:35:49 IST 2012	Received communication message 
Tue Dec 04 17:35:49 IST 2012	From player: 337
Tue Dec 04 17:35:49 IST 2012	To player: 310
Tue Dec 04 17:35:49 IST 2012	Message type: basicproposal
Tue Dec 04 17:35:49 IST 2012	Chips to send by proposer: { chips  'CTGreen':1 }
Tue Dec 04 17:35:49 IST 2012	Chips to send by responder: { chips  'grey78':1 }
Tue Dec 04 17:35:56 IST 2012	Received communication message 
Tue Dec 04 17:35:56 IST 2012	From player: 310
Tue Dec 04 17:35:56 IST 2012	To player: 337
Tue Dec 04 17:35:56 IST 2012	Message type: basicproposaldiscussion
Tue Dec 04 17:35:56 IST 2012	Player 310 accepted offer
Tue Dec 04 17:35:56 IST 2012	Prop accepted, set counter offers count to: 0
Tue Dec 04 17:35:56 IST 2012	Prop accepted, get counter offers returned: 0
Tue Dec 04 17:35:56 IST 2012	A Phase Ended: Communication Phase
Tue Dec 04 17:35:56 IST 2012	Protocol: A New Phase Began: Exchange Phase
Tue Dec 04 17:35:56 IST 2012	Protocol: Exchange phase, Round: 6
Tue Dec 04 17:35:56 IST 2012	In begin exch.phase, get counter offers returned: 0
Tue Dec 04 17:36:09 IST 2012	A Phase Ended: Exchange Phase
Tue Dec 04 17:36:09 IST 2012	Proposer 337 sent: { chips  'CTRed':0 'CTPurple':0 'CTGreen':0 'grey78':0 'CTYellow':0 }
Tue Dec 04 17:36:09 IST 2012	Responder 310 sent: { chips  }
Tue Dec 04 17:36:09 IST 2012	Protocol: A New Phase Began: Movement Phase
Tue Dec 04 17:36:09 IST 2012	Protocol: Movement phase, Round: 6
Tue Dec 04 17:36:09 IST 2012	Player 310 moved to (R:4,C:3)
Tue Dec 04 17:36:29 IST 2012	A Phase Ended: Movement Phase
Tue Dec 04 17:36:29 IST 2012	Swaping roles:
Tue Dec 04 17:36:29 IST 2012	Proposer is: 310
Tue Dec 04 17:36:29 IST 2012	Responder is: 337
Tue Dec 04 17:36:29 IST 2012	Protocol: A New Phase Began: Feedback Phase
Tue Dec 04 17:36:29 IST 2012	Protocol: Feedback phase, Round: 6
Tue Dec 04 17:36:29 IST 2012	Number of consecutive no movements for player 337 is 1
Tue Dec 04 17:36:29 IST 2012	Number of consecutive no movements for player 310 is 0
Tue Dec 04 17:36:34 IST 2012	A Phase Ended: Feedback Phase
Tue Dec 04 17:36:34 IST 2012	Protocol: A New Phase Began: Communication Phase
Tue Dec 04 17:36:34 IST 2012	Protocol: Communication phase, Round: 7
Tue Dec 04 17:36:51 IST 2012	Received communication message 
Tue Dec 04 17:36:51 IST 2012	From player: 310
Tue Dec 04 17:36:51 IST 2012	To player: 337
Tue Dec 04 17:36:51 IST 2012	Message type: basicproposal
Tue Dec 04 17:36:51 IST 2012	Chips to send by proposer: { chips  'CTRed':0 'CTPurple':0 'CTGreen':0 'grey78':1 'CTYellow':0 }
Tue Dec 04 17:36:51 IST 2012	Chips to send by responder: { chips  'CTRed':0 'CTPurple':0 'CTGreen':2 'grey78':0 'CTYellow':0 }
Tue Dec 04 17:37:11 IST 2012	Received communication message 
Tue Dec 04 17:37:11 IST 2012	From player: 337
Tue Dec 04 17:37:11 IST 2012	To player: 310
Tue Dec 04 17:37:11 IST 2012	Message type: basicproposaldiscussion
Tue Dec 04 17:37:11 IST 2012	Player 337 rejected offer
Tue Dec 04 17:37:11 IST 2012	Swaping roles:
Tue Dec 04 17:37:11 IST 2012	Proposer is: 337
Tue Dec 04 17:37:11 IST 2012	Responder is: 310
Tue Dec 04 17:37:11 IST 2012	Prop rejected, set counter offers count to: 1
Tue Dec 04 17:37:11 IST 2012	Prop rejected, get counter offers returned: 1
Tue Dec 04 17:37:15 IST 2012	Slept 4 seconds
Tue Dec 04 17:37:15 IST 2012	Sent role changed msgs
Tue Dec 04 17:38:15 IST 2012	Received communication message 
Tue Dec 04 17:38:15 IST 2012	From player: 337
Tue Dec 04 17:38:15 IST 2012	To player: 310
Tue Dec 04 17:38:15 IST 2012	Message type: basicproposal
Tue Dec 04 17:38:15 IST 2012	Chips to send by proposer: { chips  'CTRed':0 'CTPurple':0 'CTGreen':0 'grey78':0 'CTYellow':1 }
Tue Dec 04 17:38:15 IST 2012	Chips to send by responder: { chips  'CTRed':0 'CTPurple':0 'CTGreen':0 'grey78':1 'CTYellow':0 }
Tue Dec 04 17:38:22 IST 2012	Received communication message 
Tue Dec 04 17:38:22 IST 2012	From player: 310
Tue Dec 04 17:38:22 IST 2012	To player: 337
Tue Dec 04 17:38:22 IST 2012	Message type: basicproposaldiscussion
Tue Dec 04 17:38:22 IST 2012	Player 310 accepted offer
Tue Dec 04 17:38:22 IST 2012	Prop accepted, set counter offers count to: 0
Tue Dec 04 17:38:22 IST 2012	Prop accepted, get counter offers returned: 0
Tue Dec 04 17:38:22 IST 2012	A Phase Ended: Communication Phase
Tue Dec 04 17:38:22 IST 2012	Protocol: A New Phase Began: Exchange Phase
Tue Dec 04 17:38:22 IST 2012	Protocol: Exchange phase, Round: 7
Tue Dec 04 17:38:22 IST 2012	In begin exch.phase, get counter offers returned: 0
Tue Dec 04 17:38:38 IST 2012	A Phase Ended: Exchange Phase
Tue Dec 04 17:38:38 IST 2012	Proposer 337 sent: { chips  'CTRed':0 'CTPurple':0 'CTGreen':0 'grey78':0 'CTYellow':1 }
Tue Dec 04 17:38:38 IST 2012	Responder 310 sent: { chips  }
Tue Dec 04 17:38:38 IST 2012	Protocol: A New Phase Began: Movement Phase
Tue Dec 04 17:38:38 IST 2012	Protocol: Movement phase, Round: 7
Tue Dec 04 17:38:38 IST 2012	Player 310 moved to (R:3,C:3)
Tue Dec 04 17:38:58 IST 2012	A Phase Ended: Movement Phase
Tue Dec 04 17:38:58 IST 2012	Protocol: A New Phase Began: Feedback Phase
Tue Dec 04 17:38:58 IST 2012	Protocol: Feedback phase, Round: 7
Tue Dec 04 17:38:58 IST 2012	Number of consecutive no movements for player 337 is 2
Tue Dec 04 17:38:58 IST 2012	Number of consecutive no movements for player 310 is 0
Tue Dec 04 17:39:03 IST 2012	A Phase Ended: Feedback Phase
Tue Dec 04 17:39:03 IST 2012	Protocol: A New Phase Began: Communication Phase
Tue Dec 04 17:39:03 IST 2012	Protocol: Communication phase, Round: 8
Tue Dec 04 17:40:03 IST 2012	Received communication message 
Tue Dec 04 17:40:03 IST 2012	From player: 337
Tue Dec 04 17:40:03 IST 2012	To player: 310
Tue Dec 04 17:40:03 IST 2012	Message type: basicproposal
Tue Dec 04 17:40:03 IST 2012	Chips to send by proposer: { chips  'CTYellow':1 }
Tue Dec 04 17:40:03 IST 2012	Chips to send by responder: { chips  'grey78':1 }
Tue Dec 04 17:40:09 IST 2012	Received communication message 
Tue Dec 04 17:40:09 IST 2012	From player: 310
Tue Dec 04 17:40:09 IST 2012	To player: 337
Tue Dec 04 17:40:09 IST 2012	Message type: basicproposaldiscussion
Tue Dec 04 17:40:09 IST 2012	Player 310 accepted offer
Tue Dec 04 17:40:09 IST 2012	Prop accepted, set counter offers count to: 0
Tue Dec 04 17:40:09 IST 2012	Prop accepted, get counter offers returned: 0
Tue Dec 04 17:40:09 IST 2012	A Phase Ended: Communication Phase
Tue Dec 04 17:40:09 IST 2012	Protocol: A New Phase Began: Exchange Phase
Tue Dec 04 17:40:09 IST 2012	Protocol: Exchange phase, Round: 8
Tue Dec 04 17:40:09 IST 2012	In begin exch.phase, get counter offers returned: 0
Tue Dec 04 17:40:26 IST 2012	A Phase Ended: Exchange Phase
Tue Dec 04 17:40:26 IST 2012	Proposer 337 sent: { chips  'CTRed':0 'CTPurple':0 'CTGreen':0 'grey78':0 'CTYellow':1 }
Tue Dec 04 17:40:26 IST 2012	Responder 310 sent: { chips  }
Tue Dec 04 17:40:26 IST 2012	Protocol: A New Phase Began: Movement Phase
Tue Dec 04 17:40:26 IST 2012	Protocol: Movement phase, Round: 8
Tue Dec 04 17:40:26 IST 2012	Player 310 moved to (R:2,C:3)
Tue Dec 04 17:40:26 IST 2012	Player 337 moved to (R:4,C:1)
Tue Dec 04 17:40:45 IST 2012	A Phase Ended: Movement Phase
Tue Dec 04 17:40:45 IST 2012	Swaping roles:
Tue Dec 04 17:40:45 IST 2012	Proposer is: 310
Tue Dec 04 17:40:45 IST 2012	Responder is: 337
Tue Dec 04 17:40:45 IST 2012	Protocol: A New Phase Began: Feedback Phase
Tue Dec 04 17:40:45 IST 2012	Protocol: Feedback phase, Round: 8
Tue Dec 04 17:40:45 IST 2012	Number of consecutive no movements for player 337 is 0
Tue Dec 04 17:40:45 IST 2012	Number of consecutive no movements for player 310 is 0
Tue Dec 04 17:40:50 IST 2012	A Phase Ended: Feedback Phase
Tue Dec 04 17:40:50 IST 2012	Protocol: A New Phase Began: Communication Phase
Tue Dec 04 17:40:50 IST 2012	Protocol: Communication phase, Round: 9
Tue Dec 04 17:41:08 IST 2012	Received communication message 
Tue Dec 04 17:41:08 IST 2012	From player: 310
Tue Dec 04 17:41:08 IST 2012	To player: 337
Tue Dec 04 17:41:08 IST 2012	Message type: basicproposal
Tue Dec 04 17:41:08 IST 2012	Chips to send by proposer: { chips  'CTRed':0 'CTPurple':0 'CTGreen':0 'grey78':1 'CTYellow':0 }
Tue Dec 04 17:41:08 IST 2012	Chips to send by responder: { chips  'CTRed':0 'CTPurple':0 'CTGreen':3 'grey78':0 'CTYellow':0 }
Tue Dec 04 17:41:31 IST 2012	Received communication message 
Tue Dec 04 17:41:31 IST 2012	From player: 337
Tue Dec 04 17:41:31 IST 2012	To player: 310
Tue Dec 04 17:41:31 IST 2012	Message type: basicproposaldiscussion
Tue Dec 04 17:41:31 IST 2012	Player 337 rejected offer
Tue Dec 04 17:41:31 IST 2012	Swaping roles:
Tue Dec 04 17:41:31 IST 2012	Proposer is: 337
Tue Dec 04 17:41:31 IST 2012	Responder is: 310
Tue Dec 04 17:41:31 IST 2012	Prop rejected, set counter offers count to: 1
Tue Dec 04 17:41:31 IST 2012	Prop rejected, get counter offers returned: 1
Tue Dec 04 17:41:35 IST 2012	Slept 4 seconds
Tue Dec 04 17:41:35 IST 2012	Sent role changed msgs
Tue Dec 04 17:42:35 IST 2012	Received communication message 
Tue Dec 04 17:42:35 IST 2012	From player: 337
Tue Dec 04 17:42:35 IST 2012	To player: 310
Tue Dec 04 17:42:35 IST 2012	Message type: basicproposal
Tue Dec 04 17:42:35 IST 2012	Chips to send by proposer: { chips  'CTRed':0 'CTPurple':0 'CTGreen':1 'grey78':0 'CTYellow':0 }
Tue Dec 04 17:42:35 IST 2012	Chips to send by responder: { chips  'CTRed':0 'CTPurple':0 'CTGreen':0 'grey78':1 'CTYellow':0 }
Tue Dec 04 17:42:47 IST 2012	Received communication message 
Tue Dec 04 17:42:47 IST 2012	From player: 310
Tue Dec 04 17:42:47 IST 2012	To player: 337
Tue Dec 04 17:42:47 IST 2012	Message type: basicproposaldiscussion
Tue Dec 04 17:42:47 IST 2012	Player 310 accepted offer
Tue Dec 04 17:42:47 IST 2012	Prop accepted, set counter offers count to: 0
Tue Dec 04 17:42:47 IST 2012	Prop accepted, get counter offers returned: 0
Tue Dec 04 17:42:47 IST 2012	A Phase Ended: Communication Phase
Tue Dec 04 17:42:47 IST 2012	Protocol: A New Phase Began: Exchange Phase
Tue Dec 04 17:42:47 IST 2012	Protocol: Exchange phase, Round: 9
Tue Dec 04 17:42:47 IST 2012	In begin exch.phase, get counter offers returned: 0
Tue Dec 04 17:43:05 IST 2012	A Phase Ended: Exchange Phase
Tue Dec 04 17:43:05 IST 2012	Proposer 337 sent: { chips  'CTRed':0 'CTPurple':0 'CTGreen':1 'grey78':0 'CTYellow':0 }
Tue Dec 04 17:43:05 IST 2012	Responder 310 sent: { chips  }
Tue Dec 04 17:43:05 IST 2012	Protocol: A New Phase Began: Movement Phase
Tue Dec 04 17:43:05 IST 2012	Protocol: Movement phase, Round: 9
Tue Dec 04 17:43:05 IST 2012	Player 310 moved to (R:1,C:3)
Tue Dec 04 17:43:24 IST 2012	A Phase Ended: Movement Phase
Tue Dec 04 17:43:24 IST 2012	Protocol: A New Phase Began: Feedback Phase
Tue Dec 04 17:43:24 IST 2012	Protocol: Feedback phase, Round: 9
Tue Dec 04 17:43:24 IST 2012	Number of consecutive no movements for player 337 is 1
Tue Dec 04 17:43:24 IST 2012	Number of consecutive no movements for player 310 is 0
Tue Dec 04 17:43:29 IST 2012	A Phase Ended: Feedback Phase
Tue Dec 04 17:43:29 IST 2012	Protocol: A New Phase Began: Communication Phase
Tue Dec 04 17:43:29 IST 2012	Protocol: Communication phase, Round: 10
Tue Dec 04 17:44:29 IST 2012	Received communication message 
Tue Dec 04 17:44:29 IST 2012	From player: 337
Tue Dec 04 17:44:29 IST 2012	To player: 310
Tue Dec 04 17:44:29 IST 2012	Message type: basicproposal
Tue Dec 04 17:44:29 IST 2012	Chips to send by proposer: { chips  'CTGreen':1 }
Tue Dec 04 17:44:29 IST 2012	Chips to send by responder: { chips  'grey78':1 }
Tue Dec 04 17:44:40 IST 2012	Received communication message 
Tue Dec 04 17:44:40 IST 2012	From player: 310
Tue Dec 04 17:44:40 IST 2012	To player: 337
Tue Dec 04 17:44:40 IST 2012	Message type: basicproposaldiscussion
Tue Dec 04 17:44:40 IST 2012	Player 310 accepted offer
Tue Dec 04 17:44:40 IST 2012	Prop accepted, set counter offers count to: 0
Tue Dec 04 17:44:40 IST 2012	Prop accepted, get counter offers returned: 0
Tue Dec 04 17:44:40 IST 2012	A Phase Ended: Communication Phase
Tue Dec 04 17:44:40 IST 2012	Protocol: A New Phase Began: Exchange Phase
Tue Dec 04 17:44:40 IST 2012	Protocol: Exchange phase, Round: 10
Tue Dec 04 17:44:40 IST 2012	In begin exch.phase, get counter offers returned: 0
Tue Dec 04 17:44:56 IST 2012	A Phase Ended: Exchange Phase
Tue Dec 04 17:44:56 IST 2012	Proposer 337 sent: { chips  'CTRed':0 'CTPurple':0 'CTGreen':1 'grey78':0 'CTYellow':0 }
Tue Dec 04 17:44:56 IST 2012	Responder 310 sent: { chips  }
Tue Dec 04 17:44:56 IST 2012	Protocol: A New Phase Began: Movement Phase
Tue Dec 04 17:44:56 IST 2012	Protocol: Movement phase, Round: 10
Tue Dec 04 17:44:56 IST 2012	Player 310 moved to (R:0,C:3)
Tue Dec 04 17:45:16 IST 2012	A Phase Ended: Movement Phase
Tue Dec 04 17:45:16 IST 2012	Swaping roles:
Tue Dec 04 17:45:16 IST 2012	Proposer is: 310
Tue Dec 04 17:45:16 IST 2012	Responder is: 337
Tue Dec 04 17:45:16 IST 2012	Protocol: A New Phase Began: Feedback Phase
Tue Dec 04 17:45:16 IST 2012	Protocol: Feedback phase, Round: 10
Tue Dec 04 17:45:16 IST 2012	Number of consecutive no movements for player 337 is 2
Tue Dec 04 17:45:16 IST 2012	Number of consecutive no movements for player 310 is 0
Tue Dec 04 17:45:21 IST 2012	A Phase Ended: Feedback Phase
Tue Dec 04 17:45:21 IST 2012	Protocol: A New Phase Began: Communication Phase
Tue Dec 04 17:45:21 IST 2012	Protocol: Communication phase, Round: 11
Tue Dec 04 17:45:37 IST 2012	Received communication message 
Tue Dec 04 17:45:37 IST 2012	From player: 310
Tue Dec 04 17:45:37 IST 2012	To player: 337
Tue Dec 04 17:45:37 IST 2012	Message type: basicproposal
Tue Dec 04 17:45:37 IST 2012	Chips to send by proposer: { chips  'CTRed':0 'CTPurple':0 'CTGreen':0 'grey78':1 'CTYellow':0 }
Tue Dec 04 17:45:37 IST 2012	Chips to send by responder: { chips  'CTRed':0 'CTPurple':0 'CTGreen':3 'grey78':0 'CTYellow':0 }
Tue Dec 04 17:45:51 IST 2012	Received communication message 
Tue Dec 04 17:45:51 IST 2012	From player: 337
Tue Dec 04 17:45:51 IST 2012	To player: 310
Tue Dec 04 17:45:51 IST 2012	Message type: basicproposaldiscussion
Tue Dec 04 17:45:51 IST 2012	Player 337 rejected offer
Tue Dec 04 17:45:51 IST 2012	Swaping roles:
Tue Dec 04 17:45:51 IST 2012	Proposer is: 337
Tue Dec 04 17:45:51 IST 2012	Responder is: 310
Tue Dec 04 17:45:51 IST 2012	Prop rejected, set counter offers count to: 1
Tue Dec 04 17:45:51 IST 2012	Prop rejected, get counter offers returned: 1
Tue Dec 04 17:45:55 IST 2012	Slept 4 seconds
Tue Dec 04 17:45:55 IST 2012	Sent role changed msgs
Tue Dec 04 17:46:39 IST 2012	Received communication message 
Tue Dec 04 17:46:39 IST 2012	From player: 337
Tue Dec 04 17:46:39 IST 2012	To player: 310
Tue Dec 04 17:46:39 IST 2012	Message type: basicproposal
Tue Dec 04 17:46:39 IST 2012	Chips to send by proposer: { chips  'CTRed':0 'CTPurple':0 'CTGreen':1 'grey78':0 'CTYellow':0 }
Tue Dec 04 17:46:39 IST 2012	Chips to send by responder: { chips  'CTRed':0 'CTPurple':0 'CTGreen':0 'grey78':1 'CTYellow':0 }
Tue Dec 04 17:46:52 IST 2012	Received communication message 
Tue Dec 04 17:46:52 IST 2012	From player: 310
Tue Dec 04 17:46:52 IST 2012	To player: 337
Tue Dec 04 17:46:52 IST 2012	Message type: basicproposaldiscussion
Tue Dec 04 17:46:52 IST 2012	Player 310 accepted offer
Tue Dec 04 17:46:52 IST 2012	Prop accepted, set counter offers count to: 0
Tue Dec 04 17:46:52 IST 2012	Prop accepted, get counter offers returned: 0
Tue Dec 04 17:46:52 IST 2012	A Phase Ended: Communication Phase
Tue Dec 04 17:46:52 IST 2012	Protocol: A New Phase Began: Exchange Phase
Tue Dec 04 17:46:52 IST 2012	Protocol: Exchange phase, Round: 11
Tue Dec 04 17:46:52 IST 2012	In begin exch.phase, get counter offers returned: 0
Tue Dec 04 17:47:04 IST 2012	A Phase Ended: Exchange Phase
Tue Dec 04 17:47:04 IST 2012	Proposer 337 sent: { chips  'CTRed':0 'CTPurple':0 'CTGreen':0 'grey78':0 'CTYellow':0 }
Tue Dec 04 17:47:04 IST 2012	Responder 310 sent: { chips  }
Tue Dec 04 17:47:04 IST 2012	Protocol: A New Phase Began: Movement Phase
Tue Dec 04 17:47:04 IST 2012	Protocol: Movement phase, Round: 11
Tue Dec 04 17:47:04 IST 2012	Player 310 moved to (R:0,C:2)
Tue Dec 04 17:47:08 IST 2012	Slept 4 seconds
Tue Dec 04 17:47:08 IST 2012	Player 310 got to goal, advance the other and end game
Tue Dec 04 17:47:08 IST 2012	Player: 310 ,role: Responder score is: 210
Tue Dec 04 17:47:08 IST 2012	Player: 337 ,role: Proposer score is: 35
