Mon Dec 03 03:22:53 IST 2012	This is the CT debug logger; svn version 638; sep 27 09
Mon Dec 03 03:22:53 IST 2012	Mon Dec 03 03:22:53 IST 2012
Mon Dec 03 03:22:53 IST 2012	A new Alternative Offers game has began
Mon Dec 03 03:22:53 IST 2012	ID Number: 33129
Mon Dec 03 03:22:53 IST 2012	Creating board
Mon Dec 03 03:22:53 IST 2012	<colors>
Mon Dec 03 03:22:53 IST 2012	{ GamePalette  'CTRed':0 'CTPurple':1 'CTGreen':2 'grey78':3 'CTYellow':4 }
Mon Dec 03 03:22:53 IST 2012	<rows>
Mon Dec 03 03:22:53 IST 2012	7
Mon Dec 03 03:22:53 IST 2012	<columns>
Mon Dec 03 03:22:53 IST 2012	5
Mon Dec 03 03:22:53 IST 2012	<squaresColors>
Mon Dec 03 03:22:53 IST 2012	CTPurple CTRed CTRed CTGreen CTPurple 
Mon Dec 03 03:22:53 IST 2012	CTPurple grey78 CTPurple CTYellow CTPurple 
Mon Dec 03 03:22:53 IST 2012	CTPurple CTRed CTPurple CTGreen CTPurple 
Mon Dec 03 03:22:53 IST 2012	CTPurple grey78 CTPurple CTYellow CTPurple 
Mon Dec 03 03:22:53 IST 2012	CTPurple CTRed CTPurple CTGreen CTPurple 
Mon Dec 03 03:22:53 IST 2012	CTPurple grey78 CTPurple CTYellow CTPurple 
Mon Dec 03 03:22:53 IST 2012	CTPurple CTRed CTPurple CTGreen CTPurple 
Mon Dec 03 03:22:53 IST 2012	</squareColors>
Mon Dec 03 03:22:53 IST 2012	<goalPosition>
Mon Dec 03 03:22:53 IST 2012	Goal position: (R:0,C:2)
Mon Dec 03 03:22:53 IST 2012	<numberOfPlayers>
Mon Dec 03 03:22:53 IST 2012	2
Mon Dec 03 03:22:53 IST 2012	<firstPlayerChips>
Mon Dec 03 03:22:53 IST 2012	Setting chips for player: 337 id:0
Mon Dec 03 03:22:53 IST 2012	{ chips  'CTRed':5 'CTGreen':10 'CTPurple':0 'grey78':0 'CTYellow':9 }
Mon Dec 03 03:22:53 IST 2012	Player position: (R:6,C:0)
Mon Dec 03 03:22:53 IST 2012	Setting chips for player: 310 id:1
Mon Dec 03 03:22:53 IST 2012	{ chips  'CTRed':1 'CTGreen':13 'CTPurple':0 'grey78':10 'CTYellow':0 }
Mon Dec 03 03:22:53 IST 2012	Player position: (R:6,C:4)
Mon Dec 03 03:22:53 IST 2012	Protocol: A New Phase Began: Strategy Prep Phase
Mon Dec 03 03:22:53 IST 2012	Protocol: Strategy Preparation phase, Round: 0
Mon Dec 03 03:22:53 IST 2012	Maximum number of rounds with no consecutive movement is 3
Mon Dec 03 03:22:53 IST 2012	In begin comm. phase, set counter offers count to: 0
Mon Dec 03 03:22:53 IST 2012	In begin comm. phase, get counter offers returned: 0
Mon Dec 03 03:23:13 IST 2012	A Phase Ended: Strategy Prep Phase
Mon Dec 03 03:23:13 IST 2012	Protocol: A New Phase Began: Communication Phase
Mon Dec 03 03:23:13 IST 2012	Protocol: Communication phase, Round: 0
Mon Dec 03 03:24:13 IST 2012	Received communication message 
Mon Dec 03 03:24:13 IST 2012	From player: 337
Mon Dec 03 03:24:13 IST 2012	To player: 310
Mon Dec 03 03:24:13 IST 2012	Message type: basicproposal
Mon Dec 03 03:24:13 IST 2012	Chips to send by proposer: { chips  'CTYellow':1 }
Mon Dec 03 03:24:13 IST 2012	Chips to send by responder: { chips  'grey78':1 }
Mon Dec 03 03:24:22 IST 2012	Received communication message 
Mon Dec 03 03:24:22 IST 2012	From player: 310
Mon Dec 03 03:24:22 IST 2012	To player: 337
Mon Dec 03 03:24:22 IST 2012	Message type: basicproposaldiscussion
Mon Dec 03 03:24:22 IST 2012	Player 310 accepted offer
Mon Dec 03 03:24:22 IST 2012	Prop accepted, set counter offers count to: 0
Mon Dec 03 03:24:22 IST 2012	Prop accepted, get counter offers returned: 0
Mon Dec 03 03:24:22 IST 2012	A Phase Ended: Communication Phase
Mon Dec 03 03:24:22 IST 2012	Protocol: A New Phase Began: Exchange Phase
Mon Dec 03 03:24:22 IST 2012	Protocol: Exchange phase, Round: 0
Mon Dec 03 03:24:22 IST 2012	In begin exch.phase, get counter offers returned: 0
Mon Dec 03 03:24:51 IST 2012	A Phase Ended: Exchange Phase
Mon Dec 03 03:24:51 IST 2012	Proposer 337 sent: { chips  'CTRed':0 'CTPurple':0 'CTGreen':0 'grey78':0 'CTYellow':1 }
Mon Dec 03 03:24:51 IST 2012	Responder 310 sent: { chips  'CTRed':0 'CTPurple':0 'CTGreen':0 'grey78':1 'CTYellow':0 }
Mon Dec 03 03:24:51 IST 2012	Protocol: A New Phase Began: Movement Phase
Mon Dec 03 03:24:51 IST 2012	Protocol: Movement phase, Round: 0
Mon Dec 03 03:25:12 IST 2012	A Phase Ended: Movement Phase
Mon Dec 03 03:25:12 IST 2012	Swaping roles:
Mon Dec 03 03:25:12 IST 2012	Proposer is: 310
Mon Dec 03 03:25:12 IST 2012	Responder is: 337
Mon Dec 03 03:25:12 IST 2012	Protocol: A New Phase Began: Feedback Phase
Mon Dec 03 03:25:12 IST 2012	Protocol: Feedback phase, Round: 0
Mon Dec 03 03:25:12 IST 2012	Number of consecutive no movements for player 337 is 1
Mon Dec 03 03:25:12 IST 2012	Number of consecutive no movements for player 310 is 1
Mon Dec 03 03:25:17 IST 2012	A Phase Ended: Feedback Phase
Mon Dec 03 03:25:17 IST 2012	Protocol: A New Phase Began: Communication Phase
Mon Dec 03 03:25:17 IST 2012	Protocol: Communication phase, Round: 1
Mon Dec 03 03:25:45 IST 2012	Received communication message 
Mon Dec 03 03:25:45 IST 2012	From player: 310
Mon Dec 03 03:25:45 IST 2012	To player: 337
Mon Dec 03 03:25:45 IST 2012	Message type: basicproposal
Mon Dec 03 03:25:45 IST 2012	Chips to send by proposer: { chips  'CTRed':0 'CTPurple':0 'CTGreen':5 'grey78':2 'CTYellow':0 }
Mon Dec 03 03:25:45 IST 2012	Chips to send by responder: { chips  'CTRed':0 'CTPurple':0 'CTGreen':0 'grey78':0 'CTYellow':2 }
Mon Dec 03 03:26:37 IST 2012	Received communication message 
Mon Dec 03 03:26:37 IST 2012	From player: 337
Mon Dec 03 03:26:37 IST 2012	To player: 310
Mon Dec 03 03:26:37 IST 2012	Message type: basicproposaldiscussion
Mon Dec 03 03:26:37 IST 2012	Player 337 accepted offer
Mon Dec 03 03:26:37 IST 2012	Prop accepted, set counter offers count to: 0
Mon Dec 03 03:26:37 IST 2012	Prop accepted, get counter offers returned: 0
Mon Dec 03 03:26:37 IST 2012	A Phase Ended: Communication Phase
Mon Dec 03 03:26:37 IST 2012	Protocol: A New Phase Began: Exchange Phase
Mon Dec 03 03:26:37 IST 2012	Protocol: Exchange phase, Round: 1
Mon Dec 03 03:26:37 IST 2012	In begin exch.phase, get counter offers returned: 0
Mon Dec 03 03:27:06 IST 2012	A Phase Ended: Exchange Phase
Mon Dec 03 03:27:06 IST 2012	Proposer 310 sent: { chips  }
Mon Dec 03 03:27:06 IST 2012	Responder 337 sent: { chips  'CTRed':0 'CTPurple':0 'CTGreen':0 'grey78':0 'CTYellow':2 }
Mon Dec 03 03:27:06 IST 2012	Protocol: A New Phase Began: Movement Phase
Mon Dec 03 03:27:06 IST 2012	Protocol: Movement phase, Round: 1
Mon Dec 03 03:27:06 IST 2012	Player 310 moved to (R:6,C:3)
Mon Dec 03 03:27:25 IST 2012	A Phase Ended: Movement Phase
Mon Dec 03 03:27:25 IST 2012	Swaping roles:
Mon Dec 03 03:27:25 IST 2012	Proposer is: 337
Mon Dec 03 03:27:25 IST 2012	Responder is: 310
Mon Dec 03 03:27:25 IST 2012	Protocol: A New Phase Began: Feedback Phase
Mon Dec 03 03:27:25 IST 2012	Protocol: Feedback phase, Round: 1
Mon Dec 03 03:27:25 IST 2012	Number of consecutive no movements for player 337 is 2
Mon Dec 03 03:27:25 IST 2012	Number of consecutive no movements for player 310 is 0
Mon Dec 03 03:27:31 IST 2012	A Phase Ended: Feedback Phase
Mon Dec 03 03:27:31 IST 2012	Protocol: A New Phase Began: Communication Phase
Mon Dec 03 03:27:31 IST 2012	Protocol: Communication phase, Round: 2
Mon Dec 03 03:28:31 IST 2012	Received communication message 
Mon Dec 03 03:28:31 IST 2012	From player: 337
Mon Dec 03 03:28:31 IST 2012	To player: 310
Mon Dec 03 03:28:31 IST 2012	Message type: basicproposal
Mon Dec 03 03:28:31 IST 2012	Chips to send by proposer: { chips  'CTYellow':1 }
Mon Dec 03 03:28:31 IST 2012	Chips to send by responder: { chips  'grey78':1 }
Mon Dec 03 03:28:42 IST 2012	Received communication message 
Mon Dec 03 03:28:42 IST 2012	From player: 310
Mon Dec 03 03:28:42 IST 2012	To player: 337
Mon Dec 03 03:28:42 IST 2012	Message type: basicproposaldiscussion
Mon Dec 03 03:28:42 IST 2012	Player 310 accepted offer
Mon Dec 03 03:28:42 IST 2012	Prop accepted, set counter offers count to: 0
Mon Dec 03 03:28:42 IST 2012	Prop accepted, get counter offers returned: 0
Mon Dec 03 03:28:42 IST 2012	A Phase Ended: Communication Phase
Mon Dec 03 03:28:42 IST 2012	Protocol: A New Phase Began: Exchange Phase
Mon Dec 03 03:28:42 IST 2012	Protocol: Exchange phase, Round: 2
Mon Dec 03 03:28:42 IST 2012	In begin exch.phase, get counter offers returned: 0
Mon Dec 03 03:29:11 IST 2012	A Phase Ended: Exchange Phase
Mon Dec 03 03:29:11 IST 2012	Proposer 337 sent: { chips  'CTRed':0 'CTPurple':0 'CTGreen':0 'grey78':0 'CTYellow':1 }
Mon Dec 03 03:29:11 IST 2012	Responder 310 sent: { chips  }
Mon Dec 03 03:29:11 IST 2012	Protocol: A New Phase Began: Movement Phase
Mon Dec 03 03:29:11 IST 2012	Protocol: Movement phase, Round: 2
Mon Dec 03 03:29:11 IST 2012	Player 310 moved to (R:5,C:3)
Mon Dec 03 03:29:11 IST 2012	Player 337 moved to (R:6,C:1)
Mon Dec 03 03:29:30 IST 2012	A Phase Ended: Movement Phase
Mon Dec 03 03:29:30 IST 2012	Swaping roles:
Mon Dec 03 03:29:30 IST 2012	Proposer is: 310
Mon Dec 03 03:29:30 IST 2012	Responder is: 337
Mon Dec 03 03:29:30 IST 2012	Protocol: A New Phase Began: Feedback Phase
Mon Dec 03 03:29:30 IST 2012	Protocol: Feedback phase, Round: 2
Mon Dec 03 03:29:30 IST 2012	Number of consecutive no movements for player 337 is 0
Mon Dec 03 03:29:30 IST 2012	Number of consecutive no movements for player 310 is 0
Mon Dec 03 03:29:35 IST 2012	A Phase Ended: Feedback Phase
Mon Dec 03 03:29:35 IST 2012	Protocol: A New Phase Began: Communication Phase
Mon Dec 03 03:29:35 IST 2012	Protocol: Communication phase, Round: 3
Mon Dec 03 03:29:49 IST 2012	Received communication message 
Mon Dec 03 03:29:49 IST 2012	From player: 310
Mon Dec 03 03:29:49 IST 2012	To player: 337
Mon Dec 03 03:29:49 IST 2012	Message type: basicproposal
Mon Dec 03 03:29:49 IST 2012	Chips to send by proposer: { chips  'CTRed':0 'CTPurple':0 'CTGreen':0 'grey78':1 'CTYellow':0 }
Mon Dec 03 03:29:49 IST 2012	Chips to send by responder: { chips  'CTRed':0 'CTPurple':0 'CTGreen':1 'grey78':0 'CTYellow':0 }
Mon Dec 03 03:30:46 IST 2012	Received communication message 
Mon Dec 03 03:30:46 IST 2012	From player: 337
Mon Dec 03 03:30:46 IST 2012	To player: 310
Mon Dec 03 03:30:46 IST 2012	Message type: basicproposaldiscussion
Mon Dec 03 03:30:46 IST 2012	Player 337 accepted offer
Mon Dec 03 03:30:46 IST 2012	Prop accepted, set counter offers count to: 0
Mon Dec 03 03:30:46 IST 2012	Prop accepted, get counter offers returned: 0
Mon Dec 03 03:30:46 IST 2012	A Phase Ended: Communication Phase
Mon Dec 03 03:30:46 IST 2012	Protocol: A New Phase Began: Exchange Phase
Mon Dec 03 03:30:46 IST 2012	Protocol: Exchange phase, Round: 3
Mon Dec 03 03:30:46 IST 2012	In begin exch.phase, get counter offers returned: 0
Mon Dec 03 03:31:15 IST 2012	A Phase Ended: Exchange Phase
Mon Dec 03 03:31:15 IST 2012	Proposer 310 sent: { chips  }
Mon Dec 03 03:31:15 IST 2012	Responder 337 sent: { chips  'CTRed':0 'CTPurple':0 'CTGreen':1 'grey78':0 'CTYellow':0 }
Mon Dec 03 03:31:15 IST 2012	Protocol: A New Phase Began: Movement Phase
Mon Dec 03 03:31:15 IST 2012	Protocol: Movement phase, Round: 3
Mon Dec 03 03:31:15 IST 2012	Player 310 moved to (R:4,C:3)
Mon Dec 03 03:31:35 IST 2012	A Phase Ended: Movement Phase
Mon Dec 03 03:31:35 IST 2012	Swaping roles:
Mon Dec 03 03:31:35 IST 2012	Proposer is: 337
Mon Dec 03 03:31:35 IST 2012	Responder is: 310
Mon Dec 03 03:31:35 IST 2012	Protocol: A New Phase Began: Feedback Phase
Mon Dec 03 03:31:35 IST 2012	Protocol: Feedback phase, Round: 3
Mon Dec 03 03:31:35 IST 2012	Number of consecutive no movements for player 337 is 1
Mon Dec 03 03:31:35 IST 2012	Number of consecutive no movements for player 310 is 0
Mon Dec 03 03:31:40 IST 2012	A Phase Ended: Feedback Phase
Mon Dec 03 03:31:40 IST 2012	Protocol: A New Phase Began: Communication Phase
Mon Dec 03 03:31:40 IST 2012	Protocol: Communication phase, Round: 4
Mon Dec 03 03:32:40 IST 2012	Received communication message 
Mon Dec 03 03:32:40 IST 2012	From player: 337
Mon Dec 03 03:32:40 IST 2012	To player: 310
Mon Dec 03 03:32:40 IST 2012	Message type: basicproposal
Mon Dec 03 03:32:40 IST 2012	Chips to send by proposer: { chips  'CTYellow':1 }
Mon Dec 03 03:32:40 IST 2012	Chips to send by responder: { chips  'grey78':1 }
Mon Dec 03 03:32:53 IST 2012	Received communication message 
Mon Dec 03 03:32:53 IST 2012	From player: 310
Mon Dec 03 03:32:53 IST 2012	To player: 337
Mon Dec 03 03:32:53 IST 2012	Message type: basicproposaldiscussion
Mon Dec 03 03:32:53 IST 2012	Player 310 accepted offer
Mon Dec 03 03:32:53 IST 2012	Prop accepted, set counter offers count to: 0
Mon Dec 03 03:32:53 IST 2012	Prop accepted, get counter offers returned: 0
Mon Dec 03 03:32:53 IST 2012	A Phase Ended: Communication Phase
Mon Dec 03 03:32:53 IST 2012	Protocol: A New Phase Began: Exchange Phase
Mon Dec 03 03:32:53 IST 2012	Protocol: Exchange phase, Round: 4
Mon Dec 03 03:32:53 IST 2012	In begin exch.phase, get counter offers returned: 0
Mon Dec 03 03:33:22 IST 2012	A Phase Ended: Exchange Phase
Mon Dec 03 03:33:22 IST 2012	Proposer 337 sent: { chips  'CTRed':0 'CTPurple':0 'CTGreen':0 'grey78':0 'CTYellow':1 }
Mon Dec 03 03:33:22 IST 2012	Responder 310 sent: { chips  }
Mon Dec 03 03:33:22 IST 2012	Protocol: A New Phase Began: Movement Phase
Mon Dec 03 03:33:22 IST 2012	Protocol: Movement phase, Round: 4
Mon Dec 03 03:33:22 IST 2012	Player 310 moved to (R:3,C:3)
Mon Dec 03 03:33:42 IST 2012	A Phase Ended: Movement Phase
Mon Dec 03 03:33:42 IST 2012	Swaping roles:
Mon Dec 03 03:33:42 IST 2012	Proposer is: 310
Mon Dec 03 03:33:42 IST 2012	Responder is: 337
Mon Dec 03 03:33:42 IST 2012	Protocol: A New Phase Began: Feedback Phase
Mon Dec 03 03:33:42 IST 2012	Protocol: Feedback phase, Round: 4
Mon Dec 03 03:33:42 IST 2012	Number of consecutive no movements for player 337 is 2
Mon Dec 03 03:33:42 IST 2012	Number of consecutive no movements for player 310 is 0
Mon Dec 03 03:33:47 IST 2012	A Phase Ended: Feedback Phase
Mon Dec 03 03:33:47 IST 2012	Protocol: A New Phase Began: Communication Phase
Mon Dec 03 03:33:47 IST 2012	Protocol: Communication phase, Round: 5
Mon Dec 03 03:34:06 IST 2012	Received communication message 
Mon Dec 03 03:34:06 IST 2012	From player: 310
Mon Dec 03 03:34:06 IST 2012	To player: 337
Mon Dec 03 03:34:06 IST 2012	Message type: basicproposal
Mon Dec 03 03:34:06 IST 2012	Chips to send by proposer: { chips  'CTRed':0 'CTPurple':0 'CTGreen':0 'grey78':2 'CTYellow':0 }
Mon Dec 03 03:34:06 IST 2012	Chips to send by responder: { chips  'CTRed':0 'CTPurple':0 'CTGreen':4 'grey78':0 'CTYellow':0 }
Mon Dec 03 03:34:55 IST 2012	Received communication message 
Mon Dec 03 03:34:55 IST 2012	From player: 337
Mon Dec 03 03:34:55 IST 2012	To player: 310
Mon Dec 03 03:34:55 IST 2012	Message type: basicproposaldiscussion
Mon Dec 03 03:34:55 IST 2012	Player 337 rejected offer
Mon Dec 03 03:34:55 IST 2012	Swaping roles:
Mon Dec 03 03:34:55 IST 2012	Proposer is: 337
Mon Dec 03 03:34:55 IST 2012	Responder is: 310
Mon Dec 03 03:34:55 IST 2012	Prop rejected, set counter offers count to: 1
Mon Dec 03 03:34:55 IST 2012	Prop rejected, get counter offers returned: 1
Mon Dec 03 03:34:59 IST 2012	Slept 4 seconds
Mon Dec 03 03:34:59 IST 2012	Sent role changed msgs
Mon Dec 03 03:35:59 IST 2012	Received communication message 
Mon Dec 03 03:35:59 IST 2012	From player: 337
Mon Dec 03 03:35:59 IST 2012	To player: 310
Mon Dec 03 03:35:59 IST 2012	Message type: basicproposal
Mon Dec 03 03:35:59 IST 2012	Chips to send by proposer: { chips  'CTRed':0 'CTPurple':0 'CTGreen':0 'grey78':0 'CTYellow':1 }
Mon Dec 03 03:35:59 IST 2012	Chips to send by responder: { chips  'CTRed':0 'CTPurple':0 'CTGreen':0 'grey78':2 'CTYellow':0 }
Mon Dec 03 03:36:05 IST 2012	Received communication message 
Mon Dec 03 03:36:05 IST 2012	From player: 310
Mon Dec 03 03:36:05 IST 2012	To player: 337
Mon Dec 03 03:36:05 IST 2012	Message type: basicproposaldiscussion
Mon Dec 03 03:36:05 IST 2012	Player 310 accepted offer
Mon Dec 03 03:36:05 IST 2012	Prop accepted, set counter offers count to: 0
Mon Dec 03 03:36:05 IST 2012	Prop accepted, get counter offers returned: 0
Mon Dec 03 03:36:05 IST 2012	A Phase Ended: Communication Phase
Mon Dec 03 03:36:05 IST 2012	Protocol: A New Phase Began: Exchange Phase
Mon Dec 03 03:36:05 IST 2012	Protocol: Exchange phase, Round: 5
Mon Dec 03 03:36:05 IST 2012	In begin exch.phase, get counter offers returned: 0
Mon Dec 03 03:36:34 IST 2012	A Phase Ended: Exchange Phase
Mon Dec 03 03:36:34 IST 2012	Proposer 337 sent: { chips  'CTRed':0 'CTPurple':0 'CTGreen':0 'grey78':0 'CTYellow':1 }
Mon Dec 03 03:36:34 IST 2012	Responder 310 sent: { chips  }
Mon Dec 03 03:36:34 IST 2012	Protocol: A New Phase Began: Movement Phase
Mon Dec 03 03:36:34 IST 2012	Protocol: Movement phase, Round: 5
Mon Dec 03 03:36:34 IST 2012	Player 310 moved to (R:2,C:3)
Mon Dec 03 03:36:34 IST 2012	Player 337 moved to (R:5,C:1)
Mon Dec 03 03:36:53 IST 2012	A Phase Ended: Movement Phase
Mon Dec 03 03:36:53 IST 2012	Protocol: A New Phase Began: Feedback Phase
Mon Dec 03 03:36:53 IST 2012	Protocol: Feedback phase, Round: 5
Mon Dec 03 03:36:53 IST 2012	Number of consecutive no movements for player 337 is 0
Mon Dec 03 03:36:53 IST 2012	Number of consecutive no movements for player 310 is 0
Mon Dec 03 03:36:58 IST 2012	A Phase Ended: Feedback Phase
Mon Dec 03 03:36:58 IST 2012	Protocol: A New Phase Began: Communication Phase
Mon Dec 03 03:36:58 IST 2012	Protocol: Communication phase, Round: 6
Mon Dec 03 03:37:58 IST 2012	Received communication message 
Mon Dec 03 03:37:58 IST 2012	From player: 337
Mon Dec 03 03:37:58 IST 2012	To player: 310
Mon Dec 03 03:37:58 IST 2012	Message type: basicproposal
Mon Dec 03 03:37:58 IST 2012	Chips to send by proposer: { chips  'CTGreen':1 }
Mon Dec 03 03:37:58 IST 2012	Chips to send by responder: { chips  'grey78':2 }
Mon Dec 03 03:38:08 IST 2012	Received communication message 
Mon Dec 03 03:38:08 IST 2012	From player: 310
Mon Dec 03 03:38:08 IST 2012	To player: 337
Mon Dec 03 03:38:08 IST 2012	Message type: basicproposaldiscussion
Mon Dec 03 03:38:08 IST 2012	Player 310 accepted offer
Mon Dec 03 03:38:08 IST 2012	Prop accepted, set counter offers count to: 0
Mon Dec 03 03:38:08 IST 2012	Prop accepted, get counter offers returned: 0
Mon Dec 03 03:38:08 IST 2012	A Phase Ended: Communication Phase
Mon Dec 03 03:38:08 IST 2012	Protocol: A New Phase Began: Exchange Phase
Mon Dec 03 03:38:08 IST 2012	Protocol: Exchange phase, Round: 6
Mon Dec 03 03:38:08 IST 2012	In begin exch.phase, get counter offers returned: 0
Mon Dec 03 03:38:37 IST 2012	A Phase Ended: Exchange Phase
Mon Dec 03 03:38:37 IST 2012	Proposer 337 sent: { chips  'CTRed':0 'CTPurple':0 'CTGreen':1 'grey78':0 'CTYellow':0 }
Mon Dec 03 03:38:37 IST 2012	Responder 310 sent: { chips  }
Mon Dec 03 03:38:37 IST 2012	Protocol: A New Phase Began: Movement Phase
Mon Dec 03 03:38:37 IST 2012	Protocol: Movement phase, Round: 6
Mon Dec 03 03:38:38 IST 2012	Player 310 moved to (R:1,C:3)
Mon Dec 03 03:38:57 IST 2012	A Phase Ended: Movement Phase
Mon Dec 03 03:38:57 IST 2012	Swaping roles:
Mon Dec 03 03:38:57 IST 2012	Proposer is: 310
Mon Dec 03 03:38:57 IST 2012	Responder is: 337
Mon Dec 03 03:38:57 IST 2012	Protocol: A New Phase Began: Feedback Phase
Mon Dec 03 03:38:57 IST 2012	Protocol: Feedback phase, Round: 6
Mon Dec 03 03:38:57 IST 2012	Number of consecutive no movements for player 337 is 1
Mon Dec 03 03:38:57 IST 2012	Number of consecutive no movements for player 310 is 0
Mon Dec 03 03:39:02 IST 2012	A Phase Ended: Feedback Phase
Mon Dec 03 03:39:02 IST 2012	Protocol: A New Phase Began: Communication Phase
Mon Dec 03 03:39:02 IST 2012	Protocol: Communication phase, Round: 7
Mon Dec 03 03:39:16 IST 2012	Received communication message 
Mon Dec 03 03:39:16 IST 2012	From player: 310
Mon Dec 03 03:39:16 IST 2012	To player: 337
Mon Dec 03 03:39:16 IST 2012	Message type: basicproposal
Mon Dec 03 03:39:16 IST 2012	Chips to send by proposer: { chips  'CTRed':0 'CTPurple':0 'CTGreen':0 'grey78':2 'CTYellow':0 }
Mon Dec 03 03:39:16 IST 2012	Chips to send by responder: { chips  'CTRed':0 'CTPurple':0 'CTGreen':4 'grey78':0 'CTYellow':0 }
Mon Dec 03 03:39:44 IST 2012	Received communication message 
Mon Dec 03 03:39:44 IST 2012	From player: 337
Mon Dec 03 03:39:44 IST 2012	To player: 310
Mon Dec 03 03:39:44 IST 2012	Message type: basicproposaldiscussion
Mon Dec 03 03:39:44 IST 2012	Player 337 rejected offer
Mon Dec 03 03:39:44 IST 2012	Swaping roles:
Mon Dec 03 03:39:44 IST 2012	Proposer is: 337
Mon Dec 03 03:39:44 IST 2012	Responder is: 310
Mon Dec 03 03:39:44 IST 2012	Prop rejected, set counter offers count to: 1
Mon Dec 03 03:39:44 IST 2012	Prop rejected, get counter offers returned: 1
Mon Dec 03 03:39:48 IST 2012	Slept 4 seconds
Mon Dec 03 03:39:48 IST 2012	Sent role changed msgs
Mon Dec 03 03:40:48 IST 2012	Received communication message 
Mon Dec 03 03:40:48 IST 2012	From player: 337
Mon Dec 03 03:40:48 IST 2012	To player: 310
Mon Dec 03 03:40:48 IST 2012	Message type: basicproposal
Mon Dec 03 03:40:48 IST 2012	Chips to send by proposer: { chips  'CTRed':0 'CTPurple':0 'CTGreen':0 'grey78':0 'CTYellow':3 }
Mon Dec 03 03:40:48 IST 2012	Chips to send by responder: { chips  'CTRed':0 'CTPurple':0 'CTGreen':0 'grey78':2 'CTYellow':0 }
Mon Dec 03 03:40:59 IST 2012	Received communication message 
Mon Dec 03 03:40:59 IST 2012	From player: 310
Mon Dec 03 03:40:59 IST 2012	To player: 337
Mon Dec 03 03:40:59 IST 2012	Message type: basicproposaldiscussion
Mon Dec 03 03:40:59 IST 2012	Player 310 accepted offer
Mon Dec 03 03:40:59 IST 2012	Prop accepted, set counter offers count to: 0
Mon Dec 03 03:40:59 IST 2012	Prop accepted, get counter offers returned: 0
Mon Dec 03 03:40:59 IST 2012	A Phase Ended: Communication Phase
Mon Dec 03 03:40:59 IST 2012	Protocol: A New Phase Began: Exchange Phase
Mon Dec 03 03:40:59 IST 2012	Protocol: Exchange phase, Round: 7
Mon Dec 03 03:40:59 IST 2012	In begin exch.phase, get counter offers returned: 0
Mon Dec 03 03:41:24 IST 2012	A Phase Ended: Exchange Phase
Mon Dec 03 03:41:24 IST 2012	Proposer 337 sent: { chips  'CTRed':0 'CTPurple':0 'CTGreen':0 'grey78':0 'CTYellow':3 }
Mon Dec 03 03:41:24 IST 2012	Responder 310 sent: { chips  }
Mon Dec 03 03:41:24 IST 2012	Protocol: A New Phase Began: Movement Phase
Mon Dec 03 03:41:24 IST 2012	Protocol: Movement phase, Round: 7
Mon Dec 03 03:41:24 IST 2012	Player 310 moved to (R:0,C:3)
Mon Dec 03 03:41:44 IST 2012	A Phase Ended: Movement Phase
Mon Dec 03 03:41:44 IST 2012	Protocol: A New Phase Began: Feedback Phase
Mon Dec 03 03:41:44 IST 2012	Protocol: Feedback phase, Round: 7
Mon Dec 03 03:41:44 IST 2012	Number of consecutive no movements for player 337 is 2
Mon Dec 03 03:41:44 IST 2012	Number of consecutive no movements for player 310 is 0
Mon Dec 03 03:41:49 IST 2012	A Phase Ended: Feedback Phase
Mon Dec 03 03:41:49 IST 2012	Protocol: A New Phase Began: Communication Phase
Mon Dec 03 03:41:49 IST 2012	Protocol: Communication phase, Round: 8
Mon Dec 03 03:42:41 IST 2012	Received communication message 
Mon Dec 03 03:42:41 IST 2012	From player: 337
Mon Dec 03 03:42:41 IST 2012	To player: 310
Mon Dec 03 03:42:41 IST 2012	Message type: basicproposal
Mon Dec 03 03:42:41 IST 2012	Chips to send by proposer: { chips  'CTGreen':1 }
Mon Dec 03 03:42:41 IST 2012	Chips to send by responder: { chips  'grey78':2 }
Mon Dec 03 03:42:50 IST 2012	Received communication message 
Mon Dec 03 03:42:50 IST 2012	From player: 310
Mon Dec 03 03:42:50 IST 2012	To player: 337
Mon Dec 03 03:42:50 IST 2012	Message type: basicproposaldiscussion
Mon Dec 03 03:42:50 IST 2012	Player 310 accepted offer
Mon Dec 03 03:42:50 IST 2012	Prop accepted, set counter offers count to: 0
Mon Dec 03 03:42:50 IST 2012	Prop accepted, get counter offers returned: 0
Mon Dec 03 03:42:50 IST 2012	A Phase Ended: Communication Phase
Mon Dec 03 03:42:50 IST 2012	Protocol: A New Phase Began: Exchange Phase
Mon Dec 03 03:42:50 IST 2012	Protocol: Exchange phase, Round: 8
Mon Dec 03 03:42:50 IST 2012	In begin exch.phase, get counter offers returned: 0
Mon Dec 03 03:43:03 IST 2012	A Phase Ended: Exchange Phase
Mon Dec 03 03:43:03 IST 2012	Proposer 337 sent: { chips  'CTRed':0 'CTPurple':0 'CTGreen':1 'grey78':0 'CTYellow':0 }
Mon Dec 03 03:43:03 IST 2012	Responder 310 sent: { chips  }
Mon Dec 03 03:43:03 IST 2012	Protocol: A New Phase Began: Movement Phase
Mon Dec 03 03:43:03 IST 2012	Protocol: Movement phase, Round: 8
Mon Dec 03 03:43:03 IST 2012	Player 337 moved to (R:4,C:1)
Mon Dec 03 03:43:03 IST 2012	Player 310 moved to (R:0,C:2)
Mon Dec 03 03:43:07 IST 2012	Slept 4 seconds
Mon Dec 03 03:43:07 IST 2012	Player 310 got to goal, advance the other and end game
Mon Dec 03 03:43:07 IST 2012	Player: 310 ,role: Responder score is: 235
Mon Dec 03 03:43:07 IST 2012	Player: 337 ,role: Proposer score is: 0
