Mon Dec 03 13:24:47 IST 2012	This is the CT debug logger; svn version 638; sep 27 09
Mon Dec 03 13:24:47 IST 2012	Mon Dec 03 13:24:47 IST 2012
Mon Dec 03 13:24:47 IST 2012	A new Alternative Offers game has began
Mon Dec 03 13:24:47 IST 2012	ID Number: 37696
Mon Dec 03 13:24:47 IST 2012	Creating board
Mon Dec 03 13:24:47 IST 2012	<colors>
Mon Dec 03 13:24:47 IST 2012	{ GamePalette  'CTRed':0 'CTPurple':1 'CTGreen':2 'grey78':3 'CTYellow':4 }
Mon Dec 03 13:24:47 IST 2012	<rows>
Mon Dec 03 13:24:47 IST 2012	7
Mon Dec 03 13:24:47 IST 2012	<columns>
Mon Dec 03 13:24:47 IST 2012	5
Mon Dec 03 13:24:47 IST 2012	<squaresColors>
Mon Dec 03 13:24:47 IST 2012	CTPurple CTRed CTRed CTGreen CTPurple 
Mon Dec 03 13:24:47 IST 2012	CTPurple grey78 CTPurple CTYellow CTPurple 
Mon Dec 03 13:24:47 IST 2012	CTPurple CTRed CTPurple CTGreen CTPurple 
Mon Dec 03 13:24:47 IST 2012	CTPurple grey78 CTPurple CTYellow CTPurple 
Mon Dec 03 13:24:47 IST 2012	CTPurple CTRed CTPurple CTGreen CTPurple 
Mon Dec 03 13:24:47 IST 2012	CTPurple grey78 CTPurple CTYellow CTPurple 
Mon Dec 03 13:24:47 IST 2012	CTPurple CTRed CTPurple CTGreen CTPurple 
Mon Dec 03 13:24:47 IST 2012	</squareColors>
Mon Dec 03 13:24:47 IST 2012	<goalPosition>
Mon Dec 03 13:24:47 IST 2012	Goal position: (R:0,C:2)
Mon Dec 03 13:24:47 IST 2012	<numberOfPlayers>
Mon Dec 03 13:24:47 IST 2012	2
Mon Dec 03 13:24:47 IST 2012	<firstPlayerChips>
Mon Dec 03 13:24:47 IST 2012	Setting chips for player: 337 id:0
Mon Dec 03 13:24:47 IST 2012	{ chips  'CTRed':5 'CTGreen':10 'CTPurple':0 'grey78':0 'CTYellow':9 }
Mon Dec 03 13:24:47 IST 2012	Player position: (R:6,C:0)
Mon Dec 03 13:24:47 IST 2012	Setting chips for player: 310 id:1
Mon Dec 03 13:24:47 IST 2012	{ chips  'CTRed':1 'CTGreen':13 'CTPurple':0 'grey78':10 'CTYellow':0 }
Mon Dec 03 13:24:47 IST 2012	Player position: (R:6,C:4)
Mon Dec 03 13:24:47 IST 2012	Protocol: A New Phase Began: Strategy Prep Phase
Mon Dec 03 13:24:47 IST 2012	Protocol: Strategy Preparation phase, Round: 0
Mon Dec 03 13:24:47 IST 2012	Maximum number of rounds with no consecutive movement is 3
Mon Dec 03 13:24:47 IST 2012	In begin comm. phase, set counter offers count to: 0
Mon Dec 03 13:24:47 IST 2012	In begin comm. phase, get counter offers returned: 0
Mon Dec 03 13:25:08 IST 2012	A Phase Ended: Strategy Prep Phase
Mon Dec 03 13:25:08 IST 2012	Protocol: A New Phase Began: Communication Phase
Mon Dec 03 13:25:08 IST 2012	Protocol: Communication phase, Round: 0
Mon Dec 03 13:26:08 IST 2012	Received communication message 
Mon Dec 03 13:26:08 IST 2012	From player: 337
Mon Dec 03 13:26:08 IST 2012	To player: 310
Mon Dec 03 13:26:08 IST 2012	Message type: basicproposal
Mon Dec 03 13:26:08 IST 2012	Chips to send by proposer: { chips  'CTYellow':1 }
Mon Dec 03 13:26:08 IST 2012	Chips to send by responder: { chips  'CTGreen':1 'grey78':1 }
Mon Dec 03 13:26:23 IST 2012	Received communication message 
Mon Dec 03 13:26:23 IST 2012	From player: 310
Mon Dec 03 13:26:23 IST 2012	To player: 337
Mon Dec 03 13:26:23 IST 2012	Message type: basicproposaldiscussion
Mon Dec 03 13:26:23 IST 2012	Player 310 accepted offer
Mon Dec 03 13:26:23 IST 2012	Prop accepted, set counter offers count to: 0
Mon Dec 03 13:26:23 IST 2012	Prop accepted, get counter offers returned: 0
Mon Dec 03 13:26:23 IST 2012	A Phase Ended: Communication Phase
Mon Dec 03 13:26:23 IST 2012	Protocol: A New Phase Began: Exchange Phase
Mon Dec 03 13:26:23 IST 2012	Protocol: Exchange phase, Round: 0
Mon Dec 03 13:26:23 IST 2012	In begin exch.phase, get counter offers returned: 0
Mon Dec 03 13:26:52 IST 2012	A Phase Ended: Exchange Phase
Mon Dec 03 13:26:52 IST 2012	Proposer 337 sent: { chips  'CTRed':0 'CTPurple':0 'CTGreen':0 'grey78':0 'CTYellow':1 }
Mon Dec 03 13:26:52 IST 2012	Responder 310 sent: { chips  'CTRed':0 'CTPurple':0 'CTGreen':1 'grey78':0 'CTYellow':0 }
Mon Dec 03 13:26:53 IST 2012	Protocol: A New Phase Began: Movement Phase
Mon Dec 03 13:26:53 IST 2012	Protocol: Movement phase, Round: 0
Mon Dec 03 13:27:12 IST 2012	A Phase Ended: Movement Phase
Mon Dec 03 13:27:12 IST 2012	Swaping roles:
Mon Dec 03 13:27:12 IST 2012	Proposer is: 310
Mon Dec 03 13:27:12 IST 2012	Responder is: 337
Mon Dec 03 13:27:12 IST 2012	Protocol: A New Phase Began: Feedback Phase
Mon Dec 03 13:27:12 IST 2012	Protocol: Feedback phase, Round: 0
Mon Dec 03 13:27:12 IST 2012	Number of consecutive no movements for player 337 is 1
Mon Dec 03 13:27:12 IST 2012	Number of consecutive no movements for player 310 is 1
Mon Dec 03 13:27:17 IST 2012	A Phase Ended: Feedback Phase
Mon Dec 03 13:27:17 IST 2012	Protocol: A New Phase Began: Communication Phase
Mon Dec 03 13:27:17 IST 2012	Protocol: Communication phase, Round: 1
Mon Dec 03 13:27:56 IST 2012	Received communication message 
Mon Dec 03 13:27:56 IST 2012	From player: 310
Mon Dec 03 13:27:56 IST 2012	To player: 337
Mon Dec 03 13:27:56 IST 2012	Message type: basicproposal
Mon Dec 03 13:27:56 IST 2012	Chips to send by proposer: { chips  'CTRed':0 'CTPurple':0 'CTGreen':3 'grey78':3 'CTYellow':0 }
Mon Dec 03 13:27:56 IST 2012	Chips to send by responder: { chips  'CTRed':0 'CTPurple':0 'CTGreen':0 'grey78':0 'CTYellow':2 }
Mon Dec 03 13:28:43 IST 2012	Received communication message 
Mon Dec 03 13:28:43 IST 2012	From player: 337
Mon Dec 03 13:28:43 IST 2012	To player: 310
Mon Dec 03 13:28:43 IST 2012	Message type: basicproposaldiscussion
Mon Dec 03 13:28:43 IST 2012	Player 337 rejected offer
Mon Dec 03 13:28:43 IST 2012	Swaping roles:
Mon Dec 03 13:28:43 IST 2012	Proposer is: 337
Mon Dec 03 13:28:43 IST 2012	Responder is: 310
Mon Dec 03 13:28:43 IST 2012	Prop rejected, set counter offers count to: 1
Mon Dec 03 13:28:43 IST 2012	Prop rejected, get counter offers returned: 1
Mon Dec 03 13:28:47 IST 2012	Slept 4 seconds
Mon Dec 03 13:28:47 IST 2012	Sent role changed msgs
Mon Dec 03 13:29:47 IST 2012	Received communication message 
Mon Dec 03 13:29:47 IST 2012	From player: 337
Mon Dec 03 13:29:47 IST 2012	To player: 310
Mon Dec 03 13:29:47 IST 2012	Message type: basicproposal
Mon Dec 03 13:29:47 IST 2012	Chips to send by proposer: { chips  'CTRed':0 'CTPurple':0 'CTGreen':1 'grey78':0 'CTYellow':0 }
Mon Dec 03 13:29:47 IST 2012	Chips to send by responder: { chips  'CTRed':0 'CTPurple':0 'CTGreen':0 'grey78':2 'CTYellow':0 }
Mon Dec 03 13:29:58 IST 2012	Received communication message 
Mon Dec 03 13:29:58 IST 2012	From player: 310
Mon Dec 03 13:29:58 IST 2012	To player: 337
Mon Dec 03 13:29:58 IST 2012	Message type: basicproposaldiscussion
Mon Dec 03 13:29:58 IST 2012	Player 310 accepted offer
Mon Dec 03 13:29:58 IST 2012	Prop accepted, set counter offers count to: 0
Mon Dec 03 13:29:58 IST 2012	Prop accepted, get counter offers returned: 0
Mon Dec 03 13:29:58 IST 2012	A Phase Ended: Communication Phase
Mon Dec 03 13:29:58 IST 2012	Protocol: A New Phase Began: Exchange Phase
Mon Dec 03 13:29:58 IST 2012	Protocol: Exchange phase, Round: 1
Mon Dec 03 13:29:58 IST 2012	In begin exch.phase, get counter offers returned: 0
Mon Dec 03 13:30:27 IST 2012	A Phase Ended: Exchange Phase
Mon Dec 03 13:30:27 IST 2012	Proposer 337 sent: { chips  'CTRed':0 'CTPurple':0 'CTGreen':1 'grey78':0 'CTYellow':0 }
Mon Dec 03 13:30:27 IST 2012	Responder 310 sent: { chips  'CTRed':0 'CTPurple':0 'CTGreen':0 'grey78':2 'CTYellow':0 }
Mon Dec 03 13:30:27 IST 2012	Protocol: A New Phase Began: Movement Phase
Mon Dec 03 13:30:27 IST 2012	Protocol: Movement phase, Round: 1
Mon Dec 03 13:30:46 IST 2012	A Phase Ended: Movement Phase
Mon Dec 03 13:30:46 IST 2012	Protocol: A New Phase Began: Feedback Phase
Mon Dec 03 13:30:46 IST 2012	Protocol: Feedback phase, Round: 1
Mon Dec 03 13:30:46 IST 2012	Number of consecutive no movements for player 337 is 2
Mon Dec 03 13:30:46 IST 2012	Number of consecutive no movements for player 310 is 2
Mon Dec 03 13:30:51 IST 2012	A Phase Ended: Feedback Phase
Mon Dec 03 13:30:51 IST 2012	Protocol: A New Phase Began: Communication Phase
Mon Dec 03 13:30:51 IST 2012	Protocol: Communication phase, Round: 2
Mon Dec 03 13:31:51 IST 2012	Received communication message 
Mon Dec 03 13:31:51 IST 2012	From player: 337
Mon Dec 03 13:31:51 IST 2012	To player: 310
Mon Dec 03 13:31:51 IST 2012	Message type: basicproposal
Mon Dec 03 13:31:51 IST 2012	Chips to send by proposer: { chips  'CTYellow':1 }
Mon Dec 03 13:31:51 IST 2012	Chips to send by responder: { chips  'grey78':2 }
Mon Dec 03 13:32:01 IST 2012	Received communication message 
Mon Dec 03 13:32:01 IST 2012	From player: 310
Mon Dec 03 13:32:01 IST 2012	To player: 337
Mon Dec 03 13:32:01 IST 2012	Message type: basicproposaldiscussion
Mon Dec 03 13:32:01 IST 2012	Player 310 rejected offer
Mon Dec 03 13:32:01 IST 2012	Swaping roles:
Mon Dec 03 13:32:01 IST 2012	Proposer is: 310
Mon Dec 03 13:32:01 IST 2012	Responder is: 337
Mon Dec 03 13:32:01 IST 2012	Prop rejected, set counter offers count to: 1
Mon Dec 03 13:32:01 IST 2012	Prop rejected, get counter offers returned: 1
Mon Dec 03 13:32:05 IST 2012	Slept 4 seconds
Mon Dec 03 13:32:05 IST 2012	Sent role changed msgs
Mon Dec 03 13:32:28 IST 2012	Received communication message 
Mon Dec 03 13:32:28 IST 2012	From player: 310
Mon Dec 03 13:32:28 IST 2012	To player: 337
Mon Dec 03 13:32:28 IST 2012	Message type: basicproposal
Mon Dec 03 13:32:28 IST 2012	Chips to send by proposer: { chips  'CTRed':0 'CTPurple':0 'CTGreen':4 'grey78':1 'CTYellow':0 }
Mon Dec 03 13:32:28 IST 2012	Chips to send by responder: { chips  'CTRed':0 'CTPurple':0 'CTGreen':0 'grey78':0 'CTYellow':2 }
Mon Dec 03 13:33:17 IST 2012	Received communication message 
Mon Dec 03 13:33:17 IST 2012	From player: 337
Mon Dec 03 13:33:17 IST 2012	To player: 310
Mon Dec 03 13:33:17 IST 2012	Message type: basicproposaldiscussion
Mon Dec 03 13:33:17 IST 2012	Player 337 rejected offer
Mon Dec 03 13:33:17 IST 2012	Set counter offers count to: 0
Mon Dec 03 13:33:17 IST 2012	A Phase Ended: Communication Phase
Mon Dec 03 13:33:17 IST 2012	Protocol: A New Phase Began: Exchange Phase
Mon Dec 03 13:33:17 IST 2012	Protocol: Exchange phase, Round: 2
Mon Dec 03 13:33:17 IST 2012	In begin exch.phase, get counter offers returned: 0
Mon Dec 03 13:33:57 IST 2012	A Phase Ended: Exchange Phase
Mon Dec 03 13:33:57 IST 2012	Responder 337 sent: { chips  }
Mon Dec 03 13:33:57 IST 2012	Protocol: A New Phase Began: Movement Phase
Mon Dec 03 13:33:57 IST 2012	Protocol: Movement phase, Round: 2
Mon Dec 03 13:33:57 IST 2012	Player 337 moved to (R:6,C:1)
Mon Dec 03 13:33:57 IST 2012	Player 310 moved to (R:6,C:3)
Mon Dec 03 13:34:17 IST 2012	A Phase Ended: Movement Phase
Mon Dec 03 13:34:17 IST 2012	Protocol: A New Phase Began: Feedback Phase
Mon Dec 03 13:34:17 IST 2012	Protocol: Feedback phase, Round: 2
Mon Dec 03 13:34:17 IST 2012	Number of consecutive no movements for player 337 is 0
Mon Dec 03 13:34:17 IST 2012	Number of consecutive no movements for player 310 is 0
Mon Dec 03 13:34:22 IST 2012	A Phase Ended: Feedback Phase
Mon Dec 03 13:34:22 IST 2012	Protocol: A New Phase Began: Communication Phase
Mon Dec 03 13:34:22 IST 2012	Protocol: Communication phase, Round: 3
Mon Dec 03 13:34:41 IST 2012	Received communication message 
Mon Dec 03 13:34:41 IST 2012	From player: 310
Mon Dec 03 13:34:41 IST 2012	To player: 337
Mon Dec 03 13:34:41 IST 2012	Message type: basicproposal
Mon Dec 03 13:34:41 IST 2012	Chips to send by proposer: { chips  'CTRed':0 'CTPurple':0 'CTGreen':0 'grey78':1 'CTYellow':0 }
Mon Dec 03 13:34:41 IST 2012	Chips to send by responder: { chips  'CTRed':0 'CTPurple':0 'CTGreen':0 'grey78':0 'CTYellow':1 }
Mon Dec 03 13:35:23 IST 2012	Received communication message 
Mon Dec 03 13:35:23 IST 2012	From player: 337
Mon Dec 03 13:35:23 IST 2012	To player: 310
Mon Dec 03 13:35:23 IST 2012	Message type: basicproposaldiscussion
Mon Dec 03 13:35:23 IST 2012	Player 337 accepted offer
Mon Dec 03 13:35:23 IST 2012	Prop accepted, set counter offers count to: 0
Mon Dec 03 13:35:23 IST 2012	Prop accepted, get counter offers returned: 0
Mon Dec 03 13:35:23 IST 2012	A Phase Ended: Communication Phase
Mon Dec 03 13:35:24 IST 2012	Protocol: A New Phase Began: Exchange Phase
Mon Dec 03 13:35:24 IST 2012	Protocol: Exchange phase, Round: 3
Mon Dec 03 13:35:24 IST 2012	In begin exch.phase, get counter offers returned: 0
Mon Dec 03 13:35:52 IST 2012	A Phase Ended: Exchange Phase
Mon Dec 03 13:35:52 IST 2012	Proposer 310 sent: { chips  }
Mon Dec 03 13:35:52 IST 2012	Responder 337 sent: { chips  'CTRed':0 'CTPurple':0 'CTGreen':0 'grey78':0 'CTYellow':1 }
Mon Dec 03 13:35:53 IST 2012	Protocol: A New Phase Began: Movement Phase
Mon Dec 03 13:35:53 IST 2012	Protocol: Movement phase, Round: 3
Mon Dec 03 13:36:12 IST 2012	A Phase Ended: Movement Phase
Mon Dec 03 13:36:12 IST 2012	Swaping roles:
Mon Dec 03 13:36:12 IST 2012	Proposer is: 337
Mon Dec 03 13:36:12 IST 2012	Responder is: 310
Mon Dec 03 13:36:12 IST 2012	Protocol: A New Phase Began: Feedback Phase
Mon Dec 03 13:36:12 IST 2012	Protocol: Feedback phase, Round: 3
Mon Dec 03 13:36:12 IST 2012	Number of consecutive no movements for player 337 is 1
Mon Dec 03 13:36:12 IST 2012	Number of consecutive no movements for player 310 is 1
Mon Dec 03 13:36:17 IST 2012	A Phase Ended: Feedback Phase
Mon Dec 03 13:36:17 IST 2012	Protocol: A New Phase Began: Communication Phase
Mon Dec 03 13:36:17 IST 2012	Protocol: Communication phase, Round: 4
Mon Dec 03 13:37:17 IST 2012	Received communication message 
Mon Dec 03 13:37:17 IST 2012	From player: 337
Mon Dec 03 13:37:17 IST 2012	To player: 310
Mon Dec 03 13:37:17 IST 2012	Message type: basicproposal
Mon Dec 03 13:37:17 IST 2012	Chips to send by proposer: { chips  'CTYellow':1 }
Mon Dec 03 13:37:17 IST 2012	Chips to send by responder: { chips  'CTGreen':2 }
Mon Dec 03 13:37:29 IST 2012	Received communication message 
Mon Dec 03 13:37:29 IST 2012	From player: 310
Mon Dec 03 13:37:29 IST 2012	To player: 337
Mon Dec 03 13:37:29 IST 2012	Message type: basicproposaldiscussion
Mon Dec 03 13:37:29 IST 2012	Player 310 accepted offer
Mon Dec 03 13:37:29 IST 2012	Prop accepted, set counter offers count to: 0
Mon Dec 03 13:37:29 IST 2012	Prop accepted, get counter offers returned: 0
Mon Dec 03 13:37:29 IST 2012	A Phase Ended: Communication Phase
Mon Dec 03 13:37:29 IST 2012	Protocol: A New Phase Began: Exchange Phase
Mon Dec 03 13:37:29 IST 2012	Protocol: Exchange phase, Round: 4
Mon Dec 03 13:37:29 IST 2012	In begin exch.phase, get counter offers returned: 0
Mon Dec 03 13:37:54 IST 2012	A Phase Ended: Exchange Phase
Mon Dec 03 13:37:54 IST 2012	Proposer 337 sent: { chips  'CTRed':0 'CTPurple':0 'CTGreen':0 'grey78':0 'CTYellow':1 }
Mon Dec 03 13:37:54 IST 2012	Responder 310 sent: { chips  }
Mon Dec 03 13:37:54 IST 2012	Protocol: A New Phase Began: Movement Phase
Mon Dec 03 13:37:54 IST 2012	Protocol: Movement phase, Round: 4
Mon Dec 03 13:37:54 IST 2012	Player 310 moved to (R:5,C:3)
Mon Dec 03 13:38:13 IST 2012	A Phase Ended: Movement Phase
Mon Dec 03 13:38:13 IST 2012	Swaping roles:
Mon Dec 03 13:38:13 IST 2012	Proposer is: 310
Mon Dec 03 13:38:13 IST 2012	Responder is: 337
Mon Dec 03 13:38:13 IST 2012	Protocol: A New Phase Began: Feedback Phase
Mon Dec 03 13:38:13 IST 2012	Protocol: Feedback phase, Round: 4
Mon Dec 03 13:38:13 IST 2012	Number of consecutive no movements for player 337 is 2
Mon Dec 03 13:38:13 IST 2012	Number of consecutive no movements for player 310 is 0
Mon Dec 03 13:38:19 IST 2012	A Phase Ended: Feedback Phase
Mon Dec 03 13:38:19 IST 2012	Protocol: A New Phase Began: Communication Phase
Mon Dec 03 13:38:19 IST 2012	Protocol: Communication phase, Round: 5
Mon Dec 03 13:38:36 IST 2012	Received communication message 
Mon Dec 03 13:38:36 IST 2012	From player: 310
Mon Dec 03 13:38:36 IST 2012	To player: 337
Mon Dec 03 13:38:36 IST 2012	Message type: basicproposal
Mon Dec 03 13:38:36 IST 2012	Chips to send by proposer: { chips  'CTRed':0 'CTPurple':0 'CTGreen':0 'grey78':1 'CTYellow':0 }
Mon Dec 03 13:38:36 IST 2012	Chips to send by responder: { chips  'CTRed':0 'CTPurple':0 'CTGreen':2 'grey78':0 'CTYellow':0 }
Mon Dec 03 13:38:54 IST 2012	Received communication message 
Mon Dec 03 13:38:54 IST 2012	From player: 337
Mon Dec 03 13:38:54 IST 2012	To player: 310
Mon Dec 03 13:38:54 IST 2012	Message type: basicproposaldiscussion
Mon Dec 03 13:38:54 IST 2012	Player 337 rejected offer
Mon Dec 03 13:38:54 IST 2012	Swaping roles:
Mon Dec 03 13:38:54 IST 2012	Proposer is: 337
Mon Dec 03 13:38:54 IST 2012	Responder is: 310
Mon Dec 03 13:38:54 IST 2012	Prop rejected, set counter offers count to: 1
Mon Dec 03 13:38:54 IST 2012	Prop rejected, get counter offers returned: 1
Mon Dec 03 13:38:58 IST 2012	Slept 4 seconds
Mon Dec 03 13:38:58 IST 2012	Sent role changed msgs
Mon Dec 03 13:39:58 IST 2012	Received communication message 
Mon Dec 03 13:39:58 IST 2012	From player: 337
Mon Dec 03 13:39:58 IST 2012	To player: 310
Mon Dec 03 13:39:58 IST 2012	Message type: basicproposal
Mon Dec 03 13:39:58 IST 2012	Chips to send by proposer: { chips  'CTRed':0 'CTPurple':0 'CTGreen':0 'grey78':0 'CTYellow':1 }
Mon Dec 03 13:39:58 IST 2012	Chips to send by responder: { chips  'CTRed':0 'CTPurple':0 'CTGreen':0 'grey78':1 'CTYellow':0 }
Mon Dec 03 13:40:06 IST 2012	Received communication message 
Mon Dec 03 13:40:06 IST 2012	From player: 310
Mon Dec 03 13:40:06 IST 2012	To player: 337
Mon Dec 03 13:40:06 IST 2012	Message type: basicproposaldiscussion
Mon Dec 03 13:40:06 IST 2012	Player 310 accepted offer
Mon Dec 03 13:40:06 IST 2012	Prop accepted, set counter offers count to: 0
Mon Dec 03 13:40:06 IST 2012	Prop accepted, get counter offers returned: 0
Mon Dec 03 13:40:06 IST 2012	A Phase Ended: Communication Phase
Mon Dec 03 13:40:06 IST 2012	Protocol: A New Phase Began: Exchange Phase
Mon Dec 03 13:40:06 IST 2012	Protocol: Exchange phase, Round: 5
Mon Dec 03 13:40:06 IST 2012	In begin exch.phase, get counter offers returned: 0
Mon Dec 03 13:40:22 IST 2012	A Phase Ended: Exchange Phase
Mon Dec 03 13:40:22 IST 2012	Proposer 337 sent: { chips  'CTRed':0 'CTPurple':0 'CTGreen':0 'grey78':0 'CTYellow':0 }
Mon Dec 03 13:40:22 IST 2012	Responder 310 sent: { chips  }
Mon Dec 03 13:40:22 IST 2012	Protocol: A New Phase Began: Movement Phase
Mon Dec 03 13:40:22 IST 2012	Protocol: Movement phase, Round: 5
Mon Dec 03 13:40:22 IST 2012	Player 337 moved to (R:5,C:1)
Mon Dec 03 13:40:22 IST 2012	Player 310 moved to (R:4,C:3)
Mon Dec 03 13:40:42 IST 2012	A Phase Ended: Movement Phase
Mon Dec 03 13:40:42 IST 2012	Protocol: A New Phase Began: Feedback Phase
Mon Dec 03 13:40:42 IST 2012	Protocol: Feedback phase, Round: 5
Mon Dec 03 13:40:42 IST 2012	Number of consecutive no movements for player 337 is 0
Mon Dec 03 13:40:42 IST 2012	Number of consecutive no movements for player 310 is 0
Mon Dec 03 13:40:47 IST 2012	A Phase Ended: Feedback Phase
Mon Dec 03 13:40:47 IST 2012	Protocol: A New Phase Began: Communication Phase
Mon Dec 03 13:40:47 IST 2012	Protocol: Communication phase, Round: 6
Mon Dec 03 13:41:47 IST 2012	Received communication message 
Mon Dec 03 13:41:47 IST 2012	From player: 337
Mon Dec 03 13:41:47 IST 2012	To player: 310
Mon Dec 03 13:41:47 IST 2012	Message type: basicproposal
Mon Dec 03 13:41:47 IST 2012	Chips to send by proposer: { chips  'CTGreen':1 }
Mon Dec 03 13:41:47 IST 2012	Chips to send by responder: { chips  'grey78':1 }
Mon Dec 03 13:41:53 IST 2012	Received communication message 
Mon Dec 03 13:41:53 IST 2012	From player: 310
Mon Dec 03 13:41:53 IST 2012	To player: 337
Mon Dec 03 13:41:53 IST 2012	Message type: basicproposaldiscussion
Mon Dec 03 13:41:53 IST 2012	Player 310 accepted offer
Mon Dec 03 13:41:53 IST 2012	Prop accepted, set counter offers count to: 0
Mon Dec 03 13:41:53 IST 2012	Prop accepted, get counter offers returned: 0
Mon Dec 03 13:41:53 IST 2012	A Phase Ended: Communication Phase
Mon Dec 03 13:41:53 IST 2012	Protocol: A New Phase Began: Exchange Phase
Mon Dec 03 13:41:53 IST 2012	Protocol: Exchange phase, Round: 6
Mon Dec 03 13:41:53 IST 2012	In begin exch.phase, get counter offers returned: 0
Mon Dec 03 13:42:08 IST 2012	A Phase Ended: Exchange Phase
Mon Dec 03 13:42:08 IST 2012	Proposer 337 sent: { chips  'CTRed':0 'CTPurple':0 'CTGreen':0 'grey78':0 'CTYellow':0 }
Mon Dec 03 13:42:08 IST 2012	Responder 310 sent: { chips  }
Mon Dec 03 13:42:08 IST 2012	Protocol: A New Phase Began: Movement Phase
Mon Dec 03 13:42:08 IST 2012	Protocol: Movement phase, Round: 6
Mon Dec 03 13:42:08 IST 2012	Player 310 moved to (R:3,C:3)
Mon Dec 03 13:42:28 IST 2012	A Phase Ended: Movement Phase
Mon Dec 03 13:42:28 IST 2012	Swaping roles:
Mon Dec 03 13:42:28 IST 2012	Proposer is: 310
Mon Dec 03 13:42:28 IST 2012	Responder is: 337
Mon Dec 03 13:42:28 IST 2012	Protocol: A New Phase Began: Feedback Phase
Mon Dec 03 13:42:28 IST 2012	Protocol: Feedback phase, Round: 6
Mon Dec 03 13:42:28 IST 2012	Number of consecutive no movements for player 337 is 1
Mon Dec 03 13:42:28 IST 2012	Number of consecutive no movements for player 310 is 0
Mon Dec 03 13:42:33 IST 2012	A Phase Ended: Feedback Phase
Mon Dec 03 13:42:33 IST 2012	Protocol: A New Phase Began: Communication Phase
Mon Dec 03 13:42:33 IST 2012	Protocol: Communication phase, Round: 7
Mon Dec 03 13:42:49 IST 2012	Received communication message 
Mon Dec 03 13:42:49 IST 2012	From player: 310
Mon Dec 03 13:42:49 IST 2012	To player: 337
Mon Dec 03 13:42:49 IST 2012	Message type: basicproposal
Mon Dec 03 13:42:49 IST 2012	Chips to send by proposer: { chips  'CTRed':0 'CTPurple':0 'CTGreen':0 'grey78':1 'CTYellow':0 }
Mon Dec 03 13:42:49 IST 2012	Chips to send by responder: { chips  'CTRed':0 'CTPurple':0 'CTGreen':2 'grey78':0 'CTYellow':0 }
Mon Dec 03 13:43:14 IST 2012	Received communication message 
Mon Dec 03 13:43:14 IST 2012	From player: 337
Mon Dec 03 13:43:14 IST 2012	To player: 310
Mon Dec 03 13:43:14 IST 2012	Message type: basicproposaldiscussion
Mon Dec 03 13:43:14 IST 2012	Player 337 rejected offer
Mon Dec 03 13:43:14 IST 2012	Swaping roles:
Mon Dec 03 13:43:14 IST 2012	Proposer is: 337
Mon Dec 03 13:43:14 IST 2012	Responder is: 310
Mon Dec 03 13:43:14 IST 2012	Prop rejected, set counter offers count to: 1
Mon Dec 03 13:43:14 IST 2012	Prop rejected, get counter offers returned: 1
Mon Dec 03 13:43:18 IST 2012	Slept 4 seconds
Mon Dec 03 13:43:18 IST 2012	Sent role changed msgs
Mon Dec 03 13:44:18 IST 2012	Received communication message 
Mon Dec 03 13:44:18 IST 2012	From player: 337
Mon Dec 03 13:44:18 IST 2012	To player: 310
Mon Dec 03 13:44:18 IST 2012	Message type: basicproposal
Mon Dec 03 13:44:18 IST 2012	Chips to send by proposer: { chips  'CTRed':0 'CTPurple':0 'CTGreen':0 'grey78':0 'CTYellow':1 }
Mon Dec 03 13:44:18 IST 2012	Chips to send by responder: { chips  'CTRed':0 'CTPurple':0 'CTGreen':0 'grey78':1 'CTYellow':0 }
Mon Dec 03 13:44:28 IST 2012	Received communication message 
Mon Dec 03 13:44:28 IST 2012	From player: 310
Mon Dec 03 13:44:28 IST 2012	To player: 337
Mon Dec 03 13:44:28 IST 2012	Message type: basicproposaldiscussion
Mon Dec 03 13:44:28 IST 2012	Player 310 accepted offer
Mon Dec 03 13:44:28 IST 2012	Prop accepted, set counter offers count to: 0
Mon Dec 03 13:44:28 IST 2012	Prop accepted, get counter offers returned: 0
Mon Dec 03 13:44:28 IST 2012	A Phase Ended: Communication Phase
Mon Dec 03 13:44:28 IST 2012	Protocol: A New Phase Began: Exchange Phase
Mon Dec 03 13:44:28 IST 2012	Protocol: Exchange phase, Round: 7
Mon Dec 03 13:44:28 IST 2012	In begin exch.phase, get counter offers returned: 0
Mon Dec 03 13:44:49 IST 2012	A Phase Ended: Exchange Phase
Mon Dec 03 13:44:49 IST 2012	Proposer 337 sent: { chips  'CTRed':0 'CTPurple':0 'CTGreen':0 'grey78':0 'CTYellow':1 }
Mon Dec 03 13:44:49 IST 2012	Responder 310 sent: { chips  }
Mon Dec 03 13:44:49 IST 2012	Protocol: A New Phase Began: Movement Phase
Mon Dec 03 13:44:49 IST 2012	Protocol: Movement phase, Round: 7
Mon Dec 03 13:44:49 IST 2012	Player 310 moved to (R:2,C:3)
Mon Dec 03 13:45:09 IST 2012	A Phase Ended: Movement Phase
Mon Dec 03 13:45:09 IST 2012	Protocol: A New Phase Began: Feedback Phase
Mon Dec 03 13:45:09 IST 2012	Protocol: Feedback phase, Round: 7
Mon Dec 03 13:45:09 IST 2012	Number of consecutive no movements for player 337 is 2
Mon Dec 03 13:45:09 IST 2012	Number of consecutive no movements for player 310 is 0
Mon Dec 03 13:45:14 IST 2012	A Phase Ended: Feedback Phase
Mon Dec 03 13:45:14 IST 2012	Protocol: A New Phase Began: Communication Phase
Mon Dec 03 13:45:14 IST 2012	Protocol: Communication phase, Round: 8
Mon Dec 03 13:46:14 IST 2012	Received communication message 
Mon Dec 03 13:46:14 IST 2012	From player: 337
Mon Dec 03 13:46:14 IST 2012	To player: 310
Mon Dec 03 13:46:14 IST 2012	Message type: basicproposal
Mon Dec 03 13:46:14 IST 2012	Chips to send by proposer: { chips  'CTYellow':1 }
Mon Dec 03 13:46:14 IST 2012	Chips to send by responder: { chips  'grey78':1 }
Mon Dec 03 13:46:24 IST 2012	Received communication message 
Mon Dec 03 13:46:24 IST 2012	From player: 310
Mon Dec 03 13:46:24 IST 2012	To player: 337
Mon Dec 03 13:46:24 IST 2012	Message type: basicproposaldiscussion
Mon Dec 03 13:46:24 IST 2012	Player 310 accepted offer
Mon Dec 03 13:46:24 IST 2012	Prop accepted, set counter offers count to: 0
Mon Dec 03 13:46:24 IST 2012	Prop accepted, get counter offers returned: 0
Mon Dec 03 13:46:24 IST 2012	A Phase Ended: Communication Phase
Mon Dec 03 13:46:24 IST 2012	Protocol: A New Phase Began: Exchange Phase
Mon Dec 03 13:46:24 IST 2012	Protocol: Exchange phase, Round: 8
Mon Dec 03 13:46:24 IST 2012	In begin exch.phase, get counter offers returned: 0
Mon Dec 03 13:46:42 IST 2012	A Phase Ended: Exchange Phase
Mon Dec 03 13:46:42 IST 2012	Proposer 337 sent: { chips  'CTRed':0 'CTPurple':0 'CTGreen':0 'grey78':0 'CTYellow':1 }
Mon Dec 03 13:46:42 IST 2012	Responder 310 sent: { chips  }
Mon Dec 03 13:46:42 IST 2012	Protocol: A New Phase Began: Movement Phase
Mon Dec 03 13:46:42 IST 2012	Protocol: Movement phase, Round: 8
Mon Dec 03 13:46:43 IST 2012	Player 337 moved to (R:4,C:1)
Mon Dec 03 13:46:43 IST 2012	Player 310 moved to (R:1,C:3)
Mon Dec 03 13:47:02 IST 2012	A Phase Ended: Movement Phase
Mon Dec 03 13:47:02 IST 2012	Swaping roles:
Mon Dec 03 13:47:02 IST 2012	Proposer is: 310
Mon Dec 03 13:47:02 IST 2012	Responder is: 337
Mon Dec 03 13:47:02 IST 2012	Protocol: A New Phase Began: Feedback Phase
Mon Dec 03 13:47:02 IST 2012	Protocol: Feedback phase, Round: 8
Mon Dec 03 13:47:02 IST 2012	Number of consecutive no movements for player 337 is 0
Mon Dec 03 13:47:02 IST 2012	Number of consecutive no movements for player 310 is 0
Mon Dec 03 13:47:07 IST 2012	A Phase Ended: Feedback Phase
Mon Dec 03 13:47:07 IST 2012	Protocol: A New Phase Began: Communication Phase
Mon Dec 03 13:47:07 IST 2012	Protocol: Communication phase, Round: 9
Mon Dec 03 13:47:24 IST 2012	Received communication message 
Mon Dec 03 13:47:24 IST 2012	From player: 310
Mon Dec 03 13:47:24 IST 2012	To player: 337
Mon Dec 03 13:47:24 IST 2012	Message type: basicproposal
Mon Dec 03 13:47:24 IST 2012	Chips to send by proposer: { chips  'CTRed':0 'CTPurple':0 'CTGreen':0 'grey78':1 'CTYellow':0 }
Mon Dec 03 13:47:24 IST 2012	Chips to send by responder: { chips  'CTRed':0 'CTPurple':0 'CTGreen':3 'grey78':0 'CTYellow':0 }
Mon Dec 03 13:47:43 IST 2012	Received communication message 
Mon Dec 03 13:47:43 IST 2012	From player: 337
Mon Dec 03 13:47:43 IST 2012	To player: 310
Mon Dec 03 13:47:43 IST 2012	Message type: basicproposaldiscussion
Mon Dec 03 13:47:43 IST 2012	Player 337 rejected offer
Mon Dec 03 13:47:43 IST 2012	Swaping roles:
Mon Dec 03 13:47:43 IST 2012	Proposer is: 337
Mon Dec 03 13:47:43 IST 2012	Responder is: 310
Mon Dec 03 13:47:43 IST 2012	Prop rejected, set counter offers count to: 1
Mon Dec 03 13:47:43 IST 2012	Prop rejected, get counter offers returned: 1
Mon Dec 03 13:47:47 IST 2012	Slept 4 seconds
Mon Dec 03 13:47:47 IST 2012	Sent role changed msgs
Mon Dec 03 13:48:47 IST 2012	Received communication message 
Mon Dec 03 13:48:47 IST 2012	From player: 337
Mon Dec 03 13:48:47 IST 2012	To player: 310
Mon Dec 03 13:48:47 IST 2012	Message type: basicproposal
Mon Dec 03 13:48:47 IST 2012	Chips to send by proposer: { chips  'CTRed':0 'CTPurple':0 'CTGreen':0 'grey78':0 'CTYellow':1 }
Mon Dec 03 13:48:47 IST 2012	Chips to send by responder: { chips  'CTRed':0 'CTPurple':0 'CTGreen':0 'grey78':1 'CTYellow':0 }
Mon Dec 03 13:48:54 IST 2012	Received communication message 
Mon Dec 03 13:48:54 IST 2012	From player: 310
Mon Dec 03 13:48:54 IST 2012	To player: 337
Mon Dec 03 13:48:54 IST 2012	Message type: basicproposaldiscussion
Mon Dec 03 13:48:54 IST 2012	Player 310 accepted offer
Mon Dec 03 13:48:54 IST 2012	Prop accepted, set counter offers count to: 0
Mon Dec 03 13:48:54 IST 2012	Prop accepted, get counter offers returned: 0
Mon Dec 03 13:48:54 IST 2012	A Phase Ended: Communication Phase
Mon Dec 03 13:48:54 IST 2012	Protocol: A New Phase Began: Exchange Phase
Mon Dec 03 13:48:54 IST 2012	Protocol: Exchange phase, Round: 9
Mon Dec 03 13:48:54 IST 2012	In begin exch.phase, get counter offers returned: 0
Mon Dec 03 13:49:09 IST 2012	A Phase Ended: Exchange Phase
Mon Dec 03 13:49:09 IST 2012	Proposer 337 sent: { chips  'CTRed':0 'CTPurple':0 'CTGreen':0 'grey78':0 'CTYellow':1 }
Mon Dec 03 13:49:09 IST 2012	Responder 310 sent: { chips  }
Mon Dec 03 13:49:09 IST 2012	Protocol: A New Phase Began: Movement Phase
Mon Dec 03 13:49:09 IST 2012	Protocol: Movement phase, Round: 9
Mon Dec 03 13:49:09 IST 2012	Player 310 moved to (R:0,C:3)
Mon Dec 03 13:49:29 IST 2012	A Phase Ended: Movement Phase
Mon Dec 03 13:49:29 IST 2012	Protocol: A New Phase Began: Feedback Phase
Mon Dec 03 13:49:29 IST 2012	Protocol: Feedback phase, Round: 9
Mon Dec 03 13:49:29 IST 2012	Number of consecutive no movements for player 337 is 1
Mon Dec 03 13:49:29 IST 2012	Number of consecutive no movements for player 310 is 0
Mon Dec 03 13:49:34 IST 2012	A Phase Ended: Feedback Phase
Mon Dec 03 13:49:34 IST 2012	Protocol: A New Phase Began: Communication Phase
Mon Dec 03 13:49:34 IST 2012	Protocol: Communication phase, Round: 10
Mon Dec 03 13:50:16 IST 2012	Received communication message 
Mon Dec 03 13:50:16 IST 2012	From player: 337
Mon Dec 03 13:50:16 IST 2012	To player: 310
Mon Dec 03 13:50:16 IST 2012	Message type: basicproposal
Mon Dec 03 13:50:16 IST 2012	Chips to send by proposer: { chips  'CTYellow':1 }
Mon Dec 03 13:50:16 IST 2012	Chips to send by responder: { chips  'grey78':1 }
Mon Dec 03 13:50:25 IST 2012	Received communication message 
Mon Dec 03 13:50:25 IST 2012	From player: 310
Mon Dec 03 13:50:25 IST 2012	To player: 337
Mon Dec 03 13:50:25 IST 2012	Message type: basicproposaldiscussion
Mon Dec 03 13:50:25 IST 2012	Player 310 accepted offer
Mon Dec 03 13:50:25 IST 2012	Prop accepted, set counter offers count to: 0
Mon Dec 03 13:50:25 IST 2012	Prop accepted, get counter offers returned: 0
Mon Dec 03 13:50:25 IST 2012	A Phase Ended: Communication Phase
Mon Dec 03 13:50:25 IST 2012	Protocol: A New Phase Began: Exchange Phase
Mon Dec 03 13:50:25 IST 2012	Protocol: Exchange phase, Round: 10
Mon Dec 03 13:50:25 IST 2012	In begin exch.phase, get counter offers returned: 0
Mon Dec 03 13:50:36 IST 2012	A Phase Ended: Exchange Phase
Mon Dec 03 13:50:36 IST 2012	Proposer 337 sent: { chips  'CTRed':0 'CTPurple':0 'CTGreen':0 'grey78':0 'CTYellow':1 }
Mon Dec 03 13:50:36 IST 2012	Responder 310 sent: { chips  }
Mon Dec 03 13:50:36 IST 2012	Protocol: A New Phase Began: Movement Phase
Mon Dec 03 13:50:36 IST 2012	Protocol: Movement phase, Round: 10
Mon Dec 03 13:50:36 IST 2012	Player 310 moved to (R:0,C:2)
Mon Dec 03 13:50:40 IST 2012	Slept 4 seconds
Mon Dec 03 13:50:40 IST 2012	Player 310 got to goal, advance the other and end game
Mon Dec 03 13:50:40 IST 2012	Player: 310 ,role: Responder score is: 205
Mon Dec 03 13:50:40 IST 2012	Player: 337 ,role: Proposer score is: 40
