Sun Dec 02 12:20:40 IST 2012	This is the CT debug logger; svn version 638; sep 27 09
Sun Dec 02 12:20:40 IST 2012	Sun Dec 02 12:20:40 IST 2012
Sun Dec 02 12:20:40 IST 2012	A new Alternative Offers game has began
Sun Dec 02 12:20:40 IST 2012	ID Number: 30408
Sun Dec 02 12:20:40 IST 2012	Creating board
Sun Dec 02 12:20:40 IST 2012	<colors>
Sun Dec 02 12:20:40 IST 2012	{ GamePalette  'CTRed':0 'CTPurple':1 'CTGreen':2 'grey78':3 'CTYellow':4 }
Sun Dec 02 12:20:40 IST 2012	<rows>
Sun Dec 02 12:20:40 IST 2012	7
Sun Dec 02 12:20:40 IST 2012	<columns>
Sun Dec 02 12:20:40 IST 2012	5
Sun Dec 02 12:20:40 IST 2012	<squaresColors>
Sun Dec 02 12:20:40 IST 2012	CTPurple CTRed CTRed CTGreen CTPurple 
Sun Dec 02 12:20:40 IST 2012	CTPurple grey78 CTPurple CTYellow CTPurple 
Sun Dec 02 12:20:40 IST 2012	CTPurple CTRed CTPurple CTGreen CTPurple 
Sun Dec 02 12:20:40 IST 2012	CTPurple grey78 CTPurple CTYellow CTPurple 
Sun Dec 02 12:20:40 IST 2012	CTPurple CTRed CTPurple CTGreen CTPurple 
Sun Dec 02 12:20:40 IST 2012	CTPurple grey78 CTPurple CTYellow CTPurple 
Sun Dec 02 12:20:40 IST 2012	CTPurple CTRed CTPurple CTGreen CTPurple 
Sun Dec 02 12:20:40 IST 2012	</squareColors>
Sun Dec 02 12:20:40 IST 2012	<goalPosition>
Sun Dec 02 12:20:40 IST 2012	Goal position: (R:0,C:2)
Sun Dec 02 12:20:40 IST 2012	<numberOfPlayers>
Sun Dec 02 12:20:40 IST 2012	2
Sun Dec 02 12:20:40 IST 2012	<firstPlayerChips>
Sun Dec 02 12:20:40 IST 2012	Setting chips for player: 337 id:0
Sun Dec 02 12:20:40 IST 2012	{ chips  'CTRed':5 'CTGreen':10 'CTPurple':0 'grey78':0 'CTYellow':9 }
Sun Dec 02 12:20:40 IST 2012	Player position: (R:6,C:0)
Sun Dec 02 12:20:40 IST 2012	Setting chips for player: 310 id:1
Sun Dec 02 12:20:40 IST 2012	{ chips  'CTRed':1 'CTGreen':13 'CTPurple':0 'grey78':10 'CTYellow':0 }
Sun Dec 02 12:20:40 IST 2012	Player position: (R:6,C:4)
Sun Dec 02 12:20:40 IST 2012	Protocol: A New Phase Began: Strategy Prep Phase
Sun Dec 02 12:20:40 IST 2012	Protocol: Strategy Preparation phase, Round: 0
Sun Dec 02 12:20:40 IST 2012	Maximum number of rounds with no consecutive movement is 3
Sun Dec 02 12:20:40 IST 2012	In begin comm. phase, set counter offers count to: 0
Sun Dec 02 12:20:40 IST 2012	In begin comm. phase, get counter offers returned: 0
Sun Dec 02 12:21:00 IST 2012	A Phase Ended: Strategy Prep Phase
Sun Dec 02 12:21:00 IST 2012	Protocol: A New Phase Began: Communication Phase
Sun Dec 02 12:21:00 IST 2012	Protocol: Communication phase, Round: 0
Sun Dec 02 12:22:00 IST 2012	Received communication message 
Sun Dec 02 12:22:00 IST 2012	From player: 337
Sun Dec 02 12:22:00 IST 2012	To player: 310
Sun Dec 02 12:22:00 IST 2012	Message type: basicproposal
Sun Dec 02 12:22:00 IST 2012	Chips to send by proposer: { chips  'CTYellow':1 }
Sun Dec 02 12:22:00 IST 2012	Chips to send by responder: { chips  'grey78':1 }
Sun Dec 02 12:22:11 IST 2012	Received communication message 
Sun Dec 02 12:22:11 IST 2012	From player: 310
Sun Dec 02 12:22:11 IST 2012	To player: 337
Sun Dec 02 12:22:11 IST 2012	Message type: basicproposaldiscussion
Sun Dec 02 12:22:11 IST 2012	Player 310 accepted offer
Sun Dec 02 12:22:11 IST 2012	Prop accepted, set counter offers count to: 0
Sun Dec 02 12:22:11 IST 2012	Prop accepted, get counter offers returned: 0
Sun Dec 02 12:22:11 IST 2012	A Phase Ended: Communication Phase
Sun Dec 02 12:22:11 IST 2012	Protocol: A New Phase Began: Exchange Phase
Sun Dec 02 12:22:11 IST 2012	Protocol: Exchange phase, Round: 0
Sun Dec 02 12:22:11 IST 2012	In begin exch.phase, get counter offers returned: 0
Sun Dec 02 12:22:40 IST 2012	A Phase Ended: Exchange Phase
Sun Dec 02 12:22:40 IST 2012	Proposer 337 sent: { chips  'CTRed':0 'CTPurple':0 'CTGreen':0 'grey78':0 'CTYellow':1 }
Sun Dec 02 12:22:40 IST 2012	Responder 310 sent: { chips  'CTRed':0 'CTPurple':0 'CTGreen':0 'grey78':1 'CTYellow':0 }
Sun Dec 02 12:22:40 IST 2012	Protocol: A New Phase Began: Movement Phase
Sun Dec 02 12:22:40 IST 2012	Protocol: Movement phase, Round: 0
Sun Dec 02 12:23:00 IST 2012	A Phase Ended: Movement Phase
Sun Dec 02 12:23:00 IST 2012	Swaping roles:
Sun Dec 02 12:23:00 IST 2012	Proposer is: 310
Sun Dec 02 12:23:00 IST 2012	Responder is: 337
Sun Dec 02 12:23:00 IST 2012	Protocol: A New Phase Began: Feedback Phase
Sun Dec 02 12:23:00 IST 2012	Protocol: Feedback phase, Round: 0
Sun Dec 02 12:23:00 IST 2012	Number of consecutive no movements for player 337 is 1
Sun Dec 02 12:23:00 IST 2012	Number of consecutive no movements for player 310 is 1
Sun Dec 02 12:23:05 IST 2012	A Phase Ended: Feedback Phase
Sun Dec 02 12:23:05 IST 2012	Protocol: A New Phase Began: Communication Phase
Sun Dec 02 12:23:05 IST 2012	Protocol: Communication phase, Round: 1
Sun Dec 02 12:23:35 IST 2012	Received communication message 
Sun Dec 02 12:23:35 IST 2012	From player: 310
Sun Dec 02 12:23:35 IST 2012	To player: 337
Sun Dec 02 12:23:35 IST 2012	Message type: basicproposal
Sun Dec 02 12:23:35 IST 2012	Chips to send by proposer: { chips  'CTRed':0 'CTPurple':0 'CTGreen':5 'grey78':2 'CTYellow':0 }
Sun Dec 02 12:23:35 IST 2012	Chips to send by responder: { chips  'CTRed':0 'CTPurple':0 'CTGreen':0 'grey78':0 'CTYellow':2 }
Sun Dec 02 12:24:28 IST 2012	Received communication message 
Sun Dec 02 12:24:28 IST 2012	From player: 337
Sun Dec 02 12:24:28 IST 2012	To player: 310
Sun Dec 02 12:24:28 IST 2012	Message type: basicproposaldiscussion
Sun Dec 02 12:24:28 IST 2012	Player 337 accepted offer
Sun Dec 02 12:24:28 IST 2012	Prop accepted, set counter offers count to: 0
Sun Dec 02 12:24:28 IST 2012	Prop accepted, get counter offers returned: 0
Sun Dec 02 12:24:28 IST 2012	A Phase Ended: Communication Phase
Sun Dec 02 12:24:28 IST 2012	Protocol: A New Phase Began: Exchange Phase
Sun Dec 02 12:24:28 IST 2012	Protocol: Exchange phase, Round: 1
Sun Dec 02 12:24:28 IST 2012	In begin exch.phase, get counter offers returned: 0
Sun Dec 02 12:24:57 IST 2012	A Phase Ended: Exchange Phase
Sun Dec 02 12:24:57 IST 2012	Proposer 310 sent: { chips  }
Sun Dec 02 12:24:57 IST 2012	Responder 337 sent: { chips  'CTRed':0 'CTPurple':0 'CTGreen':0 'grey78':0 'CTYellow':0 }
Sun Dec 02 12:24:57 IST 2012	Protocol: A New Phase Began: Movement Phase
Sun Dec 02 12:24:57 IST 2012	Protocol: Movement phase, Round: 1
Sun Dec 02 12:25:17 IST 2012	A Phase Ended: Movement Phase
Sun Dec 02 12:25:17 IST 2012	Swaping roles:
Sun Dec 02 12:25:17 IST 2012	Proposer is: 337
Sun Dec 02 12:25:17 IST 2012	Responder is: 310
Sun Dec 02 12:25:17 IST 2012	Protocol: A New Phase Began: Feedback Phase
Sun Dec 02 12:25:17 IST 2012	Protocol: Feedback phase, Round: 1
Sun Dec 02 12:25:17 IST 2012	Number of consecutive no movements for player 337 is 2
Sun Dec 02 12:25:17 IST 2012	Number of consecutive no movements for player 310 is 2
Sun Dec 02 12:25:22 IST 2012	A Phase Ended: Feedback Phase
Sun Dec 02 12:25:22 IST 2012	Protocol: A New Phase Began: Communication Phase
Sun Dec 02 12:25:22 IST 2012	Protocol: Communication phase, Round: 2
Sun Dec 02 12:26:22 IST 2012	Received communication message 
Sun Dec 02 12:26:22 IST 2012	From player: 337
Sun Dec 02 12:26:22 IST 2012	To player: 310
Sun Dec 02 12:26:22 IST 2012	Message type: basicproposal
Sun Dec 02 12:26:22 IST 2012	Chips to send by proposer: { chips  'CTYellow':1 }
Sun Dec 02 12:26:22 IST 2012	Chips to send by responder: { chips  'grey78':1 }
Sun Dec 02 12:26:28 IST 2012	Received communication message 
Sun Dec 02 12:26:28 IST 2012	From player: 310
Sun Dec 02 12:26:28 IST 2012	To player: 337
Sun Dec 02 12:26:28 IST 2012	Message type: basicproposaldiscussion
Sun Dec 02 12:26:28 IST 2012	Player 310 accepted offer
Sun Dec 02 12:26:28 IST 2012	Prop accepted, set counter offers count to: 0
Sun Dec 02 12:26:28 IST 2012	Prop accepted, get counter offers returned: 0
Sun Dec 02 12:26:28 IST 2012	A Phase Ended: Communication Phase
Sun Dec 02 12:26:28 IST 2012	Protocol: A New Phase Began: Exchange Phase
Sun Dec 02 12:26:28 IST 2012	Protocol: Exchange phase, Round: 2
Sun Dec 02 12:26:28 IST 2012	In begin exch.phase, get counter offers returned: 0
Sun Dec 02 12:26:57 IST 2012	A Phase Ended: Exchange Phase
Sun Dec 02 12:26:57 IST 2012	Proposer 337 sent: { chips  'CTRed':0 'CTPurple':0 'CTGreen':0 'grey78':0 'CTYellow':1 }
Sun Dec 02 12:26:57 IST 2012	Responder 310 sent: { chips  'CTRed':0 'CTPurple':0 'CTGreen':0 'grey78':1 'CTYellow':0 }
Sun Dec 02 12:26:57 IST 2012	Protocol: A New Phase Began: Movement Phase
Sun Dec 02 12:26:57 IST 2012	Protocol: Movement phase, Round: 2
Sun Dec 02 12:26:57 IST 2012	Player 337 moved to (R:6,C:1)
Sun Dec 02 12:26:57 IST 2012	Player 310 moved to (R:6,C:3)
Sun Dec 02 12:27:17 IST 2012	A Phase Ended: Movement Phase
Sun Dec 02 12:27:17 IST 2012	Swaping roles:
Sun Dec 02 12:27:17 IST 2012	Proposer is: 310
Sun Dec 02 12:27:17 IST 2012	Responder is: 337
Sun Dec 02 12:27:17 IST 2012	Protocol: A New Phase Began: Feedback Phase
Sun Dec 02 12:27:17 IST 2012	Protocol: Feedback phase, Round: 2
Sun Dec 02 12:27:17 IST 2012	Number of consecutive no movements for player 337 is 0
Sun Dec 02 12:27:17 IST 2012	Number of consecutive no movements for player 310 is 0
Sun Dec 02 12:27:22 IST 2012	A Phase Ended: Feedback Phase
Sun Dec 02 12:27:22 IST 2012	Protocol: A New Phase Began: Communication Phase
Sun Dec 02 12:27:22 IST 2012	Protocol: Communication phase, Round: 3
Sun Dec 02 12:27:35 IST 2012	Received communication message 
Sun Dec 02 12:27:35 IST 2012	From player: 310
Sun Dec 02 12:27:35 IST 2012	To player: 337
Sun Dec 02 12:27:35 IST 2012	Message type: basicproposal
Sun Dec 02 12:27:35 IST 2012	Chips to send by proposer: { chips  'CTRed':0 'CTPurple':0 'CTGreen':2 'grey78':1 'CTYellow':0 }
Sun Dec 02 12:27:35 IST 2012	Chips to send by responder: { chips  'CTRed':0 'CTPurple':0 'CTGreen':0 'grey78':0 'CTYellow':1 }
Sun Dec 02 12:28:02 IST 2012	Received communication message 
Sun Dec 02 12:28:02 IST 2012	From player: 337
Sun Dec 02 12:28:02 IST 2012	To player: 310
Sun Dec 02 12:28:02 IST 2012	Message type: basicproposaldiscussion
Sun Dec 02 12:28:02 IST 2012	Player 337 accepted offer
Sun Dec 02 12:28:02 IST 2012	Prop accepted, set counter offers count to: 0
Sun Dec 02 12:28:02 IST 2012	Prop accepted, get counter offers returned: 0
Sun Dec 02 12:28:02 IST 2012	A Phase Ended: Communication Phase
Sun Dec 02 12:28:02 IST 2012	Protocol: A New Phase Began: Exchange Phase
Sun Dec 02 12:28:02 IST 2012	Protocol: Exchange phase, Round: 3
Sun Dec 02 12:28:02 IST 2012	In begin exch.phase, get counter offers returned: 0
Sun Dec 02 12:28:24 IST 2012	A Phase Ended: Exchange Phase
Sun Dec 02 12:28:24 IST 2012	Proposer 310 sent: { chips  }
Sun Dec 02 12:28:24 IST 2012	Responder 337 sent: { chips  'CTRed':0 'CTPurple':0 'CTGreen':0 'grey78':0 'CTYellow':1 }
Sun Dec 02 12:28:24 IST 2012	Protocol: A New Phase Began: Movement Phase
Sun Dec 02 12:28:24 IST 2012	Protocol: Movement phase, Round: 3
Sun Dec 02 12:28:24 IST 2012	Player 310 moved to (R:5,C:3)
Sun Dec 02 12:28:44 IST 2012	A Phase Ended: Movement Phase
Sun Dec 02 12:28:44 IST 2012	Swaping roles:
Sun Dec 02 12:28:44 IST 2012	Proposer is: 337
Sun Dec 02 12:28:44 IST 2012	Responder is: 310
Sun Dec 02 12:28:44 IST 2012	Protocol: A New Phase Began: Feedback Phase
Sun Dec 02 12:28:44 IST 2012	Protocol: Feedback phase, Round: 3
Sun Dec 02 12:28:44 IST 2012	Number of consecutive no movements for player 337 is 1
Sun Dec 02 12:28:44 IST 2012	Number of consecutive no movements for player 310 is 0
Sun Dec 02 12:28:49 IST 2012	A Phase Ended: Feedback Phase
Sun Dec 02 12:28:49 IST 2012	Protocol: A New Phase Began: Communication Phase
Sun Dec 02 12:28:49 IST 2012	Protocol: Communication phase, Round: 4
Sun Dec 02 12:29:49 IST 2012	Received communication message 
Sun Dec 02 12:29:49 IST 2012	From player: 337
Sun Dec 02 12:29:49 IST 2012	To player: 310
Sun Dec 02 12:29:49 IST 2012	Message type: basicproposal
Sun Dec 02 12:29:49 IST 2012	Chips to send by proposer: { chips  'CTYellow':1 }
Sun Dec 02 12:29:49 IST 2012	Chips to send by responder: { chips  'grey78':1 }
Sun Dec 02 12:29:57 IST 2012	Received communication message 
Sun Dec 02 12:29:57 IST 2012	From player: 310
Sun Dec 02 12:29:57 IST 2012	To player: 337
Sun Dec 02 12:29:57 IST 2012	Message type: basicproposaldiscussion
Sun Dec 02 12:29:57 IST 2012	Player 310 accepted offer
Sun Dec 02 12:29:57 IST 2012	Prop accepted, set counter offers count to: 0
Sun Dec 02 12:29:57 IST 2012	Prop accepted, get counter offers returned: 0
Sun Dec 02 12:29:57 IST 2012	A Phase Ended: Communication Phase
Sun Dec 02 12:29:57 IST 2012	Protocol: A New Phase Began: Exchange Phase
Sun Dec 02 12:29:57 IST 2012	Protocol: Exchange phase, Round: 4
Sun Dec 02 12:29:57 IST 2012	In begin exch.phase, get counter offers returned: 0
Sun Dec 02 12:30:16 IST 2012	A Phase Ended: Exchange Phase
Sun Dec 02 12:30:16 IST 2012	Proposer 337 sent: { chips  'CTRed':0 'CTPurple':0 'CTGreen':0 'grey78':0 'CTYellow':1 }
Sun Dec 02 12:30:16 IST 2012	Responder 310 sent: { chips  }
Sun Dec 02 12:30:16 IST 2012	Protocol: A New Phase Began: Movement Phase
Sun Dec 02 12:30:16 IST 2012	Protocol: Movement phase, Round: 4
Sun Dec 02 12:30:16 IST 2012	Player 310 moved to (R:4,C:3)
Sun Dec 02 12:30:36 IST 2012	A Phase Ended: Movement Phase
Sun Dec 02 12:30:36 IST 2012	Swaping roles:
Sun Dec 02 12:30:36 IST 2012	Proposer is: 310
Sun Dec 02 12:30:36 IST 2012	Responder is: 337
Sun Dec 02 12:30:36 IST 2012	Protocol: A New Phase Began: Feedback Phase
Sun Dec 02 12:30:36 IST 2012	Protocol: Feedback phase, Round: 4
Sun Dec 02 12:30:36 IST 2012	Number of consecutive no movements for player 337 is 2
Sun Dec 02 12:30:36 IST 2012	Number of consecutive no movements for player 310 is 0
Sun Dec 02 12:30:41 IST 2012	A Phase Ended: Feedback Phase
Sun Dec 02 12:30:41 IST 2012	Protocol: A New Phase Began: Communication Phase
Sun Dec 02 12:30:41 IST 2012	Protocol: Communication phase, Round: 5
Sun Dec 02 12:30:54 IST 2012	Received communication message 
Sun Dec 02 12:30:54 IST 2012	From player: 310
Sun Dec 02 12:30:54 IST 2012	To player: 337
Sun Dec 02 12:30:54 IST 2012	Message type: basicproposal
Sun Dec 02 12:30:54 IST 2012	Chips to send by proposer: { chips  'CTRed':0 'CTPurple':0 'CTGreen':0 'grey78':1 'CTYellow':0 }
Sun Dec 02 12:30:54 IST 2012	Chips to send by responder: { chips  'CTRed':0 'CTPurple':0 'CTGreen':3 'grey78':0 'CTYellow':0 }
Sun Dec 02 12:31:30 IST 2012	Received communication message 
Sun Dec 02 12:31:30 IST 2012	From player: 337
Sun Dec 02 12:31:30 IST 2012	To player: 310
Sun Dec 02 12:31:30 IST 2012	Message type: basicproposaldiscussion
Sun Dec 02 12:31:30 IST 2012	Player 337 rejected offer
Sun Dec 02 12:31:30 IST 2012	Swaping roles:
Sun Dec 02 12:31:30 IST 2012	Proposer is: 337
Sun Dec 02 12:31:30 IST 2012	Responder is: 310
Sun Dec 02 12:31:30 IST 2012	Prop rejected, set counter offers count to: 1
Sun Dec 02 12:31:30 IST 2012	Prop rejected, get counter offers returned: 1
Sun Dec 02 12:31:34 IST 2012	Slept 4 seconds
Sun Dec 02 12:31:34 IST 2012	Sent role changed msgs
Sun Dec 02 12:32:34 IST 2012	Received communication message 
Sun Dec 02 12:32:34 IST 2012	From player: 337
Sun Dec 02 12:32:34 IST 2012	To player: 310
Sun Dec 02 12:32:34 IST 2012	Message type: basicproposal
Sun Dec 02 12:32:34 IST 2012	Chips to send by proposer: { chips  'CTRed':0 'CTPurple':0 'CTGreen':1 'grey78':0 'CTYellow':0 }
Sun Dec 02 12:32:34 IST 2012	Chips to send by responder: { chips  'CTRed':0 'CTPurple':0 'CTGreen':0 'grey78':1 'CTYellow':0 }
Sun Dec 02 12:32:43 IST 2012	Received communication message 
Sun Dec 02 12:32:43 IST 2012	From player: 310
Sun Dec 02 12:32:43 IST 2012	To player: 337
Sun Dec 02 12:32:43 IST 2012	Message type: basicproposaldiscussion
Sun Dec 02 12:32:43 IST 2012	Player 310 accepted offer
Sun Dec 02 12:32:43 IST 2012	Prop accepted, set counter offers count to: 0
Sun Dec 02 12:32:43 IST 2012	Prop accepted, get counter offers returned: 0
Sun Dec 02 12:32:43 IST 2012	A Phase Ended: Communication Phase
Sun Dec 02 12:32:43 IST 2012	Protocol: A New Phase Began: Exchange Phase
Sun Dec 02 12:32:43 IST 2012	Protocol: Exchange phase, Round: 5
Sun Dec 02 12:32:43 IST 2012	In begin exch.phase, get counter offers returned: 0
Sun Dec 02 12:33:09 IST 2012	A Phase Ended: Exchange Phase
Sun Dec 02 12:33:09 IST 2012	Proposer 337 sent: { chips  'CTRed':0 'CTPurple':0 'CTGreen':1 'grey78':0 'CTYellow':0 }
Sun Dec 02 12:33:09 IST 2012	Responder 310 sent: { chips  }
Sun Dec 02 12:33:09 IST 2012	Protocol: A New Phase Began: Movement Phase
Sun Dec 02 12:33:09 IST 2012	Protocol: Movement phase, Round: 5
Sun Dec 02 12:33:09 IST 2012	Player 310 moved to (R:3,C:3)
Sun Dec 02 12:33:09 IST 2012	Player 337 moved to (R:5,C:1)
Sun Dec 02 12:33:29 IST 2012	A Phase Ended: Movement Phase
Sun Dec 02 12:33:29 IST 2012	Protocol: A New Phase Began: Feedback Phase
Sun Dec 02 12:33:29 IST 2012	Protocol: Feedback phase, Round: 5
Sun Dec 02 12:33:29 IST 2012	Number of consecutive no movements for player 337 is 0
Sun Dec 02 12:33:29 IST 2012	Number of consecutive no movements for player 310 is 0
Sun Dec 02 12:33:34 IST 2012	A Phase Ended: Feedback Phase
Sun Dec 02 12:33:34 IST 2012	Protocol: A New Phase Began: Communication Phase
Sun Dec 02 12:33:34 IST 2012	Protocol: Communication phase, Round: 6
Sun Dec 02 12:34:34 IST 2012	Received communication message 
Sun Dec 02 12:34:34 IST 2012	From player: 337
Sun Dec 02 12:34:34 IST 2012	To player: 310
Sun Dec 02 12:34:34 IST 2012	Message type: basicproposal
Sun Dec 02 12:34:34 IST 2012	Chips to send by proposer: { chips  'CTYellow':1 }
Sun Dec 02 12:34:34 IST 2012	Chips to send by responder: { chips  'grey78':1 }
Sun Dec 02 12:34:43 IST 2012	Received communication message 
Sun Dec 02 12:34:43 IST 2012	From player: 310
Sun Dec 02 12:34:43 IST 2012	To player: 337
Sun Dec 02 12:34:43 IST 2012	Message type: basicproposaldiscussion
Sun Dec 02 12:34:43 IST 2012	Player 310 accepted offer
Sun Dec 02 12:34:43 IST 2012	Prop accepted, set counter offers count to: 0
Sun Dec 02 12:34:43 IST 2012	Prop accepted, get counter offers returned: 0
Sun Dec 02 12:34:43 IST 2012	A Phase Ended: Communication Phase
Sun Dec 02 12:34:43 IST 2012	Protocol: A New Phase Began: Exchange Phase
Sun Dec 02 12:34:43 IST 2012	Protocol: Exchange phase, Round: 6
Sun Dec 02 12:34:43 IST 2012	In begin exch.phase, get counter offers returned: 0
Sun Dec 02 12:35:04 IST 2012	A Phase Ended: Exchange Phase
Sun Dec 02 12:35:04 IST 2012	Proposer 337 sent: { chips  'CTRed':0 'CTPurple':0 'CTGreen':0 'grey78':0 'CTYellow':1 }
Sun Dec 02 12:35:04 IST 2012	Responder 310 sent: { chips  }
Sun Dec 02 12:35:04 IST 2012	Protocol: A New Phase Began: Movement Phase
Sun Dec 02 12:35:04 IST 2012	Protocol: Movement phase, Round: 6
Sun Dec 02 12:35:04 IST 2012	Player 310 moved to (R:2,C:3)
Sun Dec 02 12:35:23 IST 2012	A Phase Ended: Movement Phase
Sun Dec 02 12:35:23 IST 2012	Swaping roles:
Sun Dec 02 12:35:23 IST 2012	Proposer is: 310
Sun Dec 02 12:35:23 IST 2012	Responder is: 337
Sun Dec 02 12:35:23 IST 2012	Protocol: A New Phase Began: Feedback Phase
Sun Dec 02 12:35:23 IST 2012	Protocol: Feedback phase, Round: 6
Sun Dec 02 12:35:23 IST 2012	Number of consecutive no movements for player 337 is 1
Sun Dec 02 12:35:23 IST 2012	Number of consecutive no movements for player 310 is 0
Sun Dec 02 12:35:28 IST 2012	A Phase Ended: Feedback Phase
Sun Dec 02 12:35:28 IST 2012	Protocol: A New Phase Began: Communication Phase
Sun Dec 02 12:35:28 IST 2012	Protocol: Communication phase, Round: 7
Sun Dec 02 12:35:44 IST 2012	Received communication message 
Sun Dec 02 12:35:44 IST 2012	From player: 310
Sun Dec 02 12:35:44 IST 2012	To player: 337
Sun Dec 02 12:35:44 IST 2012	Message type: basicproposal
Sun Dec 02 12:35:44 IST 2012	Chips to send by proposer: { chips  'CTRed':0 'CTPurple':0 'CTGreen':0 'grey78':1 'CTYellow':0 }
Sun Dec 02 12:35:44 IST 2012	Chips to send by responder: { chips  'CTRed':0 'CTPurple':0 'CTGreen':3 'grey78':0 'CTYellow':0 }
Sun Dec 02 12:36:09 IST 2012	Received communication message 
Sun Dec 02 12:36:09 IST 2012	From player: 337
Sun Dec 02 12:36:09 IST 2012	To player: 310
Sun Dec 02 12:36:09 IST 2012	Message type: basicproposaldiscussion
Sun Dec 02 12:36:09 IST 2012	Player 337 rejected offer
Sun Dec 02 12:36:09 IST 2012	Swaping roles:
Sun Dec 02 12:36:09 IST 2012	Proposer is: 337
Sun Dec 02 12:36:09 IST 2012	Responder is: 310
Sun Dec 02 12:36:09 IST 2012	Prop rejected, set counter offers count to: 1
Sun Dec 02 12:36:09 IST 2012	Prop rejected, get counter offers returned: 1
Sun Dec 02 12:36:13 IST 2012	Slept 4 seconds
Sun Dec 02 12:36:13 IST 2012	Sent role changed msgs
Sun Dec 02 12:37:13 IST 2012	Received communication message 
Sun Dec 02 12:37:13 IST 2012	From player: 337
Sun Dec 02 12:37:13 IST 2012	To player: 310
Sun Dec 02 12:37:13 IST 2012	Message type: basicproposal
Sun Dec 02 12:37:13 IST 2012	Chips to send by proposer: { chips  'CTRed':0 'CTPurple':0 'CTGreen':0 'grey78':0 'CTYellow':1 }
Sun Dec 02 12:37:13 IST 2012	Chips to send by responder: { chips  'CTRed':0 'CTPurple':0 'CTGreen':0 'grey78':1 'CTYellow':0 }
Sun Dec 02 12:37:23 IST 2012	Received communication message 
Sun Dec 02 12:37:23 IST 2012	From player: 310
Sun Dec 02 12:37:23 IST 2012	To player: 337
Sun Dec 02 12:37:23 IST 2012	Message type: basicproposaldiscussion
Sun Dec 02 12:37:23 IST 2012	Player 310 accepted offer
Sun Dec 02 12:37:23 IST 2012	Prop accepted, set counter offers count to: 0
Sun Dec 02 12:37:23 IST 2012	Prop accepted, get counter offers returned: 0
Sun Dec 02 12:37:23 IST 2012	A Phase Ended: Communication Phase
Sun Dec 02 12:37:23 IST 2012	Protocol: A New Phase Began: Exchange Phase
Sun Dec 02 12:37:23 IST 2012	Protocol: Exchange phase, Round: 7
Sun Dec 02 12:37:23 IST 2012	In begin exch.phase, get counter offers returned: 0
Sun Dec 02 12:37:43 IST 2012	A Phase Ended: Exchange Phase
Sun Dec 02 12:37:43 IST 2012	Proposer 337 sent: { chips  'CTRed':0 'CTPurple':0 'CTGreen':0 'grey78':0 'CTYellow':1 }
Sun Dec 02 12:37:43 IST 2012	Responder 310 sent: { chips  }
Sun Dec 02 12:37:43 IST 2012	Protocol: A New Phase Began: Movement Phase
Sun Dec 02 12:37:43 IST 2012	Protocol: Movement phase, Round: 7
Sun Dec 02 12:37:43 IST 2012	Player 310 moved to (R:1,C:3)
Sun Dec 02 12:38:02 IST 2012	A Phase Ended: Movement Phase
Sun Dec 02 12:38:02 IST 2012	Protocol: A New Phase Began: Feedback Phase
Sun Dec 02 12:38:02 IST 2012	Protocol: Feedback phase, Round: 7
Sun Dec 02 12:38:02 IST 2012	Number of consecutive no movements for player 337 is 2
Sun Dec 02 12:38:02 IST 2012	Number of consecutive no movements for player 310 is 0
Sun Dec 02 12:38:08 IST 2012	A Phase Ended: Feedback Phase
Sun Dec 02 12:38:08 IST 2012	Protocol: A New Phase Began: Communication Phase
Sun Dec 02 12:38:08 IST 2012	Protocol: Communication phase, Round: 8
Sun Dec 02 12:39:08 IST 2012	Received communication message 
Sun Dec 02 12:39:08 IST 2012	From player: 337
Sun Dec 02 12:39:08 IST 2012	To player: 310
Sun Dec 02 12:39:08 IST 2012	Message type: basicproposal
Sun Dec 02 12:39:08 IST 2012	Chips to send by proposer: { chips  'CTGreen':1 }
Sun Dec 02 12:39:08 IST 2012	Chips to send by responder: { chips  'grey78':1 }
Sun Dec 02 12:39:17 IST 2012	Received communication message 
Sun Dec 02 12:39:17 IST 2012	From player: 310
Sun Dec 02 12:39:17 IST 2012	To player: 337
Sun Dec 02 12:39:17 IST 2012	Message type: basicproposaldiscussion
Sun Dec 02 12:39:17 IST 2012	Player 310 accepted offer
Sun Dec 02 12:39:17 IST 2012	Prop accepted, set counter offers count to: 0
Sun Dec 02 12:39:17 IST 2012	Prop accepted, get counter offers returned: 0
Sun Dec 02 12:39:17 IST 2012	A Phase Ended: Communication Phase
Sun Dec 02 12:39:17 IST 2012	Protocol: A New Phase Began: Exchange Phase
Sun Dec 02 12:39:17 IST 2012	Protocol: Exchange phase, Round: 8
Sun Dec 02 12:39:17 IST 2012	In begin exch.phase, get counter offers returned: 0
Sun Dec 02 12:39:32 IST 2012	A Phase Ended: Exchange Phase
Sun Dec 02 12:39:32 IST 2012	Proposer 337 sent: { chips  'CTRed':0 'CTPurple':0 'CTGreen':1 'grey78':0 'CTYellow':0 }
Sun Dec 02 12:39:32 IST 2012	Responder 310 sent: { chips  }
Sun Dec 02 12:39:32 IST 2012	Protocol: A New Phase Began: Movement Phase
Sun Dec 02 12:39:32 IST 2012	Protocol: Movement phase, Round: 8
Sun Dec 02 12:39:32 IST 2012	Player 310 moved to (R:0,C:3)
Sun Dec 02 12:39:32 IST 2012	Player 337 moved to (R:4,C:1)
Sun Dec 02 12:39:52 IST 2012	A Phase Ended: Movement Phase
Sun Dec 02 12:39:52 IST 2012	Swaping roles:
Sun Dec 02 12:39:52 IST 2012	Proposer is: 310
Sun Dec 02 12:39:52 IST 2012	Responder is: 337
Sun Dec 02 12:39:52 IST 2012	Protocol: A New Phase Began: Feedback Phase
Sun Dec 02 12:39:52 IST 2012	Protocol: Feedback phase, Round: 8
Sun Dec 02 12:39:52 IST 2012	Number of consecutive no movements for player 337 is 0
Sun Dec 02 12:39:52 IST 2012	Number of consecutive no movements for player 310 is 0
Sun Dec 02 12:39:57 IST 2012	A Phase Ended: Feedback Phase
Sun Dec 02 12:39:57 IST 2012	Protocol: A New Phase Began: Communication Phase
Sun Dec 02 12:39:57 IST 2012	Protocol: Communication phase, Round: 9
Sun Dec 02 12:40:15 IST 2012	Received communication message 
Sun Dec 02 12:40:15 IST 2012	From player: 310
Sun Dec 02 12:40:15 IST 2012	To player: 337
Sun Dec 02 12:40:15 IST 2012	Message type: basicproposal
Sun Dec 02 12:40:15 IST 2012	Chips to send by proposer: { chips  'CTRed':0 'CTPurple':0 'CTGreen':0 'grey78':1 'CTYellow':0 }
Sun Dec 02 12:40:15 IST 2012	Chips to send by responder: { chips  'CTRed':0 'CTPurple':0 'CTGreen':3 'grey78':0 'CTYellow':0 }
Sun Dec 02 12:40:29 IST 2012	Received communication message 
Sun Dec 02 12:40:29 IST 2012	From player: 337
Sun Dec 02 12:40:29 IST 2012	To player: 310
Sun Dec 02 12:40:29 IST 2012	Message type: basicproposaldiscussion
Sun Dec 02 12:40:29 IST 2012	Player 337 rejected offer
Sun Dec 02 12:40:29 IST 2012	Swaping roles:
Sun Dec 02 12:40:29 IST 2012	Proposer is: 337
Sun Dec 02 12:40:29 IST 2012	Responder is: 310
Sun Dec 02 12:40:29 IST 2012	Prop rejected, set counter offers count to: 1
Sun Dec 02 12:40:29 IST 2012	Prop rejected, get counter offers returned: 1
Sun Dec 02 12:40:33 IST 2012	Slept 4 seconds
Sun Dec 02 12:40:33 IST 2012	Sent role changed msgs
Sun Dec 02 12:41:15 IST 2012	Received communication message 
Sun Dec 02 12:41:15 IST 2012	From player: 337
Sun Dec 02 12:41:15 IST 2012	To player: 310
Sun Dec 02 12:41:15 IST 2012	Message type: basicproposal
Sun Dec 02 12:41:15 IST 2012	Chips to send by proposer: { chips  'CTRed':0 'CTPurple':0 'CTGreen':1 'grey78':0 'CTYellow':0 }
Sun Dec 02 12:41:15 IST 2012	Chips to send by responder: { chips  'CTRed':0 'CTPurple':0 'CTGreen':0 'grey78':1 'CTYellow':0 }
Sun Dec 02 12:41:23 IST 2012	Received communication message 
Sun Dec 02 12:41:23 IST 2012	From player: 310
Sun Dec 02 12:41:23 IST 2012	To player: 337
Sun Dec 02 12:41:23 IST 2012	Message type: basicproposaldiscussion
Sun Dec 02 12:41:23 IST 2012	Player 310 accepted offer
Sun Dec 02 12:41:23 IST 2012	Prop accepted, set counter offers count to: 0
Sun Dec 02 12:41:23 IST 2012	Prop accepted, get counter offers returned: 0
Sun Dec 02 12:41:23 IST 2012	A Phase Ended: Communication Phase
Sun Dec 02 12:41:23 IST 2012	Protocol: A New Phase Began: Exchange Phase
Sun Dec 02 12:41:23 IST 2012	Protocol: Exchange phase, Round: 9
Sun Dec 02 12:41:23 IST 2012	In begin exch.phase, get counter offers returned: 0
Sun Dec 02 12:41:34 IST 2012	A Phase Ended: Exchange Phase
Sun Dec 02 12:41:34 IST 2012	Proposer 337 sent: { chips  'CTRed':0 'CTPurple':0 'CTGreen':1 'grey78':0 'CTYellow':0 }
Sun Dec 02 12:41:34 IST 2012	Responder 310 sent: { chips  }
Sun Dec 02 12:41:34 IST 2012	Protocol: A New Phase Began: Movement Phase
Sun Dec 02 12:41:34 IST 2012	Protocol: Movement phase, Round: 9
Sun Dec 02 12:41:34 IST 2012	Player 310 moved to (R:0,C:2)
Sun Dec 02 12:41:39 IST 2012	Slept 4 seconds
Sun Dec 02 12:41:39 IST 2012	Player 310 got to goal, advance the other and end game
Sun Dec 02 12:41:39 IST 2012	Player: 310 ,role: Responder score is: 215
Sun Dec 02 12:41:39 IST 2012	Player: 337 ,role: Proposer score is: 30
