filename,round,propID,respID,IsPropCustomer,chipsToSend,chipsToReceive,accept,propCurrentScore,respCurrentScore,actualSent,ActualRcvd,propResultingScore,respResultingScore,#ofCustomerMovesInRound,customerRowPositionAfterMovePhase,customerColPositionAfterMovePhase,Player100ChipsAfterMovePhase,Player100ScoreAfterMovePhase,Player200ChipsAfterMovePhase,Player200ScoreAfterMovePhase,Player300ChipsAfterMovePhase,Player300ScoreAfterMovePhase,generosityLevel,ClientReachedGoal
3playersLog_1386749571706.csv,1,,,,,,,,,,,,,0,(R:5,C:4),{ chips  'CTRed':0 'CTGreen':0 'CTPurple':0 'grey78':12 'CTYellow':12 },120,{ chips  'CTRed':33 'CTGreen':0 'CTPurple':7 'grey78':0 'CTYellow':0 },200,{ chips  'CTRed':33 'CTGreen':0 'CTPurple':7 'grey78':0 'CTYellow':0 },200
3playersLog_1386749571706.csv,2,510,540,true,{ chips  'CTYellow':11 },{ chips  'CTRed':33 'CTPurple':7 },FALSE,120,200,,,,,1,(R:5,C:3),{ chips  'CTRed':0 'CTGreen':0 'CTPurple':0 'grey78':11 'CTYellow':12 },115,{ chips  'CTRed':33 'CTGreen':0 'CTPurple':7 'grey78':0 'CTYellow':0 },200,{ chips  'CTRed':33 'CTGreen':0 'CTPurple':7 'grey78':0 'CTYellow':0 },200
3playersLog_1386749571706.csv,3,,,,,,,,,,,,,0,(R:5,C:3),{ chips  'CTRed':0 'CTGreen':0 'CTPurple':0 'grey78':11 'CTYellow':12 },115,{ chips  'CTRed':33 'CTGreen':0 'CTPurple':7 'grey78':0 'CTYellow':0 },200,{ chips  'CTRed':33 'CTGreen':0 'CTPurple':7 'grey78':0 'CTYellow':0 },200
3playersLog_1386749571706.csv,4,510,540,true,{ chips  'CTYellow':11 },{ chips  'CTRed':33 'CTPurple':7 },FALSE,115,200,,,,,1,(R:4,C:3),{ chips  'CTRed':0 'CTGreen':0 'CTPurple':0 'grey78':10 'CTYellow':12 },110,{ chips  'CTRed':33 'CTGreen':0 'CTPurple':7 'grey78':0 'CTYellow':0 },200,{ chips  'CTRed':33 'CTGreen':0 'CTPurple':7 'grey78':0 'CTYellow':0 },200
3playersLog_1386749571706.csv,5,520,510,false,{ chips  'CTPurple':3 },{ chips  },TRUE,200,110,{ chips  'CTRed':0 'CTPurple':3 'CTGreen':0 'grey78':0 'CTYellow':0 },{ chips  'CTRed':0 'CTPurple':0 'CTGreen':0 'grey78':0 'CTYellow':0 },185,125,0,(R:4,C:3),{ chips  'CTRed':0 'CTGreen':0 'CTPurple':3 'grey78':10 'CTYellow':12 },125,{ chips  'CTRed':33 'CTGreen':0 'CTPurple':4 'grey78':0 'CTYellow':0 },185,{ chips  'CTRed':33 'CTGreen':0 'CTPurple':7 'grey78':0 'CTYellow':0 },200
3playersLog_1386749571706.csv,6,510,540,true,{ chips  'CTYellow':11 },{ chips  'CTRed':33 'CTPurple':7 },FALSE,125,200,,,,,1,(R:3,C:3),{ chips  'CTRed':0 'CTGreen':0 'CTPurple':2 'grey78':10 'CTYellow':12 },120,{ chips  'CTRed':33 'CTGreen':0 'CTPurple':4 'grey78':0 'CTYellow':0 },185,{ chips  'CTRed':33 'CTGreen':0 'CTPurple':7 'grey78':0 'CTYellow':0 },200
3playersLog_1386749571706.csv,7,,,,,,,,,,,,,0,(R:3,C:3),{ chips  'CTRed':0 'CTGreen':0 'CTPurple':2 'grey78':10 'CTYellow':12 },120,{ chips  'CTRed':33 'CTGreen':0 'CTPurple':4 'grey78':0 'CTYellow':0 },185,{ chips  'CTRed':33 'CTGreen':0 'CTPurple':7 'grey78':0 'CTYellow':0 },200
3playersLog_1386749571706.csv,8,510,540,true,{ chips  'CTYellow':11 },{ chips  'CTRed':33 'CTPurple':7 },FALSE,120,200,,,,,1,(R:3,C:2),{ chips  'CTRed':0 'CTGreen':0 'CTPurple':2 'grey78':9 'CTYellow':12 },115,{ chips  'CTRed':33 'CTGreen':0 'CTPurple':4 'grey78':0 'CTYellow':0 },185,{ chips  'CTRed':33 'CTGreen':0 'CTPurple':7 'grey78':0 'CTYellow':0 },200
3playersLog_1386749571706.csv,9,,,,,,,,,,,,,0,(R:3,C:2),{ chips  'CTRed':0 'CTGreen':0 'CTPurple':2 'grey78':9 'CTYellow':12 },115,{ chips  'CTRed':33 'CTGreen':0 'CTPurple':4 'grey78':0 'CTYellow':0 },185,{ chips  'CTRed':33 'CTGreen':0 'CTPurple':7 'grey78':0 'CTYellow':0 },200
3playersLog_1386749571706.csv,10,510,540,true,{ chips  'CTYellow':11 },{ chips  'CTRed':33 'CTPurple':7 },FALSE,115,200,,,,,1,(R:3,C:1),{ chips  'CTRed':0 'CTGreen':0 'CTPurple':2 'grey78':8 'CTYellow':12 },110,{ chips  'CTRed':33 'CTGreen':0 'CTPurple':4 'grey78':0 'CTYellow':0 },185,{ chips  'CTRed':33 'CTGreen':0 'CTPurple':7 'grey78':0 'CTYellow':0 },200
3playersLog_1386749571706.csv,11,,,,,,,,,,,,,0,(R:3,C:1),{ chips  'CTRed':0 'CTGreen':0 'CTPurple':2 'grey78':8 'CTYellow':12 },110,{ chips  'CTRed':33 'CTGreen':0 'CTPurple':4 'grey78':0 'CTYellow':0 },185,{ chips  'CTRed':33 'CTGreen':0 'CTPurple':7 'grey78':0 'CTYellow':0 },200
3playersLog_1386749571706.csv,12,510,540,true,{ chips  'CTYellow':11 },{ chips  'CTRed':33 'CTPurple':7 },FALSE,110,200,,,,,1,(R:2,C:1),{ chips  'CTRed':0 'CTGreen':0 'CTPurple':2 'grey78':7 'CTYellow':12 },105,{ chips  'CTRed':33 'CTGreen':0 'CTPurple':4 'grey78':0 'CTYellow':0 },185,{ chips  'CTRed':33 'CTGreen':0 'CTPurple':7 'grey78':0 'CTYellow':0 },200
3playersLog_1386749571706.csv,13,,,,,,,,,,,,,0,(R:2,C:1),{ chips  'CTRed':0 'CTGreen':0 'CTPurple':2 'grey78':7 'CTYellow':12 },105,{ chips  'CTRed':33 'CTGreen':0 'CTPurple':4 'grey78':0 'CTYellow':0 },185,{ chips  'CTRed':33 'CTGreen':0 'CTPurple':7 'grey78':0 'CTYellow':0 },200
3playersLog_1386749571706.csv,14,510,540,true,{ chips  'CTYellow':11 },{ chips  'CTRed':33 'CTPurple':7 },FALSE,105,200,,,,,1,(R:1,C:1),{ chips  'CTRed':0 'CTGreen':0 'CTPurple':1 'grey78':7 'CTYellow':12 },100,{ chips  'CTRed':33 'CTGreen':0 'CTPurple':4 'grey78':0 'CTYellow':0 },185,{ chips  'CTRed':33 'CTGreen':0 'CTPurple':7 'grey78':0 'CTYellow':0 },200
3playersLog_1386749571706.csv,15,,,,,,,,,,,,,0,(R:1,C:1),{ chips  'CTRed':0 'CTGreen':0 'CTPurple':1 'grey78':7 'CTYellow':12 },100,{ chips  'CTRed':33 'CTGreen':0 'CTPurple':4 'grey78':0 'CTYellow':0 },185,{ chips  'CTRed':33 'CTGreen':0 'CTPurple':7 'grey78':0 'CTYellow':0 },200
3playersLog_1386749571706.csv,16,510,540,true,{ chips  'CTYellow':11 },{ chips  'CTRed':33 'CTPurple':7 },FALSE,100,200,,,,,1,(R:1,C:0),{ chips  'CTRed':0 'CTGreen':0 'CTPurple':1 'grey78':6 'CTYellow':12 },95,{ chips  'CTRed':33 'CTGreen':0 'CTPurple':4 'grey78':0 'CTYellow':0 },185,{ chips  'CTRed':33 'CTGreen':0 'CTPurple':7 'grey78':0 'CTYellow':0 },200
3playersLog_1386749571706.csv,17,,,,,,,,,,,,,0,(R:1,C:0),{ chips  'CTRed':0 'CTGreen':0 'CTPurple':1 'grey78':6 'CTYellow':12 },95,{ chips  'CTRed':33 'CTGreen':0 'CTPurple':4 'grey78':0 'CTYellow':0 },185,{ chips  'CTRed':33 'CTGreen':0 'CTPurple':7 'grey78':0 'CTYellow':0 },200
3playersLog_1386749571706.csv,18,510,540,true,{ chips  'CTYellow':11 },{ chips  'CTRed':33 'CTPurple':7 },FALSE,95,200,,,,,1,(R:0,C:0),{ chips  'CTRed':0 'CTGreen':0 'CTPurple':1 'grey78':5 'CTYellow':12 },240,{ chips  'CTRed':33 'CTGreen':0 'CTPurple':4 'grey78':0 'CTYellow':0 },185,{ chips  'CTRed':33 'CTGreen':0 'CTPurple':7 'grey78':0 'CTYellow':0 },350
3playersLog_1386749571706.csv,,,,,,,,,,,,,,,,,,,,,,,,true
