filename,round,propID,respID,IsPropCustomer,chipsToSend,chipsToReceive,accept,propCurrentScore,respCurrentScore,actualSent,ActualRcvd,propResultingScore,respResultingScore,#ofCustomerMovesInRound,customerRowPositionAfterMovePhase,customerColPositionAfterMovePhase,Player100ChipsAfterMovePhase,Player100ScoreAfterMovePhase,Player200ChipsAfterMovePhase,Player200ScoreAfterMovePhase,Player300ChipsAfterMovePhase,Player300ScoreAfterMovePhase,generosityLevel,ClientReachedGoal
CT_DbgLog_Agent_24_1_2013_11_17_132.72.64.177.csv,1,300,100,false,{ chips  'CTYellow':4 },{ chips  'CTRed':2 },TRUE,245,0,{ chips  'CTRed':0 'CTPurple':0 'CTGreen':0 'grey78':0 'CTYellow':4 },{ chips  'CTRed':2 'CTPurple':0 'CTGreen':0 'grey78':0 'CTYellow':0 },235,10,1,(R:5,C:5),{ chips  'CTRed':16 'CTGreen':0 'CTPurple':0 'grey78':0 'CTYellow':3 },15,{ chips  'CTRed':35 'CTGreen':0 'CTPurple':7 'grey78':0 'CTYellow':5 },235,{ chips  'CTRed':33 'CTGreen':0 'CTPurple':7 'grey78':9 'CTYellow':0 },245
CT_DbgLog_Agent_24_1_2013_11_17_132.72.64.177.csv,1,200,100,false,{ chips  'CTRed':5 'grey78':3 },{ chips  },FALSE,245,10,,,,,1,(R:5,C:5),{ chips  'CTRed':16 'CTGreen':0 'CTPurple':0 'grey78':0 'CTYellow':3 },15,{ chips  'CTRed':35 'CTGreen':0 'CTPurple':7 'grey78':0 'CTYellow':5 },235,{ chips  'CTRed':33 'CTGreen':0 'CTPurple':7 'grey78':9 'CTYellow':0 },245
CT_DbgLog_Agent_24_1_2013_11_17_132.72.64.177.csv,2,100,300,true,{ chips  'CTRed':5 },{ chips  'CTYellow':5 },TRUE,15,235,{ chips  'CTRed':5 'CTPurple':0 'CTGreen':0 'grey78':0 'CTYellow':0 },{ chips  'CTRed':0 'CTPurple':0 'CTGreen':0 'grey78':0 'CTYellow':5 },15,235,2,(R:4,C:6),{ chips  'CTRed':11 'CTGreen':0 'CTPurple':0 'grey78':0 'CTYellow':6 },25,{ chips  'CTRed':40 'CTGreen':0 'CTPurple':7 'grey78':0 'CTYellow':0 },235,{ chips  'CTRed':33 'CTGreen':0 'CTPurple':7 'grey78':9 'CTYellow':0 },245
CT_DbgLog_Agent_24_1_2013_11_17_132.72.64.177.csv,3,300,100,false,{ chips  'CTPurple':3 },{ chips  'CTRed':3 },TRUE,235,25,{ chips  'CTRed':0 'CTPurple':3 'CTGreen':0 'grey78':0 'CTYellow':0 },{ chips  'CTRed':3 'CTPurple':0 'CTGreen':0 'grey78':0 'CTYellow':0 },235,25,2,(R:3,C:7),{ chips  'CTRed':8 'CTGreen':0 'CTPurple':3 'grey78':0 'CTYellow':4 },35,{ chips  'CTRed':43 'CTGreen':0 'CTPurple':4 'grey78':0 'CTYellow':0 },235,{ chips  'CTRed':33 'CTGreen':0 'CTPurple':7 'grey78':9 'CTYellow':0 },245
CT_DbgLog_Agent_24_1_2013_11_17_132.72.64.177.csv,3,200,100,false,{ chips  },{ chips  },FALSE,245,25,,,,,2,(R:3,C:7),{ chips  'CTRed':8 'CTGreen':0 'CTPurple':3 'grey78':0 'CTYellow':4 },35,{ chips  'CTRed':43 'CTGreen':0 'CTPurple':4 'grey78':0 'CTYellow':0 },235,{ chips  'CTRed':33 'CTGreen':0 'CTPurple':7 'grey78':9 'CTYellow':0 },245
CT_DbgLog_Agent_24_1_2013_11_17_132.72.64.177.csv,4,100,200,true,{ chips  'CTRed':7 },{ chips  'grey78':7 },TRUE,35,245,{ chips  'CTRed':7 'CTPurple':0 'CTGreen':0 'grey78':0 'CTYellow':0 },{ chips  'CTRed':0 'CTPurple':0 'CTGreen':0 'grey78':7 'CTYellow':0 },35,245,4,(R:0,C:8),{ chips  'CTRed':1 'CTGreen':0 'CTPurple':2 'grey78':7 'CTYellow':1 },205,{ chips  'CTRed':43 'CTGreen':0 'CTPurple':4 'grey78':0 'CTYellow':0 },385,{ chips  'CTRed':40 'CTGreen':0 'CTPurple':7 'grey78':2 'CTYellow':0 },245
CT_DbgLog_Agent_24_1_2013_11_17_132.72.64.177.csv,,,,,,,,,,,,,,,,,,,,,,,,true
