filename,round,propID,respID,IsPropCustomer,chipsToSend,chipsToReceive,accept,propCurrentScore,respCurrentScore,actualSent,ActualRcvd,propResultingScore,respResultingScore,#ofCustomerMovesInRound,customerRowPositionAfterMovePhase,customerColPositionAfterMovePhase,Player100ChipsAfterMovePhase,Player100ScoreAfterMovePhase,Player200ChipsAfterMovePhase,Player200ScoreAfterMovePhase,Player300ChipsAfterMovePhase,Player300ScoreAfterMovePhase,generosityLevel,ClientReachedGoal
3playersLog_1388233440760.csv,1,520,510,false,{ chips  'CTPurple':2 },{ chips  },TRUE,200,120,{ chips  'CTRed':0 'CTPurple':2 'CTGreen':0 'grey78':0 'CTYellow':0 },{ chips  'CTRed':0 'CTPurple':0 'CTGreen':0 'grey78':0 'CTYellow':0 },190,130,0,(R:5,C:4),{ chips  'CTRed':0 'CTGreen':0 'CTPurple':2 'grey78':12 'CTYellow':12 },130,{ chips  'CTRed':33 'CTGreen':0 'CTPurple':5 'grey78':0 'CTYellow':0 },190,{ chips  'CTRed':33 'CTGreen':0 'CTPurple':7 'grey78':0 'CTYellow':0 },200
3playersLog_1388233440760.csv,1,540,510,false,{ chips  },{ chips  'grey78':2 },IGNORED,200,120,,,,,0,(R:5,C:4),{ chips  'CTRed':0 'CTGreen':0 'CTPurple':2 'grey78':12 'CTYellow':12 },130,{ chips  'CTRed':33 'CTGreen':0 'CTPurple':5 'grey78':0 'CTYellow':0 },190,{ chips  'CTRed':33 'CTGreen':0 'CTPurple':7 'grey78':0 'CTYellow':0 },200
3playersLog_1388233440760.csv,2,510,540,true,{ chips  'CTYellow':11 },{ chips  'CTRed':33 'CTPurple':7 },FALSE,130,200,,,,,1,(R:5,C:5),{ chips  'CTRed':0 'CTGreen':0 'CTPurple':2 'grey78':12 'CTYellow':11 },125,{ chips  'CTRed':33 'CTGreen':0 'CTPurple':5 'grey78':0 'CTYellow':0 },190,{ chips  'CTRed':33 'CTGreen':0 'CTPurple':7 'grey78':0 'CTYellow':0 },200
3playersLog_1388233440760.csv,3,520,510,false,{ chips  'CTRed':2 },{ chips  'grey78':1 },IGNORED,190,125,,,,,0,(R:5,C:5),{ chips  'CTRed':0 'CTGreen':0 'CTPurple':5 'grey78':12 'CTYellow':10 },135,{ chips  'CTRed':33 'CTGreen':0 'CTPurple':5 'grey78':0 'CTYellow':0 },190,{ chips  'CTRed':33 'CTGreen':0 'CTPurple':4 'grey78':0 'CTYellow':1 },190
3playersLog_1388233440760.csv,3,540,510,false,{ chips  'CTPurple':3 },{ chips  'CTYellow':1 },TRUE,200,125,{ chips  'CTRed':0 'CTPurple':3 'CTGreen':0 'grey78':0 'CTYellow':0 },{ chips  'CTRed':0 'CTPurple':0 'CTGreen':0 'grey78':0 'CTYellow':1 },190,135,0,(R:5,C:5),{ chips  'CTRed':0 'CTGreen':0 'CTPurple':5 'grey78':12 'CTYellow':10 },135,{ chips  'CTRed':33 'CTGreen':0 'CTPurple':5 'grey78':0 'CTYellow':0 },190,{ chips  'CTRed':33 'CTGreen':0 'CTPurple':4 'grey78':0 'CTYellow':1 },190
3playersLog_1388233440760.csv,4,510,520,true,{ chips  'grey78':11 },{ chips  'CTRed':33 'CTPurple':5 },FALSE,135,190,,,,,1,(R:4,C:5),{ chips  'CTRed':0 'CTGreen':0 'CTPurple':5 'grey78':12 'CTYellow':9 },130,{ chips  'CTRed':33 'CTGreen':0 'CTPurple':5 'grey78':0 'CTYellow':0 },190,{ chips  'CTRed':33 'CTGreen':0 'CTPurple':4 'grey78':0 'CTYellow':1 },190
3playersLog_1388233440760.csv,5,520,510,false,{ chips  'CTRed':5 },{ chips  'grey78':4 },IGNORED,190,130,,,,,0,(R:4,C:5),{ chips  'CTRed':20 'CTGreen':0 'CTPurple':7 'grey78':12 'CTYellow':3 },210,{ chips  'CTRed':33 'CTGreen':0 'CTPurple':5 'grey78':0 'CTYellow':0 },190,{ chips  'CTRed':13 'CTGreen':0 'CTPurple':2 'grey78':0 'CTYellow':7 },110
3playersLog_1388233440760.csv,5,540,510,false,{ chips  'CTRed':20 'CTPurple':2 },{ chips  'CTYellow':6 },TRUE,190,130,{ chips  'CTRed':20 'CTPurple':2 'CTGreen':0 'grey78':0 'CTYellow':0 },{ chips  'CTRed':0 'CTPurple':0 'CTGreen':0 'grey78':0 'CTYellow':6 },110,210,0,(R:4,C:5),{ chips  'CTRed':20 'CTGreen':0 'CTPurple':7 'grey78':12 'CTYellow':3 },210,{ chips  'CTRed':33 'CTGreen':0 'CTPurple':5 'grey78':0 'CTYellow':0 },190,{ chips  'CTRed':13 'CTGreen':0 'CTPurple':2 'grey78':0 'CTYellow':7 },110
3playersLog_1388233440760.csv,6,510,540,true,{ chips  'CTYellow':2 },{ chips  'CTRed':13 'CTPurple':2 },FALSE,210,110,,,,,1,(R:3,C:5),{ chips  'CTRed':20 'CTGreen':0 'CTPurple':6 'grey78':12 'CTYellow':3 },205,{ chips  'CTRed':33 'CTGreen':0 'CTPurple':5 'grey78':0 'CTYellow':0 },190,{ chips  'CTRed':13 'CTGreen':0 'CTPurple':2 'grey78':0 'CTYellow':7 },110
3playersLog_1388233440760.csv,7,520,510,false,{ chips  'CTRed':10 },{ chips  'grey78':5 },TRUE,190,205,{ chips  'CTRed':10 'CTPurple':0 'CTGreen':0 'grey78':0 'CTYellow':0 },{ chips  'CTRed':0 'CTPurple':0 'CTGreen':0 'grey78':5 'CTYellow':0 },165,230,0,(R:3,C:5),{ chips  'CTRed':30 'CTGreen':0 'CTPurple':6 'grey78':7 'CTYellow':3 },230,{ chips  'CTRed':23 'CTGreen':0 'CTPurple':5 'grey78':5 'CTYellow':0 },165,{ chips  'CTRed':13 'CTGreen':0 'CTPurple':2 'grey78':0 'CTYellow':7 },110
3playersLog_1388233440760.csv,7,540,510,false,{ chips  'CTRed':3 },{ chips  'CTYellow':2 },IGNORED,110,205,,,,,0,(R:3,C:5),{ chips  'CTRed':30 'CTGreen':0 'CTPurple':6 'grey78':7 'CTYellow':3 },230,{ chips  'CTRed':23 'CTGreen':0 'CTPurple':5 'grey78':5 'CTYellow':0 },165,{ chips  'CTRed':13 'CTGreen':0 'CTPurple':2 'grey78':0 'CTYellow':7 },110
3playersLog_1388233440760.csv,8,510,540,true,{ chips  'CTYellow':2 },{ chips  'CTRed':13 'CTPurple':2 },FALSE,230,110,,,,,1,(R:3,C:4),{ chips  'CTRed':30 'CTGreen':0 'CTPurple':5 'grey78':7 'CTYellow':3 },225,{ chips  'CTRed':23 'CTGreen':0 'CTPurple':5 'grey78':5 'CTYellow':0 },165,{ chips  'CTRed':13 'CTGreen':0 'CTPurple':2 'grey78':0 'CTYellow':7 },110
3playersLog_1388233440760.csv,9,520,510,false,{ chips  'CTRed':15 },{ chips  'CTPurple':3 'grey78':7 },FALSE,165,225,,,,,0,(R:3,C:4),{ chips  'CTRed':30 'CTGreen':0 'CTPurple':5 'grey78':7 'CTYellow':3 },225,{ chips  'CTRed':23 'CTGreen':0 'CTPurple':5 'grey78':5 'CTYellow':0 },165,{ chips  'CTRed':13 'CTGreen':0 'CTPurple':2 'grey78':0 'CTYellow':7 },110
3playersLog_1388233440760.csv,9,540,510,false,{ chips  'CTRed':5 },{ chips  'CTYellow':3 },FALSE,110,225,,,,,0,(R:3,C:4),{ chips  'CTRed':30 'CTGreen':0 'CTPurple':5 'grey78':7 'CTYellow':3 },225,{ chips  'CTRed':23 'CTGreen':0 'CTPurple':5 'grey78':5 'CTYellow':0 },165,{ chips  'CTRed':13 'CTGreen':0 'CTPurple':2 'grey78':0 'CTYellow':7 },110
3playersLog_1388233440760.csv,10,510,540,true,{ chips  'CTYellow':2 },{ chips  'CTRed':13 'CTPurple':2 },FALSE,225,110,,,,,1,(R:3,C:3),{ chips  'CTRed':30 'CTGreen':0 'CTPurple':4 'grey78':7 'CTYellow':3 },220,{ chips  'CTRed':23 'CTGreen':0 'CTPurple':5 'grey78':5 'CTYellow':0 },165,{ chips  'CTRed':13 'CTGreen':0 'CTPurple':2 'grey78':0 'CTYellow':7 },110
3playersLog_1388233440760.csv,11,520,510,false,{ chips  'CTRed':9 },{ chips  'grey78':7 },IGNORED,165,220,,,,,0,(R:3,C:3),{ chips  'CTRed':32 'CTGreen':0 'CTPurple':4 'grey78':7 'CTYellow':2 },225,{ chips  'CTRed':23 'CTGreen':0 'CTPurple':5 'grey78':5 'CTYellow':0 },165,{ chips  'CTRed':11 'CTGreen':0 'CTPurple':2 'grey78':0 'CTYellow':8 },105
3playersLog_1388233440760.csv,11,540,510,false,{ chips  'CTRed':2 },{ chips  'CTYellow':1 },TRUE,110,220,{ chips  'CTRed':2 'CTPurple':0 'CTGreen':0 'grey78':0 'CTYellow':0 },{ chips  'CTRed':0 'CTPurple':0 'CTGreen':0 'grey78':0 'CTYellow':1 },105,225,0,(R:3,C:3),{ chips  'CTRed':32 'CTGreen':0 'CTPurple':4 'grey78':7 'CTYellow':2 },225,{ chips  'CTRed':23 'CTGreen':0 'CTPurple':5 'grey78':5 'CTYellow':0 },165,{ chips  'CTRed':11 'CTGreen':0 'CTPurple':2 'grey78':0 'CTYellow':8 },105
3playersLog_1388233440760.csv,12,510,540,true,{ chips  'CTYellow':1 },{ chips  'CTRed':11 'CTPurple':2 },FALSE,225,105,,,,,1,(R:3,C:2),{ chips  'CTRed':32 'CTGreen':0 'CTPurple':4 'grey78':6 'CTYellow':2 },220,{ chips  'CTRed':23 'CTGreen':0 'CTPurple':5 'grey78':5 'CTYellow':0 },165,{ chips  'CTRed':11 'CTGreen':0 'CTPurple':2 'grey78':0 'CTYellow':8 },105
3playersLog_1388233440760.csv,13,520,510,false,{ chips  },{ chips  'grey78':6 },FALSE,165,220,,,,,0,(R:3,C:2),{ chips  'CTRed':32 'CTGreen':0 'CTPurple':4 'grey78':6 'CTYellow':2 },220,{ chips  'CTRed':23 'CTGreen':0 'CTPurple':5 'grey78':5 'CTYellow':0 },165,{ chips  'CTRed':11 'CTGreen':0 'CTPurple':2 'grey78':0 'CTYellow':8 },105
3playersLog_1388233440760.csv,13,540,510,false,{ chips  'CTRed':1 'CTPurple':1 },{ chips  'CTYellow':2 },FALSE,105,220,,,,,0,(R:3,C:2),{ chips  'CTRed':32 'CTGreen':0 'CTPurple':4 'grey78':6 'CTYellow':2 },220,{ chips  'CTRed':23 'CTGreen':0 'CTPurple':5 'grey78':5 'CTYellow':0 },165,{ chips  'CTRed':11 'CTGreen':0 'CTPurple':2 'grey78':0 'CTYellow':8 },105
3playersLog_1388233440760.csv,14,510,540,true,{ chips  'CTYellow':1 },{ chips  'CTRed':11 'CTPurple':2 },FALSE,220,105,,,,,1,(R:3,C:1),{ chips  'CTRed':32 'CTGreen':0 'CTPurple':4 'grey78':5 'CTYellow':2 },215,{ chips  'CTRed':23 'CTGreen':0 'CTPurple':5 'grey78':5 'CTYellow':0 },165,{ chips  'CTRed':11 'CTGreen':0 'CTPurple':2 'grey78':0 'CTYellow':8 },105
3playersLog_1388233440760.csv,15,520,510,false,{ chips  },{ chips  },FALSE,165,215,,,,,0,(R:3,C:1),{ chips  'CTRed':32 'CTGreen':0 'CTPurple':4 'grey78':5 'CTYellow':2 },215,{ chips  'CTRed':23 'CTGreen':0 'CTPurple':5 'grey78':5 'CTYellow':0 },165,{ chips  'CTRed':11 'CTGreen':0 'CTPurple':2 'grey78':0 'CTYellow':8 },105
3playersLog_1388233440760.csv,15,540,510,false,{ chips  'CTRed':2 },{ chips  'CTYellow':1 },FALSE,105,215,,,,,0,(R:3,C:1),{ chips  'CTRed':32 'CTGreen':0 'CTPurple':4 'grey78':5 'CTYellow':2 },215,{ chips  'CTRed':23 'CTGreen':0 'CTPurple':5 'grey78':5 'CTYellow':0 },165,{ chips  'CTRed':11 'CTGreen':0 'CTPurple':2 'grey78':0 'CTYellow':8 },105
3playersLog_1388233440760.csv,16,510,540,true,{ chips  'CTYellow':1 },{ chips  'CTRed':11 'CTPurple':2 },FALSE,215,105,,,,,1,(R:2,C:1),{ chips  'CTRed':32 'CTGreen':0 'CTPurple':4 'grey78':4 'CTYellow':2 },210,{ chips  'CTRed':23 'CTGreen':0 'CTPurple':5 'grey78':5 'CTYellow':0 },165,{ chips  'CTRed':11 'CTGreen':0 'CTPurple':2 'grey78':0 'CTYellow':8 },105
3playersLog_1388233440760.csv,17,520,510,false,{ chips  },{ chips  },FALSE,165,210,,,,,0,(R:2,C:1),{ chips  'CTRed':32 'CTGreen':0 'CTPurple':4 'grey78':4 'CTYellow':2 },210,{ chips  'CTRed':23 'CTGreen':0 'CTPurple':5 'grey78':5 'CTYellow':0 },165,{ chips  'CTRed':11 'CTGreen':0 'CTPurple':2 'grey78':0 'CTYellow':8 },105
3playersLog_1388233440760.csv,17,540,510,false,{ chips  'CTRed':1 },{ chips  'CTPurple':1 },FALSE,105,210,,,,,0,(R:2,C:1),{ chips  'CTRed':32 'CTGreen':0 'CTPurple':4 'grey78':4 'CTYellow':2 },210,{ chips  'CTRed':23 'CTGreen':0 'CTPurple':5 'grey78':5 'CTYellow':0 },165,{ chips  'CTRed':11 'CTGreen':0 'CTPurple':2 'grey78':0 'CTYellow':8 },105
3playersLog_1388233440760.csv,18,510,540,true,{ chips  'CTYellow':1 },{ chips  'CTRed':11 'CTPurple':2 },FALSE,210,105,,,,,1,(R:1,C:1),{ chips  'CTRed':32 'CTGreen':0 'CTPurple':3 'grey78':4 'CTYellow':2 },205,{ chips  'CTRed':23 'CTGreen':0 'CTPurple':5 'grey78':5 'CTYellow':0 },165,{ chips  'CTRed':11 'CTGreen':0 'CTPurple':2 'grey78':0 'CTYellow':8 },105
3playersLog_1388233440760.csv,19,520,510,false,{ chips  'CTRed':23 'CTPurple':5 },{ chips  'grey78':4 },IGNORED,165,205,,,,,0,(R:1,C:1),{ chips  'CTRed':34 'CTGreen':0 'CTPurple':2 'grey78':4 'CTYellow':2 },210,{ chips  'CTRed':23 'CTGreen':0 'CTPurple':5 'grey78':5 'CTYellow':0 },165,{ chips  'CTRed':9 'CTGreen':0 'CTPurple':3 'grey78':0 'CTYellow':8 },100
3playersLog_1388233440760.csv,19,540,510,false,{ chips  'CTRed':2 },{ chips  'CTPurple':1 },TRUE,105,205,{ chips  'CTRed':2 'CTPurple':0 'CTGreen':0 'grey78':0 'CTYellow':0 },{ chips  'CTRed':0 'CTPurple':1 'CTGreen':0 'grey78':0 'CTYellow':0 },100,210,0,(R:1,C:1),{ chips  'CTRed':34 'CTGreen':0 'CTPurple':2 'grey78':4 'CTYellow':2 },210,{ chips  'CTRed':23 'CTGreen':0 'CTPurple':5 'grey78':5 'CTYellow':0 },165,{ chips  'CTRed':9 'CTGreen':0 'CTPurple':3 'grey78':0 'CTYellow':8 },100
3playersLog_1388233440760.csv,20,510,540,true,{ chips  'CTYellow':1 },{ chips  'CTRed':9 'CTPurple':3 },FALSE,210,100,,,,,1,(R:1,C:0),{ chips  'CTRed':34 'CTGreen':0 'CTPurple':2 'grey78':3 'CTYellow':2 },205,{ chips  'CTRed':23 'CTGreen':0 'CTPurple':5 'grey78':5 'CTYellow':0 },165,{ chips  'CTRed':9 'CTGreen':0 'CTPurple':3 'grey78':0 'CTYellow':8 },100
3playersLog_1388233440760.csv,21,520,510,false,{ chips  },{ chips  },FALSE,165,205,,,,,0,(R:1,C:0),{ chips  'CTRed':34 'CTGreen':0 'CTPurple':2 'grey78':3 'CTYellow':2 },205,{ chips  'CTRed':23 'CTGreen':0 'CTPurple':5 'grey78':5 'CTYellow':0 },165,{ chips  'CTRed':9 'CTGreen':0 'CTPurple':3 'grey78':0 'CTYellow':8 },100
3playersLog_1388233440760.csv,21,540,510,false,{ chips  'CTRed':2 },{ chips  'CTYellow':2 },FALSE,100,205,,,,,0,(R:1,C:0),{ chips  'CTRed':34 'CTGreen':0 'CTPurple':2 'grey78':3 'CTYellow':2 },205,{ chips  'CTRed':23 'CTGreen':0 'CTPurple':5 'grey78':5 'CTYellow':0 },165,{ chips  'CTRed':9 'CTGreen':0 'CTPurple':3 'grey78':0 'CTYellow':8 },100
3playersLog_1388233440760.csv,22,510,540,true,{ chips  'CTYellow':1 },{ chips  'CTRed':9 'CTPurple':3 },FALSE,205,100,,,,,1,(R:0,C:0),{ chips  'CTRed':34 'CTGreen':0 'CTPurple':2 'grey78':2 'CTYellow':2 },350,{ chips  'CTRed':23 'CTGreen':0 'CTPurple':5 'grey78':5 'CTYellow':0 },165,{ chips  'CTRed':9 'CTGreen':0 'CTPurple':3 'grey78':0 'CTYellow':8 },250
3playersLog_1388233440760.csv,,,,,,,,,,,,,,,,,,,,,,,,true
