filename,round,propID,respID,IsPropCustomer,chipsToSend,chipsToReceive,accept,propCurrentScore,respCurrentScore,actualSent,ActualRcvd,propResultingScore,respResultingScore,#ofCustomerMovesInRound,customerRowPositionAfterMovePhase,customerColPositionAfterMovePhase,Player100ChipsAfterMovePhase,Player100ScoreAfterMovePhase,Player200ChipsAfterMovePhase,Player200ScoreAfterMovePhase,Player300ChipsAfterMovePhase,Player300ScoreAfterMovePhase,generosityLevel,ClientReachedGoal
3playersLog_1388319857125.csv,1,530,500,false,{ chips  'CTRed':33 'CTPurple':7 },{ chips  'grey78':11 },FALSE,200,120,,,,,1,(R:5,C:5),{ chips  'CTRed':5 'CTGreen':0 'CTPurple':3 'grey78':12 'CTYellow':11 },155,{ chips  'CTRed':33 'CTGreen':0 'CTPurple':7 'grey78':0 'CTYellow':0 },200,{ chips  'CTRed':28 'CTGreen':0 'CTPurple':4 'grey78':0 'CTYellow':0 },160
3playersLog_1388319857125.csv,1,540,500,false,{ chips  'CTRed':5 'CTPurple':3 },{ chips  },TRUE,200,120,{ chips  'CTRed':5 'CTPurple':3 'CTGreen':0 'grey78':0 'CTYellow':0 },{ chips  'CTRed':0 'CTPurple':0 'CTGreen':0 'grey78':0 'CTYellow':0 },160,160,1,(R:5,C:5),{ chips  'CTRed':5 'CTGreen':0 'CTPurple':3 'grey78':12 'CTYellow':11 },155,{ chips  'CTRed':33 'CTGreen':0 'CTPurple':7 'grey78':0 'CTYellow':0 },200,{ chips  'CTRed':28 'CTGreen':0 'CTPurple':4 'grey78':0 'CTYellow':0 },160
3playersLog_1388319857125.csv,2,500,530,true,{ chips  'CTYellow':2 },{ chips  'CTRed':3 'CTPurple':3 },FALSE,155,200,,,,,1,(R:4,C:5),{ chips  'CTRed':5 'CTGreen':0 'CTPurple':3 'grey78':12 'CTYellow':10 },150,{ chips  'CTRed':33 'CTGreen':0 'CTPurple':7 'grey78':0 'CTYellow':0 },200,{ chips  'CTRed':28 'CTGreen':0 'CTPurple':4 'grey78':0 'CTYellow':0 },160
3playersLog_1388319857125.csv,3,530,500,false,{ chips  'CTRed':33 'CTPurple':7 },{ chips  'grey78':11 },FALSE,200,150,,,,,2,(R:3,C:4),{ chips  'CTRed':15 'CTGreen':0 'CTPurple':5 'grey78':12 'CTYellow':10 },210,{ chips  'CTRed':33 'CTGreen':0 'CTPurple':7 'grey78':0 'CTYellow':0 },200,{ chips  'CTRed':18 'CTGreen':0 'CTPurple':0 'grey78':0 'CTYellow':0 },90
3playersLog_1388319857125.csv,3,540,500,false,{ chips  'CTRed':10 'CTPurple':4 },{ chips  },TRUE,160,150,{ chips  'CTRed':10 'CTPurple':4 'CTGreen':0 'grey78':0 'CTYellow':0 },{ chips  'CTRed':0 'CTPurple':0 'CTGreen':0 'grey78':0 'CTYellow':0 },90,220,2,(R:3,C:4),{ chips  'CTRed':15 'CTGreen':0 'CTPurple':5 'grey78':12 'CTYellow':10 },210,{ chips  'CTRed':33 'CTGreen':0 'CTPurple':7 'grey78':0 'CTYellow':0 },200,{ chips  'CTRed':18 'CTGreen':0 'CTPurple':0 'grey78':0 'CTYellow':0 },90
3playersLog_1388319857125.csv,4,500,540,true,{ chips  'grey78':1 'CTYellow':2 },{ chips  'CTRed':10 },TRUE,210,200,{ chips  'CTRed':0 'CTPurple':0 'CTGreen':0 'grey78':1 'CTYellow':2 },{ chips  'CTRed':10 'CTPurple':0 'CTGreen':0 'grey78':0 'CTYellow':0 },245,55,1,(R:3,C:3),{ chips  'CTRed':25 'CTGreen':0 'CTPurple':4 'grey78':11 'CTYellow':8 },240,{ chips  'CTRed':33 'CTGreen':0 'CTPurple':7 'grey78':0 'CTYellow':0 },200,{ chips  'CTRed':8 'CTGreen':0 'CTPurple':0 'grey78':1 'CTYellow':2 },55
3playersLog_1388319857125.csv,5,530,500,false,{ chips  'CTRed':33 'CTPurple':7 },{ chips  'grey78':11 },TRUE,200,240,{ chips  'CTRed':33 'CTPurple':7 'CTYellow':0 },{ chips  'grey78':11 },55,385,2,(R:3,C:5),{ chips  'CTRed':58 'CTGreen':0 'CTPurple':9 'grey78':0 'CTYellow':8 },375,{ chips  'CTRed':0 'CTGreen':0 'CTPurple':0 'grey78':11 'CTYellow':0 },55,{ chips  'CTRed':8 'CTGreen':0 'CTPurple':0 'grey78':1 'CTYellow':2 },55
3playersLog_1388319857125.csv,6,500,540,true,{ chips  'CTRed':5 },{ chips  'CTRed':1 },FALSE,375,55,,,,,0,(R:3,C:5),{ chips  'CTRed':58 'CTGreen':0 'CTPurple':9 'grey78':0 'CTYellow':8 },375,{ chips  'CTRed':0 'CTGreen':0 'CTPurple':0 'grey78':11 'CTYellow':0 },55,{ chips  'CTRed':8 'CTGreen':0 'CTPurple':0 'grey78':1 'CTYellow':2 },55
3playersLog_1388319857125.csv,7,530,500,false,{ chips  },{ chips  },TRUE,55,375,{ chips  'CTRed':0 'CTPurple':0 'CTYellow':0 },{ chips  'grey78':0 },55,375,1,(R:3,C:6),{ chips  'CTRed':58 'CTGreen':0 'CTPurple':9 'grey78':0 'CTYellow':7 },370,{ chips  'CTRed':0 'CTGreen':0 'CTPurple':0 'grey78':11 'CTYellow':0 },55,{ chips  'CTRed':8 'CTGreen':0 'CTPurple':0 'grey78':1 'CTYellow':2 },55
3playersLog_1388319857125.csv,8,500,530,true,{ chips  'CTRed':1 },{ chips  'grey78':4 },FALSE,370,55,,,,,1,(R:3,C:7),{ chips  'CTRed':58 'CTGreen':0 'CTPurple':9 'grey78':0 'CTYellow':6 },365,{ chips  'CTRed':0 'CTGreen':0 'CTPurple':0 'grey78':11 'CTYellow':0 },55,{ chips  'CTRed':8 'CTGreen':0 'CTPurple':0 'grey78':1 'CTYellow':2 },55
3playersLog_1388319857125.csv,9,530,500,false,{ chips  },{ chips  },FALSE,55,365,,,,,1,(R:2,C:7),{ chips  'CTRed':58 'CTGreen':0 'CTPurple':9 'grey78':1 'CTYellow':5 },365,{ chips  'CTRed':0 'CTGreen':0 'CTPurple':0 'grey78':11 'CTYellow':0 },55,{ chips  'CTRed':8 'CTGreen':0 'CTPurple':0 'grey78':0 'CTYellow':2 },50
3playersLog_1388319857125.csv,9,540,500,false,{ chips  'grey78':1 },{ chips  },TRUE,55,365,{ chips  'CTRed':0 'CTPurple':0 'CTGreen':0 'grey78':1 'CTYellow':0 },{ chips  'CTRed':0 'CTPurple':0 'CTGreen':0 'grey78':0 'CTYellow':0 },50,370,1,(R:2,C:7),{ chips  'CTRed':58 'CTGreen':0 'CTPurple':9 'grey78':1 'CTYellow':5 },365,{ chips  'CTRed':0 'CTGreen':0 'CTPurple':0 'grey78':11 'CTYellow':0 },55,{ chips  'CTRed':8 'CTGreen':0 'CTPurple':0 'grey78':0 'CTYellow':2 },50
3playersLog_1388319857125.csv,10,500,540,true,{ chips  'CTRed':1 },{ chips  'CTYellow':2 },TRUE,365,55,{ chips  'CTRed':1 'CTPurple':0 'CTGreen':0 'grey78':0 'CTYellow':0 },{ chips  'CTRed':0 'CTPurple':0 'CTGreen':0 'grey78':0 'CTYellow':2 },370,45,1,(R:1,C:7),{ chips  'CTRed':57 'CTGreen':0 'CTPurple':8 'grey78':1 'CTYellow':7 },365,{ chips  'CTRed':0 'CTGreen':0 'CTPurple':0 'grey78':11 'CTYellow':0 },55,{ chips  'CTRed':9 'CTGreen':0 'CTPurple':0 'grey78':0 'CTYellow':0 },45
3playersLog_1388319857125.csv,11,530,500,false,{ chips  },{ chips  },FALSE,55,365,,,,,0,(R:1,C:7),{ chips  'CTRed':57 'CTGreen':0 'CTPurple':8 'grey78':1 'CTYellow':7 },365,{ chips  'CTRed':0 'CTGreen':0 'CTPurple':0 'grey78':11 'CTYellow':0 },55,{ chips  'CTRed':9 'CTGreen':0 'CTPurple':0 'grey78':0 'CTYellow':0 },45
3playersLog_1388319857125.csv,11,540,500,false,{ chips  },{ chips  },FALSE,45,365,,,,,0,(R:1,C:7),{ chips  'CTRed':57 'CTGreen':0 'CTPurple':8 'grey78':1 'CTYellow':7 },365,{ chips  'CTRed':0 'CTGreen':0 'CTPurple':0 'grey78':11 'CTYellow':0 },55,{ chips  'CTRed':9 'CTGreen':0 'CTPurple':0 'grey78':0 'CTYellow':0 },45
3playersLog_1388319857125.csv,12,500,530,true,{ chips  },{ chips  'grey78':1 },FALSE,365,55,,,,,2,(R:0,C:8),{ chips  'CTRed':57 'CTGreen':0 'CTPurple':8 'grey78':1 'CTYellow':5 },505,{ chips  'CTRed':0 'CTGreen':0 'CTPurple':0 'grey78':11 'CTYellow':0 },205,{ chips  'CTRed':9 'CTGreen':0 'CTPurple':0 'grey78':0 'CTYellow':0 },45
3playersLog_1388319857125.csv,,,,,,,,,,,,,,,,,,,,,,,,true
