Tue Nov 19 16:43:51 IST 2013	This is the CT debug logger; svn version 638; sep 27 09
Tue Nov 19 16:43:51 IST 2013	Tue Nov 19 16:43:51 IST 2013
Tue Nov 19 16:43:51 IST 2013	ThreePlayersAgentPlayerNastySP(): entering.
Tue Nov 19 16:46:01 IST 2013	phaseAdvanced(): entering.
Tue Nov 19 16:46:01 IST 2013	phaseAdvanced(): new phase is 'Strategy Prep Phase'.
Tue Nov 19 16:47:01 IST 2013	phaseAdvanced(): entering.
Tue Nov 19 16:47:01 IST 2013	phaseAdvanced(): new phase is 'Communication Phase'.
Tue Nov 19 16:47:17 IST 2013	onReceipt(): entering.
Tue Nov 19 16:47:17 IST 2013	phaseAdvanced(): entering.
Tue Nov 19 16:47:17 IST 2013	phaseAdvanced(): new phase is 'Movement Phase'.
Tue Nov 19 16:48:01 IST 2013	phaseAdvanced(): entering.
Tue Nov 19 16:48:01 IST 2013	phaseAdvanced(): new phase is 'Feedback Phase'.
Tue Nov 19 16:48:06 IST 2013	phaseAdvanced(): entering.
Tue Nov 19 16:48:06 IST 2013	phaseAdvanced(): new phase is 'Communication Phase'.
Tue Nov 19 16:48:33 IST 2013	onReceipt(): entering.
Tue Nov 19 16:48:33 IST 2013	onReceipt(): opponent's proposal: ({ chips  'CTRed':1 'CTPurple':1 'CTGreen':0 'grey78':0 'CTYellow':0 }, { chips  'CTRed':0 'CTPurple':0 'CTGreen':0 'grey78':0 'CTYellow':0 }).
Tue Nov 19 16:48:33 IST 2013	respondToProposal(): entering.
Tue Nov 19 16:48:33 IST 2013	respondToProposal(): my chips: ({ chips  'CTRed':22 'CTPurple':5 'CTGreen':0 'grey78':3 'CTYellow':0 }).
Tue Nov 19 16:48:33 IST 2013	responseToSend(): entering.
Tue Nov 19 16:48:33 IST 2013	responseToSend(): accepting proposal 
Tue Nov 19 16:48:33 IST 2013	phaseAdvanced(): entering.
Tue Nov 19 16:48:33 IST 2013	phaseAdvanced(): new phase is 'Movement Phase'.
Tue Nov 19 16:49:18 IST 2013	phaseAdvanced(): entering.
Tue Nov 19 16:49:18 IST 2013	phaseAdvanced(): new phase is 'Feedback Phase'.
Tue Nov 19 16:49:23 IST 2013	phaseAdvanced(): entering.
Tue Nov 19 16:49:23 IST 2013	phaseAdvanced(): new phase is 'Communication Phase'.
Tue Nov 19 16:49:53 IST 2013	onReceipt(): entering.
Tue Nov 19 16:50:09 IST 2013	phaseAdvanced(): entering.
Tue Nov 19 16:50:09 IST 2013	phaseAdvanced(): new phase is 'Movement Phase'.
Tue Nov 19 16:50:53 IST 2013	phaseAdvanced(): entering.
Tue Nov 19 16:50:53 IST 2013	phaseAdvanced(): new phase is 'Feedback Phase'.
