Wed Sep 11 09:42:04 IST 2013	This is the CT debug logger; svn version 638; sep 27 09
Wed Sep 11 09:42:04 IST 2013	Wed Sep 11 09:42:04 IST 2013
Wed Sep 11 09:42:05 IST 2013	ThreePlayersAgentPlayer(): entering.
Wed Sep 11 09:42:37 IST 2013	phaseAdvanced(): entering.
Wed Sep 11 09:42:37 IST 2013	phaseAdvanced(): new phase is 'Strategy Prep Phase'.
Wed Sep 11 09:43:37 IST 2013	phaseAdvanced(): entering.
Wed Sep 11 09:43:37 IST 2013	phaseAdvanced(): new phase is 'Communication Phase'.
Wed Sep 11 09:44:39 IST 2013	onReceipt(): entering.
Wed Sep 11 09:44:39 IST 2013	onReceipt(): opponent's proposal: ({ chips  'CTRed':2 'CTPurple':4 'CTGreen':0 'grey78':0 'CTYellow':0 }, { chips  'CTRed':0 'CTPurple':0 'CTGreen':0 'grey78':0 'CTYellow':0 }).
Wed Sep 11 09:44:53 IST 2013	onReceipt(): entering.
Wed Sep 11 09:44:53 IST 2013	onReceipt(): opponent's proposal: ({ chips  'CTRed':4 'CTPurple':1 'CTGreen':0 'grey78':0 'CTYellow':0 }, { chips  'CTRed':0 'CTPurple':0 'CTGreen':0 'grey78':0 'CTYellow':0 }).
Wed Sep 11 09:44:53 IST 2013	responseToSend(): entering.
Wed Sep 11 09:44:53 IST 2013	compareProposals(): decision: 1 utility 150.0
Wed Sep 11 09:44:53 IST 2013	responseToSend(): accepting proposal ({ chips  'CTRed':2 'CTPurple':4 'CTGreen':0 'grey78':0 'CTYellow':0 }, { chips  'CTRed':0 'CTPurple':0 'CTGreen':0 'grey78':0 'CTYellow':0 }).
Wed Sep 11 09:44:53 IST 2013	phaseAdvanced(): entering.
Wed Sep 11 09:44:53 IST 2013	phaseAdvanced(): new phase is 'Movement Phase'.
Wed Sep 11 09:45:37 IST 2013	phaseAdvanced(): entering.
Wed Sep 11 09:45:37 IST 2013	phaseAdvanced(): new phase is 'Feedback Phase'.
Wed Sep 11 09:45:42 IST 2013	phaseAdvanced(): entering.
Wed Sep 11 09:45:42 IST 2013	phaseAdvanced(): new phase is 'Communication Phase'.
Wed Sep 11 09:47:50 IST 2013	onReceipt(): entering.
Wed Sep 11 09:47:50 IST 2013	phaseAdvanced(): entering.
Wed Sep 11 09:47:50 IST 2013	phaseAdvanced(): new phase is 'Movement Phase'.
Wed Sep 11 09:48:34 IST 2013	phaseAdvanced(): entering.
Wed Sep 11 09:48:34 IST 2013	phaseAdvanced(): new phase is 'Feedback Phase'.
Wed Sep 11 09:48:39 IST 2013	phaseAdvanced(): entering.
Wed Sep 11 09:48:39 IST 2013	phaseAdvanced(): new phase is 'Communication Phase'.
Wed Sep 11 09:49:10 IST 2013	onReceipt(): entering.
Wed Sep 11 09:49:10 IST 2013	onReceipt(): opponent's proposal: ({ chips  'CTRed':2 'CTPurple':0 'CTGreen':0 'grey78':0 'CTYellow':0 }, { chips  'CTRed':0 'CTPurple':0 'CTGreen':0 'grey78':0 'CTYellow':0 }).
Wed Sep 11 09:49:56 IST 2013	onReceipt(): entering.
Wed Sep 11 09:49:56 IST 2013	onReceipt(): opponent's proposal: ({ chips  'CTRed':10 'CTPurple':1 'CTGreen':0 'grey78':0 'CTYellow':0 }, { chips  'CTRed':0 'CTPurple':0 'CTGreen':0 'grey78':0 'CTYellow':6 }).
Wed Sep 11 09:49:56 IST 2013	responseToSend(): entering.
Wed Sep 11 09:49:56 IST 2013	compareProposals(): decision: 0 utility 170.0
Wed Sep 11 09:49:56 IST 2013	responseToSend(): accepting proposal ({ chips  'CTRed':10 'CTPurple':1 'CTGreen':0 'grey78':0 'CTYellow':0 }, { chips  'CTRed':0 'CTPurple':0 'CTGreen':0 'grey78':0 'CTYellow':6 }).
Wed Sep 11 09:49:56 IST 2013	phaseAdvanced(): entering.
Wed Sep 11 09:49:56 IST 2013	phaseAdvanced(): new phase is 'Movement Phase'.
Wed Sep 11 09:50:40 IST 2013	phaseAdvanced(): entering.
Wed Sep 11 09:50:40 IST 2013	phaseAdvanced(): new phase is 'Feedback Phase'.
Wed Sep 11 09:50:45 IST 2013	phaseAdvanced(): entering.
Wed Sep 11 09:50:45 IST 2013	phaseAdvanced(): new phase is 'Communication Phase'.
Wed Sep 11 09:51:08 IST 2013	onReceipt(): entering.
Wed Sep 11 09:51:08 IST 2013	phaseAdvanced(): entering.
Wed Sep 11 09:51:08 IST 2013	phaseAdvanced(): new phase is 'Movement Phase'.
Wed Sep 11 09:51:52 IST 2013	phaseAdvanced(): entering.
Wed Sep 11 09:51:52 IST 2013	phaseAdvanced(): new phase is 'Feedback Phase'.
Wed Sep 11 09:51:57 IST 2013	phaseAdvanced(): entering.
Wed Sep 11 09:51:57 IST 2013	phaseAdvanced(): new phase is 'Communication Phase'.
Wed Sep 11 09:52:14 IST 2013	onReceipt(): entering.
Wed Sep 11 09:52:14 IST 2013	onReceipt(): opponent's proposal: ({ chips  'CTRed':1 'CTPurple':0 'CTGreen':0 'grey78':0 'CTYellow':0 }, { chips  'CTRed':0 'CTPurple':0 'CTGreen':0 'grey78':0 'CTYellow':0 }).
Wed Sep 11 09:54:20 IST 2013	onReceipt(): entering.
Wed Sep 11 09:54:20 IST 2013	onReceipt(): opponent's proposal: ({ chips  'CTRed':11 'CTPurple':1 'CTGreen':0 'grey78':0 'CTYellow':0 }, { chips  'CTRed':0 'CTPurple':0 'CTGreen':0 'grey78':6 'CTYellow':0 }).
Wed Sep 11 09:54:20 IST 2013	responseToSend(): entering.
Wed Sep 11 09:54:22 IST 2013	compareProposals(): decision: 1 utility 280.0
Wed Sep 11 09:54:22 IST 2013	responseToSend(): accepting proposal ({ chips  'CTRed':1 'CTPurple':0 'CTGreen':0 'grey78':0 'CTYellow':0 }, { chips  'CTRed':0 'CTPurple':0 'CTGreen':0 'grey78':0 'CTYellow':0 }).
Wed Sep 11 09:54:22 IST 2013	phaseAdvanced(): entering.
Wed Sep 11 09:54:22 IST 2013	phaseAdvanced(): new phase is 'Movement Phase'.
Wed Sep 11 09:54:38 IST 2013	responseToSend(): entering.
Wed Sep 11 09:55:06 IST 2013	phaseAdvanced(): entering.
Wed Sep 11 09:55:06 IST 2013	phaseAdvanced(): new phase is 'Feedback Phase'.
Wed Sep 11 09:55:11 IST 2013	phaseAdvanced(): entering.
Wed Sep 11 09:55:11 IST 2013	phaseAdvanced(): new phase is 'Communication Phase'.
Wed Sep 11 09:55:31 IST 2013	onReceipt(): entering.
Wed Sep 11 09:55:31 IST 2013	phaseAdvanced(): entering.
Wed Sep 11 09:55:31 IST 2013	phaseAdvanced(): new phase is 'Movement Phase'.
Wed Sep 11 09:56:15 IST 2013	phaseAdvanced(): entering.
Wed Sep 11 09:56:15 IST 2013	phaseAdvanced(): new phase is 'Feedback Phase'.
Wed Sep 11 09:56:20 IST 2013	phaseAdvanced(): entering.
Wed Sep 11 09:56:20 IST 2013	phaseAdvanced(): new phase is 'Communication Phase'.
Wed Sep 11 09:56:50 IST 2013	onReceipt(): entering.
Wed Sep 11 09:56:50 IST 2013	onReceipt(): opponent's proposal: ({ chips  'CTRed':0 'CTPurple':1 'CTGreen':0 'grey78':0 'CTYellow':0 }, { chips  'CTRed':0 'CTPurple':0 'CTGreen':0 'grey78':0 'CTYellow':0 }).
Wed Sep 11 09:58:51 IST 2013	onReceipt(): entering.
Wed Sep 11 09:58:51 IST 2013	onReceipt(): opponent's proposal: ({ chips  'CTRed':10 'CTPurple':2 'CTGreen':0 'grey78':0 'CTYellow':1 }, { chips  'CTRed':0 'CTPurple':0 'CTGreen':0 'grey78':5 'CTYellow':0 }).
Wed Sep 11 09:58:51 IST 2013	responseToSend(): entering.
Wed Sep 11 09:58:51 IST 2013	compareProposals(): decision: 0 utility 315.0
Wed Sep 11 09:58:51 IST 2013	responseToSend(): accepting proposal ({ chips  'CTRed':10 'CTPurple':2 'CTGreen':0 'grey78':0 'CTYellow':1 }, { chips  'CTRed':0 'CTPurple':0 'CTGreen':0 'grey78':5 'CTYellow':0 }).
Wed Sep 11 09:58:51 IST 2013	phaseAdvanced(): entering.
Wed Sep 11 09:58:51 IST 2013	phaseAdvanced(): new phase is 'Movement Phase'.
Wed Sep 11 09:59:01 IST 2013	responseToSend(): entering.
Wed Sep 11 09:59:35 IST 2013	phaseAdvanced(): entering.
Wed Sep 11 09:59:35 IST 2013	phaseAdvanced(): new phase is 'Feedback Phase'.
Wed Sep 11 09:59:40 IST 2013	phaseAdvanced(): entering.
Wed Sep 11 09:59:40 IST 2013	phaseAdvanced(): new phase is 'Communication Phase'.
Wed Sep 11 09:59:58 IST 2013	onReceipt(): entering.
Wed Sep 11 09:59:58 IST 2013	phaseAdvanced(): entering.
Wed Sep 11 09:59:58 IST 2013	phaseAdvanced(): new phase is 'Movement Phase'.
Wed Sep 11 10:00:42 IST 2013	phaseAdvanced(): entering.
Wed Sep 11 10:00:42 IST 2013	phaseAdvanced(): new phase is 'Feedback Phase'.
Wed Sep 11 10:00:47 IST 2013	phaseAdvanced(): entering.
Wed Sep 11 10:00:47 IST 2013	phaseAdvanced(): new phase is 'Communication Phase'.
Wed Sep 11 10:01:09 IST 2013	onReceipt(): entering.
Wed Sep 11 10:01:09 IST 2013	onReceipt(): opponent's proposal: ({ chips  'CTRed':1 'CTPurple':0 'CTGreen':0 'grey78':0 'CTYellow':0 }, { chips  'CTRed':0 'CTPurple':0 'CTGreen':0 'grey78':0 'CTYellow':0 }).
Wed Sep 11 10:02:16 IST 2013	onReceipt(): entering.
Wed Sep 11 10:02:16 IST 2013	onReceipt(): opponent's proposal: ({ chips  'CTRed':3 'CTPurple':0 'CTGreen':0 'grey78':0 'CTYellow':1 }, { chips  'CTRed':0 'CTPurple':0 'CTGreen':0 'grey78':2 'CTYellow':0 }).
Wed Sep 11 10:02:16 IST 2013	responseToSend(): entering.
Wed Sep 11 10:02:17 IST 2013	compareProposals(): decision: 1 utility 315.0
Wed Sep 11 10:02:17 IST 2013	responseToSend(): accepting proposal ({ chips  'CTRed':1 'CTPurple':0 'CTGreen':0 'grey78':0 'CTYellow':0 }, { chips  'CTRed':0 'CTPurple':0 'CTGreen':0 'grey78':0 'CTYellow':0 }).
Wed Sep 11 10:02:17 IST 2013	phaseAdvanced(): entering.
Wed Sep 11 10:02:17 IST 2013	phaseAdvanced(): new phase is 'Movement Phase'.
Wed Sep 11 10:03:01 IST 2013	phaseAdvanced(): entering.
Wed Sep 11 10:03:01 IST 2013	phaseAdvanced(): new phase is 'Feedback Phase'.
Wed Sep 11 10:03:06 IST 2013	phaseAdvanced(): entering.
Wed Sep 11 10:03:06 IST 2013	phaseAdvanced(): new phase is 'Communication Phase'.
Wed Sep 11 10:03:16 IST 2013	onReceipt(): entering.
Wed Sep 11 10:03:16 IST 2013	phaseAdvanced(): entering.
Wed Sep 11 10:03:16 IST 2013	phaseAdvanced(): new phase is 'Movement Phase'.
Wed Sep 11 10:04:00 IST 2013	phaseAdvanced(): entering.
Wed Sep 11 10:04:00 IST 2013	phaseAdvanced(): new phase is 'Feedback Phase'.
Wed Sep 11 10:04:05 IST 2013	phaseAdvanced(): entering.
Wed Sep 11 10:04:05 IST 2013	phaseAdvanced(): new phase is 'Communication Phase'.
Wed Sep 11 10:04:17 IST 2013	onReceipt(): entering.
Wed Sep 11 10:04:17 IST 2013	onReceipt(): opponent's proposal: ({ chips  'CTRed':1 'CTPurple':0 'CTGreen':0 'grey78':0 'CTYellow':0 }, { chips  'CTRed':0 'CTPurple':0 'CTGreen':0 'grey78':0 'CTYellow':0 }).
Wed Sep 11 10:05:17 IST 2013	onReceipt(): entering.
Wed Sep 11 10:05:17 IST 2013	onReceipt(): opponent's proposal: ({ chips  'CTRed':5 'CTPurple':2 'CTGreen':0 'grey78':0 'CTYellow':1 }, { chips  'CTRed':0 'CTPurple':0 'CTGreen':0 'grey78':2 'CTYellow':0 }).
Wed Sep 11 10:05:17 IST 2013	responseToSend(): entering.
Wed Sep 11 10:05:17 IST 2013	compareProposals(): decision: 1 utility 315.0
Wed Sep 11 10:05:17 IST 2013	responseToSend(): accepting proposal ({ chips  'CTRed':1 'CTPurple':0 'CTGreen':0 'grey78':0 'CTYellow':0 }, { chips  'CTRed':0 'CTPurple':0 'CTGreen':0 'grey78':0 'CTYellow':0 }).
Wed Sep 11 10:05:17 IST 2013	phaseAdvanced(): entering.
Wed Sep 11 10:05:17 IST 2013	phaseAdvanced(): new phase is 'Movement Phase'.
Wed Sep 11 10:06:01 IST 2013	phaseAdvanced(): entering.
Wed Sep 11 10:06:01 IST 2013	phaseAdvanced(): new phase is 'Feedback Phase'.
Wed Sep 11 10:06:06 IST 2013	phaseAdvanced(): entering.
Wed Sep 11 10:06:06 IST 2013	phaseAdvanced(): new phase is 'Communication Phase'.
Wed Sep 11 10:08:11 IST 2013	onReceipt(): entering.
Wed Sep 11 10:08:11 IST 2013	phaseAdvanced(): entering.
Wed Sep 11 10:08:11 IST 2013	phaseAdvanced(): new phase is 'Movement Phase'.
Wed Sep 11 10:08:55 IST 2013	phaseAdvanced(): entering.
Wed Sep 11 10:08:55 IST 2013	phaseAdvanced(): new phase is 'Feedback Phase'.
Wed Sep 11 10:09:00 IST 2013	phaseAdvanced(): entering.
Wed Sep 11 10:09:00 IST 2013	phaseAdvanced(): new phase is 'Communication Phase'.
Wed Sep 11 10:09:53 IST 2013	onReceipt(): entering.
Wed Sep 11 10:09:53 IST 2013	onReceipt(): opponent's proposal: ({ chips  'CTRed':6 'CTPurple':2 'CTGreen':0 'grey78':0 'CTYellow':1 }, { chips  'CTRed':0 'CTPurple':0 'CTGreen':0 'grey78':1 'CTYellow':0 }).
Wed Sep 11 10:10:17 IST 2013	onReceipt(): entering.
Wed Sep 11 10:10:17 IST 2013	onReceipt(): opponent's proposal: ({ chips  'CTRed':3 'CTPurple':1 'CTGreen':0 'grey78':0 'CTYellow':0 }, { chips  'CTRed':0 'CTPurple':0 'CTGreen':0 'grey78':1 'CTYellow':0 }).
Wed Sep 11 10:10:17 IST 2013	responseToSend(): entering.
Wed Sep 11 10:10:17 IST 2013	compareProposals(): decision: 1 utility 325.0
Wed Sep 11 10:10:17 IST 2013	responseToSend(): accepting proposal ({ chips  'CTRed':3 'CTPurple':1 'CTGreen':0 'grey78':0 'CTYellow':0 }, { chips  'CTRed':0 'CTPurple':0 'CTGreen':0 'grey78':1 'CTYellow':0 }).
Wed Sep 11 10:10:17 IST 2013	phaseAdvanced(): entering.
Wed Sep 11 10:10:17 IST 2013	phaseAdvanced(): new phase is 'Movement Phase'.
Wed Sep 11 10:11:01 IST 2013	phaseAdvanced(): entering.
Wed Sep 11 10:11:01 IST 2013	phaseAdvanced(): new phase is 'Feedback Phase'.
Wed Sep 11 10:11:06 IST 2013	phaseAdvanced(): entering.
Wed Sep 11 10:11:06 IST 2013	phaseAdvanced(): new phase is 'Communication Phase'.
Wed Sep 11 10:11:34 IST 2013	onReceipt(): entering.
Wed Sep 11 10:11:34 IST 2013	phaseAdvanced(): entering.
Wed Sep 11 10:11:34 IST 2013	phaseAdvanced(): new phase is 'Movement Phase'.
Wed Sep 11 10:12:18 IST 2013	phaseAdvanced(): entering.
Wed Sep 11 10:12:18 IST 2013	phaseAdvanced(): new phase is 'Feedback Phase'.
Wed Sep 11 10:12:23 IST 2013	phaseAdvanced(): entering.
Wed Sep 11 10:12:23 IST 2013	phaseAdvanced(): new phase is 'Communication Phase'.
Wed Sep 11 10:12:59 IST 2013	onReceipt(): entering.
Wed Sep 11 10:12:59 IST 2013	onReceipt(): opponent's proposal: ({ chips  'CTRed':4 'CTPurple':0 'CTGreen':0 'grey78':1 'CTYellow':0 }, { chips  'CTRed':0 'CTPurple':0 'CTGreen':0 'grey78':0 'CTYellow':0 }).
Wed Sep 11 10:14:39 IST 2013	onReceipt(): entering.
Wed Sep 11 10:14:39 IST 2013	onReceipt(): opponent's proposal: ({ chips  'CTRed':0 'CTPurple':1 'CTGreen':0 'grey78':0 'CTYellow':0 }, { chips  'CTRed':6 'CTPurple':0 'CTGreen':0 'grey78':0 'CTYellow':0 }).
Wed Sep 11 10:14:39 IST 2013	responseToSend(): entering.
Wed Sep 11 10:14:39 IST 2013	compareProposals(): decision: 1 utility 345.0
Wed Sep 11 10:14:39 IST 2013	responseToSend(): accepting proposal ({ chips  'CTRed':4 'CTPurple':0 'CTGreen':0 'grey78':1 'CTYellow':0 }, { chips  'CTRed':0 'CTPurple':0 'CTGreen':0 'grey78':0 'CTYellow':0 }).
Wed Sep 11 10:14:39 IST 2013	phaseAdvanced(): entering.
Wed Sep 11 10:14:39 IST 2013	phaseAdvanced(): new phase is 'Movement Phase'.
Wed Sep 11 10:15:04 IST 2013	responseToSend(): entering.
Wed Sep 11 10:15:23 IST 2013	phaseAdvanced(): entering.
Wed Sep 11 10:15:23 IST 2013	phaseAdvanced(): new phase is 'Feedback Phase'.
Wed Sep 11 10:15:29 IST 2013	phaseAdvanced(): entering.
Wed Sep 11 10:15:29 IST 2013	phaseAdvanced(): new phase is 'Communication Phase'.
Wed Sep 11 10:15:45 IST 2013	onReceipt(): entering.
Wed Sep 11 10:15:45 IST 2013	phaseAdvanced(): entering.
Wed Sep 11 10:15:45 IST 2013	phaseAdvanced(): new phase is 'Movement Phase'.
Wed Sep 11 10:16:30 IST 2013	phaseAdvanced(): entering.
Wed Sep 11 10:16:30 IST 2013	phaseAdvanced(): new phase is 'Feedback Phase'.
Wed Sep 11 10:16:35 IST 2013	phaseAdvanced(): entering.
Wed Sep 11 10:16:35 IST 2013	phaseAdvanced(): new phase is 'Communication Phase'.
Wed Sep 11 10:17:08 IST 2013	onReceipt(): entering.
Wed Sep 11 10:17:08 IST 2013	onReceipt(): opponent's proposal: ({ chips  'CTRed':0 'CTPurple':1 'CTGreen':0 'grey78':0 'CTYellow':0 }, { chips  'CTRed':0 'CTPurple':0 'CTGreen':0 'grey78':0 'CTYellow':0 }).
Wed Sep 11 10:18:22 IST 2013	onReceipt(): entering.
Wed Sep 11 10:18:22 IST 2013	onReceipt(): opponent's proposal: ({ chips  'CTRed':8 'CTPurple':2 'CTGreen':0 'grey78':0 'CTYellow':3 }, { chips  'CTRed':0 'CTPurple':0 'CTGreen':0 'grey78':1 'CTYellow':0 }).
Wed Sep 11 10:18:22 IST 2013	responseToSend(): entering.
Wed Sep 11 10:18:22 IST 2013	compareProposals(): decision: 1 utility 345.0
Wed Sep 11 10:18:22 IST 2013	responseToSend(): accepting proposal ({ chips  'CTRed':0 'CTPurple':1 'CTGreen':0 'grey78':0 'CTYellow':0 }, { chips  'CTRed':0 'CTPurple':0 'CTGreen':0 'grey78':0 'CTYellow':0 }).
Wed Sep 11 10:18:22 IST 2013	phaseAdvanced(): entering.
Wed Sep 11 10:18:22 IST 2013	phaseAdvanced(): new phase is 'Movement Phase'.
Wed Sep 11 10:19:07 IST 2013	phaseAdvanced(): entering.
Wed Sep 11 10:19:07 IST 2013	phaseAdvanced(): new phase is 'Feedback Phase'.
Wed Sep 11 10:19:12 IST 2013	phaseAdvanced(): entering.
Wed Sep 11 10:19:12 IST 2013	phaseAdvanced(): new phase is 'Communication Phase'.
Wed Sep 11 10:19:38 IST 2013	onReceipt(): entering.
Wed Sep 11 10:19:38 IST 2013	phaseAdvanced(): entering.
Wed Sep 11 10:19:38 IST 2013	phaseAdvanced(): new phase is 'Movement Phase'.
Wed Sep 11 10:20:23 IST 2013	phaseAdvanced(): entering.
Wed Sep 11 10:20:23 IST 2013	phaseAdvanced(): new phase is 'Feedback Phase'.
