Mon Jul 16 11:11:13 IDT 2012	This is the CT debug logger; svn version 638; sep 27 09
Mon Jul 16 11:11:13 IDT 2012	Mon Jul 16 11:11:13 IDT 2012
Mon Jul 16 11:11:13 IDT 2012	ID Number: 63343
Mon Jul 16 11:11:13 IDT 2012	Creating board
Mon Jul 16 11:11:13 IDT 2012	<colors>
Mon Jul 16 11:11:13 IDT 2012	{ GamePalette  'CTPurple':0 'CTRed':1 'CTGreen':2 'grey78':3 'CTYellow':4 }
Mon Jul 16 11:11:13 IDT 2012	<rows>
Mon Jul 16 11:11:13 IDT 2012	6
Mon Jul 16 11:11:13 IDT 2012	<columns>
Mon Jul 16 11:11:13 IDT 2012	9
Mon Jul 16 11:11:13 IDT 2012	<squaresColors>
Mon Jul 16 11:11:13 IDT 2012	grey78 CTGreen CTGreen CTGreen CTGreen CTGreen CTGreen CTGreen CTYellow 
Mon Jul 16 11:11:13 IDT 2012	grey78 CTPurple CTPurple CTPurple CTPurple CTPurple CTPurple CTPurple CTYellow 
Mon Jul 16 11:11:13 IDT 2012	grey78 grey78 CTGreen CTGreen CTGreen CTGreen CTGreen CTYellow CTYellow 
Mon Jul 16 11:11:13 IDT 2012	CTRed grey78 grey78 CTPurple CTPurple CTPurple CTYellow CTYellow CTRed 
Mon Jul 16 11:11:13 IDT 2012	CTRed CTRed grey78 grey78 CTGreen CTYellow CTYellow CTRed CTRed 
Mon Jul 16 11:11:13 IDT 2012	CTRed CTRed CTRed grey78 CTRed CTYellow CTRed CTRed CTRed 
Mon Jul 16 11:11:13 IDT 2012	</squareColors>
Mon Jul 16 11:11:13 IDT 2012	<goalPosition>
Mon Jul 16 11:11:13 IDT 2012	Goal position: (R:0,C:0)
Mon Jul 16 11:11:13 IDT 2012	<goalPosition>
Mon Jul 16 11:11:13 IDT 2012	Goal position: (R:0,C:0)
Mon Jul 16 11:11:13 IDT 2012	<firstPlayerPossibleGoal1>
Mon Jul 16 11:11:13 IDT 2012	0.5
Mon Jul 16 11:11:13 IDT 2012	0
Mon Jul 16 11:11:13 IDT 2012	0
Mon Jul 16 11:11:13 IDT 2012	</firstPlayerPossibleGoal1>
Mon Jul 16 11:11:13 IDT 2012	<firstPlayerPossibleGoal2>
Mon Jul 16 11:11:13 IDT 2012	0.5
Mon Jul 16 11:11:13 IDT 2012	0
Mon Jul 16 11:11:13 IDT 2012	8
Mon Jul 16 11:11:13 IDT 2012	</firstPlayerPossibleGoal2>
Mon Jul 16 11:11:13 IDT 2012	<numberOfPlayers>
Mon Jul 16 11:11:13 IDT 2012	3
Mon Jul 16 11:11:13 IDT 2012	<firstPlayerChips>
Mon Jul 16 11:11:13 IDT 2012	Setting chips for player: 100 id:0
Mon Jul 16 11:11:13 IDT 2012	{ chips  'CTRed':10 'CTGreen':0 'CTPurple':39 'grey78':0 'CTYellow':0 }
Mon Jul 16 11:11:13 IDT 2012	Player position: (R:5,C:4)
Mon Jul 16 11:11:13 IDT 2012	Setting chips for player: 200 id:1
Mon Jul 16 11:11:13 IDT 2012	{ chips  'CTRed':10 'CTGreen':0 'CTPurple':30 'grey78':0 'CTYellow':9 }
Mon Jul 16 11:11:13 IDT 2012	Player position: (R:0,C:8)
Mon Jul 16 11:11:13 IDT 2012	Setting chips for player: 300 id:2
Mon Jul 16 11:11:13 IDT 2012	{ chips  'CTRed':10 'CTGreen':0 'CTPurple':30 'grey78':9 'CTYellow':0 }
Mon Jul 16 11:11:13 IDT 2012	Player position: (R:0,C:0)
Mon Jul 16 11:11:13 IDT 2012	Protocol: A New Phase Began: Strategy Prep Phase
Mon Jul 16 11:11:13 IDT 2012	---------- Beginning Strategy Prep Phase at round 0 ----------
Mon Jul 16 11:11:33 IDT 2012	A Phase Ended: Strategy Prep Phase
Mon Jul 16 11:11:33 IDT 2012	Protocol: A New Phase Began: Communication Phase
Mon Jul 16 11:11:33 IDT 2012	---------- Beginning Communication Phase at round 1 ----------
Mon Jul 16 11:12:43 IDT 2012	Received communication message 
Mon Jul 16 11:12:43 IDT 2012	From player: 200
Mon Jul 16 11:12:43 IDT 2012	To player: 100
Mon Jul 16 11:12:43 IDT 2012	Chips to send by proposer: { chips  'CTRed':0 'CTPurple':0 'CTGreen':0 'grey78':0 'CTYellow':9 }
Mon Jul 16 11:12:43 IDT 2012	Chips to send by responder: { chips  'CTRed':0 'CTPurple':1 'CTGreen':0 'grey78':0 'CTYellow':0 }
Mon Jul 16 11:13:48 IDT 2012	Received communication message 
Mon Jul 16 11:13:48 IDT 2012	From player: 300
Mon Jul 16 11:13:48 IDT 2012	To player: 100
Mon Jul 16 11:13:48 IDT 2012	Chips to send by proposer: { chips  'CTRed':1 'CTPurple':0 'CTGreen':0 'grey78':4 'CTYellow':0 }
Mon Jul 16 11:13:48 IDT 2012	Chips to send by responder: { chips  'CTRed':0 'CTPurple':0 'CTGreen':0 'grey78':0 'CTYellow':0 }
Mon Jul 16 11:14:57 IDT 2012	Received communication message 
Mon Jul 16 11:14:57 IDT 2012	Proposer 0 accepted? true
Mon Jul 16 11:14:57 IDT 2012	A Phase Ended: Communication Phase
Mon Jul 16 11:14:57 IDT 2012	Protocol: A New Phase Began: Movement Phase
Mon Jul 16 11:14:57 IDT 2012	---------- Beginning Movement Phase at round 1 ----------
Mon Jul 16 11:15:17 IDT 2012	A Phase Ended: Movement Phase
Mon Jul 16 11:15:17 IDT 2012	Protocol: A New Phase Began: Feedback Phase
Mon Jul 16 11:15:17 IDT 2012	---------- Beginning Feedback Phase at round 1 ----------
Mon Jul 16 11:15:17 IDT 2012	Number of consecutive no movements for player 100 is 0
Mon Jul 16 11:15:17 IDT 2012	The TD player's position is (R:2,C:8)
Mon Jul 16 11:15:17 IDT 2012	The 1st goal location is (R:0,C:0)
Mon Jul 16 11:15:17 IDT 2012	The 2nd goal location is (R:0,C:8)
Mon Jul 16 11:15:17 IDT 2012	A Phase Ended: Feedback Phase
Mon Jul 16 11:15:17 IDT 2012	Swaping roles:
Mon Jul 16 11:15:17 IDT 2012	Protocol: A New Phase Began: Communication Phase
Mon Jul 16 11:15:17 IDT 2012	---------- Beginning Communication Phase at round 2 ----------
Mon Jul 16 11:17:35 IDT 2012	Received communication message 
Mon Jul 16 11:17:35 IDT 2012	From player: 100
Mon Jul 16 11:17:35 IDT 2012	To player: 300
Mon Jul 16 11:17:35 IDT 2012	Chips to send by proposer: { chips  'CTRed':0 'CTPurple':0 'CTGreen':0 'grey78':0 'CTYellow':0 }
Mon Jul 16 11:17:35 IDT 2012	Chips to send by responder: { chips  'CTRed':0 'CTPurple':8 'CTGreen':0 'grey78':2 'CTYellow':0 }
Mon Jul 16 11:19:56 IDT 2012	Received communication message 
Mon Jul 16 11:19:56 IDT 2012	Proposer 1 accepted? true
Mon Jul 16 11:19:56 IDT 2012	A Phase Ended: Communication Phase
Mon Jul 16 11:19:56 IDT 2012	Protocol: A New Phase Began: Movement Phase
Mon Jul 16 11:19:56 IDT 2012	---------- Beginning Movement Phase at round 2 ----------
Mon Jul 16 11:20:16 IDT 2012	A Phase Ended: Movement Phase
Mon Jul 16 11:20:16 IDT 2012	Protocol: A New Phase Began: Feedback Phase
Mon Jul 16 11:20:16 IDT 2012	---------- Beginning Feedback Phase at round 2 ----------
Mon Jul 16 11:20:16 IDT 2012	Number of consecutive no movements for player 100 is 0
Mon Jul 16 11:20:16 IDT 2012	The TD player's position is (R:0,C:8)
Mon Jul 16 11:20:16 IDT 2012	The 1st goal location is (R:0,C:0)
Mon Jul 16 11:20:16 IDT 2012	The 2nd goal location is (R:0,C:8)
Mon Jul 16 11:20:16 IDT 2012	Loop status: false
Mon Jul 16 11:20:16 IDT 2012	The TD player reached the goal, end the game
Mon Jul 16 11:20:16 IDT 2012	Player: 100 ,role: Proposer score is: 440
Mon Jul 16 11:20:16 IDT 2012	Player: 300 ,role: Responder score is: 195
Mon Jul 16 11:20:16 IDT 2012	Player: 200 ,role: Responder score is: 355
Mon Jul 16 11:20:21 IDT 2012	A Phase Ended: Feedback Phase
