filename,round,propID,respID,IsPropCustomer,chipsToSend,chipsToReceive,accept,propCurrentScore,respCurrentScore,actualSent,ActualRcvd,propResultingScore,respResultingScore,#ofCustomerMovesInRound,customerRowPositionAfterMovePhase,customerColPositionAfterMovePhase,Player100ChipsAfterMovePhase,Player100ScoreAfterMovePhase,Player200ChipsAfterMovePhase,Player200ScoreAfterMovePhase,Player300ChipsAfterMovePhase,Player300ScoreAfterMovePhase,generosityLevel,ClientReachedGoal
3playersLog_1388925848906.csv,1,520,510,false,{ chips  'CTRed':7 },{ chips  'grey78':3 'CTYellow':1 },TRUE,200,120,{ chips  'CTRed':7 'CTPurple':0 'CTGreen':0 'grey78':0 'CTYellow':0 },{ chips  'CTRed':0 'CTPurple':0 'CTGreen':0 'grey78':3 'CTYellow':1 },185,135,0,(R:5,C:4),{ chips  'CTRed':7 'CTGreen':0 'CTPurple':0 'grey78':9 'CTYellow':11 },135,{ chips  'CTRed':26 'CTGreen':0 'CTPurple':7 'grey78':3 'CTYellow':1 },185,{ chips  'CTRed':33 'CTGreen':0 'CTPurple':7 'grey78':0 'CTYellow':0 },200
3playersLog_1388925848906.csv,1,540,510,false,{ chips  'CTPurple':2 },{ chips  'CTYellow':1 },IGNORED,200,120,,,,,0,(R:5,C:4),{ chips  'CTRed':7 'CTGreen':0 'CTPurple':0 'grey78':9 'CTYellow':11 },135,{ chips  'CTRed':26 'CTGreen':0 'CTPurple':7 'grey78':3 'CTYellow':1 },185,{ chips  'CTRed':33 'CTGreen':0 'CTPurple':7 'grey78':0 'CTYellow':0 },200
3playersLog_1388925848906.csv,2,510,520,true,{ chips  'grey78':8 },{ chips  'CTRed':26 'CTPurple':7 'CTYellow':1 },FALSE,135,185,,,,,1,(R:5,C:5),{ chips  'CTRed':7 'CTGreen':0 'CTPurple':0 'grey78':9 'CTYellow':10 },130,{ chips  'CTRed':26 'CTGreen':0 'CTPurple':7 'grey78':3 'CTYellow':1 },185,{ chips  'CTRed':33 'CTGreen':0 'CTPurple':7 'grey78':0 'CTYellow':0 },200
3playersLog_1388925848906.csv,3,520,510,false,{ chips  'CTRed':1 'CTPurple':1 },{ chips  'grey78':2 },FALSE,185,130,,,,,0,(R:5,C:5),{ chips  'CTRed':7 'CTGreen':0 'CTPurple':0 'grey78':9 'CTYellow':10 },130,{ chips  'CTRed':26 'CTGreen':0 'CTPurple':7 'grey78':3 'CTYellow':1 },185,{ chips  'CTRed':33 'CTGreen':0 'CTPurple':7 'grey78':0 'CTYellow':0 },200
3playersLog_1388925848906.csv,3,540,510,false,{ chips  'CTRed':14 'CTPurple':2 },{ chips  'CTYellow':7 },FALSE,200,130,,,,,0,(R:5,C:5),{ chips  'CTRed':7 'CTGreen':0 'CTPurple':0 'grey78':9 'CTYellow':10 },130,{ chips  'CTRed':26 'CTGreen':0 'CTPurple':7 'grey78':3 'CTYellow':1 },185,{ chips  'CTRed':33 'CTGreen':0 'CTPurple':7 'grey78':0 'CTYellow':0 },200
3playersLog_1388925848906.csv,4,510,520,true,{ chips  'grey78':8 },{ chips  'CTRed':26 'CTPurple':7 'CTYellow':1 },FALSE,130,185,,,,,1,(R:4,C:5),{ chips  'CTRed':7 'CTGreen':0 'CTPurple':0 'grey78':9 'CTYellow':9 },125,{ chips  'CTRed':26 'CTGreen':0 'CTPurple':7 'grey78':3 'CTYellow':1 },185,{ chips  'CTRed':33 'CTGreen':0 'CTPurple':7 'grey78':0 'CTYellow':0 },200
3playersLog_1388925848906.csv,5,520,510,false,{ chips  'CTPurple':1 },{ chips  'grey78':1 },IGNORED,185,125,,,,,0,(R:4,C:5),{ chips  'CTRed':23 'CTGreen':0 'CTPurple':2 'grey78':9 'CTYellow':5 },195,{ chips  'CTRed':26 'CTGreen':0 'CTPurple':7 'grey78':3 'CTYellow':1 },185,{ chips  'CTRed':17 'CTGreen':0 'CTPurple':5 'grey78':0 'CTYellow':4 },130
3playersLog_1388925848906.csv,5,540,510,false,{ chips  'CTRed':16 'CTPurple':2 },{ chips  'CTYellow':4 },TRUE,200,125,{ chips  'CTRed':16 'CTPurple':2 'CTGreen':0 'grey78':0 'CTYellow':0 },{ chips  'CTRed':0 'CTPurple':0 'CTGreen':0 'grey78':0 'CTYellow':4 },130,195,0,(R:4,C:5),{ chips  'CTRed':23 'CTGreen':0 'CTPurple':2 'grey78':9 'CTYellow':5 },195,{ chips  'CTRed':26 'CTGreen':0 'CTPurple':7 'grey78':3 'CTYellow':1 },185,{ chips  'CTRed':17 'CTGreen':0 'CTPurple':5 'grey78':0 'CTYellow':4 },130
3playersLog_1388925848906.csv,6,510,520,true,{ chips  'grey78':8 },{ chips  'CTRed':26 'CTPurple':7 'CTYellow':1 },FALSE,195,185,,,,,1,(R:3,C:5),{ chips  'CTRed':23 'CTGreen':0 'CTPurple':1 'grey78':9 'CTYellow':5 },190,{ chips  'CTRed':26 'CTGreen':0 'CTPurple':7 'grey78':3 'CTYellow':1 },185,{ chips  'CTRed':17 'CTGreen':0 'CTPurple':5 'grey78':0 'CTYellow':4 },130
3playersLog_1388925848906.csv,7,520,510,false,{ chips  'CTRed':9 },{ chips  'CTPurple':1 'grey78':4 'CTYellow':1 },IGNORED,185,190,,,,,0,(R:3,C:5),{ chips  'CTRed':26 'CTGreen':0 'CTPurple':4 'grey78':9 'CTYellow':4 },215,{ chips  'CTRed':26 'CTGreen':0 'CTPurple':7 'grey78':3 'CTYellow':1 },185,{ chips  'CTRed':14 'CTGreen':0 'CTPurple':2 'grey78':0 'CTYellow':5 },105
3playersLog_1388925848906.csv,7,540,510,false,{ chips  'CTRed':3 'CTPurple':3 },{ chips  'CTYellow':1 },TRUE,130,190,{ chips  'CTRed':3 'CTPurple':3 'CTGreen':0 'grey78':0 'CTYellow':0 },{ chips  'CTRed':0 'CTPurple':0 'CTGreen':0 'grey78':0 'CTYellow':1 },105,215,0,(R:3,C:5),{ chips  'CTRed':26 'CTGreen':0 'CTPurple':4 'grey78':9 'CTYellow':4 },215,{ chips  'CTRed':26 'CTGreen':0 'CTPurple':7 'grey78':3 'CTYellow':1 },185,{ chips  'CTRed':14 'CTGreen':0 'CTPurple':2 'grey78':0 'CTYellow':5 },105
3playersLog_1388925848906.csv,8,510,540,true,{ chips  'CTYellow':4 },{ chips  'CTRed':14 'CTPurple':2 },FALSE,215,105,,,,,1,(R:3,C:4),{ chips  'CTRed':26 'CTGreen':0 'CTPurple':3 'grey78':9 'CTYellow':4 },210,{ chips  'CTRed':26 'CTGreen':0 'CTPurple':7 'grey78':3 'CTYellow':1 },185,{ chips  'CTRed':14 'CTGreen':0 'CTPurple':2 'grey78':0 'CTYellow':5 },105
3playersLog_1388925848906.csv,9,520,510,false,{ chips  'CTRed':16 'CTPurple':1 },{ chips  'grey78':5 'CTYellow':1 },IGNORED,185,210,,,,,0,(R:3,C:4),{ chips  'CTRed':29 'CTGreen':0 'CTPurple':3 'grey78':9 'CTYellow':3 },220,{ chips  'CTRed':26 'CTGreen':0 'CTPurple':7 'grey78':3 'CTYellow':1 },185,{ chips  'CTRed':11 'CTGreen':0 'CTPurple':2 'grey78':0 'CTYellow':6 },95
3playersLog_1388925848906.csv,9,540,510,false,{ chips  'CTRed':3 },{ chips  'CTYellow':1 },TRUE,105,210,{ chips  'CTRed':3 'CTPurple':0 'CTGreen':0 'grey78':0 'CTYellow':0 },{ chips  'CTRed':0 'CTPurple':0 'CTGreen':0 'grey78':0 'CTYellow':1 },95,220,0,(R:3,C:4),{ chips  'CTRed':29 'CTGreen':0 'CTPurple':3 'grey78':9 'CTYellow':3 },220,{ chips  'CTRed':26 'CTGreen':0 'CTPurple':7 'grey78':3 'CTYellow':1 },185,{ chips  'CTRed':11 'CTGreen':0 'CTPurple':2 'grey78':0 'CTYellow':6 },95
3playersLog_1388925848906.csv,10,510,540,true,{ chips  'CTYellow':3 },{ chips  'CTRed':11 'CTPurple':2 },FALSE,220,95,,,,,1,(R:3,C:3),{ chips  'CTRed':29 'CTGreen':0 'CTPurple':2 'grey78':9 'CTYellow':3 },215,{ chips  'CTRed':26 'CTGreen':0 'CTPurple':7 'grey78':3 'CTYellow':1 },185,{ chips  'CTRed':11 'CTGreen':0 'CTPurple':2 'grey78':0 'CTYellow':6 },95
3playersLog_1388925848906.csv,11,520,510,false,{ chips  'CTRed':17 'CTPurple':5 },{ chips  'grey78':4 },TRUE,185,215,{ chips  'CTRed':17 'CTPurple':5 'CTGreen':0 'grey78':0 'CTYellow':0 },{ chips  'CTRed':0 'CTPurple':0 'CTGreen':0 'grey78':4 'CTYellow':0 },95,305,0,(R:3,C:3),{ chips  'CTRed':46 'CTGreen':0 'CTPurple':7 'grey78':5 'CTYellow':3 },305,{ chips  'CTRed':9 'CTGreen':0 'CTPurple':2 'grey78':7 'CTYellow':1 },95,{ chips  'CTRed':11 'CTGreen':0 'CTPurple':2 'grey78':0 'CTYellow':6 },95
3playersLog_1388925848906.csv,11,540,510,false,{ chips  'CTRed':1 },{ chips  'CTYellow':1 },IGNORED,95,215,,,,,0,(R:3,C:3),{ chips  'CTRed':46 'CTGreen':0 'CTPurple':7 'grey78':5 'CTYellow':3 },305,{ chips  'CTRed':9 'CTGreen':0 'CTPurple':2 'grey78':7 'CTYellow':1 },95,{ chips  'CTRed':11 'CTGreen':0 'CTPurple':2 'grey78':0 'CTYellow':6 },95
3playersLog_1388925848906.csv,12,510,540,true,{ chips  'CTYellow':3 },{ chips  'CTRed':11 'CTPurple':2 },FALSE,305,95,,,,,1,(R:3,C:2),{ chips  'CTRed':46 'CTGreen':0 'CTPurple':7 'grey78':4 'CTYellow':3 },300,{ chips  'CTRed':9 'CTGreen':0 'CTPurple':2 'grey78':7 'CTYellow':1 },95,{ chips  'CTRed':11 'CTGreen':0 'CTPurple':2 'grey78':0 'CTYellow':6 },95
3playersLog_1388925848906.csv,13,520,510,false,{ chips  'CTRed':3 },{ chips  'CTYellow':3 },IGNORED,95,300,,,,,0,(R:3,C:2),{ chips  'CTRed':48 'CTGreen':0 'CTPurple':7 'grey78':4 'CTYellow':2 },305,{ chips  'CTRed':9 'CTGreen':0 'CTPurple':2 'grey78':7 'CTYellow':1 },95,{ chips  'CTRed':9 'CTGreen':0 'CTPurple':2 'grey78':0 'CTYellow':7 },90
3playersLog_1388925848906.csv,13,540,510,false,{ chips  'CTRed':2 },{ chips  'CTYellow':1 },TRUE,95,300,{ chips  'CTRed':2 'CTPurple':0 'CTGreen':0 'grey78':0 'CTYellow':0 },{ chips  'CTRed':0 'CTPurple':0 'CTGreen':0 'grey78':0 'CTYellow':1 },90,305,0,(R:3,C:2),{ chips  'CTRed':48 'CTGreen':0 'CTPurple':7 'grey78':4 'CTYellow':2 },305,{ chips  'CTRed':9 'CTGreen':0 'CTPurple':2 'grey78':7 'CTYellow':1 },95,{ chips  'CTRed':9 'CTGreen':0 'CTPurple':2 'grey78':0 'CTYellow':7 },90
3playersLog_1388925848906.csv,14,510,540,true,{ chips  'CTYellow':2 },{ chips  'CTRed':9 'CTPurple':2 },FALSE,305,90,,,,,1,(R:3,C:1),{ chips  'CTRed':48 'CTGreen':0 'CTPurple':7 'grey78':3 'CTYellow':2 },300,{ chips  'CTRed':9 'CTGreen':0 'CTPurple':2 'grey78':7 'CTYellow':1 },95,{ chips  'CTRed':9 'CTGreen':0 'CTPurple':2 'grey78':0 'CTYellow':7 },90
3playersLog_1388925848906.csv,15,520,510,false,{ chips  'CTRed':2 },{ chips  'grey78':1 },FALSE,95,300,,,,,0,(R:3,C:1),{ chips  'CTRed':48 'CTGreen':0 'CTPurple':7 'grey78':3 'CTYellow':2 },300,{ chips  'CTRed':9 'CTGreen':0 'CTPurple':2 'grey78':7 'CTYellow':1 },95,{ chips  'CTRed':9 'CTGreen':0 'CTPurple':2 'grey78':0 'CTYellow':7 },90
3playersLog_1388925848906.csv,15,540,510,false,{ chips  'CTRed':1 },{ chips  'CTPurple':1 },FALSE,90,300,,,,,0,(R:3,C:1),{ chips  'CTRed':48 'CTGreen':0 'CTPurple':7 'grey78':3 'CTYellow':2 },300,{ chips  'CTRed':9 'CTGreen':0 'CTPurple':2 'grey78':7 'CTYellow':1 },95,{ chips  'CTRed':9 'CTGreen':0 'CTPurple':2 'grey78':0 'CTYellow':7 },90
3playersLog_1388925848906.csv,16,510,540,true,{ chips  'CTYellow':2 },{ chips  'CTRed':9 'CTPurple':2 },FALSE,300,90,,,,,1,(R:2,C:1),{ chips  'CTRed':48 'CTGreen':0 'CTPurple':7 'grey78':2 'CTYellow':2 },295,{ chips  'CTRed':9 'CTGreen':0 'CTPurple':2 'grey78':7 'CTYellow':1 },95,{ chips  'CTRed':9 'CTGreen':0 'CTPurple':2 'grey78':0 'CTYellow':7 },90
3playersLog_1388925848906.csv,17,520,510,false,{ chips  'CTRed':8 'CTPurple':2 'CTYellow':1 },{ chips  'grey78':1 },FALSE,95,295,,,,,0,(R:2,C:1),{ chips  'CTRed':48 'CTGreen':0 'CTPurple':7 'grey78':2 'CTYellow':2 },295,{ chips  'CTRed':9 'CTGreen':0 'CTPurple':2 'grey78':7 'CTYellow':1 },95,{ chips  'CTRed':9 'CTGreen':0 'CTPurple':2 'grey78':0 'CTYellow':7 },90
3playersLog_1388925848906.csv,17,540,510,false,{ chips  'CTRed':1 },{ chips  'CTPurple':1 },FALSE,90,295,,,,,0,(R:2,C:1),{ chips  'CTRed':48 'CTGreen':0 'CTPurple':7 'grey78':2 'CTYellow':2 },295,{ chips  'CTRed':9 'CTGreen':0 'CTPurple':2 'grey78':7 'CTYellow':1 },95,{ chips  'CTRed':9 'CTGreen':0 'CTPurple':2 'grey78':0 'CTYellow':7 },90
3playersLog_1388925848906.csv,18,510,540,true,{ chips  'CTYellow':2 },{ chips  'CTRed':9 'CTPurple':2 },TRUE,295,95,{ chips  'CTYellow':2 },{ chips  'CTRed':9 'CTPurple':2 'grey78':0 },340,45,3,(R:0,C:0),{ chips  'CTRed':57 'CTGreen':0 'CTPurple':8 'grey78':0 'CTYellow':0 },475,{ chips  'CTRed':9 'CTGreen':0 'CTPurple':2 'grey78':7 'CTYellow':1 },95,{ chips  'CTRed':0 'CTGreen':0 'CTPurple':0 'grey78':0 'CTYellow':9 },195
3playersLog_1388925848906.csv,,,,,,,,,,,,,,,,,,,,,,,,true
