filename,round,propID,respID,IsPropCustomer,chipsToSend,chipsToReceive,accept,propCurrentScore,respCurrentScore,actualSent,ActualRcvd,propResultingScore,respResultingScore,#ofCustomerMovesInRound,customerRowPositionAfterMovePhase,customerColPositionAfterMovePhase,Player100ChipsAfterMovePhase,Player100ScoreAfterMovePhase,Player200ChipsAfterMovePhase,Player200ScoreAfterMovePhase,Player300ChipsAfterMovePhase,Player300ScoreAfterMovePhase,generosityLevel,ClientReachedGoal
3playersLog_1386175492256.csv,1,520,510,false,{ chips  'CTRed':1 'CTPurple':2 },{ chips  'CTYellow':3 },IGNORED,200,120,,,,,0,(R:5,C:4),{ chips  'CTRed':5 'CTGreen':0 'CTPurple':0 'grey78':12 'CTYellow':10 },135,{ chips  'CTRed':33 'CTGreen':0 'CTPurple':7 'grey78':0 'CTYellow':0 },200,{ chips  'CTRed':28 'CTGreen':0 'CTPurple':7 'grey78':0 'CTYellow':2 },185
3playersLog_1386175492256.csv,1,540,510,false,{ chips  'CTRed':5 },{ chips  'CTYellow':2 },TRUE,200,120,{ chips  'CTRed':5 'CTPurple':0 'CTGreen':0 'grey78':0 'CTYellow':0 },{ chips  'CTRed':0 'CTPurple':0 'CTGreen':0 'grey78':0 'CTYellow':2 },185,135,0,(R:5,C:4),{ chips  'CTRed':5 'CTGreen':0 'CTPurple':0 'grey78':12 'CTYellow':10 },135,{ chips  'CTRed':33 'CTGreen':0 'CTPurple':7 'grey78':0 'CTYellow':0 },200,{ chips  'CTRed':28 'CTGreen':0 'CTPurple':7 'grey78':0 'CTYellow':2 },185
3playersLog_1386175492256.csv,2,510,540,true,{ chips  'CTYellow':9 },{ chips  'CTRed':28 'CTPurple':7 },TRUE,135,200,{ chips  'CTYellow':9 },{ chips  'CTRed':28 'CTPurple':7 'grey78':0 },265,55,9,(R:0,C:0),{ chips  'CTRed':33 'CTGreen':0 'CTPurple':6 'grey78':4 'CTYellow':1 },370,{ chips  'CTRed':33 'CTGreen':0 'CTPurple':7 'grey78':0 'CTYellow':0 },200,{ chips  'CTRed':0 'CTGreen':0 'CTPurple':0 'grey78':0 'CTYellow':11 },205
3playersLog_1386175492256.csv,,,,,,,,,,,,,,,,,,,,,,,,true
