filename,round,propID,respID,IsPropCustomer,chipsToSend,chipsToReceive,accept,propCurrentScore,respCurrentScore,actualSent,ActualRcvd,propResultingScore,respResultingScore,#ofCustomerMovesInRound,customerRowPositionAfterMovePhase,customerColPositionAfterMovePhase,Player100ChipsAfterMovePhase,Player100ScoreAfterMovePhase,Player200ChipsAfterMovePhase,Player200ScoreAfterMovePhase,Player300ChipsAfterMovePhase,Player300ScoreAfterMovePhase,generosityLevel,ClientReachedGoal
3playersLog_1371388778404.csv,1,200,100,false,{ chips  'CTRed':10 'CTPurple':3 },{ chips  'grey78':7 },TRUE,200,120,{ chips  'CTRed':10 'CTPurple':3 'CTGreen':0 'grey78':0 'CTYellow':0 },{ chips  'CTRed':0 'CTPurple':0 'CTGreen':0 'grey78':7 'CTYellow':0 },170,150,6,(R:2,C:7),{ chips  'CTRed':10 'CTGreen':0 'CTPurple':3 'grey78':5 'CTYellow':6 },120,{ chips  'CTRed':23 'CTGreen':0 'CTPurple':4 'grey78':7 'CTYellow':0 },170,{ chips  'CTRed':33 'CTGreen':0 'CTPurple':7 'grey78':0 'CTYellow':0 },200
3playersLog_1371388778404.csv,2,100,300,true,{ chips  'CTYellow':6 },{ chips  'CTRed':20 'CTPurple':4 },FALSE,120,200,,,,,3,(R:0,C:8),{ chips  'CTRed':10 'CTGreen':0 'CTPurple':3 'grey78':5 'CTYellow':3 },255,{ chips  'CTRed':23 'CTGreen':0 'CTPurple':4 'grey78':7 'CTYellow':0 },320,{ chips  'CTRed':33 'CTGreen':0 'CTPurple':7 'grey78':0 'CTYellow':0 },200
3playersLog_1371388778404.csv,,,,,,,,,,,,,,,,,,,,,,,,true
