Tue Sep 03 13:29:33 IDT 2013	This is the CT debug logger; svn version 638; sep 27 09
Tue Sep 03 13:29:33 IDT 2013	Tue Sep 03 13:29:33 IDT 2013
Tue Sep 03 13:29:33 IDT 2013	ThreePlayersAgentPlayer(): entering.
Tue Sep 03 13:33:00 IDT 2013	phaseAdvanced(): entering.
Tue Sep 03 13:33:00 IDT 2013	phaseAdvanced(): new phase is 'Strategy Prep Phase'.
Tue Sep 03 13:34:00 IDT 2013	phaseAdvanced(): entering.
Tue Sep 03 13:34:00 IDT 2013	phaseAdvanced(): new phase is 'Communication Phase'.
Tue Sep 03 13:34:20 IDT 2013	onReceipt(): entering.
Tue Sep 03 13:34:20 IDT 2013	phaseAdvanced(): entering.
Tue Sep 03 13:34:20 IDT 2013	phaseAdvanced(): new phase is 'Movement Phase'.
Tue Sep 03 13:35:05 IDT 2013	phaseAdvanced(): entering.
Tue Sep 03 13:35:05 IDT 2013	phaseAdvanced(): new phase is 'Feedback Phase'.
Tue Sep 03 13:35:10 IDT 2013	phaseAdvanced(): entering.
Tue Sep 03 13:35:10 IDT 2013	phaseAdvanced(): new phase is 'Communication Phase'.
Tue Sep 03 13:36:57 IDT 2013	phaseAdvanced(): entering.
Tue Sep 03 13:36:57 IDT 2013	phaseAdvanced(): new phase is 'Movement Phase'.
Tue Sep 03 13:37:42 IDT 2013	phaseAdvanced(): entering.
Tue Sep 03 13:37:42 IDT 2013	phaseAdvanced(): new phase is 'Feedback Phase'.
Tue Sep 03 13:37:47 IDT 2013	phaseAdvanced(): entering.
Tue Sep 03 13:37:47 IDT 2013	phaseAdvanced(): new phase is 'Communication Phase'.
Tue Sep 03 13:37:56 IDT 2013	onReceipt(): entering.
Tue Sep 03 13:38:29 IDT 2013	phaseAdvanced(): entering.
Tue Sep 03 13:38:29 IDT 2013	phaseAdvanced(): new phase is 'Movement Phase'.
Tue Sep 03 13:39:14 IDT 2013	phaseAdvanced(): entering.
Tue Sep 03 13:39:14 IDT 2013	phaseAdvanced(): new phase is 'Feedback Phase'.
Tue Sep 03 13:39:19 IDT 2013	phaseAdvanced(): entering.
Tue Sep 03 13:39:19 IDT 2013	phaseAdvanced(): new phase is 'Communication Phase'.
Tue Sep 03 13:39:51 IDT 2013	onReceipt(): entering.
Tue Sep 03 13:42:19 IDT 2013	phaseAdvanced(): entering.
Tue Sep 03 13:42:19 IDT 2013	phaseAdvanced(): new phase is 'Movement Phase'.
Tue Sep 03 13:43:04 IDT 2013	phaseAdvanced(): entering.
Tue Sep 03 13:43:04 IDT 2013	phaseAdvanced(): new phase is 'Feedback Phase'.
Tue Sep 03 13:43:09 IDT 2013	phaseAdvanced(): entering.
Tue Sep 03 13:43:09 IDT 2013	phaseAdvanced(): new phase is 'Communication Phase'.
Tue Sep 03 13:43:15 IDT 2013	onReceipt(): entering.
Tue Sep 03 13:45:04 IDT 2013	phaseAdvanced(): entering.
Tue Sep 03 13:45:04 IDT 2013	phaseAdvanced(): new phase is 'Movement Phase'.
Tue Sep 03 13:45:49 IDT 2013	phaseAdvanced(): entering.
Tue Sep 03 13:45:49 IDT 2013	phaseAdvanced(): new phase is 'Feedback Phase'.
Tue Sep 03 13:45:54 IDT 2013	phaseAdvanced(): entering.
Tue Sep 03 13:45:54 IDT 2013	phaseAdvanced(): new phase is 'Communication Phase'.
Tue Sep 03 13:47:09 IDT 2013	onReceipt(): entering.
Tue Sep 03 13:48:54 IDT 2013	phaseAdvanced(): entering.
Tue Sep 03 13:48:54 IDT 2013	phaseAdvanced(): new phase is 'Movement Phase'.
Tue Sep 03 13:49:39 IDT 2013	phaseAdvanced(): entering.
Tue Sep 03 13:49:39 IDT 2013	phaseAdvanced(): new phase is 'Feedback Phase'.
Tue Sep 03 13:49:44 IDT 2013	phaseAdvanced(): entering.
Tue Sep 03 13:49:44 IDT 2013	phaseAdvanced(): new phase is 'Communication Phase'.
Tue Sep 03 13:49:52 IDT 2013	onReceipt(): entering.
Tue Sep 03 13:49:52 IDT 2013	phaseAdvanced(): entering.
Tue Sep 03 13:49:52 IDT 2013	phaseAdvanced(): new phase is 'Movement Phase'.
Tue Sep 03 13:50:37 IDT 2013	phaseAdvanced(): entering.
Tue Sep 03 13:50:37 IDT 2013	phaseAdvanced(): new phase is 'Feedback Phase'.
Tue Sep 03 13:50:42 IDT 2013	phaseAdvanced(): entering.
Tue Sep 03 13:50:42 IDT 2013	phaseAdvanced(): new phase is 'Communication Phase'.
Tue Sep 03 13:51:52 IDT 2013	phaseAdvanced(): entering.
Tue Sep 03 13:51:52 IDT 2013	phaseAdvanced(): new phase is 'Movement Phase'.
Tue Sep 03 13:52:37 IDT 2013	phaseAdvanced(): entering.
Tue Sep 03 13:52:37 IDT 2013	phaseAdvanced(): new phase is 'Feedback Phase'.
