@relation LogsAnalysys_GUI_TI_offers_PAL_ARG_Model-weka.filters.unsupervised.attribute.Remove-R1-2

@attribute playerI_CS numeric
@attribute playerJ_CS numeric
@attribute playerI_Role {TI,TD}
@attribute playerJ_Role {TI,TD}
@attribute playerI_PR numeric
@attribute playerJ_PR numeric
@attribute playerI_Dormant numeric
@attribute playerJ_Dormant numeric
@attribute playerI_ReachedGoal {FALSE,TRUE}

@data
45,180,TD,TI,0.5,0.5,0,0,FALSE
45,180,TD,TI,0.5,0.5,0,0,FALSE
70,175,TD,TI,0.333333,1,1,1,FALSE
70,175,TD,TI,0.333333,1,1,1,FALSE
70,175,TD,TI,0.333333,1,2,2,FALSE
70,175,TD,TI,0.333333,1,2,2,FALSE
45,180,TD,TI,0.5,0.5,0,0,FALSE
55,180,TD,TI,1,1,1,1,FALSE
55,180,TD,TI,1,1,1,1,FALSE
55,180,TD,TI,0,0,2,2,FALSE
45,180,TD,TI,0.5,0.5,0,0,FALSE
45,180,TD,TI,0.5,0.5,0,0,FALSE
45,180,TD,TI,0.5,0.5,1,1,FALSE
65,180,TD,TI,0.4,1,2,2,FALSE
45,180,TD,TI,0.5,0.5,0,0,FALSE
55,180,TD,TI,0.5,1,1,1,FALSE
55,180,TD,TI,0,0,2,2,FALSE
55,180,TD,TI,0,0,2,2,FALSE
45,180,TD,TI,0.5,0.5,0,0,FALSE
45,180,TD,TI,0.5,0.5,0,0,FALSE
45,180,TD,TI,0.5,0.5,1,1,FALSE
70,175,TD,TI,0.25,1,2,2,FALSE
45,180,TD,TI,0.5,0.5,0,0,FALSE
65,180,TD,TI,0.4,1,1,1,FALSE
70,175,TD,TI,0,0.041667,2,2,FALSE
45,180,TD,TI,0.5,0.5,0,0,TRUE
55,190,TD,TI,1,1,1,1,TRUE
45,180,TD,TI,0.5,0.5,0,0,TRUE
50,195,TD,TI,1,1,1,1,TRUE
45,180,TD,TI,0.5,0.5,0,0,TRUE
45,180,TD,TI,0.5,0.5,0,0,TRUE
50,195,TD,TI,1,1,1,1,TRUE
50,195,TD,TI,1,1,1,1,TRUE
30,215,TD,TI,1,0,2,2,TRUE
45,180,TD,TI,0.5,0.5,0,0,TRUE
45,180,TD,TI,0.5,0.5,0,0,TRUE
45,180,TD,TI,0.5,0.5,1,1,TRUE
45,180,TD,TI,0.5,0.5,1,1,TRUE
45,200,TD,TI,1,1,2,2,TRUE
45,180,TD,TI,0.5,0.5,0,0,TRUE
45,180,TD,TI,0.5,0.5,0,0,TRUE
45,180,TD,TI,0.5,0.5,1,1,TRUE
45,180,TD,TI,0.5,0.5,1,1,TRUE
50,195,TD,TI,1,1,2,2,TRUE
45,180,TD,TI,0.5,0.5,0,0,FALSE
55,180,TD,TI,0.5,1,1,1,FALSE
55,180,TD,TI,0.5,1,1,1,FALSE
55,180,TD,TI,0.5,1,2,2,FALSE
55,180,TD,TI,0.5,1,2,2,FALSE
45,180,TD,TI,0.5,0.5,0,0,TRUE
50,195,TD,TI,1,1,1,1,TRUE
45,180,TD,TI,0.5,0.5,0,0,FALSE
45,180,TD,TI,0.5,0.5,0,0,FALSE
45,180,TD,TI,0.5,0.5,1,1,FALSE
45,180,TD,TI,0.5,0.5,1,1,FALSE
45,180,TD,TI,0.5,0.5,2,2,FALSE
45,180,TD,TI,0.5,0.5,0,0,FALSE
45,180,TD,TI,1,0,1,1,FALSE
45,180,TD,TI,1,0,1,1,FALSE
45,180,TD,TI,1,0,2,2,FALSE
45,180,TD,TI,1,0,2,2,FALSE
45,180,TD,TI,0.5,0.5,0,0,TRUE
45,180,TD,TI,0.5,0.5,0,0,TRUE
45,180,TD,TI,0.5,0.5,1,1,TRUE
45,180,TD,TI,0.5,0.5,1,1,TRUE
50,195,TD,TI,1,1,2,2,TRUE
45,180,TD,TI,0.5,0.5,0,0,TRUE
45,180,TD,TI,0.5,0.5,0,0,TRUE
45,180,TD,TI,0.5,0.5,1,1,TRUE
50,195,TD,TI,1,1,2,2,TRUE
45,180,TD,TI,0.5,0.5,0,0,FALSE
45,180,TD,TI,0.5,0.5,0,0,FALSE
45,180,TD,TI,0.5,0.5,1,1,FALSE
45,180,TD,TI,0.5,0.5,1,1,FALSE
45,180,TD,TI,0.5,0.5,2,2,FALSE
45,180,TD,TI,0.5,0.5,0,0,FALSE
45,180,TD,TI,0.5,0.5,0,0,FALSE
45,180,TD,TI,0.5,0.5,1,1,FALSE
45,180,TD,TI,0.5,0.5,1,1,FALSE
45,180,TD,TI,0.5,0.5,2,2,FALSE
45,180,TD,TI,0.5,0.5,2,2,FALSE
45,180,TD,TI,0.5,0.5,0,0,TRUE
45,180,TD,TI,0.5,0.5,0,0,TRUE
50,195,TD,TI,1,1,1,1,TRUE
50,195,TD,TI,1,1,1,1,TRUE
50,195,TD,TI,1,1,2,2,TRUE
45,180,TD,TI,0.5,0.5,0,0,TRUE
45,180,TD,TI,0.5,0.5,0,0,TRUE
45,180,TD,TI,0.5,0.5,1,1,TRUE
45,180,TD,TI,0.5,0.5,1,1,TRUE
50,195,TD,TI,1,1,2,2,TRUE
45,180,TD,TI,0.5,0.5,0,0,TRUE
45,180,TD,TI,0.5,0.5,0,0,TRUE
45,180,TD,TI,0.5,0.5,1,1,TRUE
55,190,TD,TI,1,1,2,2,TRUE
45,180,TD,TI,0.5,0.5,0,0,FALSE
55,180,TD,TI,0.5,1,1,1,FALSE
55,180,TD,TI,0.5,1,1,1,FALSE
55,180,TD,TI,0.5,1,2,2,FALSE
55,180,TD,TI,0.5,1,2,2,FALSE
45,180,TD,TI,0.5,0.5,0,0,TRUE
45,180,TD,TI,0.5,0.5,0,0,TRUE
55,190,TD,TI,1,1,1,1,TRUE
55,190,TD,TI,1,1,1,1,TRUE
45,180,TD,TI,0.5,0.5,0,0,TRUE
45,200,TD,TI,1,1,1,1,TRUE
45,180,TD,TI,0.5,0.5,0,0,TRUE
45,180,TD,TI,0.5,0.5,0,0,TRUE
50,195,TD,TI,1,1,1,1,TRUE
45,180,TD,TI,0.5,0.5,0,0,FALSE
50,185,TD,TI,1,1,1,1,FALSE
50,185,TD,TI,1,1,1,1,FALSE
50,185,TD,TI,1,1,2,2,FALSE
50,185,TD,TI,1,1,2,2,FALSE
45,180,TD,TI,0.5,0.5,0,0,FALSE
50,185,TD,TI,1,1,1,1,FALSE
50,185,TD,TI,1,1,1,1,FALSE
50,185,TD,TI,1,1,2,2,FALSE
50,185,TD,TI,1,1,2,2,FALSE
45,180,TD,TI,0.5,0.5,0,0,TRUE
45,180,TD,TI,0.5,0.5,0,0,TRUE
45,180,TD,TI,0.5,0.5,1,1,TRUE
50,195,TD,TI,1,1,2,2,TRUE
45,180,TD,TI,0.5,0.5,0,0,TRUE
45,180,TD,TI,0.5,0.5,0,0,FALSE
45,180,TD,TI,0.5,0.5,0,0,FALSE
45,180,TD,TI,0.5,0.5,1,1,FALSE
55,190,TD,TI,1,1,2,2,FALSE
55,190,TD,TI,1,1,2,2,FALSE
45,180,TD,TI,0.5,0.5,0,0,TRUE
45,180,TD,TI,0.5,0.5,0,0,TRUE
45,180,TD,TI,0.5,0.5,1,1,TRUE
45,180,TD,TI,0.5,0.5,1,1,TRUE
45,200,TD,TI,1,1,2,2,TRUE
45,200,TD,TI,1,1,2,2,TRUE
45,180,TD,TI,0.5,0.5,0,0,TRUE
45,180,TD,TI,0.5,0.5,0,0,TRUE
45,180,TD,TI,0.5,0.5,1,1,TRUE
45,180,TD,TI,0.5,0.5,1,1,TRUE
45,180,TD,TI,0.5,0.5,2,2,TRUE
45,180,TD,TI,0.5,0.5,0,0,FALSE
45,180,TD,TI,0.5,0.5,0,0,FALSE
45,180,TD,TI,0.5,0.5,1,1,FALSE
45,180,TD,TI,0.5,0.5,1,1,FALSE
45,180,TD,TI,0.5,0.5,2,2,FALSE
45,180,TD,TI,0.5,0.5,2,2,FALSE
45,180,TD,TI,0.5,0.5,0,0,TRUE
45,180,TD,TI,0.5,0.5,0,0,TRUE
45,180,TD,TI,0.5,0.5,1,1,TRUE
50,195,TD,TI,1,1,2,2,TRUE
50,195,TD,TI,1,1,2,2,TRUE
45,180,TD,TI,0.5,0.5,0,0,FALSE
45,180,TD,TI,0.5,0.5,0,0,FALSE
45,180,TD,TI,0.5,0.5,1,1,FALSE
45,180,TD,TI,0.5,0.5,1,1,FALSE
45,180,TD,TI,0.5,0.5,2,2,FALSE
45,180,TD,TI,0.5,0.5,0,0,FALSE
45,180,TD,TI,0.5,0.5,0,0,FALSE
45,180,TD,TI,0.5,0.5,1,1,FALSE
60,185,TD,TI,0.75,1,2,2,FALSE
45,180,TD,TI,0.5,0.5,0,0,TRUE
45,180,TD,TI,0.5,0.5,0,0,TRUE
60,185,TD,TI,0.75,1,1,1,TRUE
70,175,TD,TI,0,0.083333,2,2,TRUE
70,175,TD,TI,0,0.083333,2,2,TRUE
45,180,TD,TI,0.5,0.5,0,0,FALSE
45,180,TD,TI,0.5,0.5,0,0,FALSE
45,180,TD,TI,0.5,0.5,1,1,FALSE
45,180,TD,TI,0.5,0.5,1,1,FALSE
45,200,TD,TI,1,1,2,2,FALSE
45,200,TD,TI,1,1,2,2,FALSE
45,180,TD,TI,0.5,0.5,0,0,TRUE
45,180,TD,TI,0.5,0.5,0,0,TRUE
45,180,TD,TI,0.5,0.5,1,1,TRUE
45,180,TD,TI,0.5,0.5,1,1,TRUE
50,195,TD,TI,1,1,2,2,TRUE
45,180,TD,TI,0.5,0.5,0,0,TRUE
45,180,TD,TI,0.5,0.5,0,0,TRUE
45,180,TD,TI,0.5,0.5,1,1,TRUE
45,180,TD,TI,0.5,0.5,1,1,TRUE
45,200,TD,TI,1,1,2,2,TRUE
45,180,TD,TI,0.5,0.5,0,0,TRUE
45,180,TD,TI,0.5,0.5,0,0,TRUE
55,190,TD,TI,1,1,1,1,TRUE
45,180,TD,TI,0.5,0.5,0,0,TRUE
45,180,TD,TI,0.5,0.5,0,0,TRUE
45,180,TD,TI,0.5,0.5,1,1,TRUE
50,195,TD,TI,1,1,2,2,TRUE
50,195,TD,TI,1,1,2,2,TRUE
45,180,TD,TI,0.5,0.5,0,0,FALSE
55,180,TD,TI,0.5,1,1,1,FALSE
55,180,TD,TI,0.5,1,1,1,FALSE
55,180,TD,TI,0.5,1,2,2,FALSE
55,180,TD,TI,0.5,1,2,2,FALSE
45,180,TD,TI,0.5,0.5,0,0,FALSE
45,180,TD,TI,0.5,0.5,0,0,FALSE
45,180,TD,TI,0.5,0.5,1,1,FALSE
45,180,TD,TI,0.5,0.5,1,1,FALSE
45,180,TD,TI,0.5,0.5,2,2,FALSE
45,180,TD,TI,0.5,0.5,0,0,FALSE
45,180,TD,TI,0.5,0.5,0,0,FALSE
45,180,TD,TI,0.5,0.5,1,1,FALSE
70,175,TD,TI,0.2,1,2,2,FALSE
70,175,TD,TI,0.2,1,2,2,FALSE
45,180,TD,TI,0.5,0.5,0,0,FALSE
45,180,TD,TI,0.5,0.5,0,0,FALSE
45,180,TD,TI,0.5,0.5,1,1,FALSE
45,180,TD,TI,0.5,0.5,1,1,FALSE
70,175,TD,TI,0.25,1,2,2,FALSE
70,175,TD,TI,0.25,1,2,2,FALSE
45,180,TD,TI,0.5,0.5,0,0,TRUE
65,180,TD,TI,0.666667,1,1,1,TRUE
65,180,TD,TI,0.666667,1,1,1,TRUE
45,180,TD,TI,0.5,0.5,0,0,FALSE
55,180,TD,TI,0.5,1,1,1,FALSE
55,180,TD,TI,0.5,1,1,1,FALSE
55,180,TD,TI,0.5,1,2,2,FALSE
55,180,TD,TI,0.5,1,2,2,FALSE