Thu Sep 12 09:43:45 IST 2013	This is the CT debug logger; svn version 638; sep 27 09
Thu Sep 12 09:43:45 IST 2013	Thu Sep 12 09:43:45 IST 2013
Thu Sep 12 09:43:45 IST 2013	ThreePlayersAgentPlayer(): entering.
Thu Sep 12 09:44:37 IST 2013	phaseAdvanced(): entering.
Thu Sep 12 09:44:37 IST 2013	phaseAdvanced(): new phase is 'Strategy Prep Phase'.
Thu Sep 12 09:45:37 IST 2013	phaseAdvanced(): entering.
Thu Sep 12 09:45:37 IST 2013	phaseAdvanced(): new phase is 'Communication Phase'.
Thu Sep 12 09:47:21 IST 2013	onReceipt(): entering.
Thu Sep 12 09:47:21 IST 2013	onReceipt(): opponent's proposal: ({ chips  'CTRed':1 'CTPurple':2 'CTGreen':0 'grey78':0 'CTYellow':0 }, { chips  'CTRed':0 'CTPurple':0 'CTGreen':0 'grey78':0 'CTYellow':0 }).
Thu Sep 12 09:47:57 IST 2013	onReceipt(): entering.
Thu Sep 12 09:47:57 IST 2013	onReceipt(): opponent's proposal: ({ chips  'CTRed':0 'CTPurple':2 'CTGreen':0 'grey78':0 'CTYellow':0 }, { chips  'CTRed':0 'CTPurple':0 'CTGreen':0 'grey78':0 'CTYellow':2 }).
Thu Sep 12 09:47:57 IST 2013	responseToSend(): entering.
Thu Sep 12 09:47:57 IST 2013	compareProposals(): decision: 0 utility 135.0
Thu Sep 12 09:47:57 IST 2013	responseToSend(): accepting proposal ({ chips  'CTRed':1 'CTPurple':2 'CTGreen':0 'grey78':0 'CTYellow':0 }, { chips  'CTRed':0 'CTPurple':0 'CTGreen':0 'grey78':0 'CTYellow':0 }).
Thu Sep 12 09:47:57 IST 2013	phaseAdvanced(): entering.
Thu Sep 12 09:47:57 IST 2013	phaseAdvanced(): new phase is 'Movement Phase'.
Thu Sep 12 09:48:16 IST 2013	responseToSend(): entering.
Thu Sep 12 09:48:42 IST 2013	phaseAdvanced(): entering.
Thu Sep 12 09:48:42 IST 2013	phaseAdvanced(): new phase is 'Feedback Phase'.
Thu Sep 12 09:48:47 IST 2013	phaseAdvanced(): entering.
Thu Sep 12 09:48:47 IST 2013	phaseAdvanced(): new phase is 'Communication Phase'.
Thu Sep 12 09:49:56 IST 2013	onReceipt(): entering.
Thu Sep 12 09:49:56 IST 2013	phaseAdvanced(): entering.
Thu Sep 12 09:49:56 IST 2013	phaseAdvanced(): new phase is 'Movement Phase'.
Thu Sep 12 09:49:56 IST 2013	phaseAdvanced(): found paths (20).
Thu Sep 12 09:50:41 IST 2013	phaseAdvanced(): entering.
Thu Sep 12 09:50:41 IST 2013	phaseAdvanced(): new phase is 'Feedback Phase'.
