filename,round,propID,respID,IsPropCustomer,chipsToSend,chipsToReceive,accept,propCurrentScore,respCurrentScore,actualSent,ActualRcvd,propResultingScore,respResultingScore,#ofCustomerMovesInRound,customerRowPositionAfterMovePhase,customerColPositionAfterMovePhase,Player100ChipsAfterMovePhase,Player100ScoreAfterMovePhase,Player200ChipsAfterMovePhase,Player200ScoreAfterMovePhase,Player300ChipsAfterMovePhase,Player300ScoreAfterMovePhase,generosityLevel,ClientReachedGoal
3playersLog_1389012269906.csv,1,520,510,false,{ chips  'CTRed':3 },{ chips  'grey78':2 'CTYellow':1 },IGNORED,200,120,,,,,0,(R:5,C:4),{ chips  'CTRed':0 'CTGreen':0 'CTPurple':3 'grey78':12 'CTYellow':12 },135,{ chips  'CTRed':33 'CTGreen':0 'CTPurple':7 'grey78':0 'CTYellow':0 },200,{ chips  'CTRed':33 'CTGreen':0 'CTPurple':4 'grey78':0 'CTYellow':0 },185
3playersLog_1389012269906.csv,1,540,510,false,{ chips  'CTPurple':3 },{ chips  },TRUE,200,120,{ chips  'CTRed':0 'CTPurple':3 'CTGreen':0 'grey78':0 'CTYellow':0 },{ chips  'CTRed':0 'CTPurple':0 'CTGreen':0 'grey78':0 'CTYellow':0 },185,135,0,(R:5,C:4),{ chips  'CTRed':0 'CTGreen':0 'CTPurple':3 'grey78':12 'CTYellow':12 },135,{ chips  'CTRed':33 'CTGreen':0 'CTPurple':7 'grey78':0 'CTYellow':0 },200,{ chips  'CTRed':33 'CTGreen':0 'CTPurple':4 'grey78':0 'CTYellow':0 },185
3playersLog_1389012269906.csv,2,510,540,true,{ chips  'CTYellow':11 },{ chips  'CTRed':33 'CTPurple':4 },TRUE,135,200,{ chips  'CTYellow':11 },{ chips  'CTRed':33 'CTPurple':4 'grey78':0 },265,55,9,(R:0,C:0),{ chips  'CTRed':33 'CTGreen':0 'CTPurple':6 'grey78':4 'CTYellow':1 },370,{ chips  'CTRed':33 'CTGreen':0 'CTPurple':7 'grey78':0 'CTYellow':0 },200,{ chips  'CTRed':0 'CTGreen':0 'CTPurple':0 'grey78':0 'CTYellow':11 },205
3playersLog_1389012269906.csv,,,,,,,,,,,,,,,,,,,,,,,,true
