Wed Sep 11 13:02:45 IDT 2013	This is the CT debug logger; svn version 638; sep 27 09
Wed Sep 11 13:02:45 IDT 2013	Wed Sep 11 13:02:45 IDT 2013
Wed Sep 11 13:02:45 IDT 2013	ID Number: 65923
Wed Sep 11 13:02:45 IDT 2013	Creating board
Wed Sep 11 13:02:45 IDT 2013	<colors>
Wed Sep 11 13:02:45 IDT 2013	{ GamePalette  'CTPurple':0 'CTRed':1 'CTGreen':2 'grey78':3 'CTYellow':4 }
Wed Sep 11 13:02:45 IDT 2013	<rows>
Wed Sep 11 13:02:45 IDT 2013	6
Wed Sep 11 13:02:45 IDT 2013	<columns>
Wed Sep 11 13:02:45 IDT 2013	9
Wed Sep 11 13:02:45 IDT 2013	<squaresColors>
Wed Sep 11 13:02:45 IDT 2013	grey78 CTGreen CTGreen CTGreen CTGreen CTGreen CTGreen CTGreen CTYellow 
Wed Sep 11 13:02:45 IDT 2013	grey78 CTPurple CTPurple CTPurple CTPurple CTPurple CTPurple CTPurple CTYellow 
Wed Sep 11 13:02:45 IDT 2013	grey78 grey78 CTGreen CTGreen CTGreen CTGreen CTGreen CTYellow CTYellow 
Wed Sep 11 13:02:45 IDT 2013	CTGreen grey78 grey78 CTPurple CTPurple CTPurple CTYellow CTYellow CTGreen 
Wed Sep 11 13:02:45 IDT 2013	CTGreen CTGreen grey78 grey78 CTGreen CTYellow CTYellow CTGreen CTGreen 
Wed Sep 11 13:02:45 IDT 2013	CTGreen CTGreen CTGreen grey78 CTGreen CTYellow CTGreen CTGreen CTGreen 
Wed Sep 11 13:02:45 IDT 2013	</squareColors>
Wed Sep 11 13:02:45 IDT 2013	<goalPosition>
Wed Sep 11 13:02:45 IDT 2013	Goal position: (R:0,C:0)
Wed Sep 11 13:02:45 IDT 2013	<goalPosition>
Wed Sep 11 13:02:45 IDT 2013	Goal position: (R:0,C:0)
Wed Sep 11 13:02:45 IDT 2013	<firstPlayerPossibleGoal1>
Wed Sep 11 13:02:45 IDT 2013	0.5
Wed Sep 11 13:02:45 IDT 2013	0
Wed Sep 11 13:02:45 IDT 2013	0
Wed Sep 11 13:02:45 IDT 2013	</firstPlayerPossibleGoal1>
Wed Sep 11 13:02:45 IDT 2013	<firstPlayerPossibleGoal2>
Wed Sep 11 13:02:45 IDT 2013	0.5
Wed Sep 11 13:02:45 IDT 2013	0
Wed Sep 11 13:02:45 IDT 2013	8
Wed Sep 11 13:02:45 IDT 2013	</firstPlayerPossibleGoal2>
Wed Sep 11 13:02:45 IDT 2013	<numberOfPlayers>
Wed Sep 11 13:02:45 IDT 2013	3
Wed Sep 11 13:02:45 IDT 2013	<firstPlayerChips>
Wed Sep 11 13:02:45 IDT 2013	Setting chips for player: 510 id:0
Wed Sep 11 13:02:45 IDT 2013	{ chips  'CTRed':0 'CTGreen':0 'CTPurple':0 'grey78':12 'CTYellow':12 }
Wed Sep 11 13:02:45 IDT 2013	Player position: (R:5,C:4)
Wed Sep 11 13:02:45 IDT 2013	Setting chips for player: 520 id:1
Wed Sep 11 13:02:45 IDT 2013	{ chips  'CTRed':33 'CTGreen':0 'CTPurple':7 'grey78':0 'CTYellow':0 }
Wed Sep 11 13:02:45 IDT 2013	Player position: (R:0,C:8)
Wed Sep 11 13:02:45 IDT 2013	Setting chips for player: 540 id:2
Wed Sep 11 13:02:45 IDT 2013	{ chips  'CTRed':33 'CTGreen':0 'CTPurple':7 'grey78':0 'CTYellow':0 }
Wed Sep 11 13:02:45 IDT 2013	Player position: (R:0,C:0)
Wed Sep 11 13:02:46 IDT 2013	Protocol: A New Phase Began: Strategy Prep Phase. loop is true
Wed Sep 11 13:02:46 IDT 2013	---------- Beginning Strategy Prep Phase at round 0 ----------
Wed Sep 11 13:03:46 IDT 2013	A Phase Ended: Strategy Prep Phase
Wed Sep 11 13:03:46 IDT 2013	Protocol: A New Phase Began: Communication Phase. loop is true
Wed Sep 11 13:03:46 IDT 2013	---------- Beginning Communication Phase at round 1 ----------
Wed Sep 11 13:04:35 IDT 2013	Received communication message 
Wed Sep 11 13:04:35 IDT 2013	From player: 540
Wed Sep 11 13:04:35 IDT 2013	To player: 510
Wed Sep 11 13:04:35 IDT 2013	Chips to send by proposer: { chips  'CTRed':0 'CTPurple':2 'CTGreen':0 'grey78':0 'CTYellow':0 }
Wed Sep 11 13:04:35 IDT 2013	Chips to send by responder: { chips  'CTRed':0 'CTPurple':0 'CTGreen':0 'grey78':3 'CTYellow':0 }
Wed Sep 11 13:05:53 IDT 2013	Received communication message 
Wed Sep 11 13:05:53 IDT 2013	From player: 520
Wed Sep 11 13:05:53 IDT 2013	To player: 510
Wed Sep 11 13:05:53 IDT 2013	Chips to send by proposer: { chips  'CTRed':0 'CTPurple':4 'CTGreen':0 'grey78':0 'CTYellow':0 }
Wed Sep 11 13:05:53 IDT 2013	Chips to send by responder: { chips  'CTRed':0 'CTPurple':0 'CTGreen':0 'grey78':0 'CTYellow':2 }
Wed Sep 11 13:05:53 IDT 2013	Received communication message 
Wed Sep 11 13:05:53 IDT 2013	Proposer 0 accepted? true
Wed Sep 11 13:05:53 IDT 2013	A Phase Ended: Communication Phase
Wed Sep 11 13:05:53 IDT 2013	Protocol: A New Phase Began: Movement Phase. loop is true
Wed Sep 11 13:05:53 IDT 2013	---------- Beginning Movement Phase at round 1 ----------
Wed Sep 11 13:05:53 IDT 2013	remove strategy phase. 
Wed Sep 11 13:05:53 IDT 2013	Received communication message 
Wed Sep 11 13:05:53 IDT 2013	Proposer 1 accepted? false
Wed Sep 11 13:06:38 IDT 2013	A Phase Ended: Movement Phase
Wed Sep 11 13:06:38 IDT 2013	Protocol: A New Phase Began: Feedback Phase. loop is true
Wed Sep 11 13:06:38 IDT 2013	---------- Beginning Feedback Phase at round 1 ----------
Wed Sep 11 13:06:38 IDT 2013	Number of consecutive no movements for player 510 is 1
Wed Sep 11 13:06:38 IDT 2013	TDPlayerPosition is(R:5,C:4)goal location 0(R:0,C:0)goal location 1(R:0,C:8)
Wed Sep 11 13:06:38 IDT 2013	ended is false
Wed Sep 11 13:06:43 IDT 2013	A Phase Ended: Feedback Phase
Wed Sep 11 13:06:43 IDT 2013	 numberofMoves in round 1 is 0
Wed Sep 11 13:06:43 IDT 2013	Swaping roles:
Wed Sep 11 13:06:43 IDT 2013	Protocol: A New Phase Began: Communication Phase. loop is true
Wed Sep 11 13:06:43 IDT 2013	---------- Beginning Communication Phase at round 2 ----------
Wed Sep 11 13:06:44 IDT 2013	Received communication message 
Wed Sep 11 13:06:44 IDT 2013	From player: 510
Wed Sep 11 13:06:44 IDT 2013	To player: 520
Wed Sep 11 13:06:44 IDT 2013	Chips to send by proposer: { chips  'grey78':11 }
Wed Sep 11 13:06:44 IDT 2013	Chips to send by responder: { chips  'CTRed':33 'CTPurple':3 'CTYellow':2 }
Wed Sep 11 13:07:41 IDT 2013	Received communication message 
Wed Sep 11 13:07:41 IDT 2013	Proposer 0 accepted? false
Wed Sep 11 13:07:41 IDT 2013	case that we had one reject, and one accept
Wed Sep 11 13:07:41 IDT 2013	A Phase Ended: Communication Phase
Wed Sep 11 13:07:41 IDT 2013	Protocol: A New Phase Began: Movement Phase. loop is true
Wed Sep 11 13:07:41 IDT 2013	---------- Beginning Movement Phase at round 2 ----------
Wed Sep 11 13:08:26 IDT 2013	A Phase Ended: Movement Phase
Wed Sep 11 13:08:26 IDT 2013	Protocol: A New Phase Began: Feedback Phase. loop is true
Wed Sep 11 13:08:26 IDT 2013	---------- Beginning Feedback Phase at round 2 ----------
Wed Sep 11 13:08:26 IDT 2013	Number of consecutive no movements for player 510 is 0
Wed Sep 11 13:08:26 IDT 2013	TDPlayerPosition is(R:5,C:3)goal location 0(R:0,C:0)goal location 1(R:0,C:8)
Wed Sep 11 13:08:26 IDT 2013	ended is false
Wed Sep 11 13:08:31 IDT 2013	A Phase Ended: Feedback Phase
Wed Sep 11 13:08:31 IDT 2013	 numberofMoves in round 2 is 1
Wed Sep 11 13:08:31 IDT 2013	Swaping roles:
Wed Sep 11 13:08:31 IDT 2013	Protocol: A New Phase Began: Communication Phase. loop is true
Wed Sep 11 13:08:31 IDT 2013	---------- Beginning Communication Phase at round 3 ----------
Wed Sep 11 13:09:35 IDT 2013	Received communication message 
Wed Sep 11 13:09:35 IDT 2013	From player: 540
Wed Sep 11 13:09:35 IDT 2013	To player: 510
Wed Sep 11 13:09:35 IDT 2013	Chips to send by proposer: { chips  'CTRed':0 'CTPurple':2 'CTGreen':0 'grey78':0 'CTYellow':0 }
Wed Sep 11 13:09:35 IDT 2013	Chips to send by responder: { chips  'CTRed':0 'CTPurple':0 'CTGreen':0 'grey78':0 'CTYellow':2 }
Wed Sep 11 13:10:22 IDT 2013	Received communication message 
Wed Sep 11 13:10:22 IDT 2013	From player: 520
Wed Sep 11 13:10:22 IDT 2013	To player: 510
Wed Sep 11 13:10:22 IDT 2013	Chips to send by proposer: { chips  'CTRed':7 'CTPurple':0 'CTGreen':0 'grey78':0 'CTYellow':0 }
Wed Sep 11 13:10:22 IDT 2013	Chips to send by responder: { chips  'CTRed':0 'CTPurple':0 'CTGreen':0 'grey78':7 'CTYellow':0 }
Wed Sep 11 13:10:22 IDT 2013	Received communication message 
Wed Sep 11 13:10:22 IDT 2013	Proposer 0 accepted? false
Wed Sep 11 13:10:22 IDT 2013	case that we had one reject, and one accept
Wed Sep 11 13:10:22 IDT 2013	Received communication message 
Wed Sep 11 13:10:22 IDT 2013	Proposer 1 accepted? false
Wed Sep 11 13:10:22 IDT 2013	case that we had one reject, and one accept
Wed Sep 11 13:10:22 IDT 2013	A Phase Ended: Communication Phase
Wed Sep 11 13:10:22 IDT 2013	Protocol: A New Phase Began: Movement Phase. loop is true
Wed Sep 11 13:10:22 IDT 2013	---------- Beginning Movement Phase at round 3 ----------
Wed Sep 11 13:11:07 IDT 2013	A Phase Ended: Movement Phase
Wed Sep 11 13:11:07 IDT 2013	Protocol: A New Phase Began: Feedback Phase. loop is true
Wed Sep 11 13:11:07 IDT 2013	---------- Beginning Feedback Phase at round 3 ----------
Wed Sep 11 13:11:07 IDT 2013	Number of consecutive no movements for player 510 is 1
Wed Sep 11 13:11:07 IDT 2013	TDPlayerPosition is(R:5,C:3)goal location 0(R:0,C:0)goal location 1(R:0,C:8)
Wed Sep 11 13:11:07 IDT 2013	ended is false
Wed Sep 11 13:11:12 IDT 2013	A Phase Ended: Feedback Phase
Wed Sep 11 13:11:12 IDT 2013	 numberofMoves in round 3 is 0
Wed Sep 11 13:11:12 IDT 2013	Swaping roles:
Wed Sep 11 13:11:12 IDT 2013	Protocol: A New Phase Began: Communication Phase. loop is true
Wed Sep 11 13:11:12 IDT 2013	---------- Beginning Communication Phase at round 4 ----------
Wed Sep 11 13:11:13 IDT 2013	Received communication message 
Wed Sep 11 13:11:13 IDT 2013	From player: 510
Wed Sep 11 13:11:13 IDT 2013	To player: 540
Wed Sep 11 13:11:13 IDT 2013	Chips to send by proposer: { chips  'CTYellow':0 }
Wed Sep 11 13:11:13 IDT 2013	Chips to send by responder: { chips  'CTRed':4 'CTPurple':0 'grey78':0 }
Wed Sep 11 13:12:07 IDT 2013	Received communication message 
Wed Sep 11 13:12:07 IDT 2013	Proposer 1 accepted? false
Wed Sep 11 13:12:07 IDT 2013	case that we had one reject, and one accept
Wed Sep 11 13:12:07 IDT 2013	A Phase Ended: Communication Phase
Wed Sep 11 13:12:07 IDT 2013	Protocol: A New Phase Began: Movement Phase. loop is true
Wed Sep 11 13:12:07 IDT 2013	---------- Beginning Movement Phase at round 4 ----------
Wed Sep 11 13:12:52 IDT 2013	A Phase Ended: Movement Phase
Wed Sep 11 13:12:52 IDT 2013	Protocol: A New Phase Began: Feedback Phase. loop is true
Wed Sep 11 13:12:52 IDT 2013	---------- Beginning Feedback Phase at round 4 ----------
Wed Sep 11 13:12:52 IDT 2013	Number of consecutive no movements for player 510 is 0
Wed Sep 11 13:12:52 IDT 2013	TDPlayerPosition is(R:4,C:3)goal location 0(R:0,C:0)goal location 1(R:0,C:8)
Wed Sep 11 13:12:52 IDT 2013	ended is false
Wed Sep 11 13:12:57 IDT 2013	A Phase Ended: Feedback Phase
Wed Sep 11 13:12:57 IDT 2013	 numberofMoves in round 4 is 1
Wed Sep 11 13:12:57 IDT 2013	Swaping roles:
Wed Sep 11 13:12:57 IDT 2013	Protocol: A New Phase Began: Communication Phase. loop is true
Wed Sep 11 13:12:57 IDT 2013	---------- Beginning Communication Phase at round 5 ----------
Wed Sep 11 13:13:39 IDT 2013	Received communication message 
Wed Sep 11 13:13:39 IDT 2013	From player: 520
Wed Sep 11 13:13:39 IDT 2013	To player: 510
Wed Sep 11 13:13:39 IDT 2013	Chips to send by proposer: { chips  'CTRed':0 'CTPurple':3 'CTGreen':0 'grey78':0 'CTYellow':0 }
Wed Sep 11 13:13:39 IDT 2013	Chips to send by responder: { chips  'CTRed':0 'CTPurple':0 'CTGreen':0 'grey78':0 'CTYellow':1 }
Wed Sep 11 13:14:03 IDT 2013	Received communication message 
Wed Sep 11 13:14:03 IDT 2013	From player: 540
Wed Sep 11 13:14:03 IDT 2013	To player: 510
Wed Sep 11 13:14:03 IDT 2013	Chips to send by proposer: { chips  'CTRed':2 'CTPurple':0 'CTGreen':0 'grey78':0 'CTYellow':0 }
Wed Sep 11 13:14:03 IDT 2013	Chips to send by responder: { chips  'CTRed':0 'CTPurple':1 'CTGreen':0 'grey78':1 'CTYellow':2 }
Wed Sep 11 13:14:03 IDT 2013	Received communication message 
Wed Sep 11 13:14:03 IDT 2013	Proposer 0 accepted? true
Wed Sep 11 13:14:03 IDT 2013	A Phase Ended: Communication Phase
Wed Sep 11 13:14:03 IDT 2013	Protocol: A New Phase Began: Movement Phase. loop is true
Wed Sep 11 13:14:03 IDT 2013	---------- Beginning Movement Phase at round 5 ----------
Wed Sep 11 13:14:03 IDT 2013	Received communication message 
Wed Sep 11 13:14:03 IDT 2013	Proposer 1 accepted? false
Wed Sep 11 13:14:48 IDT 2013	A Phase Ended: Movement Phase
Wed Sep 11 13:14:48 IDT 2013	Protocol: A New Phase Began: Feedback Phase. loop is true
Wed Sep 11 13:14:48 IDT 2013	---------- Beginning Feedback Phase at round 5 ----------
Wed Sep 11 13:14:48 IDT 2013	Number of consecutive no movements for player 510 is 1
Wed Sep 11 13:14:48 IDT 2013	TDPlayerPosition is(R:4,C:3)goal location 0(R:0,C:0)goal location 1(R:0,C:8)
Wed Sep 11 13:14:48 IDT 2013	ended is false
Wed Sep 11 13:14:53 IDT 2013	A Phase Ended: Feedback Phase
Wed Sep 11 13:14:53 IDT 2013	 numberofMoves in round 5 is 0
Wed Sep 11 13:14:53 IDT 2013	Swaping roles:
Wed Sep 11 13:14:53 IDT 2013	Protocol: A New Phase Began: Communication Phase. loop is true
Wed Sep 11 13:14:53 IDT 2013	---------- Beginning Communication Phase at round 6 ----------
Wed Sep 11 13:14:54 IDT 2013	Received communication message 
Wed Sep 11 13:14:54 IDT 2013	From player: 510
Wed Sep 11 13:14:54 IDT 2013	To player: 540
Wed Sep 11 13:14:54 IDT 2013	Chips to send by proposer: { chips  'CTYellow':0 }
Wed Sep 11 13:14:54 IDT 2013	Chips to send by responder: { chips  'CTRed':20 'CTPurple':1 'grey78':0 }
Wed Sep 11 13:15:02 IDT 2013	Received communication message 
Wed Sep 11 13:15:02 IDT 2013	Proposer 1 accepted? false
Wed Sep 11 13:15:02 IDT 2013	case that we had one reject, and one accept
Wed Sep 11 13:15:02 IDT 2013	A Phase Ended: Communication Phase
Wed Sep 11 13:15:02 IDT 2013	Protocol: A New Phase Began: Movement Phase. loop is true
Wed Sep 11 13:15:02 IDT 2013	---------- Beginning Movement Phase at round 6 ----------
Wed Sep 11 13:15:47 IDT 2013	A Phase Ended: Movement Phase
Wed Sep 11 13:15:47 IDT 2013	Protocol: A New Phase Began: Feedback Phase. loop is true
Wed Sep 11 13:15:47 IDT 2013	---------- Beginning Feedback Phase at round 6 ----------
Wed Sep 11 13:15:47 IDT 2013	Number of consecutive no movements for player 510 is 0
Wed Sep 11 13:15:47 IDT 2013	TDPlayerPosition is(R:3,C:3)goal location 0(R:0,C:0)goal location 1(R:0,C:8)
Wed Sep 11 13:15:47 IDT 2013	ended is false
Wed Sep 11 13:15:52 IDT 2013	A Phase Ended: Feedback Phase
Wed Sep 11 13:15:52 IDT 2013	 numberofMoves in round 6 is 1
Wed Sep 11 13:15:52 IDT 2013	Swaping roles:
Wed Sep 11 13:15:52 IDT 2013	Protocol: A New Phase Began: Communication Phase. loop is true
Wed Sep 11 13:15:52 IDT 2013	---------- Beginning Communication Phase at round 7 ----------
Wed Sep 11 13:16:20 IDT 2013	Received communication message 
Wed Sep 11 13:16:20 IDT 2013	From player: 540
Wed Sep 11 13:16:20 IDT 2013	To player: 510
Wed Sep 11 13:16:20 IDT 2013	Chips to send by proposer: { chips  'CTRed':4 'CTPurple':0 'CTGreen':0 'grey78':0 'CTYellow':0 }
Wed Sep 11 13:16:20 IDT 2013	Chips to send by responder: { chips  'CTRed':0 'CTPurple':0 'CTGreen':0 'grey78':0 'CTYellow':3 }
Wed Sep 11 13:16:50 IDT 2013	Received communication message 
Wed Sep 11 13:16:50 IDT 2013	From player: 520
Wed Sep 11 13:16:50 IDT 2013	To player: 510
Wed Sep 11 13:16:50 IDT 2013	Chips to send by proposer: { chips  'CTRed':11 'CTPurple':0 'CTGreen':0 'grey78':0 'CTYellow':0 }
Wed Sep 11 13:16:50 IDT 2013	Chips to send by responder: { chips  'CTRed':0 'CTPurple':0 'CTGreen':0 'grey78':7 'CTYellow':0 }
Wed Sep 11 13:16:50 IDT 2013	Received communication message 
Wed Sep 11 13:16:50 IDT 2013	Proposer 0 accepted? true
Wed Sep 11 13:16:50 IDT 2013	A Phase Ended: Communication Phase
Wed Sep 11 13:16:50 IDT 2013	Protocol: A New Phase Began: Movement Phase. loop is true
Wed Sep 11 13:16:50 IDT 2013	---------- Beginning Movement Phase at round 7 ----------
Wed Sep 11 13:16:50 IDT 2013	Received communication message 
Wed Sep 11 13:16:50 IDT 2013	Proposer 1 accepted? false
Wed Sep 11 13:17:35 IDT 2013	A Phase Ended: Movement Phase
Wed Sep 11 13:17:35 IDT 2013	Protocol: A New Phase Began: Feedback Phase. loop is true
Wed Sep 11 13:17:35 IDT 2013	---------- Beginning Feedback Phase at round 7 ----------
Wed Sep 11 13:17:35 IDT 2013	Number of consecutive no movements for player 510 is 1
Wed Sep 11 13:17:35 IDT 2013	TDPlayerPosition is(R:3,C:3)goal location 0(R:0,C:0)goal location 1(R:0,C:8)
Wed Sep 11 13:17:35 IDT 2013	ended is false
Wed Sep 11 13:17:40 IDT 2013	A Phase Ended: Feedback Phase
Wed Sep 11 13:17:40 IDT 2013	 numberofMoves in round 7 is 0
Wed Sep 11 13:17:40 IDT 2013	Swaping roles:
Wed Sep 11 13:17:40 IDT 2013	Protocol: A New Phase Began: Communication Phase. loop is true
Wed Sep 11 13:17:40 IDT 2013	---------- Beginning Communication Phase at round 8 ----------
Wed Sep 11 13:17:40 IDT 2013	Received communication message 
Wed Sep 11 13:17:40 IDT 2013	From player: 510
Wed Sep 11 13:17:40 IDT 2013	To player: 520
Wed Sep 11 13:17:40 IDT 2013	Chips to send by proposer: { chips  'grey78':2 }
Wed Sep 11 13:17:40 IDT 2013	Chips to send by responder: { chips  'CTRed':22 'CTPurple':0 'CTYellow':3 }
Wed Sep 11 13:18:28 IDT 2013	Received communication message 
Wed Sep 11 13:18:28 IDT 2013	Proposer 0 accepted? false
Wed Sep 11 13:18:28 IDT 2013	case that we had one reject, and one accept
Wed Sep 11 13:18:28 IDT 2013	A Phase Ended: Communication Phase
Wed Sep 11 13:18:28 IDT 2013	Protocol: A New Phase Began: Movement Phase. loop is true
Wed Sep 11 13:18:28 IDT 2013	---------- Beginning Movement Phase at round 8 ----------
Wed Sep 11 13:19:13 IDT 2013	A Phase Ended: Movement Phase
Wed Sep 11 13:19:13 IDT 2013	Protocol: A New Phase Began: Feedback Phase. loop is true
Wed Sep 11 13:19:13 IDT 2013	---------- Beginning Feedback Phase at round 8 ----------
Wed Sep 11 13:19:13 IDT 2013	Number of consecutive no movements for player 510 is 0
Wed Sep 11 13:19:13 IDT 2013	TDPlayerPosition is(R:3,C:4)goal location 0(R:0,C:0)goal location 1(R:0,C:8)
Wed Sep 11 13:19:13 IDT 2013	ended is false
Wed Sep 11 13:19:18 IDT 2013	A Phase Ended: Feedback Phase
Wed Sep 11 13:19:18 IDT 2013	 numberofMoves in round 8 is 1
Wed Sep 11 13:19:18 IDT 2013	Swaping roles:
Wed Sep 11 13:19:18 IDT 2013	Protocol: A New Phase Began: Communication Phase. loop is true
Wed Sep 11 13:19:18 IDT 2013	---------- Beginning Communication Phase at round 9 ----------
Wed Sep 11 13:19:50 IDT 2013	Received communication message 
Wed Sep 11 13:19:50 IDT 2013	From player: 540
Wed Sep 11 13:19:50 IDT 2013	To player: 510
Wed Sep 11 13:19:50 IDT 2013	Chips to send by proposer: { chips  'CTRed':11 'CTPurple':0 'CTGreen':0 'grey78':0 'CTYellow':0 }
Wed Sep 11 13:19:50 IDT 2013	Chips to send by responder: { chips  'CTRed':0 'CTPurple':4 'CTGreen':0 'grey78':0 'CTYellow':0 }
Wed Sep 11 13:20:03 IDT 2013	Received communication message 
Wed Sep 11 13:20:03 IDT 2013	From player: 520
Wed Sep 11 13:20:03 IDT 2013	To player: 510
Wed Sep 11 13:20:03 IDT 2013	Chips to send by proposer: { chips  'CTRed':7 'CTPurple':0 'CTGreen':0 'grey78':0 'CTYellow':0 }
Wed Sep 11 13:20:03 IDT 2013	Chips to send by responder: { chips  'CTRed':0 'CTPurple':0 'CTGreen':0 'grey78':3 'CTYellow':0 }
Wed Sep 11 13:20:03 IDT 2013	Received communication message 
Wed Sep 11 13:20:03 IDT 2013	Proposer 1 accepted? true
Wed Sep 11 13:20:03 IDT 2013	A Phase Ended: Communication Phase
Wed Sep 11 13:20:03 IDT 2013	Protocol: A New Phase Began: Movement Phase. loop is true
Wed Sep 11 13:20:03 IDT 2013	---------- Beginning Movement Phase at round 9 ----------
Wed Sep 11 13:20:03 IDT 2013	Received communication message 
Wed Sep 11 13:20:03 IDT 2013	Proposer 0 accepted? false
Wed Sep 11 13:20:48 IDT 2013	A Phase Ended: Movement Phase
Wed Sep 11 13:20:48 IDT 2013	Protocol: A New Phase Began: Feedback Phase. loop is true
Wed Sep 11 13:20:48 IDT 2013	---------- Beginning Feedback Phase at round 9 ----------
Wed Sep 11 13:20:48 IDT 2013	Number of consecutive no movements for player 510 is 1
Wed Sep 11 13:20:48 IDT 2013	TDPlayerPosition is(R:3,C:4)goal location 0(R:0,C:0)goal location 1(R:0,C:8)
Wed Sep 11 13:20:48 IDT 2013	ended is false
Wed Sep 11 13:20:53 IDT 2013	A Phase Ended: Feedback Phase
Wed Sep 11 13:20:53 IDT 2013	 numberofMoves in round 9 is 0
Wed Sep 11 13:20:53 IDT 2013	Swaping roles:
Wed Sep 11 13:20:53 IDT 2013	Protocol: A New Phase Began: Communication Phase. loop is true
Wed Sep 11 13:20:53 IDT 2013	---------- Beginning Communication Phase at round 10 ----------
Wed Sep 11 13:20:53 IDT 2013	Received communication message 
Wed Sep 11 13:20:53 IDT 2013	From player: 510
Wed Sep 11 13:20:53 IDT 2013	To player: 520
Wed Sep 11 13:20:53 IDT 2013	Chips to send by proposer: { chips  'grey78':2 }
Wed Sep 11 13:20:53 IDT 2013	Chips to send by responder: { chips  'CTRed':22 'CTPurple':0 'CTYellow':3 }
Wed Sep 11 13:21:21 IDT 2013	Received communication message 
Wed Sep 11 13:21:21 IDT 2013	Proposer 0 accepted? false
Wed Sep 11 13:21:21 IDT 2013	case that we had one reject, and one accept
Wed Sep 11 13:21:21 IDT 2013	A Phase Ended: Communication Phase
Wed Sep 11 13:21:21 IDT 2013	Protocol: A New Phase Began: Movement Phase. loop is true
Wed Sep 11 13:21:21 IDT 2013	---------- Beginning Movement Phase at round 10 ----------
Wed Sep 11 13:22:06 IDT 2013	A Phase Ended: Movement Phase
Wed Sep 11 13:22:06 IDT 2013	Protocol: A New Phase Began: Feedback Phase. loop is true
Wed Sep 11 13:22:06 IDT 2013	---------- Beginning Feedback Phase at round 10 ----------
Wed Sep 11 13:22:06 IDT 2013	Number of consecutive no movements for player 510 is 0
Wed Sep 11 13:22:06 IDT 2013	TDPlayerPosition is(R:3,C:5)goal location 0(R:0,C:0)goal location 1(R:0,C:8)
Wed Sep 11 13:22:06 IDT 2013	ended is false
Wed Sep 11 13:22:11 IDT 2013	A Phase Ended: Feedback Phase
Wed Sep 11 13:22:11 IDT 2013	 numberofMoves in round 10 is 1
Wed Sep 11 13:22:11 IDT 2013	Swaping roles:
Wed Sep 11 13:22:11 IDT 2013	Protocol: A New Phase Began: Communication Phase. loop is true
Wed Sep 11 13:22:11 IDT 2013	---------- Beginning Communication Phase at round 11 ----------
Wed Sep 11 13:22:56 IDT 2013	Received communication message 
Wed Sep 11 13:22:56 IDT 2013	From player: 520
Wed Sep 11 13:22:56 IDT 2013	To player: 510
Wed Sep 11 13:22:56 IDT 2013	Chips to send by proposer: { chips  'CTRed':3 'CTPurple':0 'CTGreen':0 'grey78':0 'CTYellow':0 }
Wed Sep 11 13:22:56 IDT 2013	Chips to send by responder: { chips  'CTRed':0 'CTPurple':0 'CTGreen':0 'grey78':1 'CTYellow':0 }
Wed Sep 11 13:23:26 IDT 2013	Received communication message 
Wed Sep 11 13:23:26 IDT 2013	From player: 540
Wed Sep 11 13:23:26 IDT 2013	To player: 510
Wed Sep 11 13:23:26 IDT 2013	Chips to send by proposer: { chips  'CTRed':12 'CTPurple':2 'CTGreen':0 'grey78':0 'CTYellow':0 }
Wed Sep 11 13:23:26 IDT 2013	Chips to send by responder: { chips  'CTRed':0 'CTPurple':0 'CTGreen':0 'grey78':0 'CTYellow':7 }
Wed Sep 11 13:23:26 IDT 2013	Received communication message 
Wed Sep 11 13:23:26 IDT 2013	Proposer 0 accepted? true
Wed Sep 11 13:23:26 IDT 2013	A Phase Ended: Communication Phase
Wed Sep 11 13:23:26 IDT 2013	Protocol: A New Phase Began: Movement Phase. loop is true
Wed Sep 11 13:23:26 IDT 2013	---------- Beginning Movement Phase at round 11 ----------
Wed Sep 11 13:23:26 IDT 2013	Received communication message 
Wed Sep 11 13:23:26 IDT 2013	Proposer 1 accepted? false
Wed Sep 11 13:24:11 IDT 2013	A Phase Ended: Movement Phase
Wed Sep 11 13:24:11 IDT 2013	Protocol: A New Phase Began: Feedback Phase. loop is true
Wed Sep 11 13:24:11 IDT 2013	---------- Beginning Feedback Phase at round 11 ----------
Wed Sep 11 13:24:11 IDT 2013	Number of consecutive no movements for player 510 is 1
Wed Sep 11 13:24:11 IDT 2013	TDPlayerPosition is(R:3,C:5)goal location 0(R:0,C:0)goal location 1(R:0,C:8)
Wed Sep 11 13:24:11 IDT 2013	ended is false
Wed Sep 11 13:24:16 IDT 2013	A Phase Ended: Feedback Phase
Wed Sep 11 13:24:16 IDT 2013	 numberofMoves in round 11 is 0
Wed Sep 11 13:24:16 IDT 2013	Swaping roles:
Wed Sep 11 13:24:16 IDT 2013	Protocol: A New Phase Began: Communication Phase. loop is true
Wed Sep 11 13:24:16 IDT 2013	---------- Beginning Communication Phase at round 12 ----------
Wed Sep 11 13:24:16 IDT 2013	Received communication message 
Wed Sep 11 13:24:16 IDT 2013	From player: 510
Wed Sep 11 13:24:16 IDT 2013	To player: 520
Wed Sep 11 13:24:16 IDT 2013	Chips to send by proposer: { chips  'grey78':1 }
Wed Sep 11 13:24:16 IDT 2013	Chips to send by responder: { chips  'CTRed':19 'CTPurple':0 'CTYellow':3 }
Wed Sep 11 13:24:48 IDT 2013	Received communication message 
Wed Sep 11 13:24:48 IDT 2013	Proposer 0 accepted? false
Wed Sep 11 13:24:48 IDT 2013	case that we had one reject, and one accept
Wed Sep 11 13:24:48 IDT 2013	A Phase Ended: Communication Phase
Wed Sep 11 13:24:48 IDT 2013	Protocol: A New Phase Began: Movement Phase. loop is true
Wed Sep 11 13:24:48 IDT 2013	---------- Beginning Movement Phase at round 12 ----------
Wed Sep 11 13:25:33 IDT 2013	A Phase Ended: Movement Phase
Wed Sep 11 13:25:33 IDT 2013	Protocol: A New Phase Began: Feedback Phase. loop is true
Wed Sep 11 13:25:33 IDT 2013	---------- Beginning Feedback Phase at round 12 ----------
Wed Sep 11 13:25:33 IDT 2013	Number of consecutive no movements for player 510 is 0
Wed Sep 11 13:25:33 IDT 2013	TDPlayerPosition is(R:3,C:6)goal location 0(R:0,C:0)goal location 1(R:0,C:8)
Wed Sep 11 13:25:33 IDT 2013	ended is false
Wed Sep 11 13:25:38 IDT 2013	A Phase Ended: Feedback Phase
Wed Sep 11 13:25:38 IDT 2013	 numberofMoves in round 12 is 1
Wed Sep 11 13:25:38 IDT 2013	Swaping roles:
Wed Sep 11 13:25:38 IDT 2013	Protocol: A New Phase Began: Communication Phase. loop is true
Wed Sep 11 13:25:38 IDT 2013	---------- Beginning Communication Phase at round 13 ----------
Wed Sep 11 13:26:19 IDT 2013	Received communication message 
Wed Sep 11 13:26:19 IDT 2013	From player: 540
Wed Sep 11 13:26:19 IDT 2013	To player: 510
Wed Sep 11 13:26:19 IDT 2013	Chips to send by proposer: { chips  'CTRed':12 'CTPurple':4 'CTGreen':0 'grey78':0 'CTYellow':0 }
Wed Sep 11 13:26:19 IDT 2013	Chips to send by responder: { chips  'CTRed':0 'CTPurple':0 'CTGreen':0 'grey78':0 'CTYellow':5 }
Wed Sep 11 13:26:30 IDT 2013	Received communication message 
Wed Sep 11 13:26:30 IDT 2013	From player: 520
Wed Sep 11 13:26:30 IDT 2013	To player: 510
Wed Sep 11 13:26:30 IDT 2013	Chips to send by proposer: { chips  'CTRed':2 'CTPurple':0 'CTGreen':0 'grey78':0 'CTYellow':0 }
Wed Sep 11 13:26:30 IDT 2013	Chips to send by responder: { chips  'CTRed':0 'CTPurple':0 'CTGreen':0 'grey78':1 'CTYellow':0 }
Wed Sep 11 13:26:30 IDT 2013	Received communication message 
Wed Sep 11 13:26:30 IDT 2013	Proposer 0 accepted? false
Wed Sep 11 13:26:30 IDT 2013	case that we had one reject, and one accept
Wed Sep 11 13:26:30 IDT 2013	Received communication message 
Wed Sep 11 13:26:30 IDT 2013	Proposer 1 accepted? false
Wed Sep 11 13:26:30 IDT 2013	case that we had one reject, and one accept
Wed Sep 11 13:26:30 IDT 2013	A Phase Ended: Communication Phase
Wed Sep 11 13:26:30 IDT 2013	Protocol: A New Phase Began: Movement Phase. loop is true
Wed Sep 11 13:26:30 IDT 2013	---------- Beginning Movement Phase at round 13 ----------
Wed Sep 11 13:27:15 IDT 2013	A Phase Ended: Movement Phase
Wed Sep 11 13:27:15 IDT 2013	Protocol: A New Phase Began: Feedback Phase. loop is true
Wed Sep 11 13:27:15 IDT 2013	---------- Beginning Feedback Phase at round 13 ----------
Wed Sep 11 13:27:15 IDT 2013	Number of consecutive no movements for player 510 is 1
Wed Sep 11 13:27:15 IDT 2013	TDPlayerPosition is(R:3,C:6)goal location 0(R:0,C:0)goal location 1(R:0,C:8)
Wed Sep 11 13:27:15 IDT 2013	ended is false
Wed Sep 11 13:27:20 IDT 2013	A Phase Ended: Feedback Phase
Wed Sep 11 13:27:20 IDT 2013	 numberofMoves in round 13 is 0
Wed Sep 11 13:27:20 IDT 2013	Swaping roles:
Wed Sep 11 13:27:20 IDT 2013	Protocol: A New Phase Began: Communication Phase. loop is true
Wed Sep 11 13:27:20 IDT 2013	---------- Beginning Communication Phase at round 14 ----------
Wed Sep 11 13:27:20 IDT 2013	Received communication message 
Wed Sep 11 13:27:20 IDT 2013	From player: 510
Wed Sep 11 13:27:20 IDT 2013	To player: 520
Wed Sep 11 13:27:20 IDT 2013	Chips to send by proposer: { chips  'grey78':1 }
Wed Sep 11 13:27:20 IDT 2013	Chips to send by responder: { chips  'CTRed':19 'CTPurple':0 'CTYellow':3 }
Wed Sep 11 13:27:26 IDT 2013	Received communication message 
Wed Sep 11 13:27:26 IDT 2013	Proposer 0 accepted? false
Wed Sep 11 13:27:26 IDT 2013	case that we had one reject, and one accept
Wed Sep 11 13:27:26 IDT 2013	A Phase Ended: Communication Phase
Wed Sep 11 13:27:26 IDT 2013	Protocol: A New Phase Began: Movement Phase. loop is true
Wed Sep 11 13:27:26 IDT 2013	---------- Beginning Movement Phase at round 14 ----------
Wed Sep 11 13:28:11 IDT 2013	A Phase Ended: Movement Phase
Wed Sep 11 13:28:11 IDT 2013	Protocol: A New Phase Began: Feedback Phase. loop is true
Wed Sep 11 13:28:11 IDT 2013	---------- Beginning Feedback Phase at round 14 ----------
Wed Sep 11 13:28:11 IDT 2013	Number of consecutive no movements for player 510 is 0
Wed Sep 11 13:28:11 IDT 2013	TDPlayerPosition is(R:3,C:7)goal location 0(R:0,C:0)goal location 1(R:0,C:8)
Wed Sep 11 13:28:11 IDT 2013	ended is false
Wed Sep 11 13:28:16 IDT 2013	A Phase Ended: Feedback Phase
Wed Sep 11 13:28:16 IDT 2013	 numberofMoves in round 14 is 1
Wed Sep 11 13:28:16 IDT 2013	Swaping roles:
Wed Sep 11 13:28:16 IDT 2013	Protocol: A New Phase Began: Communication Phase. loop is true
Wed Sep 11 13:28:16 IDT 2013	---------- Beginning Communication Phase at round 15 ----------
Wed Sep 11 13:28:34 IDT 2013	Received communication message 
Wed Sep 11 13:28:34 IDT 2013	From player: 520
Wed Sep 11 13:28:34 IDT 2013	To player: 510
Wed Sep 11 13:28:34 IDT 2013	Chips to send by proposer: { chips  'CTRed':5 'CTPurple':0 'CTGreen':0 'grey78':0 'CTYellow':0 }
Wed Sep 11 13:28:34 IDT 2013	Chips to send by responder: { chips  'CTRed':0 'CTPurple':0 'CTGreen':0 'grey78':1 'CTYellow':0 }
Wed Sep 11 13:29:32 IDT 2013	Received communication message 
Wed Sep 11 13:29:32 IDT 2013	From player: 540
Wed Sep 11 13:29:32 IDT 2013	To player: 510
Wed Sep 11 13:29:32 IDT 2013	Chips to send by proposer: { chips  'CTRed':4 'CTPurple':2 'CTGreen':0 'grey78':0 'CTYellow':0 }
Wed Sep 11 13:29:32 IDT 2013	Chips to send by responder: { chips  'CTRed':0 'CTPurple':0 'CTGreen':0 'grey78':2 'CTYellow':2 }
Wed Sep 11 13:29:32 IDT 2013	Received communication message 
Wed Sep 11 13:29:32 IDT 2013	Proposer 1 accepted? true
Wed Sep 11 13:29:32 IDT 2013	A Phase Ended: Communication Phase
Wed Sep 11 13:29:32 IDT 2013	Protocol: A New Phase Began: Movement Phase. loop is true
Wed Sep 11 13:29:32 IDT 2013	---------- Beginning Movement Phase at round 15 ----------
Wed Sep 11 13:29:32 IDT 2013	Received communication message 
Wed Sep 11 13:29:32 IDT 2013	Proposer 0 accepted? false
Wed Sep 11 13:30:17 IDT 2013	A Phase Ended: Movement Phase
Wed Sep 11 13:30:17 IDT 2013	Protocol: A New Phase Began: Feedback Phase. loop is true
Wed Sep 11 13:30:17 IDT 2013	---------- Beginning Feedback Phase at round 15 ----------
Wed Sep 11 13:30:17 IDT 2013	Number of consecutive no movements for player 510 is 1
Wed Sep 11 13:30:17 IDT 2013	TDPlayerPosition is(R:3,C:7)goal location 0(R:0,C:0)goal location 1(R:0,C:8)
Wed Sep 11 13:30:17 IDT 2013	ended is false
Wed Sep 11 13:30:22 IDT 2013	A Phase Ended: Feedback Phase
Wed Sep 11 13:30:22 IDT 2013	 numberofMoves in round 15 is 0
Wed Sep 11 13:30:22 IDT 2013	Swaping roles:
Wed Sep 11 13:30:22 IDT 2013	Protocol: A New Phase Began: Communication Phase. loop is true
Wed Sep 11 13:30:22 IDT 2013	---------- Beginning Communication Phase at round 16 ----------
Wed Sep 11 13:30:22 IDT 2013	Received communication message 
Wed Sep 11 13:30:22 IDT 2013	From player: 510
Wed Sep 11 13:30:22 IDT 2013	To player: 520
Wed Sep 11 13:30:22 IDT 2013	Chips to send by proposer: { chips  'grey78':0 }
Wed Sep 11 13:30:22 IDT 2013	Chips to send by responder: { chips  'CTRed':0 'CTPurple':0 'CTYellow':3 }
Wed Sep 11 13:30:34 IDT 2013	Received communication message 
Wed Sep 11 13:30:34 IDT 2013	Proposer 0 accepted? false
Wed Sep 11 13:30:34 IDT 2013	case that we had one reject, and one accept
Wed Sep 11 13:30:34 IDT 2013	A Phase Ended: Communication Phase
Wed Sep 11 13:30:34 IDT 2013	Protocol: A New Phase Began: Movement Phase. loop is true
Wed Sep 11 13:30:34 IDT 2013	---------- Beginning Movement Phase at round 16 ----------
Wed Sep 11 13:31:19 IDT 2013	A Phase Ended: Movement Phase
Wed Sep 11 13:31:19 IDT 2013	Protocol: A New Phase Began: Feedback Phase. loop is true
Wed Sep 11 13:31:19 IDT 2013	---------- Beginning Feedback Phase at round 16 ----------
Wed Sep 11 13:31:19 IDT 2013	Number of consecutive no movements for player 510 is 0
Wed Sep 11 13:31:19 IDT 2013	TDPlayerPosition is(R:2,C:7)goal location 0(R:0,C:0)goal location 1(R:0,C:8)
Wed Sep 11 13:31:19 IDT 2013	ended is false
Wed Sep 11 13:31:24 IDT 2013	A Phase Ended: Feedback Phase
Wed Sep 11 13:31:24 IDT 2013	 numberofMoves in round 16 is 1
Wed Sep 11 13:31:24 IDT 2013	Swaping roles:
Wed Sep 11 13:31:24 IDT 2013	Protocol: A New Phase Began: Communication Phase. loop is true
Wed Sep 11 13:31:24 IDT 2013	---------- Beginning Communication Phase at round 17 ----------
Wed Sep 11 13:32:19 IDT 2013	Received communication message 
Wed Sep 11 13:32:19 IDT 2013	From player: 540
Wed Sep 11 13:32:19 IDT 2013	To player: 510
Wed Sep 11 13:32:19 IDT 2013	Chips to send by proposer: { chips  'CTRed':3 'CTPurple':0 'CTGreen':0 'grey78':0 'CTYellow':0 }
Wed Sep 11 13:32:19 IDT 2013	Chips to send by responder: { chips  'CTRed':1 'CTPurple':0 'CTGreen':0 'grey78':0 'CTYellow':2 }
Wed Sep 11 13:34:24 IDT 2013	A Phase Ended: Communication Phase
Wed Sep 11 13:34:24 IDT 2013	Protocol: A New Phase Began: Movement Phase. loop is true
Wed Sep 11 13:34:24 IDT 2013	---------- Beginning Movement Phase at round 17 ----------
Wed Sep 11 13:35:09 IDT 2013	A Phase Ended: Movement Phase
Wed Sep 11 13:35:09 IDT 2013	Protocol: A New Phase Began: Feedback Phase. loop is true
Wed Sep 11 13:35:09 IDT 2013	---------- Beginning Feedback Phase at round 17 ----------
Wed Sep 11 13:35:09 IDT 2013	Number of consecutive no movements for player 510 is 1
Wed Sep 11 13:35:09 IDT 2013	TDPlayerPosition is(R:2,C:7)goal location 0(R:0,C:0)goal location 1(R:0,C:8)
Wed Sep 11 13:35:09 IDT 2013	ended is false
Wed Sep 11 13:35:14 IDT 2013	A Phase Ended: Feedback Phase
Wed Sep 11 13:35:14 IDT 2013	 numberofMoves in round 17 is 0
Wed Sep 11 13:35:14 IDT 2013	Swaping roles:
Wed Sep 11 13:35:14 IDT 2013	Protocol: A New Phase Began: Communication Phase. loop is true
Wed Sep 11 13:35:14 IDT 2013	---------- Beginning Communication Phase at round 18 ----------
Wed Sep 11 13:35:14 IDT 2013	Received communication message 
Wed Sep 11 13:35:14 IDT 2013	From player: 510
Wed Sep 11 13:35:14 IDT 2013	To player: 520
Wed Sep 11 13:35:14 IDT 2013	Chips to send by proposer: { chips  'grey78':0 }
Wed Sep 11 13:35:14 IDT 2013	Chips to send by responder: { chips  'CTRed':9 'CTPurple':0 'CTYellow':3 }
Wed Sep 11 13:35:19 IDT 2013	Received communication message 
Wed Sep 11 13:35:19 IDT 2013	Proposer 0 accepted? false
Wed Sep 11 13:35:19 IDT 2013	case that we had one reject, and one accept
Wed Sep 11 13:35:19 IDT 2013	A Phase Ended: Communication Phase
Wed Sep 11 13:35:19 IDT 2013	Protocol: A New Phase Began: Movement Phase. loop is true
Wed Sep 11 13:35:19 IDT 2013	---------- Beginning Movement Phase at round 18 ----------
Wed Sep 11 13:36:04 IDT 2013	A Phase Ended: Movement Phase
Wed Sep 11 13:36:04 IDT 2013	Protocol: A New Phase Began: Feedback Phase. loop is true
Wed Sep 11 13:36:04 IDT 2013	---------- Beginning Feedback Phase at round 18 ----------
Wed Sep 11 13:36:04 IDT 2013	Number of consecutive no movements for player 510 is 0
Wed Sep 11 13:36:04 IDT 2013	TDPlayerPosition is(R:1,C:7)goal location 0(R:0,C:0)goal location 1(R:0,C:8)
Wed Sep 11 13:36:04 IDT 2013	ended is false
Wed Sep 11 13:36:09 IDT 2013	A Phase Ended: Feedback Phase
Wed Sep 11 13:36:09 IDT 2013	 numberofMoves in round 18 is 1
Wed Sep 11 13:36:09 IDT 2013	Swaping roles:
Wed Sep 11 13:36:09 IDT 2013	Protocol: A New Phase Began: Communication Phase. loop is true
Wed Sep 11 13:36:09 IDT 2013	---------- Beginning Communication Phase at round 19 ----------
Wed Sep 11 13:36:32 IDT 2013	Received communication message 
Wed Sep 11 13:36:32 IDT 2013	From player: 520
Wed Sep 11 13:36:32 IDT 2013	To player: 510
Wed Sep 11 13:36:32 IDT 2013	Chips to send by proposer: { chips  'CTRed':4 'CTPurple':0 'CTGreen':0 'grey78':0 'CTYellow':0 }
Wed Sep 11 13:36:32 IDT 2013	Chips to send by responder: { chips  'CTRed':0 'CTPurple':1 'CTGreen':0 'grey78':0 'CTYellow':0 }
Wed Sep 11 13:37:59 IDT 2013	Received communication message 
Wed Sep 11 13:37:59 IDT 2013	From player: 540
Wed Sep 11 13:37:59 IDT 2013	To player: 510
Wed Sep 11 13:37:59 IDT 2013	Chips to send by proposer: { chips  'CTRed':9 'CTPurple':9 'CTGreen':0 'grey78':2 'CTYellow':0 }
Wed Sep 11 13:37:59 IDT 2013	Chips to send by responder: { chips  'CTRed':0 'CTPurple':0 'CTGreen':0 'grey78':0 'CTYellow':4 }
Wed Sep 11 13:37:59 IDT 2013	Received communication message 
Wed Sep 11 13:37:59 IDT 2013	Proposer 1 accepted? true
Wed Sep 11 13:37:59 IDT 2013	A Phase Ended: Communication Phase
Wed Sep 11 13:37:59 IDT 2013	Protocol: A New Phase Began: Movement Phase. loop is true
Wed Sep 11 13:37:59 IDT 2013	---------- Beginning Movement Phase at round 19 ----------
Wed Sep 11 13:37:59 IDT 2013	Received communication message 
Wed Sep 11 13:37:59 IDT 2013	Proposer 0 accepted? false
Wed Sep 11 13:38:44 IDT 2013	A Phase Ended: Movement Phase
Wed Sep 11 13:38:44 IDT 2013	Protocol: A New Phase Began: Feedback Phase. loop is true
Wed Sep 11 13:38:44 IDT 2013	---------- Beginning Feedback Phase at round 19 ----------
Wed Sep 11 13:38:44 IDT 2013	Number of consecutive no movements for player 510 is 1
Wed Sep 11 13:38:44 IDT 2013	TDPlayerPosition is(R:1,C:7)goal location 0(R:0,C:0)goal location 1(R:0,C:8)
Wed Sep 11 13:38:44 IDT 2013	ended is false
Wed Sep 11 13:38:49 IDT 2013	A Phase Ended: Feedback Phase
Wed Sep 11 13:38:49 IDT 2013	 numberofMoves in round 19 is 0
Wed Sep 11 13:38:49 IDT 2013	Swaping roles:
Wed Sep 11 13:38:49 IDT 2013	Protocol: A New Phase Began: Communication Phase. loop is true
Wed Sep 11 13:38:49 IDT 2013	---------- Beginning Communication Phase at round 20 ----------
Wed Sep 11 13:38:49 IDT 2013	Received communication message 
Wed Sep 11 13:38:49 IDT 2013	From player: 510
Wed Sep 11 13:38:49 IDT 2013	To player: 540
Wed Sep 11 13:38:49 IDT 2013	Chips to send by proposer: { chips  'CTYellow':0 }
Wed Sep 11 13:38:49 IDT 2013	Chips to send by responder: { chips  'CTRed':1 'CTPurple':0 'grey78':0 }
Wed Sep 11 13:40:02 IDT 2013	Received communication message 
Wed Sep 11 13:40:02 IDT 2013	Proposer 1 accepted? true
Wed Sep 11 13:40:02 IDT 2013	A Phase Ended: Communication Phase
Wed Sep 11 13:40:02 IDT 2013	Protocol: A New Phase Began: Movement Phase. loop is true
Wed Sep 11 13:40:02 IDT 2013	---------- Beginning Movement Phase at round 20 ----------
Wed Sep 11 13:40:47 IDT 2013	A Phase Ended: Movement Phase
Wed Sep 11 13:40:47 IDT 2013	Protocol: A New Phase Began: Feedback Phase. loop is true
Wed Sep 11 13:40:47 IDT 2013	---------- Beginning Feedback Phase at round 20 ----------
Wed Sep 11 13:40:47 IDT 2013	Number of consecutive no movements for player 510 is 0
Wed Sep 11 13:40:47 IDT 2013	TDPlayerPosition is(R:1,C:6)goal location 0(R:0,C:0)goal location 1(R:0,C:8)
Wed Sep 11 13:40:47 IDT 2013	ended is false
Wed Sep 11 13:40:52 IDT 2013	A Phase Ended: Feedback Phase
Wed Sep 11 13:40:52 IDT 2013	 numberofMoves in round 20 is 1
Wed Sep 11 13:40:52 IDT 2013	Swaping roles:
Wed Sep 11 13:40:52 IDT 2013	Protocol: A New Phase Began: Communication Phase. loop is true
Wed Sep 11 13:40:52 IDT 2013	---------- Beginning Communication Phase at round 21 ----------
Wed Sep 11 13:41:14 IDT 2013	Received communication message 
Wed Sep 11 13:41:14 IDT 2013	From player: 520
Wed Sep 11 13:41:14 IDT 2013	To player: 510
Wed Sep 11 13:41:14 IDT 2013	Chips to send by proposer: { chips  'CTRed':3 'CTPurple':0 'CTGreen':0 'grey78':0 'CTYellow':3 }
Wed Sep 11 13:41:14 IDT 2013	Chips to send by responder: { chips  'CTRed':0 'CTPurple':0 'CTGreen':0 'grey78':0 'CTYellow':0 }
Wed Sep 11 13:41:39 IDT 2013	Received communication message 
Wed Sep 11 13:41:39 IDT 2013	From player: 540
Wed Sep 11 13:41:39 IDT 2013	To player: 510
Wed Sep 11 13:41:39 IDT 2013	Chips to send by proposer: { chips  'CTRed':0 'CTPurple':0 'CTGreen':0 'grey78':0 'CTYellow':0 }
Wed Sep 11 13:41:39 IDT 2013	Chips to send by responder: { chips  'CTRed':2 'CTPurple':0 'CTGreen':0 'grey78':0 'CTYellow':0 }
Wed Sep 11 13:41:39 IDT 2013	Received communication message 
Wed Sep 11 13:41:39 IDT 2013	Proposer 0 accepted? true
Wed Sep 11 13:41:39 IDT 2013	A Phase Ended: Communication Phase
Wed Sep 11 13:41:39 IDT 2013	Protocol: A New Phase Began: Movement Phase. loop is true
Wed Sep 11 13:41:39 IDT 2013	---------- Beginning Movement Phase at round 21 ----------
Wed Sep 11 13:41:39 IDT 2013	Received communication message 
Wed Sep 11 13:41:39 IDT 2013	Proposer 1 accepted? false
Wed Sep 11 13:42:24 IDT 2013	A Phase Ended: Movement Phase
Wed Sep 11 13:42:24 IDT 2013	Protocol: A New Phase Began: Feedback Phase. loop is true
Wed Sep 11 13:42:24 IDT 2013	---------- Beginning Feedback Phase at round 21 ----------
Wed Sep 11 13:42:24 IDT 2013	Number of consecutive no movements for player 510 is 1
Wed Sep 11 13:42:24 IDT 2013	TDPlayerPosition is(R:1,C:6)goal location 0(R:0,C:0)goal location 1(R:0,C:8)
Wed Sep 11 13:42:24 IDT 2013	ended is false
Wed Sep 11 13:42:29 IDT 2013	A Phase Ended: Feedback Phase
Wed Sep 11 13:42:29 IDT 2013	 numberofMoves in round 21 is 0
Wed Sep 11 13:42:29 IDT 2013	Swaping roles:
Wed Sep 11 13:42:29 IDT 2013	Protocol: A New Phase Began: Communication Phase. loop is true
Wed Sep 11 13:42:29 IDT 2013	---------- Beginning Communication Phase at round 22 ----------
Wed Sep 11 13:42:29 IDT 2013	Received communication message 
Wed Sep 11 13:42:29 IDT 2013	From player: 510
Wed Sep 11 13:42:29 IDT 2013	To player: 520
Wed Sep 11 13:42:29 IDT 2013	Chips to send by proposer: { chips  'grey78':1 }
Wed Sep 11 13:42:29 IDT 2013	Chips to send by responder: { chips  'CTRed':16 'CTPurple':0 'CTYellow':0 }
Wed Sep 11 13:42:53 IDT 2013	Received communication message 
Wed Sep 11 13:42:53 IDT 2013	Proposer 0 accepted? true
Wed Sep 11 13:42:53 IDT 2013	A Phase Ended: Communication Phase
Wed Sep 11 13:42:53 IDT 2013	Protocol: A New Phase Began: Movement Phase. loop is true
Wed Sep 11 13:42:53 IDT 2013	---------- Beginning Movement Phase at round 22 ----------
Wed Sep 11 13:43:38 IDT 2013	A Phase Ended: Movement Phase
Wed Sep 11 13:43:38 IDT 2013	Protocol: A New Phase Began: Feedback Phase. loop is true
Wed Sep 11 13:43:38 IDT 2013	---------- Beginning Feedback Phase at round 22 ----------
Wed Sep 11 13:43:38 IDT 2013	The TD player reached the goal, end the game
Wed Sep 11 13:43:38 IDT 2013	ended is true
Wed Sep 11 13:43:43 IDT 2013	A Phase Ended: Feedback Phase
Wed Sep 11 13:43:43 IDT 2013	 numberofMoves in round 22 is 3
Wed Sep 11 13:43:43 IDT 2013	Loop status: false
Wed Sep 11 13:43:43 IDT 2013	Player: 510 ,role: Proposer score is: 490
Wed Sep 11 13:43:43 IDT 2013	Player: 510Game Ended
Wed Sep 11 13:43:43 IDT 2013	Player: 520 ,role: Responder score is: 195
Wed Sep 11 13:43:43 IDT 2013	Player: 520Game Ended
Wed Sep 11 13:43:43 IDT 2013	Player: 540 ,role: Responder score is: 70
Wed Sep 11 13:43:43 IDT 2013	Player: 540Game Ended
Wed Sep 11 13:43:43 IDT 2013	Protocol: A New Phase Began: Communication Phase. loop is false
Wed Sep 11 13:43:43 IDT 2013	---------- Beginning Communication Phase at round 22 ----------
Wed Sep 11 13:46:43 IDT 2013	A Phase Ended: Communication Phase
Wed Sep 11 13:46:43 IDT 2013	Protocol: A New Phase Began: Movement Phase. loop is false
Wed Sep 11 13:46:43 IDT 2013	---------- Beginning Movement Phase at round 22 ----------
Wed Sep 11 13:47:28 IDT 2013	A Phase Ended: Movement Phase
Wed Sep 11 13:47:28 IDT 2013	Protocol: A New Phase Began: Feedback Phase. loop is false
Wed Sep 11 13:47:28 IDT 2013	---------- Beginning Feedback Phase at round 22 ----------
Wed Sep 11 13:47:28 IDT 2013	The TD player reached the goal, end the game
Wed Sep 11 13:47:28 IDT 2013	ended is true
Wed Sep 11 13:47:33 IDT 2013	A Phase Ended: Feedback Phase
Wed Sep 11 13:47:33 IDT 2013	 numberofMoves in round 22 is 0
Wed Sep 11 13:47:33 IDT 2013	Loop status: false
Wed Sep 11 13:47:33 IDT 2013	Player: 510 ,role: GameEnded score is: 490
Wed Sep 11 13:47:33 IDT 2013	Player: 510Game Ended
Wed Sep 11 13:47:33 IDT 2013	Player: 520 ,role: GameEnded score is: 195
Wed Sep 11 13:47:33 IDT 2013	Player: 520Game Ended
Wed Sep 11 13:47:33 IDT 2013	Player: 540 ,role: GameEnded score is: 70
Wed Sep 11 13:47:33 IDT 2013	Player: 540Game Ended
