Participant Number ,Ip-Server,Date,Gender,Age,Nationality,Religion,Major,Year,How religious,Marital
300,c5,Thu Nov 07 2013 10:51:45 GMT-0500 (Eastern Standard Time),female,23,caucasian,buddhist,biology,2nd,6,single
200,C3,Thu Nov 07 2013 10:51:49 GMT-0500 (Eastern Standard Time),Male,22,Chilean,NA,Applied Math,Senior,1,Single
100,C1,Thu Nov 07 2013 10:44:47 GMT-0500 (Eastern Standard Time),female,21,US,none,psychology,senior,1,living w/partner
