filename,round,propID,respID,IsPropCustomer,chipsToSend,chipsToReceive,accept,propCurrentScore,respCurrentScore,actualSent,ActualRcvd,propResultingScore,respResultingScore,#ofCustomerMovesInRound,customerRowPositionAfterMovePhase,customerColPositionAfterMovePhase,Player100ChipsAfterMovePhase,Player100ScoreAfterMovePhase,Player200ChipsAfterMovePhase,Player200ScoreAfterMovePhase,Player300ChipsAfterMovePhase,Player300ScoreAfterMovePhase,generosityLevel,ClientReachedGoal
3playersLog_1388319804546.csv,1,530,500,false,{ chips  'CTRed':33 'CTPurple':7 },{ chips  'grey78':11 },FALSE,200,120,,,,,0,(R:5,C:4),{ chips  'CTRed':1 'CTGreen':0 'CTPurple':1 'grey78':10 'CTYellow':12 },120,{ chips  'CTRed':33 'CTGreen':0 'CTPurple':7 'grey78':0 'CTYellow':0 },200,{ chips  'CTRed':32 'CTGreen':0 'CTPurple':6 'grey78':2 'CTYellow':0 },200
3playersLog_1388319804546.csv,1,540,500,false,{ chips  'CTRed':1 'CTPurple':1 },{ chips  'grey78':2 },TRUE,200,120,{ chips  'CTRed':1 'CTPurple':1 'CTGreen':0 'grey78':0 'CTYellow':0 },{ chips  'CTRed':0 'CTPurple':0 'CTGreen':0 'grey78':2 'CTYellow':0 },200,120,0,(R:5,C:4),{ chips  'CTRed':1 'CTGreen':0 'CTPurple':1 'grey78':10 'CTYellow':12 },120,{ chips  'CTRed':33 'CTGreen':0 'CTPurple':7 'grey78':0 'CTYellow':0 },200,{ chips  'CTRed':32 'CTGreen':0 'CTPurple':6 'grey78':2 'CTYellow':0 },200
3playersLog_1388319804546.csv,2,500,540,true,{ chips  'CTYellow':1 },{ chips  'CTRed':3 'grey78':1 },FALSE,120,200,,,,,3,(R:3,C:3),{ chips  'CTRed':1 'CTGreen':0 'CTPurple':0 'grey78':8 'CTYellow':12 },105,{ chips  'CTRed':33 'CTGreen':0 'CTPurple':7 'grey78':0 'CTYellow':0 },200,{ chips  'CTRed':32 'CTGreen':0 'CTPurple':6 'grey78':2 'CTYellow':0 },200
3playersLog_1388319804546.csv,3,530,500,false,{ chips  'CTRed':33 'CTPurple':2 },{ chips  'grey78':6 },FALSE,200,105,,,,,2,(R:3,C:1),{ chips  'CTRed':1 'CTGreen':0 'CTPurple':0 'grey78':6 'CTYellow':12 },95,{ chips  'CTRed':33 'CTGreen':0 'CTPurple':7 'grey78':0 'CTYellow':0 },200,{ chips  'CTRed':32 'CTGreen':0 'CTPurple':6 'grey78':2 'CTYellow':0 },200
3playersLog_1388319804546.csv,3,540,500,false,{ chips  'CTRed':2 'CTPurple':1 'grey78':2 },{ chips  'CTYellow':6 },FALSE,200,105,,,,,2,(R:3,C:1),{ chips  'CTRed':1 'CTGreen':0 'CTPurple':0 'grey78':6 'CTYellow':12 },95,{ chips  'CTRed':33 'CTGreen':0 'CTPurple':7 'grey78':0 'CTYellow':0 },200,{ chips  'CTRed':32 'CTGreen':0 'CTPurple':6 'grey78':2 'CTYellow':0 },200
3playersLog_1388319804546.csv,4,500,540,true,{ chips  'grey78':2 },{ chips  'CTRed':8 },TRUE,95,200,{ chips  'CTRed':0 'CTPurple':0 'CTGreen':0 'grey78':2 'CTYellow':0 },{ chips  'CTRed':8 'CTPurple':0 'CTGreen':0 'grey78':0 'CTYellow':0 },125,170,0,(R:3,C:1),{ chips  'CTRed':9 'CTGreen':0 'CTPurple':0 'grey78':4 'CTYellow':12 },125,{ chips  'CTRed':33 'CTGreen':0 'CTPurple':7 'grey78':0 'CTYellow':0 },200,{ chips  'CTRed':24 'CTGreen':0 'CTPurple':6 'grey78':4 'CTYellow':0 },170
3playersLog_1388319804546.csv,5,530,500,false,{ chips  },{ chips  },FALSE,200,125,,,,,1,(R:2,C:1),{ chips  'CTRed':20 'CTGreen':0 'CTPurple':0 'grey78':3 'CTYellow':3 },130,{ chips  'CTRed':33 'CTGreen':0 'CTPurple':7 'grey78':0 'CTYellow':0 },200,{ chips  'CTRed':13 'CTGreen':0 'CTPurple':6 'grey78':4 'CTYellow':9 },160
3playersLog_1388319804546.csv,5,540,500,false,{ chips  'CTRed':11 },{ chips  'CTYellow':9 },TRUE,170,125,{ chips  'CTRed':11 'CTPurple':0 'CTGreen':0 'grey78':0 'CTYellow':0 },{ chips  'CTRed':0 'CTPurple':0 'CTGreen':0 'grey78':0 'CTYellow':9 },160,135,1,(R:2,C:1),{ chips  'CTRed':20 'CTGreen':0 'CTPurple':0 'grey78':3 'CTYellow':3 },130,{ chips  'CTRed':33 'CTGreen':0 'CTPurple':7 'grey78':0 'CTYellow':0 },200,{ chips  'CTRed':13 'CTGreen':0 'CTPurple':6 'grey78':4 'CTYellow':9 },160
3playersLog_1388319804546.csv,6,500,530,true,{ chips  'CTRed':3 },{ chips  'CTPurple':6 },IGNORED,130,200,,,,,1,(R:2,C:0),{ chips  'CTRed':20 'CTGreen':0 'CTPurple':0 'grey78':2 'CTYellow':3 },125,{ chips  'CTRed':33 'CTGreen':0 'CTPurple':7 'grey78':0 'CTYellow':0 },200,{ chips  'CTRed':13 'CTGreen':0 'CTPurple':6 'grey78':4 'CTYellow':9 },160
3playersLog_1388319804546.csv,7,530,500,false,{ chips  },{ chips  },FALSE,200,125,,,,,1,(R:1,C:0),{ chips  'CTRed':23 'CTGreen':0 'CTPurple':0 'grey78':1 'CTYellow':0 },120,{ chips  'CTRed':33 'CTGreen':0 'CTPurple':7 'grey78':0 'CTYellow':0 },200,{ chips  'CTRed':10 'CTGreen':0 'CTPurple':6 'grey78':4 'CTYellow':12 },160
3playersLog_1388319804546.csv,7,540,500,false,{ chips  'CTRed':3 },{ chips  'CTYellow':3 },TRUE,160,125,{ chips  'CTRed':3 'CTPurple':0 'CTGreen':0 'grey78':0 'CTYellow':0 },{ chips  'CTRed':0 'CTPurple':0 'CTGreen':0 'grey78':0 'CTYellow':3 },160,125,1,(R:1,C:0),{ chips  'CTRed':23 'CTGreen':0 'CTPurple':0 'grey78':1 'CTYellow':0 },120,{ chips  'CTRed':33 'CTGreen':0 'CTPurple':7 'grey78':0 'CTYellow':0 },200,{ chips  'CTRed':10 'CTGreen':0 'CTPurple':6 'grey78':4 'CTYellow':12 },160
3playersLog_1388319804546.csv,8,500,530,true,{ chips  'CTRed':5 },{ chips  'CTPurple':7 },IGNORED,120,200,,,,,0,(R:1,C:0),{ chips  'CTRed':23 'CTGreen':0 'CTPurple':0 'grey78':1 'CTYellow':0 },120,{ chips  'CTRed':33 'CTGreen':0 'CTPurple':7 'grey78':0 'CTYellow':0 },200,{ chips  'CTRed':10 'CTGreen':0 'CTPurple':6 'grey78':4 'CTYellow':12 },160
3playersLog_1388319804546.csv,9,530,500,false,{ chips  },{ chips  },FALSE,200,120,,,,,0,(R:1,C:0),{ chips  'CTRed':22 'CTGreen':0 'CTPurple':0 'grey78':0 'CTYellow':2 },120,{ chips  'CTRed':33 'CTGreen':0 'CTPurple':7 'grey78':0 'CTYellow':0 },200,{ chips  'CTRed':11 'CTGreen':0 'CTPurple':6 'grey78':5 'CTYellow':10 },160
3playersLog_1388319804546.csv,9,540,500,false,{ chips  'CTYellow':2 },{ chips  'CTRed':1 'grey78':1 },TRUE,160,120,{ chips  'CTRed':0 'CTPurple':0 'CTGreen':0 'grey78':0 'CTYellow':2 },{ chips  'CTRed':1 'CTPurple':0 'CTGreen':0 'grey78':1 'CTYellow':0 },160,120,0,(R:1,C:0),{ chips  'CTRed':22 'CTGreen':0 'CTPurple':0 'grey78':0 'CTYellow':2 },120,{ chips  'CTRed':33 'CTGreen':0 'CTPurple':7 'grey78':0 'CTYellow':0 },200,{ chips  'CTRed':11 'CTGreen':0 'CTPurple':6 'grey78':5 'CTYellow':10 },160
3playersLog_1388319804546.csv,,,,,,,,,,,,,,,,,,,,,,,,false
