Tue Nov 26 18:01:34 IST 2013	This is the CT debug logger; svn version 638; sep 27 09
Tue Nov 26 18:01:34 IST 2013	Tue Nov 26 18:01:34 IST 2013
Tue Nov 26 18:01:34 IST 2013	ThreePlayersAgentPlayerNastySP(): entering.
Tue Nov 26 18:06:22 IST 2013	phaseAdvanced(): entering.
Tue Nov 26 18:06:22 IST 2013	phaseAdvanced(): new phase is 'Strategy Prep Phase'.
Tue Nov 26 18:07:22 IST 2013	phaseAdvanced(): entering.
Tue Nov 26 18:07:22 IST 2013	phaseAdvanced(): new phase is 'Communication Phase'.
Tue Nov 26 18:08:25 IST 2013	onReceipt(): entering.
Tue Nov 26 18:08:25 IST 2013	phaseAdvanced(): entering.
Tue Nov 26 18:08:25 IST 2013	phaseAdvanced(): new phase is 'Movement Phase'.
Tue Nov 26 18:09:09 IST 2013	phaseAdvanced(): entering.
Tue Nov 26 18:09:09 IST 2013	phaseAdvanced(): new phase is 'Feedback Phase'.
Tue Nov 26 18:09:14 IST 2013	phaseAdvanced(): entering.
Tue Nov 26 18:09:14 IST 2013	phaseAdvanced(): new phase is 'Communication Phase'.
Tue Nov 26 18:10:32 IST 2013	onReceipt(): entering.
Tue Nov 26 18:10:32 IST 2013	onReceipt(): opponent's proposal: ({ chips  'CTRed':2 'CTPurple':0 'CTGreen':0 'grey78':0 'CTYellow':0 }, { chips  'CTRed':0 'CTPurple':0 'CTGreen':0 'grey78':0 'CTYellow':0 }).
Tue Nov 26 18:10:32 IST 2013	respondToProposal(): entering.
Tue Nov 26 18:10:32 IST 2013	respondToProposal(): my chips: ({ chips  'CTRed':22 'CTPurple':5 'CTGreen':0 'grey78':3 'CTYellow':0 }).
Tue Nov 26 18:10:32 IST 2013	responseToSend(): entering.
Tue Nov 26 18:10:32 IST 2013	responseToSend(): accepting proposal 
Tue Nov 26 18:10:32 IST 2013	phaseAdvanced(): entering.
Tue Nov 26 18:10:32 IST 2013	phaseAdvanced(): new phase is 'Movement Phase'.
Tue Nov 26 18:11:16 IST 2013	phaseAdvanced(): entering.
Tue Nov 26 18:11:16 IST 2013	phaseAdvanced(): new phase is 'Feedback Phase'.
Tue Nov 26 18:11:21 IST 2013	phaseAdvanced(): entering.
Tue Nov 26 18:11:21 IST 2013	phaseAdvanced(): new phase is 'Communication Phase'.
Tue Nov 26 18:12:14 IST 2013	onReceipt(): entering.
Tue Nov 26 18:12:14 IST 2013	phaseAdvanced(): entering.
Tue Nov 26 18:12:14 IST 2013	phaseAdvanced(): new phase is 'Movement Phase'.
Tue Nov 26 18:12:58 IST 2013	phaseAdvanced(): entering.
Tue Nov 26 18:12:58 IST 2013	phaseAdvanced(): new phase is 'Feedback Phase'.
