Wed Aug 08 16:28:29 IDT 2012	This is the CT debug logger; svn version 638; sep 27 09
Wed Aug 08 16:28:29 IDT 2012	Wed Aug 08 16:28:29 IDT 2012
Wed Aug 08 16:28:29 IDT 2012	ID Number: 69220
Wed Aug 08 16:28:29 IDT 2012	Creating board
Wed Aug 08 16:28:29 IDT 2012	<colors>
Wed Aug 08 16:28:29 IDT 2012	{ GamePalette  'CTPurple':0 'CTRed':1 'CTGreen':2 'grey78':3 'CTYellow':4 }
Wed Aug 08 16:28:29 IDT 2012	<rows>
Wed Aug 08 16:28:29 IDT 2012	6
Wed Aug 08 16:28:29 IDT 2012	<columns>
Wed Aug 08 16:28:29 IDT 2012	9
Wed Aug 08 16:28:29 IDT 2012	<squaresColors>
Wed Aug 08 16:28:29 IDT 2012	grey78 CTGreen CTGreen CTGreen CTGreen CTGreen CTGreen CTGreen CTYellow 
Wed Aug 08 16:28:29 IDT 2012	grey78 CTPurple CTPurple CTPurple CTPurple CTPurple CTPurple CTPurple CTYellow 
Wed Aug 08 16:28:29 IDT 2012	grey78 grey78 CTGreen CTGreen CTGreen CTGreen CTGreen CTYellow CTYellow 
Wed Aug 08 16:28:29 IDT 2012	CTGreen grey78 grey78 CTPurple CTPurple CTPurple CTYellow CTYellow CTGreen 
Wed Aug 08 16:28:29 IDT 2012	CTGreen CTGreen grey78 grey78 CTGreen CTYellow CTYellow CTGreen CTGreen 
Wed Aug 08 16:28:29 IDT 2012	CTGreen CTGreen CTGreen grey78 CTGreen CTYellow CTGreen CTGreen CTGreen 
Wed Aug 08 16:28:29 IDT 2012	</squareColors>
Wed Aug 08 16:28:29 IDT 2012	<goalPosition>
Wed Aug 08 16:28:29 IDT 2012	Goal position: (R:0,C:0)
Wed Aug 08 16:28:29 IDT 2012	<goalPosition>
Wed Aug 08 16:28:29 IDT 2012	Goal position: (R:0,C:0)
Wed Aug 08 16:28:29 IDT 2012	<firstPlayerPossibleGoal1>
Wed Aug 08 16:28:29 IDT 2012	0.5
Wed Aug 08 16:28:29 IDT 2012	0
Wed Aug 08 16:28:29 IDT 2012	0
Wed Aug 08 16:28:29 IDT 2012	</firstPlayerPossibleGoal1>
Wed Aug 08 16:28:29 IDT 2012	<firstPlayerPossibleGoal2>
Wed Aug 08 16:28:29 IDT 2012	0.5
Wed Aug 08 16:28:29 IDT 2012	0
Wed Aug 08 16:28:29 IDT 2012	8
Wed Aug 08 16:28:29 IDT 2012	</firstPlayerPossibleGoal2>
Wed Aug 08 16:28:29 IDT 2012	<numberOfPlayers>
Wed Aug 08 16:28:29 IDT 2012	3
Wed Aug 08 16:28:29 IDT 2012	<firstPlayerChips>
Wed Aug 08 16:28:29 IDT 2012	Setting chips for player: 200 id:0
Wed Aug 08 16:28:29 IDT 2012	{ chips  'CTRed':10 'CTGreen':0 'CTPurple':0 'grey78':0 'CTYellow':0 }
Wed Aug 08 16:28:29 IDT 2012	Player position: (R:5,C:4)
Wed Aug 08 16:28:29 IDT 2012	Setting chips for player: 300 id:1
Wed Aug 08 16:28:29 IDT 2012	{ chips  'CTRed':10 'CTGreen':0 'CTPurple':30 'grey78':0 'CTYellow':9 }
Wed Aug 08 16:28:29 IDT 2012	Player position: (R:0,C:8)
Wed Aug 08 16:28:29 IDT 2012	Setting chips for player: 100 id:2
Wed Aug 08 16:28:29 IDT 2012	{ chips  'CTRed':10 'CTGreen':0 'CTPurple':30 'grey78':9 'CTYellow':0 }
Wed Aug 08 16:28:29 IDT 2012	Player position: (R:0,C:0)
Wed Aug 08 16:28:29 IDT 2012	Protocol: A New Phase Began: Strategy Prep Phase. loop is true
Wed Aug 08 16:28:29 IDT 2012	---------- Beginning Strategy Prep Phase at round 0 ----------
Wed Aug 08 16:28:49 IDT 2012	A Phase Ended: Strategy Prep Phase
Wed Aug 08 16:28:49 IDT 2012	Protocol: A New Phase Began: Communication Phase. loop is true
Wed Aug 08 16:28:49 IDT 2012	---------- Beginning Communication Phase at round 1 ----------
Wed Aug 08 16:29:40 IDT 2012	Received communication message 
Wed Aug 08 16:29:40 IDT 2012	From player: 100
Wed Aug 08 16:29:40 IDT 2012	To player: 200
Wed Aug 08 16:29:40 IDT 2012	Chips to send by proposer: { chips  'CTRed':0 'CTPurple':0 'CTGreen':0 'grey78':0 'CTYellow':0 }
Wed Aug 08 16:29:40 IDT 2012	Chips to send by responder: { chips  'CTRed':0 'CTPurple':0 'CTGreen':0 'grey78':0 'CTYellow':0 }
Wed Aug 08 16:29:49 IDT 2012	Received communication message 
Wed Aug 08 16:29:49 IDT 2012	From player: 300
Wed Aug 08 16:29:49 IDT 2012	To player: 200
Wed Aug 08 16:29:49 IDT 2012	Chips to send by proposer: { chips  'CTRed':0 'CTPurple':0 'CTGreen':0 'grey78':0 'CTYellow':4 }
Wed Aug 08 16:29:49 IDT 2012	Chips to send by responder: { chips  'CTRed':0 'CTPurple':0 'CTGreen':0 'grey78':0 'CTYellow':0 }
Wed Aug 08 16:31:13 IDT 2012	Received communication message 
Wed Aug 08 16:31:13 IDT 2012	Proposer 0 accepted? true
Wed Aug 08 16:31:13 IDT 2012	A Phase Ended: Communication Phase
Wed Aug 08 16:31:13 IDT 2012	Protocol: A New Phase Began: Movement Phase. loop is true
Wed Aug 08 16:31:13 IDT 2012	---------- Beginning Movement Phase at round 1 ----------
Wed Aug 08 16:32:12 IDT 2012	A Phase Ended: Movement Phase
Wed Aug 08 16:32:12 IDT 2012	Protocol: A New Phase Began: Feedback Phase. loop is true
Wed Aug 08 16:32:12 IDT 2012	---------- Beginning Feedback Phase at round 1 ----------
Wed Aug 08 16:32:12 IDT 2012	Number of consecutive no movements for player 200 is 0
Wed Aug 08 16:32:12 IDT 2012	TDPlayerPosition is(R:3,C:6)goal location 0(R:0,C:0)goal location 1(R:0,C:8)
Wed Aug 08 16:32:12 IDT 2012	ended is false
Wed Aug 08 16:32:42 IDT 2012	A Phase Ended: Feedback Phase
Wed Aug 08 16:32:42 IDT 2012	 numberofMoves in round 1 is 4
Wed Aug 08 16:32:42 IDT 2012	Swaping roles:
Wed Aug 08 16:32:42 IDT 2012	Protocol: A New Phase Began: Communication Phase. loop is true
Wed Aug 08 16:32:42 IDT 2012	---------- Beginning Communication Phase at round 2 ----------
Wed Aug 08 16:34:30 IDT 2012	Received communication message 
Wed Aug 08 16:34:30 IDT 2012	From player: 200
Wed Aug 08 16:34:30 IDT 2012	To player: 300
Wed Aug 08 16:34:30 IDT 2012	Chips to send by proposer: { chips  'CTRed':0 'CTPurple':0 'CTGreen':0 'grey78':0 'CTYellow':0 }
Wed Aug 08 16:34:30 IDT 2012	Chips to send by responder: { chips  'CTRed':0 'CTPurple':0 'CTGreen':0 'grey78':0 'CTYellow':5 }
Wed Aug 08 16:34:53 IDT 2012	Received communication message 
Wed Aug 08 16:34:53 IDT 2012	Proposer 0 accepted? true
Wed Aug 08 16:34:53 IDT 2012	A Phase Ended: Communication Phase
Wed Aug 08 16:34:53 IDT 2012	Protocol: A New Phase Began: Movement Phase. loop is true
Wed Aug 08 16:34:53 IDT 2012	---------- Beginning Movement Phase at round 2 ----------
Wed Aug 08 16:35:20 IDT 2012	The TD player reached the goal, end the game
Wed Aug 08 16:35:20 IDT 2012	A Phase Ended: Movement Phase
Wed Aug 08 16:35:20 IDT 2012	Protocol: A New Phase Began: Feedback Phase. loop is true
Wed Aug 08 16:35:20 IDT 2012	---------- Beginning Feedback Phase at round 2 ----------
Wed Aug 08 16:35:20 IDT 2012	Number of consecutive no movements for player 200 is 0
Wed Aug 08 16:35:20 IDT 2012	TDPlayerPosition is(R:0,C:8)goal location 0(R:0,C:0)goal location 1(R:0,C:8)
Wed Aug 08 16:35:20 IDT 2012	The TD player reached the goal, end the game
Wed Aug 08 16:35:20 IDT 2012	ended is true
Wed Aug 08 16:35:49 IDT 2012	A Phase Ended: Feedback Phase
Wed Aug 08 16:35:49 IDT 2012	 numberofMoves in round 2 is 5
Wed Aug 08 16:35:49 IDT 2012	Loop status: false
Wed Aug 08 16:35:49 IDT 2012	Player: 100 ,role: Responder score is: 240
Wed Aug 08 16:35:49 IDT 2012	Player: 100Game Ended
Wed Aug 08 16:35:49 IDT 2012	Player: 300 ,role: Responder score is: 345
Wed Aug 08 16:35:49 IDT 2012	Player: 300Game Ended
Wed Aug 08 16:35:49 IDT 2012	Player: 200 ,role: Proposer score is: 195
Wed Aug 08 16:35:49 IDT 2012	Player: 200Game Ended
Wed Aug 08 16:35:49 IDT 2012	Protocol: A New Phase Began: Communication Phase. loop is false
Wed Aug 08 16:35:49 IDT 2012	---------- Beginning Communication Phase at round 2 ----------
Wed Aug 08 16:40:49 IDT 2012	A Phase Ended: Communication Phase
Wed Aug 08 16:40:49 IDT 2012	Protocol: A New Phase Began: Movement Phase. loop is false
Wed Aug 08 16:40:49 IDT 2012	---------- Beginning Movement Phase at round 2 ----------
Wed Aug 08 16:41:49 IDT 2012	A Phase Ended: Movement Phase
Wed Aug 08 16:41:49 IDT 2012	Protocol: A New Phase Began: Feedback Phase. loop is false
Wed Aug 08 16:41:49 IDT 2012	---------- Beginning Feedback Phase at round 2 ----------
Wed Aug 08 16:41:49 IDT 2012	Number of consecutive no movements for player 200 is 1
Wed Aug 08 16:41:49 IDT 2012	TDPlayerPosition is(R:0,C:8)goal location 0(R:0,C:0)goal location 1(R:0,C:8)
Wed Aug 08 16:41:49 IDT 2012	Ending game, TD Player move as much as it can towards goal
Wed Aug 08 16:41:49 IDT 2012	ended is true
Wed Aug 08 16:42:19 IDT 2012	A Phase Ended: Feedback Phase
Wed Aug 08 16:42:19 IDT 2012	 numberofMoves in round 2 is 0
Wed Aug 08 16:42:19 IDT 2012	Loop status: false
Wed Aug 08 16:42:19 IDT 2012	Player: 100 ,role: GameEnded score is: 240
Wed Aug 08 16:42:19 IDT 2012	Player: 100Game Ended
Wed Aug 08 16:42:19 IDT 2012	Player: 300 ,role: GameEnded score is: 345
Wed Aug 08 16:42:19 IDT 2012	Player: 300Game Ended
Wed Aug 08 16:42:19 IDT 2012	Player: 200 ,role: GameEnded score is: 195
Wed Aug 08 16:42:19 IDT 2012	Player: 200Game Ended
