Tue Jan 21 14:57:04 IST 2014	This is the CT debug logger; svn version 638; sep 27 09
Tue Jan 21 14:57:04 IST 2014	Tue Jan 21 14:57:04 IST 2014
Tue Jan 21 14:57:04 IST 2014	ID Number: 64011
Tue Jan 21 14:57:04 IST 2014	Creating board
Tue Jan 21 14:57:04 IST 2014	<colors>
Tue Jan 21 14:57:04 IST 2014	{ GamePalette  'CTPurple':0 'CTRed':1 'CTGreen':2 'grey78':3 'CTYellow':4 }
Tue Jan 21 14:57:04 IST 2014	<rows>
Tue Jan 21 14:57:04 IST 2014	6
Tue Jan 21 14:57:04 IST 2014	<columns>
Tue Jan 21 14:57:04 IST 2014	9
Tue Jan 21 14:57:04 IST 2014	<squaresColors>
Tue Jan 21 14:57:04 IST 2014	grey78 CTGreen CTGreen CTGreen CTGreen CTGreen CTGreen CTGreen CTYellow 
Tue Jan 21 14:57:04 IST 2014	grey78 CTPurple CTPurple CTPurple CTPurple CTPurple CTPurple CTPurple CTYellow 
Tue Jan 21 14:57:04 IST 2014	grey78 grey78 CTGreen CTGreen CTGreen CTGreen CTGreen CTYellow CTYellow 
Tue Jan 21 14:57:04 IST 2014	CTGreen grey78 grey78 CTPurple CTPurple CTPurple CTYellow CTYellow CTGreen 
Tue Jan 21 14:57:04 IST 2014	CTGreen CTGreen grey78 grey78 CTGreen CTYellow CTYellow CTGreen CTGreen 
Tue Jan 21 14:57:04 IST 2014	CTGreen CTGreen CTGreen grey78 CTGreen CTYellow CTGreen CTGreen CTGreen 
Tue Jan 21 14:57:04 IST 2014	</squareColors>
Tue Jan 21 14:57:04 IST 2014	<goalPosition>
Tue Jan 21 14:57:04 IST 2014	Goal position: (R:0,C:0)
Tue Jan 21 14:57:04 IST 2014	<goalPosition>
Tue Jan 21 14:57:04 IST 2014	Goal position: (R:0,C:0)
Tue Jan 21 14:57:04 IST 2014	<firstPlayerPossibleGoal1>
Tue Jan 21 14:57:04 IST 2014	0.5
Tue Jan 21 14:57:04 IST 2014	0
Tue Jan 21 14:57:04 IST 2014	0
Tue Jan 21 14:57:04 IST 2014	</firstPlayerPossibleGoal1>
Tue Jan 21 14:57:04 IST 2014	<firstPlayerPossibleGoal2>
Tue Jan 21 14:57:04 IST 2014	0.5
Tue Jan 21 14:57:04 IST 2014	0
Tue Jan 21 14:57:04 IST 2014	8
Tue Jan 21 14:57:04 IST 2014	</firstPlayerPossibleGoal2>
Tue Jan 21 14:57:04 IST 2014	<numberOfPlayers>
Tue Jan 21 14:57:04 IST 2014	3
Tue Jan 21 14:57:04 IST 2014	<firstPlayerChips>
Tue Jan 21 14:57:04 IST 2014	Setting chips for player: 500 id:0
Tue Jan 21 14:57:04 IST 2014	{ chips  'CTRed':0 'CTGreen':0 'CTPurple':0 'grey78':12 'CTYellow':12 }
Tue Jan 21 14:57:04 IST 2014	Player position: (R:5,C:4)
Tue Jan 21 14:57:04 IST 2014	Setting chips for player: 560 id:1
Tue Jan 21 14:57:04 IST 2014	{ chips  'CTRed':33 'CTGreen':0 'CTPurple':7 'grey78':0 'CTYellow':0 }
Tue Jan 21 14:57:04 IST 2014	Player position: (R:0,C:8)
Tue Jan 21 14:57:04 IST 2014	Setting chips for player: 540 id:2
Tue Jan 21 14:57:04 IST 2014	{ chips  'CTRed':33 'CTGreen':0 'CTPurple':7 'grey78':0 'CTYellow':0 }
Tue Jan 21 14:57:04 IST 2014	Player position: (R:0,C:0)
Tue Jan 21 14:57:04 IST 2014	Protocol: A New Phase Began: Strategy Prep Phase. loop is true
Tue Jan 21 14:57:04 IST 2014	---------- Beginning Strategy Prep Phase at round 0 ----------
Tue Jan 21 14:58:04 IST 2014	A Phase Ended: Strategy Prep Phase
Tue Jan 21 14:58:04 IST 2014	Protocol: A New Phase Began: Communication Phase. loop is true
Tue Jan 21 14:58:04 IST 2014	---------- Beginning Communication Phase at round 1 ----------
Tue Jan 21 14:58:04 IST 2014	Received communication message 
Tue Jan 21 14:58:04 IST 2014	From player: 560
Tue Jan 21 14:58:04 IST 2014	To player: 500
Tue Jan 21 14:58:04 IST 2014	Chips to send by proposer: { chips  'CTRed':14 }
Tue Jan 21 14:58:04 IST 2014	Chips to send by responder: { chips  'grey78':0 }
Tue Jan 21 14:59:19 IST 2014	Received communication message 
Tue Jan 21 14:59:19 IST 2014	From player: 540
Tue Jan 21 14:59:19 IST 2014	To player: 500
Tue Jan 21 14:59:19 IST 2014	Chips to send by proposer: { chips  'CTRed':5 'CTPurple':0 'CTGreen':0 'grey78':0 'CTYellow':0 }
Tue Jan 21 14:59:19 IST 2014	Chips to send by responder: { chips  'CTRed':0 'CTPurple':0 'CTGreen':0 'grey78':0 'CTYellow':3 }
Tue Jan 21 15:00:00 IST 2014	Received communication message 
Tue Jan 21 15:00:00 IST 2014	Proposer 1 accepted? false
Tue Jan 21 15:00:00 IST 2014	case that we had one reject, and one accept
Tue Jan 21 15:00:03 IST 2014	Received communication message 
Tue Jan 21 15:00:03 IST 2014	Proposer 0 accepted? true
Tue Jan 21 15:00:03 IST 2014	A Phase Ended: Communication Phase
Tue Jan 21 15:00:03 IST 2014	Protocol: A New Phase Began: Movement Phase. loop is true
Tue Jan 21 15:00:03 IST 2014	---------- Beginning Movement Phase at round 1 ----------
Tue Jan 21 15:00:03 IST 2014	remove strategy phase. 
Tue Jan 21 15:00:48 IST 2014	A Phase Ended: Movement Phase
Tue Jan 21 15:00:48 IST 2014	Protocol: A New Phase Began: Feedback Phase. loop is true
Tue Jan 21 15:00:48 IST 2014	---------- Beginning Feedback Phase at round 1 ----------
Tue Jan 21 15:00:48 IST 2014	Number of consecutive no movements for player 500 is 1
Tue Jan 21 15:00:48 IST 2014	TDPlayerPosition is(R:5,C:4)goal location 0(R:0,C:0)goal location 1(R:0,C:8)
Tue Jan 21 15:00:48 IST 2014	ended is false
Tue Jan 21 15:00:53 IST 2014	A Phase Ended: Feedback Phase
Tue Jan 21 15:00:53 IST 2014	 numberofMoves in round 1 is 0
Tue Jan 21 15:00:53 IST 2014	Swaping roles:
Tue Jan 21 15:00:53 IST 2014	Protocol: A New Phase Began: Communication Phase. loop is true
Tue Jan 21 15:00:53 IST 2014	---------- Beginning Communication Phase at round 2 ----------
Tue Jan 21 15:03:07 IST 2014	Received communication message 
Tue Jan 21 15:03:07 IST 2014	From player: 500
Tue Jan 21 15:03:07 IST 2014	To player: 560
Tue Jan 21 15:03:07 IST 2014	Chips to send by proposer: { chips  'CTRed':5 'CTPurple':0 'CTGreen':0 'grey78':0 'CTYellow':0 }
Tue Jan 21 15:03:07 IST 2014	Chips to send by responder: { chips  'CTRed':0 'CTPurple':2 'CTGreen':0 'grey78':0 'CTYellow':0 }
Tue Jan 21 15:03:08 IST 2014	Received communication message 
Tue Jan 21 15:03:08 IST 2014	Proposer 0 accepted? true
Tue Jan 21 15:03:08 IST 2014	A Phase Ended: Communication Phase
Tue Jan 21 15:03:08 IST 2014	Protocol: A New Phase Began: Movement Phase. loop is true
Tue Jan 21 15:03:08 IST 2014	---------- Beginning Movement Phase at round 2 ----------
Tue Jan 21 15:03:53 IST 2014	A Phase Ended: Movement Phase
Tue Jan 21 15:03:53 IST 2014	Protocol: A New Phase Began: Feedback Phase. loop is true
Tue Jan 21 15:03:53 IST 2014	---------- Beginning Feedback Phase at round 2 ----------
Tue Jan 21 15:03:53 IST 2014	Number of consecutive no movements for player 500 is 0
Tue Jan 21 15:03:53 IST 2014	TDPlayerPosition is(R:5,C:5)goal location 0(R:0,C:0)goal location 1(R:0,C:8)
Tue Jan 21 15:03:53 IST 2014	ended is false
Tue Jan 21 15:03:58 IST 2014	A Phase Ended: Feedback Phase
Tue Jan 21 15:03:58 IST 2014	 numberofMoves in round 2 is 1
Tue Jan 21 15:03:58 IST 2014	Swaping roles:
Tue Jan 21 15:03:58 IST 2014	Protocol: A New Phase Began: Communication Phase. loop is true
Tue Jan 21 15:03:58 IST 2014	---------- Beginning Communication Phase at round 3 ----------
Tue Jan 21 15:03:58 IST 2014	Received communication message 
Tue Jan 21 15:03:58 IST 2014	From player: 560
Tue Jan 21 15:03:58 IST 2014	To player: 500
Tue Jan 21 15:03:58 IST 2014	Chips to send by proposer: { chips  'CTRed':3 }
Tue Jan 21 15:03:58 IST 2014	Chips to send by responder: { chips  'grey78':0 }
Tue Jan 21 15:04:34 IST 2014	Received communication message 
Tue Jan 21 15:04:34 IST 2014	From player: 540
Tue Jan 21 15:04:34 IST 2014	To player: 500
Tue Jan 21 15:04:34 IST 2014	Chips to send by proposer: { chips  'CTRed':10 'CTPurple':1 'CTGreen':0 'grey78':0 'CTYellow':0 }
Tue Jan 21 15:04:34 IST 2014	Chips to send by responder: { chips  'CTRed':0 'CTPurple':0 'CTGreen':0 'grey78':0 'CTYellow':4 }
Tue Jan 21 15:04:59 IST 2014	Received communication message 
Tue Jan 21 15:04:59 IST 2014	Proposer 1 accepted? false
Tue Jan 21 15:04:59 IST 2014	case that we had one reject, and one accept
Tue Jan 21 15:05:04 IST 2014	Received communication message 
Tue Jan 21 15:05:04 IST 2014	Proposer 0 accepted? true
Tue Jan 21 15:05:04 IST 2014	A Phase Ended: Communication Phase
Tue Jan 21 15:05:04 IST 2014	Protocol: A New Phase Began: Movement Phase. loop is true
Tue Jan 21 15:05:04 IST 2014	---------- Beginning Movement Phase at round 3 ----------
Tue Jan 21 15:05:49 IST 2014	A Phase Ended: Movement Phase
Tue Jan 21 15:05:49 IST 2014	Protocol: A New Phase Began: Feedback Phase. loop is true
Tue Jan 21 15:05:49 IST 2014	---------- Beginning Feedback Phase at round 3 ----------
Tue Jan 21 15:05:49 IST 2014	Number of consecutive no movements for player 500 is 0
Tue Jan 21 15:05:49 IST 2014	TDPlayerPosition is(R:4,C:5)goal location 0(R:0,C:0)goal location 1(R:0,C:8)
Tue Jan 21 15:05:49 IST 2014	ended is false
Tue Jan 21 15:05:54 IST 2014	A Phase Ended: Feedback Phase
Tue Jan 21 15:05:54 IST 2014	 numberofMoves in round 3 is 1
Tue Jan 21 15:05:54 IST 2014	Swaping roles:
Tue Jan 21 15:05:54 IST 2014	Protocol: A New Phase Began: Communication Phase. loop is true
Tue Jan 21 15:05:54 IST 2014	---------- Beginning Communication Phase at round 4 ----------
Tue Jan 21 15:07:06 IST 2014	Received communication message 
Tue Jan 21 15:07:06 IST 2014	From player: 500
Tue Jan 21 15:07:06 IST 2014	To player: 540
Tue Jan 21 15:07:06 IST 2014	Chips to send by proposer: { chips  'CTRed':1 'CTPurple':0 'CTGreen':0 'grey78':2 'CTYellow':0 }
Tue Jan 21 15:07:06 IST 2014	Chips to send by responder: { chips  'CTRed':2 'CTPurple':2 'CTGreen':0 'grey78':0 'CTYellow':0 }
Tue Jan 21 15:07:49 IST 2014	Received communication message 
Tue Jan 21 15:07:49 IST 2014	Proposer 1 accepted? false
Tue Jan 21 15:07:49 IST 2014	case that we had one reject, and one accept
Tue Jan 21 15:07:49 IST 2014	A Phase Ended: Communication Phase
Tue Jan 21 15:07:49 IST 2014	Protocol: A New Phase Began: Movement Phase. loop is true
Tue Jan 21 15:07:49 IST 2014	---------- Beginning Movement Phase at round 4 ----------
Tue Jan 21 15:08:34 IST 2014	A Phase Ended: Movement Phase
Tue Jan 21 15:08:34 IST 2014	Protocol: A New Phase Began: Feedback Phase. loop is true
Tue Jan 21 15:08:34 IST 2014	---------- Beginning Feedback Phase at round 4 ----------
Tue Jan 21 15:08:34 IST 2014	Number of consecutive no movements for player 500 is 1
Tue Jan 21 15:08:34 IST 2014	TDPlayerPosition is(R:4,C:5)goal location 0(R:0,C:0)goal location 1(R:0,C:8)
Tue Jan 21 15:08:34 IST 2014	ended is false
Tue Jan 21 15:08:39 IST 2014	A Phase Ended: Feedback Phase
Tue Jan 21 15:08:39 IST 2014	 numberofMoves in round 4 is 0
Tue Jan 21 15:08:39 IST 2014	Swaping roles:
Tue Jan 21 15:08:39 IST 2014	Protocol: A New Phase Began: Communication Phase. loop is true
Tue Jan 21 15:08:39 IST 2014	---------- Beginning Communication Phase at round 5 ----------
Tue Jan 21 15:08:39 IST 2014	Received communication message 
Tue Jan 21 15:08:39 IST 2014	From player: 560
Tue Jan 21 15:08:39 IST 2014	To player: 500
Tue Jan 21 15:08:39 IST 2014	Chips to send by proposer: { chips  'CTRed':3 }
Tue Jan 21 15:08:39 IST 2014	Chips to send by responder: { chips  'grey78':0 }
Tue Jan 21 15:09:20 IST 2014	Received communication message 
Tue Jan 21 15:09:20 IST 2014	From player: 540
Tue Jan 21 15:09:20 IST 2014	To player: 500
Tue Jan 21 15:09:20 IST 2014	Chips to send by proposer: { chips  'CTRed':9 'CTPurple':2 'CTGreen':0 'grey78':0 'CTYellow':0 }
Tue Jan 21 15:09:20 IST 2014	Chips to send by responder: { chips  'CTRed':0 'CTPurple':0 'CTGreen':0 'grey78':0 'CTYellow':6 }
Tue Jan 21 15:09:53 IST 2014	Received communication message 
Tue Jan 21 15:09:53 IST 2014	Proposer 1 accepted? false
Tue Jan 21 15:09:53 IST 2014	case that we had one reject, and one accept
Tue Jan 21 15:09:54 IST 2014	Received communication message 
Tue Jan 21 15:09:54 IST 2014	Proposer 0 accepted? true
Tue Jan 21 15:09:54 IST 2014	A Phase Ended: Communication Phase
Tue Jan 21 15:09:54 IST 2014	Protocol: A New Phase Began: Movement Phase. loop is true
Tue Jan 21 15:09:54 IST 2014	---------- Beginning Movement Phase at round 5 ----------
Tue Jan 21 15:10:39 IST 2014	A Phase Ended: Movement Phase
Tue Jan 21 15:10:39 IST 2014	Protocol: A New Phase Began: Feedback Phase. loop is true
Tue Jan 21 15:10:39 IST 2014	---------- Beginning Feedback Phase at round 5 ----------
Tue Jan 21 15:10:39 IST 2014	Number of consecutive no movements for player 500 is 0
Tue Jan 21 15:10:39 IST 2014	TDPlayerPosition is(R:3,C:5)goal location 0(R:0,C:0)goal location 1(R:0,C:8)
Tue Jan 21 15:10:39 IST 2014	ended is false
Tue Jan 21 15:10:44 IST 2014	A Phase Ended: Feedback Phase
Tue Jan 21 15:10:44 IST 2014	 numberofMoves in round 5 is 1
Tue Jan 21 15:10:44 IST 2014	Swaping roles:
Tue Jan 21 15:10:44 IST 2014	Protocol: A New Phase Began: Communication Phase. loop is true
Tue Jan 21 15:10:44 IST 2014	---------- Beginning Communication Phase at round 6 ----------
Tue Jan 21 15:12:04 IST 2014	Received communication message 
Tue Jan 21 15:12:04 IST 2014	From player: 500
Tue Jan 21 15:12:04 IST 2014	To player: 560
Tue Jan 21 15:12:04 IST 2014	Chips to send by proposer: { chips  'CTRed':0 'CTPurple':0 'CTGreen':0 'grey78':2 'CTYellow':0 }
Tue Jan 21 15:12:04 IST 2014	Chips to send by responder: { chips  'CTRed':6 'CTPurple':0 'CTGreen':0 'grey78':0 'CTYellow':0 }
Tue Jan 21 15:12:04 IST 2014	Received communication message 
Tue Jan 21 15:12:04 IST 2014	Proposer 0 accepted? true
Tue Jan 21 15:12:04 IST 2014	A Phase Ended: Communication Phase
Tue Jan 21 15:12:04 IST 2014	Protocol: A New Phase Began: Movement Phase. loop is true
Tue Jan 21 15:12:04 IST 2014	---------- Beginning Movement Phase at round 6 ----------
Tue Jan 21 15:12:49 IST 2014	A Phase Ended: Movement Phase
Tue Jan 21 15:12:49 IST 2014	Protocol: A New Phase Began: Feedback Phase. loop is true
Tue Jan 21 15:12:49 IST 2014	---------- Beginning Feedback Phase at round 6 ----------
Tue Jan 21 15:12:49 IST 2014	Number of consecutive no movements for player 500 is 1
Tue Jan 21 15:12:49 IST 2014	TDPlayerPosition is(R:3,C:5)goal location 0(R:0,C:0)goal location 1(R:0,C:8)
Tue Jan 21 15:12:49 IST 2014	ended is false
Tue Jan 21 15:12:54 IST 2014	A Phase Ended: Feedback Phase
Tue Jan 21 15:12:54 IST 2014	 numberofMoves in round 6 is 0
Tue Jan 21 15:12:54 IST 2014	Swaping roles:
Tue Jan 21 15:12:54 IST 2014	Protocol: A New Phase Began: Communication Phase. loop is true
Tue Jan 21 15:12:54 IST 2014	---------- Beginning Communication Phase at round 7 ----------
Tue Jan 21 15:12:54 IST 2014	Received communication message 
Tue Jan 21 15:12:54 IST 2014	From player: 560
Tue Jan 21 15:12:54 IST 2014	To player: 500
Tue Jan 21 15:12:54 IST 2014	Chips to send by proposer: { chips  'CTRed':4 }
Tue Jan 21 15:12:54 IST 2014	Chips to send by responder: { chips  'grey78':0 }
Tue Jan 21 15:13:30 IST 2014	Received communication message 
Tue Jan 21 15:13:30 IST 2014	From player: 540
Tue Jan 21 15:13:30 IST 2014	To player: 500
Tue Jan 21 15:13:30 IST 2014	Chips to send by proposer: { chips  'CTRed':12 'CTPurple':3 'CTGreen':0 'grey78':0 'CTYellow':0 }
Tue Jan 21 15:13:30 IST 2014	Chips to send by responder: { chips  'CTRed':0 'CTPurple':0 'CTGreen':0 'grey78':0 'CTYellow':5 }
Tue Jan 21 15:13:50 IST 2014	Received communication message 
Tue Jan 21 15:13:50 IST 2014	Proposer 1 accepted? false
Tue Jan 21 15:13:50 IST 2014	case that we had one reject, and one accept
Tue Jan 21 15:13:51 IST 2014	Received communication message 
Tue Jan 21 15:13:51 IST 2014	Proposer 0 accepted? true
Tue Jan 21 15:13:51 IST 2014	A Phase Ended: Communication Phase
Tue Jan 21 15:13:51 IST 2014	Protocol: A New Phase Began: Movement Phase. loop is true
Tue Jan 21 15:13:51 IST 2014	---------- Beginning Movement Phase at round 7 ----------
Tue Jan 21 15:14:36 IST 2014	A Phase Ended: Movement Phase
Tue Jan 21 15:14:36 IST 2014	Protocol: A New Phase Began: Feedback Phase. loop is true
Tue Jan 21 15:14:36 IST 2014	---------- Beginning Feedback Phase at round 7 ----------
Tue Jan 21 15:14:36 IST 2014	Number of consecutive no movements for player 500 is 0
Tue Jan 21 15:14:36 IST 2014	TDPlayerPosition is(R:3,C:6)goal location 0(R:0,C:0)goal location 1(R:0,C:8)
Tue Jan 21 15:14:36 IST 2014	ended is false
Tue Jan 21 15:14:41 IST 2014	A Phase Ended: Feedback Phase
Tue Jan 21 15:14:41 IST 2014	 numberofMoves in round 7 is 1
Tue Jan 21 15:14:41 IST 2014	Swaping roles:
Tue Jan 21 15:14:41 IST 2014	Protocol: A New Phase Began: Communication Phase. loop is true
Tue Jan 21 15:14:41 IST 2014	---------- Beginning Communication Phase at round 8 ----------
Tue Jan 21 15:16:22 IST 2014	Received communication message 
Tue Jan 21 15:16:22 IST 2014	From player: 500
Tue Jan 21 15:16:22 IST 2014	To player: 540
Tue Jan 21 15:16:22 IST 2014	Chips to send by proposer: { chips  'CTRed':0 'CTPurple':0 'CTGreen':0 'grey78':1 'CTYellow':2 }
Tue Jan 21 15:16:22 IST 2014	Chips to send by responder: { chips  'CTRed':8 'CTPurple':0 'CTGreen':0 'grey78':0 'CTYellow':0 }
Tue Jan 21 15:16:52 IST 2014	Received communication message 
Tue Jan 21 15:16:52 IST 2014	Proposer 1 accepted? false
Tue Jan 21 15:16:52 IST 2014	case that we had one reject, and one accept
Tue Jan 21 15:16:52 IST 2014	A Phase Ended: Communication Phase
Tue Jan 21 15:16:52 IST 2014	Protocol: A New Phase Began: Movement Phase. loop is true
Tue Jan 21 15:16:52 IST 2014	---------- Beginning Movement Phase at round 8 ----------
Tue Jan 21 15:17:37 IST 2014	A Phase Ended: Movement Phase
Tue Jan 21 15:17:37 IST 2014	Protocol: A New Phase Began: Feedback Phase. loop is true
Tue Jan 21 15:17:37 IST 2014	---------- Beginning Feedback Phase at round 8 ----------
Tue Jan 21 15:17:37 IST 2014	Number of consecutive no movements for player 500 is 0
Tue Jan 21 15:17:37 IST 2014	TDPlayerPosition is(R:3,C:7)goal location 0(R:0,C:0)goal location 1(R:0,C:8)
Tue Jan 21 15:17:37 IST 2014	ended is false
Tue Jan 21 15:17:42 IST 2014	A Phase Ended: Feedback Phase
Tue Jan 21 15:17:42 IST 2014	 numberofMoves in round 8 is 1
Tue Jan 21 15:17:42 IST 2014	Swaping roles:
Tue Jan 21 15:17:42 IST 2014	Protocol: A New Phase Began: Communication Phase. loop is true
Tue Jan 21 15:17:42 IST 2014	---------- Beginning Communication Phase at round 9 ----------
Tue Jan 21 15:17:42 IST 2014	Received communication message 
Tue Jan 21 15:17:42 IST 2014	From player: 560
Tue Jan 21 15:17:42 IST 2014	To player: 500
Tue Jan 21 15:17:42 IST 2014	Chips to send by proposer: { chips  'CTRed':0 }
Tue Jan 21 15:17:42 IST 2014	Chips to send by responder: { chips  'grey78':2 }
Tue Jan 21 15:18:11 IST 2014	Received communication message 
Tue Jan 21 15:18:11 IST 2014	From player: 540
Tue Jan 21 15:18:11 IST 2014	To player: 500
Tue Jan 21 15:18:11 IST 2014	Chips to send by proposer: { chips  'CTRed':15 'CTPurple':5 'CTGreen':0 'grey78':0 'CTYellow':0 }
Tue Jan 21 15:18:11 IST 2014	Chips to send by responder: { chips  'CTRed':0 'CTPurple':0 'CTGreen':0 'grey78':0 'CTYellow':5 }
Tue Jan 21 15:18:29 IST 2014	Received communication message 
Tue Jan 21 15:18:29 IST 2014	Proposer 1 accepted? false
Tue Jan 21 15:18:29 IST 2014	case that we had one reject, and one accept
Tue Jan 21 15:18:31 IST 2014	Received communication message 
Tue Jan 21 15:18:31 IST 2014	Proposer 0 accepted? false
Tue Jan 21 15:18:31 IST 2014	case that we had one reject, and one accept
Tue Jan 21 15:18:31 IST 2014	A Phase Ended: Communication Phase
Tue Jan 21 15:18:31 IST 2014	Protocol: A New Phase Began: Movement Phase. loop is true
Tue Jan 21 15:18:31 IST 2014	---------- Beginning Movement Phase at round 9 ----------
Tue Jan 21 15:19:15 IST 2014	A Phase Ended: Movement Phase
Tue Jan 21 15:19:15 IST 2014	Protocol: A New Phase Began: Feedback Phase. loop is true
Tue Jan 21 15:19:15 IST 2014	---------- Beginning Feedback Phase at round 9 ----------
Tue Jan 21 15:19:15 IST 2014	Number of consecutive no movements for player 500 is 0
Tue Jan 21 15:19:15 IST 2014	TDPlayerPosition is(R:2,C:7)goal location 0(R:0,C:0)goal location 1(R:0,C:8)
Tue Jan 21 15:19:15 IST 2014	ended is false
Tue Jan 21 15:19:20 IST 2014	A Phase Ended: Feedback Phase
Tue Jan 21 15:19:20 IST 2014	 numberofMoves in round 9 is 1
Tue Jan 21 15:19:20 IST 2014	Swaping roles:
Tue Jan 21 15:19:20 IST 2014	Protocol: A New Phase Began: Communication Phase. loop is true
Tue Jan 21 15:19:20 IST 2014	---------- Beginning Communication Phase at round 10 ----------
Tue Jan 21 15:20:04 IST 2014	Received communication message 
Tue Jan 21 15:20:04 IST 2014	From player: 500
Tue Jan 21 15:20:04 IST 2014	To player: 560
Tue Jan 21 15:20:04 IST 2014	Chips to send by proposer: { chips  'CTRed':0 'CTPurple':0 'CTGreen':0 'grey78':2 'CTYellow':0 }
Tue Jan 21 15:20:04 IST 2014	Chips to send by responder: { chips  'CTRed':6 'CTPurple':0 'CTGreen':0 'grey78':0 'CTYellow':0 }
Tue Jan 21 15:20:04 IST 2014	Received communication message 
Tue Jan 21 15:20:04 IST 2014	Proposer 0 accepted? true
Tue Jan 21 15:20:04 IST 2014	A Phase Ended: Communication Phase
Tue Jan 21 15:20:04 IST 2014	Protocol: A New Phase Began: Movement Phase. loop is true
Tue Jan 21 15:20:04 IST 2014	---------- Beginning Movement Phase at round 10 ----------
Tue Jan 21 15:20:49 IST 2014	A Phase Ended: Movement Phase
Tue Jan 21 15:20:49 IST 2014	Protocol: A New Phase Began: Feedback Phase. loop is true
Tue Jan 21 15:20:49 IST 2014	---------- Beginning Feedback Phase at round 10 ----------
Tue Jan 21 15:20:49 IST 2014	Number of consecutive no movements for player 500 is 0
Tue Jan 21 15:20:49 IST 2014	TDPlayerPosition is(R:1,C:7)goal location 0(R:0,C:0)goal location 1(R:0,C:8)
Tue Jan 21 15:20:49 IST 2014	ended is false
Tue Jan 21 15:20:54 IST 2014	A Phase Ended: Feedback Phase
Tue Jan 21 15:20:54 IST 2014	 numberofMoves in round 10 is 1
Tue Jan 21 15:20:54 IST 2014	Swaping roles:
Tue Jan 21 15:20:54 IST 2014	Protocol: A New Phase Began: Communication Phase. loop is true
Tue Jan 21 15:20:54 IST 2014	---------- Beginning Communication Phase at round 11 ----------
Tue Jan 21 15:20:54 IST 2014	Received communication message 
Tue Jan 21 15:20:54 IST 2014	From player: 560
Tue Jan 21 15:20:54 IST 2014	To player: 500
Tue Jan 21 15:20:54 IST 2014	Chips to send by proposer: { chips  'CTRed':0 }
Tue Jan 21 15:20:54 IST 2014	Chips to send by responder: { chips  'grey78':1 }
Tue Jan 21 15:21:28 IST 2014	Received communication message 
Tue Jan 21 15:21:28 IST 2014	From player: 540
Tue Jan 21 15:21:28 IST 2014	To player: 500
Tue Jan 21 15:21:28 IST 2014	Chips to send by proposer: { chips  'CTRed':10 'CTPurple':7 'CTGreen':0 'grey78':0 'CTYellow':0 }
Tue Jan 21 15:21:28 IST 2014	Chips to send by responder: { chips  'CTRed':0 'CTPurple':0 'CTGreen':0 'grey78':0 'CTYellow':6 }
Tue Jan 21 15:21:58 IST 2014	Received communication message 
Tue Jan 21 15:21:58 IST 2014	Proposer 0 accepted? false
Tue Jan 21 15:21:58 IST 2014	case that we had one reject, and one accept
Tue Jan 21 15:23:19 IST 2014	Received communication message 
Tue Jan 21 15:23:19 IST 2014	Proposer 1 accepted? false
Tue Jan 21 15:23:19 IST 2014	case that we had one reject, and one accept
Tue Jan 21 15:23:19 IST 2014	A Phase Ended: Communication Phase
Tue Jan 21 15:23:19 IST 2014	Protocol: A New Phase Began: Movement Phase. loop is true
Tue Jan 21 15:23:19 IST 2014	---------- Beginning Movement Phase at round 11 ----------
Tue Jan 21 15:24:04 IST 2014	A Phase Ended: Movement Phase
Tue Jan 21 15:24:04 IST 2014	Protocol: A New Phase Began: Feedback Phase. loop is true
Tue Jan 21 15:24:04 IST 2014	---------- Beginning Feedback Phase at round 11 ----------
Tue Jan 21 15:24:04 IST 2014	Number of consecutive no movements for player 500 is 1
Tue Jan 21 15:24:04 IST 2014	TDPlayerPosition is(R:1,C:7)goal location 0(R:0,C:0)goal location 1(R:0,C:8)
Tue Jan 21 15:24:04 IST 2014	ended is false
Tue Jan 21 15:24:09 IST 2014	A Phase Ended: Feedback Phase
Tue Jan 21 15:24:09 IST 2014	 numberofMoves in round 11 is 0
Tue Jan 21 15:24:09 IST 2014	Swaping roles:
Tue Jan 21 15:24:09 IST 2014	Protocol: A New Phase Began: Communication Phase. loop is true
Tue Jan 21 15:24:09 IST 2014	---------- Beginning Communication Phase at round 12 ----------
Tue Jan 21 15:24:53 IST 2014	Received communication message 
Tue Jan 21 15:24:53 IST 2014	From player: 500
Tue Jan 21 15:24:53 IST 2014	To player: 560
Tue Jan 21 15:24:53 IST 2014	Chips to send by proposer: { chips  'CTRed':0 'CTPurple':0 'CTGreen':0 'grey78':1 'CTYellow':1 }
Tue Jan 21 15:24:53 IST 2014	Chips to send by responder: { chips  'CTRed':2 'CTPurple':4 'CTGreen':0 'grey78':0 'CTYellow':0 }
Tue Jan 21 15:24:53 IST 2014	Received communication message 
Tue Jan 21 15:24:53 IST 2014	Proposer 0 accepted? false
Tue Jan 21 15:24:53 IST 2014	case that we had one reject, and one accept
Tue Jan 21 15:24:53 IST 2014	A Phase Ended: Communication Phase
Tue Jan 21 15:24:53 IST 2014	Protocol: A New Phase Began: Movement Phase. loop is true
Tue Jan 21 15:24:53 IST 2014	---------- Beginning Movement Phase at round 12 ----------
Tue Jan 21 15:25:38 IST 2014	A Phase Ended: Movement Phase
Tue Jan 21 15:25:38 IST 2014	Protocol: A New Phase Began: Feedback Phase. loop is true
Tue Jan 21 15:25:38 IST 2014	---------- Beginning Feedback Phase at round 12 ----------
Tue Jan 21 15:25:38 IST 2014	Number of consecutive no movements for player 500 is 0
Tue Jan 21 15:25:38 IST 2014	TDPlayerPosition is(R:1,C:8)goal location 0(R:0,C:0)goal location 1(R:0,C:8)
Tue Jan 21 15:25:38 IST 2014	ended is false
Tue Jan 21 15:25:43 IST 2014	A Phase Ended: Feedback Phase
Tue Jan 21 15:25:43 IST 2014	 numberofMoves in round 12 is 1
Tue Jan 21 15:25:43 IST 2014	Swaping roles:
Tue Jan 21 15:25:43 IST 2014	Protocol: A New Phase Began: Communication Phase. loop is true
Tue Jan 21 15:25:43 IST 2014	---------- Beginning Communication Phase at round 13 ----------
Tue Jan 21 15:25:43 IST 2014	Received communication message 
Tue Jan 21 15:25:43 IST 2014	From player: 560
Tue Jan 21 15:25:43 IST 2014	To player: 500
Tue Jan 21 15:25:43 IST 2014	Chips to send by proposer: { chips  'grey78':0 }
Tue Jan 21 15:25:43 IST 2014	Chips to send by responder: { chips  'CTRed':0 'CTPurple':0 }
Tue Jan 21 15:26:04 IST 2014	Received communication message 
Tue Jan 21 15:26:04 IST 2014	From player: 540
Tue Jan 21 15:26:04 IST 2014	To player: 500
Tue Jan 21 15:26:04 IST 2014	Chips to send by proposer: { chips  'CTRed':1 'CTPurple':1 'CTGreen':0 'grey78':0 'CTYellow':0 }
Tue Jan 21 15:26:04 IST 2014	Chips to send by responder: { chips  'CTRed':31 'CTPurple':0 'CTGreen':0 'grey78':8 'CTYellow':6 }
Tue Jan 21 15:26:25 IST 2014	Received communication message 
Tue Jan 21 15:26:25 IST 2014	Proposer 1 accepted? false
Tue Jan 21 15:26:25 IST 2014	case that we had one reject, and one accept
Tue Jan 21 15:26:31 IST 2014	Received communication message 
Tue Jan 21 15:26:31 IST 2014	Proposer 0 accepted? false
Tue Jan 21 15:26:31 IST 2014	case that we had one reject, and one accept
Tue Jan 21 15:26:31 IST 2014	A Phase Ended: Communication Phase
Tue Jan 21 15:26:31 IST 2014	Protocol: A New Phase Began: Movement Phase. loop is true
Tue Jan 21 15:26:31 IST 2014	---------- Beginning Movement Phase at round 13 ----------
Tue Jan 21 15:27:16 IST 2014	A Phase Ended: Movement Phase
Tue Jan 21 15:27:16 IST 2014	Protocol: A New Phase Began: Feedback Phase. loop is true
Tue Jan 21 15:27:16 IST 2014	---------- Beginning Feedback Phase at round 13 ----------
Tue Jan 21 15:27:16 IST 2014	The TD player reached the goal, end the game
Tue Jan 21 15:27:16 IST 2014	ended is true
Tue Jan 21 15:27:21 IST 2014	A Phase Ended: Feedback Phase
Tue Jan 21 15:27:21 IST 2014	 numberofMoves in round 13 is 1
Tue Jan 21 15:27:21 IST 2014	Loop status: false
Tue Jan 21 15:27:21 IST 2014	Player: 500 ,role: Responder score is: 370
Tue Jan 21 15:27:21 IST 2014	Player: 500Game Ended
Tue Jan 21 15:27:21 IST 2014	Player: 540 ,role: Proposer score is: 200
Tue Jan 21 15:27:21 IST 2014	Player: 540Game Ended
Tue Jan 21 15:27:21 IST 2014	Player: 560 ,role: Proposer score is: 205
Tue Jan 21 15:27:21 IST 2014	Player: 560Game Ended
Tue Jan 21 15:27:21 IST 2014	Protocol: A New Phase Began: Communication Phase. loop is false
Tue Jan 21 15:27:21 IST 2014	---------- Beginning Communication Phase at round 13 ----------
