Sun Jun 16 15:51:15 IDT 2013	This is the CT debug logger; svn version 638; sep 27 09
Sun Jun 16 15:51:15 IDT 2013	Sun Jun 16 15:51:15 IDT 2013
Sun Jun 16 15:51:15 IDT 2013	ID Number: 65542
Sun Jun 16 15:51:15 IDT 2013	Creating board
Sun Jun 16 15:51:15 IDT 2013	<colors>
Sun Jun 16 15:51:15 IDT 2013	{ GamePalette  'CTPurple':0 'CTRed':1 'CTGreen':2 'grey78':3 'CTYellow':4 }
Sun Jun 16 15:51:15 IDT 2013	<rows>
Sun Jun 16 15:51:15 IDT 2013	6
Sun Jun 16 15:51:15 IDT 2013	<columns>
Sun Jun 16 15:51:15 IDT 2013	9
Sun Jun 16 15:51:15 IDT 2013	<squaresColors>
Sun Jun 16 15:51:15 IDT 2013	grey78 CTGreen CTGreen CTGreen CTGreen CTGreen CTGreen CTGreen CTYellow 
Sun Jun 16 15:51:15 IDT 2013	grey78 CTPurple CTPurple CTPurple CTPurple CTPurple CTPurple CTPurple CTYellow 
Sun Jun 16 15:51:15 IDT 2013	grey78 grey78 CTGreen CTGreen CTGreen CTGreen CTGreen CTYellow CTYellow 
Sun Jun 16 15:51:15 IDT 2013	CTGreen grey78 grey78 CTPurple CTPurple CTPurple CTYellow CTYellow CTGreen 
Sun Jun 16 15:51:15 IDT 2013	CTGreen CTGreen grey78 grey78 CTGreen CTYellow CTYellow CTGreen CTGreen 
Sun Jun 16 15:51:15 IDT 2013	CTGreen CTGreen CTGreen grey78 CTGreen CTYellow CTGreen CTGreen CTGreen 
Sun Jun 16 15:51:15 IDT 2013	</squareColors>
Sun Jun 16 15:51:15 IDT 2013	<goalPosition>
Sun Jun 16 15:51:15 IDT 2013	Goal position: (R:0,C:0)
Sun Jun 16 15:51:15 IDT 2013	<goalPosition>
Sun Jun 16 15:51:15 IDT 2013	Goal position: (R:0,C:0)
Sun Jun 16 15:51:15 IDT 2013	<firstPlayerPossibleGoal1>
Sun Jun 16 15:51:15 IDT 2013	0.5
Sun Jun 16 15:51:15 IDT 2013	0
Sun Jun 16 15:51:15 IDT 2013	0
Sun Jun 16 15:51:15 IDT 2013	</firstPlayerPossibleGoal1>
Sun Jun 16 15:51:15 IDT 2013	<firstPlayerPossibleGoal2>
Sun Jun 16 15:51:15 IDT 2013	0.5
Sun Jun 16 15:51:15 IDT 2013	0
Sun Jun 16 15:51:15 IDT 2013	8
Sun Jun 16 15:51:15 IDT 2013	</firstPlayerPossibleGoal2>
Sun Jun 16 15:51:15 IDT 2013	<numberOfPlayers>
Sun Jun 16 15:51:15 IDT 2013	3
Sun Jun 16 15:51:15 IDT 2013	<firstPlayerChips>
Sun Jun 16 15:51:15 IDT 2013	Setting chips for player: 100 id:0
Sun Jun 16 15:51:15 IDT 2013	{ chips  'CTRed':0 'CTGreen':0 'CTPurple':0 'grey78':12 'CTYellow':12 }
Sun Jun 16 15:51:15 IDT 2013	Player position: (R:5,C:4)
Sun Jun 16 15:51:15 IDT 2013	Setting chips for player: 200 id:1
Sun Jun 16 15:51:15 IDT 2013	{ chips  'CTRed':33 'CTGreen':0 'CTPurple':7 'grey78':0 'CTYellow':0 }
Sun Jun 16 15:51:15 IDT 2013	Player position: (R:0,C:8)
Sun Jun 16 15:51:15 IDT 2013	Setting chips for player: 300 id:2
Sun Jun 16 15:51:15 IDT 2013	{ chips  'CTRed':33 'CTGreen':0 'CTPurple':7 'grey78':0 'CTYellow':0 }
Sun Jun 16 15:51:15 IDT 2013	Player position: (R:0,C:0)
Sun Jun 16 15:51:15 IDT 2013	Protocol: A New Phase Began: Strategy Prep Phase. loop is true
Sun Jun 16 15:51:15 IDT 2013	---------- Beginning Strategy Prep Phase at round 0 ----------
Sun Jun 16 15:52:15 IDT 2013	A Phase Ended: Strategy Prep Phase
Sun Jun 16 15:52:15 IDT 2013	Protocol: A New Phase Began: Communication Phase. loop is true
Sun Jun 16 15:52:15 IDT 2013	---------- Beginning Communication Phase at round 1 ----------
Sun Jun 16 15:54:22 IDT 2013	Received communication message 
Sun Jun 16 15:54:22 IDT 2013	From player: 300
Sun Jun 16 15:54:22 IDT 2013	To player: 100
Sun Jun 16 15:54:22 IDT 2013	Chips to send by proposer: { chips  'CTRed':23 'CTPurple':0 'CTGreen':0 'grey78':0 'CTYellow':0 }
Sun Jun 16 15:54:22 IDT 2013	Chips to send by responder: { chips  'CTRed':0 'CTPurple':0 'CTGreen':0 'grey78':0 'CTYellow':9 }
Sun Jun 16 15:54:54 IDT 2013	Received communication message 
Sun Jun 16 15:54:54 IDT 2013	From player: 200
Sun Jun 16 15:54:54 IDT 2013	To player: 100
Sun Jun 16 15:54:54 IDT 2013	Chips to send by proposer: { chips  'CTRed':9 'CTPurple':2 'CTGreen':0 'grey78':0 'CTYellow':0 }
Sun Jun 16 15:54:54 IDT 2013	Chips to send by responder: { chips  'CTRed':0 'CTPurple':0 'CTGreen':0 'grey78':8 'CTYellow':0 }
Sun Jun 16 15:55:11 IDT 2013	Received communication message 
Sun Jun 16 15:55:11 IDT 2013	Proposer 1 accepted? false
Sun Jun 16 15:55:11 IDT 2013	case that we had one reject, and one accept
Sun Jun 16 15:55:15 IDT 2013	Received communication message 
Sun Jun 16 15:55:15 IDT 2013	Proposer 0 accepted? false
Sun Jun 16 15:55:15 IDT 2013	case that we had one reject, and one accept
Sun Jun 16 15:55:15 IDT 2013	A Phase Ended: Communication Phase
Sun Jun 16 15:55:15 IDT 2013	Protocol: A New Phase Began: Movement Phase. loop is true
Sun Jun 16 15:55:15 IDT 2013	---------- Beginning Movement Phase at round 1 ----------
Sun Jun 16 15:55:15 IDT 2013	remove strategy phase. 
Sun Jun 16 15:55:59 IDT 2013	A Phase Ended: Movement Phase
Sun Jun 16 15:55:59 IDT 2013	Protocol: A New Phase Began: Feedback Phase. loop is true
Sun Jun 16 15:55:59 IDT 2013	---------- Beginning Feedback Phase at round 1 ----------
Sun Jun 16 15:55:59 IDT 2013	Number of consecutive no movements for player 100 is 0
Sun Jun 16 15:55:59 IDT 2013	TDPlayerPosition is(R:4,C:3)goal location 0(R:0,C:0)goal location 1(R:0,C:8)
Sun Jun 16 15:55:59 IDT 2013	ended is false
Sun Jun 16 15:56:04 IDT 2013	A Phase Ended: Feedback Phase
Sun Jun 16 15:56:04 IDT 2013	 numberofMoves in round 1 is 2
Sun Jun 16 15:56:04 IDT 2013	Swaping roles:
Sun Jun 16 15:56:04 IDT 2013	Protocol: A New Phase Began: Communication Phase. loop is true
Sun Jun 16 15:56:04 IDT 2013	---------- Beginning Communication Phase at round 2 ----------
Sun Jun 16 15:57:15 IDT 2013	Received communication message 
Sun Jun 16 15:57:15 IDT 2013	From player: 100
Sun Jun 16 15:57:15 IDT 2013	To player: 200
Sun Jun 16 15:57:15 IDT 2013	Chips to send by proposer: { chips  'CTRed':0 'CTPurple':0 'CTGreen':0 'grey78':0 'CTYellow':0 }
Sun Jun 16 15:57:15 IDT 2013	Chips to send by responder: { chips  'CTRed':0 'CTPurple':5 'CTGreen':0 'grey78':0 'CTYellow':0 }
Sun Jun 16 15:57:29 IDT 2013	Received communication message 
Sun Jun 16 15:57:29 IDT 2013	Proposer 0 accepted? false
Sun Jun 16 15:57:29 IDT 2013	case that we had one reject, and one accept
Sun Jun 16 15:57:29 IDT 2013	A Phase Ended: Communication Phase
Sun Jun 16 15:57:29 IDT 2013	Protocol: A New Phase Began: Movement Phase. loop is true
Sun Jun 16 15:57:29 IDT 2013	---------- Beginning Movement Phase at round 2 ----------
Sun Jun 16 15:58:13 IDT 2013	A Phase Ended: Movement Phase
Sun Jun 16 15:58:13 IDT 2013	Protocol: A New Phase Began: Feedback Phase. loop is true
Sun Jun 16 15:58:13 IDT 2013	---------- Beginning Feedback Phase at round 2 ----------
Sun Jun 16 15:58:13 IDT 2013	Number of consecutive no movements for player 100 is 0
Sun Jun 16 15:58:13 IDT 2013	TDPlayerPosition is(R:4,C:2)goal location 0(R:0,C:0)goal location 1(R:0,C:8)
Sun Jun 16 15:58:13 IDT 2013	ended is false
Sun Jun 16 15:58:18 IDT 2013	A Phase Ended: Feedback Phase
Sun Jun 16 15:58:18 IDT 2013	 numberofMoves in round 2 is 1
Sun Jun 16 15:58:18 IDT 2013	Swaping roles:
Sun Jun 16 15:58:18 IDT 2013	Protocol: A New Phase Began: Communication Phase. loop is true
Sun Jun 16 15:58:18 IDT 2013	---------- Beginning Communication Phase at round 3 ----------
Sun Jun 16 15:58:42 IDT 2013	Received communication message 
Sun Jun 16 15:58:42 IDT 2013	From player: 300
Sun Jun 16 15:58:42 IDT 2013	To player: 100
Sun Jun 16 15:58:42 IDT 2013	Chips to send by proposer: { chips  'CTRed':23 'CTPurple':0 'CTGreen':0 'grey78':0 'CTYellow':0 }
Sun Jun 16 15:58:42 IDT 2013	Chips to send by responder: { chips  'CTRed':0 'CTPurple':0 'CTGreen':0 'grey78':0 'CTYellow':10 }
Sun Jun 16 15:59:06 IDT 2013	Received communication message 
Sun Jun 16 15:59:06 IDT 2013	From player: 200
Sun Jun 16 15:59:06 IDT 2013	To player: 100
Sun Jun 16 15:59:06 IDT 2013	Chips to send by proposer: { chips  'CTRed':13 'CTPurple':0 'CTGreen':0 'grey78':0 'CTYellow':0 }
Sun Jun 16 15:59:06 IDT 2013	Chips to send by responder: { chips  'CTRed':0 'CTPurple':0 'CTGreen':0 'grey78':7 'CTYellow':0 }
Sun Jun 16 16:00:10 IDT 2013	Received communication message 
Sun Jun 16 16:00:10 IDT 2013	Proposer 1 accepted? true
Sun Jun 16 16:00:10 IDT 2013	A Phase Ended: Communication Phase
Sun Jun 16 16:00:10 IDT 2013	Protocol: A New Phase Began: Movement Phase. loop is true
Sun Jun 16 16:00:10 IDT 2013	---------- Beginning Movement Phase at round 3 ----------
Sun Jun 16 16:00:54 IDT 2013	A Phase Ended: Movement Phase
Sun Jun 16 16:00:54 IDT 2013	Protocol: A New Phase Began: Feedback Phase. loop is true
Sun Jun 16 16:00:54 IDT 2013	---------- Beginning Feedback Phase at round 3 ----------
Sun Jun 16 16:00:54 IDT 2013	Number of consecutive no movements for player 100 is 0
Sun Jun 16 16:00:54 IDT 2013	TDPlayerPosition is(R:3,C:2)goal location 0(R:0,C:0)goal location 1(R:0,C:8)
Sun Jun 16 16:00:54 IDT 2013	ended is false
Sun Jun 16 16:00:59 IDT 2013	A Phase Ended: Feedback Phase
Sun Jun 16 16:00:59 IDT 2013	 numberofMoves in round 3 is 1
Sun Jun 16 16:00:59 IDT 2013	Swaping roles:
Sun Jun 16 16:00:59 IDT 2013	Protocol: A New Phase Began: Communication Phase. loop is true
Sun Jun 16 16:00:59 IDT 2013	---------- Beginning Communication Phase at round 4 ----------
Sun Jun 16 16:01:52 IDT 2013	Received communication message 
Sun Jun 16 16:01:52 IDT 2013	From player: 100
Sun Jun 16 16:01:52 IDT 2013	To player: 200
Sun Jun 16 16:01:52 IDT 2013	Chips to send by proposer: { chips  'CTRed':7 'CTPurple':0 'CTGreen':0 'grey78':0 'CTYellow':0 }
Sun Jun 16 16:01:52 IDT 2013	Chips to send by responder: { chips  'CTRed':0 'CTPurple':7 'CTGreen':0 'grey78':0 'CTYellow':0 }
Sun Jun 16 16:02:27 IDT 2013	Received communication message 
Sun Jun 16 16:02:27 IDT 2013	Proposer 0 accepted? false
Sun Jun 16 16:02:27 IDT 2013	case that we had one reject, and one accept
Sun Jun 16 16:02:27 IDT 2013	A Phase Ended: Communication Phase
Sun Jun 16 16:02:27 IDT 2013	Protocol: A New Phase Began: Movement Phase. loop is true
Sun Jun 16 16:02:27 IDT 2013	---------- Beginning Movement Phase at round 4 ----------
Sun Jun 16 16:03:12 IDT 2013	A Phase Ended: Movement Phase
Sun Jun 16 16:03:12 IDT 2013	Protocol: A New Phase Began: Feedback Phase. loop is true
Sun Jun 16 16:03:12 IDT 2013	---------- Beginning Feedback Phase at round 4 ----------
Sun Jun 16 16:03:12 IDT 2013	Number of consecutive no movements for player 100 is 1
Sun Jun 16 16:03:12 IDT 2013	TDPlayerPosition is(R:3,C:2)goal location 0(R:0,C:0)goal location 1(R:0,C:8)
Sun Jun 16 16:03:12 IDT 2013	ended is false
Sun Jun 16 16:03:17 IDT 2013	A Phase Ended: Feedback Phase
Sun Jun 16 16:03:17 IDT 2013	 numberofMoves in round 4 is 0
Sun Jun 16 16:03:17 IDT 2013	Swaping roles:
Sun Jun 16 16:03:17 IDT 2013	Protocol: A New Phase Began: Communication Phase. loop is true
Sun Jun 16 16:03:17 IDT 2013	---------- Beginning Communication Phase at round 5 ----------
Sun Jun 16 16:05:06 IDT 2013	Received communication message 
Sun Jun 16 16:05:06 IDT 2013	From player: 300
Sun Jun 16 16:05:06 IDT 2013	To player: 100
Sun Jun 16 16:05:06 IDT 2013	Chips to send by proposer: { chips  'CTRed':7 'CTPurple':0 'CTGreen':0 'grey78':0 'CTYellow':0 }
Sun Jun 16 16:05:06 IDT 2013	Chips to send by responder: { chips  'CTRed':0 'CTPurple':0 'CTGreen':0 'grey78':3 'CTYellow':2 }
Sun Jun 16 16:05:13 IDT 2013	Received communication message 
Sun Jun 16 16:05:13 IDT 2013	From player: 200
Sun Jun 16 16:05:13 IDT 2013	To player: 100
Sun Jun 16 16:05:13 IDT 2013	Chips to send by proposer: { chips  'CTRed':12 'CTPurple':0 'CTGreen':0 'grey78':0 'CTYellow':0 }
Sun Jun 16 16:05:13 IDT 2013	Chips to send by responder: { chips  'CTRed':0 'CTPurple':0 'CTGreen':0 'grey78':5 'CTYellow':0 }
Sun Jun 16 16:05:29 IDT 2013	Received communication message 
Sun Jun 16 16:05:29 IDT 2013	Proposer 0 accepted? false
Sun Jun 16 16:05:29 IDT 2013	case that we had one reject, and one accept
Sun Jun 16 16:05:43 IDT 2013	Received communication message 
Sun Jun 16 16:05:43 IDT 2013	Proposer 1 accepted? true
Sun Jun 16 16:05:43 IDT 2013	A Phase Ended: Communication Phase
Sun Jun 16 16:05:43 IDT 2013	Protocol: A New Phase Began: Movement Phase. loop is true
Sun Jun 16 16:05:43 IDT 2013	---------- Beginning Movement Phase at round 5 ----------
Sun Jun 16 16:06:27 IDT 2013	A Phase Ended: Movement Phase
Sun Jun 16 16:06:27 IDT 2013	Protocol: A New Phase Began: Feedback Phase. loop is true
Sun Jun 16 16:06:27 IDT 2013	---------- Beginning Feedback Phase at round 5 ----------
Sun Jun 16 16:06:27 IDT 2013	Number of consecutive no movements for player 100 is 0
Sun Jun 16 16:06:27 IDT 2013	TDPlayerPosition is(R:3,C:1)goal location 0(R:0,C:0)goal location 1(R:0,C:8)
Sun Jun 16 16:06:27 IDT 2013	ended is false
Sun Jun 16 16:06:32 IDT 2013	A Phase Ended: Feedback Phase
Sun Jun 16 16:06:32 IDT 2013	 numberofMoves in round 5 is 1
Sun Jun 16 16:06:32 IDT 2013	Swaping roles:
Sun Jun 16 16:06:32 IDT 2013	Protocol: A New Phase Began: Communication Phase. loop is true
Sun Jun 16 16:06:32 IDT 2013	---------- Beginning Communication Phase at round 6 ----------
Sun Jun 16 16:07:23 IDT 2013	Received communication message 
Sun Jun 16 16:07:23 IDT 2013	From player: 100
Sun Jun 16 16:07:23 IDT 2013	To player: 200
Sun Jun 16 16:07:23 IDT 2013	Chips to send by proposer: { chips  'CTRed':8 'CTPurple':0 'CTGreen':0 'grey78':0 'CTYellow':0 }
Sun Jun 16 16:07:23 IDT 2013	Chips to send by responder: { chips  'CTRed':0 'CTPurple':7 'CTGreen':0 'grey78':0 'CTYellow':0 }
Sun Jun 16 16:07:40 IDT 2013	Received communication message 
Sun Jun 16 16:07:40 IDT 2013	Proposer 0 accepted? false
Sun Jun 16 16:07:40 IDT 2013	case that we had one reject, and one accept
Sun Jun 16 16:07:40 IDT 2013	A Phase Ended: Communication Phase
Sun Jun 16 16:07:40 IDT 2013	Protocol: A New Phase Began: Movement Phase. loop is true
Sun Jun 16 16:07:40 IDT 2013	---------- Beginning Movement Phase at round 6 ----------
Sun Jun 16 16:08:25 IDT 2013	A Phase Ended: Movement Phase
Sun Jun 16 16:08:25 IDT 2013	Protocol: A New Phase Began: Feedback Phase. loop is true
Sun Jun 16 16:08:25 IDT 2013	---------- Beginning Feedback Phase at round 6 ----------
Sun Jun 16 16:08:25 IDT 2013	Number of consecutive no movements for player 100 is 0
Sun Jun 16 16:08:25 IDT 2013	TDPlayerPosition is(R:2,C:1)goal location 0(R:0,C:0)goal location 1(R:0,C:8)
Sun Jun 16 16:08:25 IDT 2013	ended is false
Sun Jun 16 16:08:30 IDT 2013	A Phase Ended: Feedback Phase
Sun Jun 16 16:08:30 IDT 2013	 numberofMoves in round 6 is 1
Sun Jun 16 16:08:30 IDT 2013	Swaping roles:
Sun Jun 16 16:08:30 IDT 2013	Protocol: A New Phase Began: Communication Phase. loop is true
Sun Jun 16 16:08:30 IDT 2013	---------- Beginning Communication Phase at round 7 ----------
Sun Jun 16 16:09:22 IDT 2013	Received communication message 
Sun Jun 16 16:09:22 IDT 2013	From player: 200
Sun Jun 16 16:09:22 IDT 2013	To player: 100
Sun Jun 16 16:09:22 IDT 2013	Chips to send by proposer: { chips  'CTRed':11 'CTPurple':0 'CTGreen':0 'grey78':0 'CTYellow':0 }
Sun Jun 16 16:09:22 IDT 2013	Chips to send by responder: { chips  'CTRed':0 'CTPurple':0 'CTGreen':0 'grey78':3 'CTYellow':0 }
Sun Jun 16 16:09:27 IDT 2013	Received communication message 
Sun Jun 16 16:09:27 IDT 2013	From player: 300
Sun Jun 16 16:09:27 IDT 2013	To player: 100
Sun Jun 16 16:09:27 IDT 2013	Chips to send by proposer: { chips  'CTRed':0 'CTPurple':0 'CTGreen':0 'grey78':0 'CTYellow':0 }
Sun Jun 16 16:09:27 IDT 2013	Chips to send by responder: { chips  'CTRed':4 'CTPurple':0 'CTGreen':0 'grey78':0 'CTYellow':0 }
Sun Jun 16 16:09:52 IDT 2013	Received communication message 
Sun Jun 16 16:09:52 IDT 2013	Proposer 1 accepted? false
Sun Jun 16 16:09:52 IDT 2013	case that we had one reject, and one accept
Sun Jun 16 16:10:09 IDT 2013	Received communication message 
Sun Jun 16 16:10:09 IDT 2013	Proposer 0 accepted? false
Sun Jun 16 16:10:09 IDT 2013	case that we had one reject, and one accept
Sun Jun 16 16:10:09 IDT 2013	A Phase Ended: Communication Phase
Sun Jun 16 16:10:09 IDT 2013	Protocol: A New Phase Began: Movement Phase. loop is true
Sun Jun 16 16:10:09 IDT 2013	---------- Beginning Movement Phase at round 7 ----------
Sun Jun 16 16:10:53 IDT 2013	A Phase Ended: Movement Phase
Sun Jun 16 16:10:53 IDT 2013	Protocol: A New Phase Began: Feedback Phase. loop is true
Sun Jun 16 16:10:53 IDT 2013	---------- Beginning Feedback Phase at round 7 ----------
Sun Jun 16 16:10:53 IDT 2013	Number of consecutive no movements for player 100 is 1
Sun Jun 16 16:10:53 IDT 2013	TDPlayerPosition is(R:2,C:1)goal location 0(R:0,C:0)goal location 1(R:0,C:8)
Sun Jun 16 16:10:53 IDT 2013	ended is false
Sun Jun 16 16:10:58 IDT 2013	A Phase Ended: Feedback Phase
Sun Jun 16 16:10:58 IDT 2013	 numberofMoves in round 7 is 0
Sun Jun 16 16:10:58 IDT 2013	Swaping roles:
Sun Jun 16 16:10:58 IDT 2013	Protocol: A New Phase Began: Communication Phase. loop is true
Sun Jun 16 16:10:58 IDT 2013	---------- Beginning Communication Phase at round 8 ----------
Sun Jun 16 16:11:41 IDT 2013	Received communication message 
Sun Jun 16 16:11:41 IDT 2013	From player: 100
Sun Jun 16 16:11:41 IDT 2013	To player: 300
Sun Jun 16 16:11:41 IDT 2013	Chips to send by proposer: { chips  'CTRed':0 'CTPurple':0 'CTGreen':0 'grey78':0 'CTYellow':0 }
Sun Jun 16 16:11:41 IDT 2013	Chips to send by responder: { chips  'CTRed':3 'CTPurple':0 'CTGreen':0 'grey78':0 'CTYellow':0 }
Sun Jun 16 16:12:00 IDT 2013	Received communication message 
Sun Jun 16 16:12:00 IDT 2013	Proposer 1 accepted? false
Sun Jun 16 16:12:00 IDT 2013	case that we had one reject, and one accept
Sun Jun 16 16:12:00 IDT 2013	A Phase Ended: Communication Phase
Sun Jun 16 16:12:00 IDT 2013	Protocol: A New Phase Began: Movement Phase. loop is true
Sun Jun 16 16:12:00 IDT 2013	---------- Beginning Movement Phase at round 8 ----------
Sun Jun 16 16:12:44 IDT 2013	A Phase Ended: Movement Phase
Sun Jun 16 16:12:44 IDT 2013	Protocol: A New Phase Began: Feedback Phase. loop is true
Sun Jun 16 16:12:44 IDT 2013	---------- Beginning Feedback Phase at round 8 ----------
Sun Jun 16 16:12:44 IDT 2013	Number of consecutive no movements for player 100 is 0
Sun Jun 16 16:12:44 IDT 2013	TDPlayerPosition is(R:2,C:0)goal location 0(R:0,C:0)goal location 1(R:0,C:8)
Sun Jun 16 16:12:44 IDT 2013	ended is false
Sun Jun 16 16:12:49 IDT 2013	A Phase Ended: Feedback Phase
Sun Jun 16 16:12:49 IDT 2013	 numberofMoves in round 8 is 1
Sun Jun 16 16:12:49 IDT 2013	Swaping roles:
Sun Jun 16 16:12:49 IDT 2013	Protocol: A New Phase Began: Communication Phase. loop is true
Sun Jun 16 16:12:49 IDT 2013	---------- Beginning Communication Phase at round 9 ----------
Sun Jun 16 16:13:52 IDT 2013	Received communication message 
Sun Jun 16 16:13:52 IDT 2013	From player: 300
Sun Jun 16 16:13:52 IDT 2013	To player: 100
Sun Jun 16 16:13:52 IDT 2013	Chips to send by proposer: { chips  'CTRed':0 'CTPurple':0 'CTGreen':0 'grey78':0 'CTYellow':0 }
Sun Jun 16 16:13:52 IDT 2013	Chips to send by responder: { chips  'CTRed':2 'CTPurple':0 'CTGreen':0 'grey78':0 'CTYellow':0 }
Sun Jun 16 16:14:03 IDT 2013	Received communication message 
Sun Jun 16 16:14:03 IDT 2013	From player: 200
Sun Jun 16 16:14:03 IDT 2013	To player: 100
Sun Jun 16 16:14:03 IDT 2013	Chips to send by proposer: { chips  'CTRed':0 'CTPurple':6 'CTGreen':0 'grey78':0 'CTYellow':0 }
Sun Jun 16 16:14:03 IDT 2013	Chips to send by responder: { chips  'CTRed':1 'CTPurple':0 'CTGreen':0 'grey78':1 'CTYellow':0 }
Sun Jun 16 16:14:07 IDT 2013	Received communication message 
Sun Jun 16 16:14:07 IDT 2013	Proposer 1 accepted? false
Sun Jun 16 16:14:07 IDT 2013	case that we had one reject, and one accept
Sun Jun 16 16:14:17 IDT 2013	Received communication message 
Sun Jun 16 16:14:17 IDT 2013	Proposer 0 accepted? false
Sun Jun 16 16:14:17 IDT 2013	case that we had one reject, and one accept
Sun Jun 16 16:14:17 IDT 2013	A Phase Ended: Communication Phase
Sun Jun 16 16:14:17 IDT 2013	Protocol: A New Phase Began: Movement Phase. loop is true
Sun Jun 16 16:14:17 IDT 2013	---------- Beginning Movement Phase at round 9 ----------
Sun Jun 16 16:15:01 IDT 2013	A Phase Ended: Movement Phase
Sun Jun 16 16:15:01 IDT 2013	Protocol: A New Phase Began: Feedback Phase. loop is true
Sun Jun 16 16:15:01 IDT 2013	---------- Beginning Feedback Phase at round 9 ----------
Sun Jun 16 16:15:01 IDT 2013	Number of consecutive no movements for player 100 is 1
Sun Jun 16 16:15:01 IDT 2013	TDPlayerPosition is(R:2,C:0)goal location 0(R:0,C:0)goal location 1(R:0,C:8)
Sun Jun 16 16:15:01 IDT 2013	ended is false
Sun Jun 16 16:15:06 IDT 2013	A Phase Ended: Feedback Phase
Sun Jun 16 16:15:06 IDT 2013	 numberofMoves in round 9 is 0
Sun Jun 16 16:15:06 IDT 2013	Swaping roles:
Sun Jun 16 16:15:06 IDT 2013	Protocol: A New Phase Began: Communication Phase. loop is true
Sun Jun 16 16:15:06 IDT 2013	---------- Beginning Communication Phase at round 10 ----------
Sun Jun 16 16:15:25 IDT 2013	Received communication message 
Sun Jun 16 16:15:25 IDT 2013	From player: 100
Sun Jun 16 16:15:25 IDT 2013	To player: 300
Sun Jun 16 16:15:25 IDT 2013	Chips to send by proposer: { chips  'CTRed':2 'CTPurple':0 'CTGreen':0 'grey78':0 'CTYellow':0 }
Sun Jun 16 16:15:25 IDT 2013	Chips to send by responder: { chips  'CTRed':0 'CTPurple':0 'CTGreen':0 'grey78':0 'CTYellow':2 }
Sun Jun 16 16:15:45 IDT 2013	Received communication message 
Sun Jun 16 16:15:45 IDT 2013	Proposer 1 accepted? false
Sun Jun 16 16:15:45 IDT 2013	case that we had one reject, and one accept
Sun Jun 16 16:15:45 IDT 2013	A Phase Ended: Communication Phase
Sun Jun 16 16:15:45 IDT 2013	Protocol: A New Phase Began: Movement Phase. loop is true
Sun Jun 16 16:15:45 IDT 2013	---------- Beginning Movement Phase at round 10 ----------
Sun Jun 16 16:16:29 IDT 2013	A Phase Ended: Movement Phase
Sun Jun 16 16:16:29 IDT 2013	Protocol: A New Phase Began: Feedback Phase. loop is true
Sun Jun 16 16:16:29 IDT 2013	---------- Beginning Feedback Phase at round 10 ----------
Sun Jun 16 16:16:29 IDT 2013	Number of consecutive no movements for player 100 is 0
Sun Jun 16 16:16:29 IDT 2013	TDPlayerPosition is(R:1,C:0)goal location 0(R:0,C:0)goal location 1(R:0,C:8)
Sun Jun 16 16:16:29 IDT 2013	ended is false
Sun Jun 16 16:16:34 IDT 2013	A Phase Ended: Feedback Phase
Sun Jun 16 16:16:34 IDT 2013	 numberofMoves in round 10 is 1
Sun Jun 16 16:16:34 IDT 2013	Swaping roles:
Sun Jun 16 16:16:34 IDT 2013	Protocol: A New Phase Began: Communication Phase. loop is true
Sun Jun 16 16:16:34 IDT 2013	---------- Beginning Communication Phase at round 11 ----------
Sun Jun 16 16:17:17 IDT 2013	Received communication message 
Sun Jun 16 16:17:17 IDT 2013	From player: 200
Sun Jun 16 16:17:17 IDT 2013	To player: 100
Sun Jun 16 16:17:17 IDT 2013	Chips to send by proposer: { chips  'CTRed':0 'CTPurple':6 'CTGreen':0 'grey78':0 'CTYellow':0 }
Sun Jun 16 16:17:17 IDT 2013	Chips to send by responder: { chips  'CTRed':0 'CTPurple':0 'CTGreen':0 'grey78':1 'CTYellow':0 }
Sun Jun 16 16:17:36 IDT 2013	Received communication message 
Sun Jun 16 16:17:36 IDT 2013	Proposer 0 accepted? false
Sun Jun 16 16:17:36 IDT 2013	case that we had one reject, and one accept
Sun Jun 16 16:19:34 IDT 2013	A Phase Ended: Communication Phase
Sun Jun 16 16:19:34 IDT 2013	Protocol: A New Phase Began: Movement Phase. loop is true
Sun Jun 16 16:19:34 IDT 2013	---------- Beginning Movement Phase at round 11 ----------
Sun Jun 16 16:20:19 IDT 2013	A Phase Ended: Movement Phase
Sun Jun 16 16:20:19 IDT 2013	Protocol: A New Phase Began: Feedback Phase. loop is true
Sun Jun 16 16:20:19 IDT 2013	---------- Beginning Feedback Phase at round 11 ----------
Sun Jun 16 16:20:19 IDT 2013	Number of consecutive no movements for player 100 is 1
Sun Jun 16 16:20:19 IDT 2013	TDPlayerPosition is(R:1,C:0)goal location 0(R:0,C:0)goal location 1(R:0,C:8)
Sun Jun 16 16:20:19 IDT 2013	ended is false
Sun Jun 16 16:20:24 IDT 2013	A Phase Ended: Feedback Phase
Sun Jun 16 16:20:24 IDT 2013	 numberofMoves in round 11 is 0
Sun Jun 16 16:20:24 IDT 2013	Swaping roles:
Sun Jun 16 16:20:24 IDT 2013	Protocol: A New Phase Began: Communication Phase. loop is true
Sun Jun 16 16:20:24 IDT 2013	---------- Beginning Communication Phase at round 12 ----------
Sun Jun 16 16:21:25 IDT 2013	Received communication message 
Sun Jun 16 16:21:25 IDT 2013	From player: 100
Sun Jun 16 16:21:25 IDT 2013	To player: 300
Sun Jun 16 16:21:25 IDT 2013	Chips to send by proposer: { chips  'CTRed':0 'CTPurple':0 'CTGreen':0 'grey78':0 'CTYellow':0 }
Sun Jun 16 16:21:25 IDT 2013	Chips to send by responder: { chips  'CTRed':3 'CTPurple':0 'CTGreen':0 'grey78':0 'CTYellow':0 }
Sun Jun 16 16:21:35 IDT 2013	Received communication message 
Sun Jun 16 16:21:35 IDT 2013	Proposer 1 accepted? false
Sun Jun 16 16:21:35 IDT 2013	case that we had one reject, and one accept
Sun Jun 16 16:21:35 IDT 2013	A Phase Ended: Communication Phase
Sun Jun 16 16:21:35 IDT 2013	Protocol: A New Phase Began: Movement Phase. loop is true
Sun Jun 16 16:21:35 IDT 2013	---------- Beginning Movement Phase at round 12 ----------
Sun Jun 16 16:22:20 IDT 2013	A Phase Ended: Movement Phase
Sun Jun 16 16:22:20 IDT 2013	Protocol: A New Phase Began: Feedback Phase. loop is true
Sun Jun 16 16:22:20 IDT 2013	---------- Beginning Feedback Phase at round 12 ----------
Sun Jun 16 16:22:20 IDT 2013	The TD player reached the goal, end the game
Sun Jun 16 16:22:20 IDT 2013	ended is true
Sun Jun 16 16:22:25 IDT 2013	A Phase Ended: Feedback Phase
Sun Jun 16 16:22:25 IDT 2013	 numberofMoves in round 12 is 1
Sun Jun 16 16:22:25 IDT 2013	Loop status: false
Sun Jun 16 16:22:25 IDT 2013	Player: 200 ,role: Responder score is: 200
Sun Jun 16 16:22:25 IDT 2013	Player: 200Game Ended
Sun Jun 16 16:22:25 IDT 2013	Player: 300 ,role: Responder score is: 275
Sun Jun 16 16:22:25 IDT 2013	Player: 300Game Ended
Sun Jun 16 16:22:25 IDT 2013	Player: 100 ,role: Proposer score is: 300
Sun Jun 16 16:22:25 IDT 2013	Player: 100Game Ended
Sun Jun 16 16:22:25 IDT 2013	Protocol: A New Phase Began: Communication Phase. loop is false
Sun Jun 16 16:22:25 IDT 2013	---------- Beginning Communication Phase at round 12 ----------
