filename,round,propID,respID,IsPropCustomer,chipsToSend,chipsToReceive,accept,propCurrentScore,respCurrentScore,actualSent,ActualRcvd,propResultingScore,respResultingScore,#ofCustomerMovesInRound,customerRowPositionAfterMovePhase,customerColPositionAfterMovePhase,Player100ChipsAfterMovePhase,Player100ScoreAfterMovePhase,Player200ChipsAfterMovePhase,Player200ScoreAfterMovePhase,Player300ChipsAfterMovePhase,Player300ScoreAfterMovePhase,generosityLevel,ClientReachedGoal
3playersLog_1369221255959.csv,1,200,100,false,{ chips  'CTRed':10 },{ chips  'grey78':6 },FALSE,200,120,,,,,1,(R:5,C:3),{ chips  'CTRed':0 'CTGreen':0 'CTPurple':0 'grey78':11 'CTYellow':12 },115,{ chips  'CTRed':33 'CTGreen':0 'CTPurple':7 'grey78':0 'CTYellow':0 },200,{ chips  'CTRed':33 'CTGreen':0 'CTPurple':7 'grey78':0 'CTYellow':0 },200
3playersLog_1369221255959.csv,1,300,100,false,{ chips  'CTPurple':2 },{ chips  },FALSE,200,120,,,,,1,(R:5,C:3),{ chips  'CTRed':0 'CTGreen':0 'CTPurple':0 'grey78':11 'CTYellow':12 },115,{ chips  'CTRed':33 'CTGreen':0 'CTPurple':7 'grey78':0 'CTYellow':0 },200,{ chips  'CTRed':33 'CTGreen':0 'CTPurple':7 'grey78':0 'CTYellow':0 },200
3playersLog_1369221255959.csv,2,100,300,true,{ chips  },{ chips  'CTRed':20 },FALSE,115,200,,,,,1,(R:4,C:3),{ chips  'CTRed':0 'CTGreen':0 'CTPurple':0 'grey78':10 'CTYellow':12 },110,{ chips  'CTRed':33 'CTGreen':0 'CTPurple':7 'grey78':0 'CTYellow':0 },200,{ chips  'CTRed':33 'CTGreen':0 'CTPurple':7 'grey78':0 'CTYellow':0 },200
3playersLog_1369221255959.csv,3,200,100,false,{ chips  'CTPurple':7 },{ chips  'grey78':7 },FALSE,200,110,,,,,1,(R:4,C:2),{ chips  'CTRed':0 'CTGreen':0 'CTPurple':0 'grey78':9 'CTYellow':12 },105,{ chips  'CTRed':33 'CTGreen':0 'CTPurple':7 'grey78':0 'CTYellow':0 },200,{ chips  'CTRed':33 'CTGreen':0 'CTPurple':7 'grey78':0 'CTYellow':0 },200
3playersLog_1369221255959.csv,3,300,100,false,{ chips  },{ chips  },FALSE,200,110,,,,,1,(R:4,C:2),{ chips  'CTRed':0 'CTGreen':0 'CTPurple':0 'grey78':9 'CTYellow':12 },105,{ chips  'CTRed':33 'CTGreen':0 'CTPurple':7 'grey78':0 'CTYellow':0 },200,{ chips  'CTRed':33 'CTGreen':0 'CTPurple':7 'grey78':0 'CTYellow':0 },200
3playersLog_1369221255959.csv,4,100,200,true,{ chips  'grey78':4 },{ chips  'CTRed':7 'CTPurple':7 },FALSE,105,200,,,,,1,(R:3,C:2),{ chips  'CTRed':0 'CTGreen':0 'CTPurple':0 'grey78':8 'CTYellow':12 },100,{ chips  'CTRed':33 'CTGreen':0 'CTPurple':7 'grey78':0 'CTYellow':0 },200,{ chips  'CTRed':33 'CTGreen':0 'CTPurple':7 'grey78':0 'CTYellow':0 },200
3playersLog_1369221255959.csv,5,200,100,false,{ chips  'CTRed':11 'CTPurple':3 },{ chips  'grey78':8 },TRUE,200,100,{ chips  'CTRed':11 'CTPurple':3 'CTGreen':0 'grey78':0 'CTYellow':0 },{ chips  'CTRed':0 'CTPurple':0 'CTGreen':0 'grey78':8 'CTYellow':0 },170,130,4,(R:3,C:6),{ chips  'CTRed':11 'CTGreen':0 'CTPurple':0 'grey78':0 'CTYellow':11 },110,{ chips  'CTRed':22 'CTGreen':0 'CTPurple':4 'grey78':8 'CTYellow':0 },170,{ chips  'CTRed':33 'CTGreen':0 'CTPurple':7 'grey78':0 'CTYellow':0 },200
3playersLog_1369221255959.csv,5,300,100,false,{ chips  },{ chips  },FALSE,200,130,,,,,4,(R:3,C:6),{ chips  'CTRed':11 'CTGreen':0 'CTPurple':0 'grey78':0 'CTYellow':11 },110,{ chips  'CTRed':22 'CTGreen':0 'CTPurple':4 'grey78':8 'CTYellow':0 },170,{ chips  'CTRed':33 'CTGreen':0 'CTPurple':7 'grey78':0 'CTYellow':0 },200
3playersLog_1369221255959.csv,6,100,200,true,{ chips  },{ chips  'CTPurple':4 },FALSE,110,170,,,,,5,(R:0,C:8),{ chips  'CTRed':11 'CTGreen':0 'CTPurple':0 'grey78':0 'CTYellow':6 },235,{ chips  'CTRed':22 'CTGreen':0 'CTPurple':4 'grey78':8 'CTYellow':0 },320,{ chips  'CTRed':33 'CTGreen':0 'CTPurple':7 'grey78':0 'CTYellow':0 },200
3playersLog_1369221255959.csv,,,,,,,,,,,,,,,,,,,,,,,,true
