filename,round,propID,respID,IsPropCustomer,chipsToSend,chipsToReceive,accept,propCurrentScore,respCurrentScore,actualSent,ActualRcvd,propResultingScore,respResultingScore,#ofCustomerMovesInRound,customerRowPositionAfterMovePhase,customerColPositionAfterMovePhase,Player100ChipsAfterMovePhase,Player100ScoreAfterMovePhase,Player200ChipsAfterMovePhase,Player200ScoreAfterMovePhase,Player300ChipsAfterMovePhase,Player300ScoreAfterMovePhase,generosityLevel,ClientReachedGoal
3playersLog_1383946647166.csv,1,200,100,false,{ chips  'CTPurple':5 },{ chips  },TRUE,200,120,{ chips  'CTRed':0 'CTPurple':5 'CTGreen':0 'grey78':0 'CTYellow':0 },{ chips  'CTRed':0 'CTPurple':0 'CTGreen':0 'grey78':0 'CTYellow':0 },175,145,15,(R:1,C:5),{ chips  'CTRed':0 'CTGreen':0 'CTPurple':0 'grey78':2 'CTYellow':12 },70,{ chips  'CTRed':33 'CTGreen':0 'CTPurple':2 'grey78':0 'CTYellow':0 },175,{ chips  'CTRed':33 'CTGreen':0 'CTPurple':7 'grey78':0 'CTYellow':0 },200
3playersLog_1383946647166.csv,2,100,300,true,{ chips  'grey78':2 'CTYellow':5 },{ chips  'CTPurple':4 },TRUE,70,175,{ chips  'CTRed':0 'CTPurple':0 'CTGreen':0 'grey78':2 'CTYellow':5 },{ chips  'CTRed':0 'CTPurple':4 'CTGreen':0 'grey78':0 'CTYellow':0 },55,215,6,(R:0,C:8),{ chips  'CTRed':0 'CTGreen':0 'CTPurple':2 'grey78':0 'CTYellow':3 },175,{ chips  'CTRed':33 'CTGreen':0 'CTPurple':2 'grey78':0 'CTYellow':0 },325,{ chips  'CTRed':33 'CTGreen':0 'CTPurple':3 'grey78':2 'CTYellow':5 },215
3playersLog_1383946647166.csv,,,,,,,,,,,,,,,,,,,,,,,,true
