Thu Sep 12 09:51:26 IST 2013	This is the CT debug logger; svn version 638; sep 27 09
Thu Sep 12 09:51:26 IST 2013	Thu Sep 12 09:51:26 IST 2013
Thu Sep 12 09:51:26 IST 2013	ThreePlayersAgentPlayer(): entering.
Thu Sep 12 09:51:55 IST 2013	phaseAdvanced(): entering.
Thu Sep 12 09:51:55 IST 2013	phaseAdvanced(): new phase is 'Strategy Prep Phase'.
Thu Sep 12 09:52:55 IST 2013	phaseAdvanced(): entering.
Thu Sep 12 09:52:55 IST 2013	phaseAdvanced(): new phase is 'Communication Phase'.
Thu Sep 12 09:53:10 IST 2013	onReceipt(): entering.
Thu Sep 12 09:53:10 IST 2013	onReceipt(): opponent's proposal: ({ chips  'CTRed':2 'CTPurple':2 'CTGreen':0 'grey78':0 'CTYellow':0 }, { chips  'CTRed':0 'CTPurple':0 'CTGreen':0 'grey78':0 'CTYellow':0 }).
Thu Sep 12 09:53:40 IST 2013	onReceipt(): entering.
Thu Sep 12 09:53:40 IST 2013	onReceipt(): opponent's proposal: ({ chips  'CTRed':0 'CTPurple':2 'CTGreen':0 'grey78':0 'CTYellow':0 }, { chips  'CTRed':0 'CTPurple':0 'CTGreen':0 'grey78':0 'CTYellow':7 }).
Thu Sep 12 09:53:40 IST 2013	responseToSend(): entering.
Thu Sep 12 09:53:40 IST 2013	compareProposals(): decision: 0 utility 140.0
Thu Sep 12 09:53:40 IST 2013	responseToSend(): accepting proposal ({ chips  'CTRed':2 'CTPurple':2 'CTGreen':0 'grey78':0 'CTYellow':0 }, { chips  'CTRed':0 'CTPurple':0 'CTGreen':0 'grey78':0 'CTYellow':0 }).
Thu Sep 12 09:53:40 IST 2013	phaseAdvanced(): entering.
Thu Sep 12 09:53:40 IST 2013	phaseAdvanced(): new phase is 'Movement Phase'.
Thu Sep 12 09:54:25 IST 2013	phaseAdvanced(): entering.
Thu Sep 12 09:54:25 IST 2013	phaseAdvanced(): new phase is 'Feedback Phase'.
Thu Sep 12 09:54:30 IST 2013	phaseAdvanced(): entering.
Thu Sep 12 09:54:30 IST 2013	phaseAdvanced(): new phase is 'Communication Phase'.
Thu Sep 12 09:54:51 IST 2013	onReceipt(): entering.
Thu Sep 12 09:54:51 IST 2013	phaseAdvanced(): entering.
Thu Sep 12 09:54:51 IST 2013	phaseAdvanced(): new phase is 'Movement Phase'.
Thu Sep 12 09:54:51 IST 2013	phaseAdvanced(): found paths (16).
Thu Sep 12 09:55:35 IST 2013	phaseAdvanced(): entering.
Thu Sep 12 09:55:35 IST 2013	phaseAdvanced(): new phase is 'Feedback Phase'.
