filename,round,propID,respID,IsPropCustomer,chipsToSend,chipsToReceive,accept,propCurrentScore,respCurrentScore,actualSent,ActualRcvd,propResultingScore,respResultingScore,#ofCustomerMovesInRound,customerRowPositionAfterMovePhase,customerColPositionAfterMovePhase,Player100ChipsAfterMovePhase,Player100ScoreAfterMovePhase,Player200ChipsAfterMovePhase,Player200ScoreAfterMovePhase,Player300ChipsAfterMovePhase,Player300ScoreAfterMovePhase,generosityLevel,ClientReachedGoal
3playersLog_1388320204074.csv,1,530,500,false,{ chips  'CTRed':33 'CTPurple':7 },{ chips  'grey78':11 },IGNORED,200,120,,,,,1,(R:5,C:3),{ chips  'CTRed':1 'CTGreen':0 'CTPurple':2 'grey78':11 'CTYellow':12 },130,{ chips  'CTRed':33 'CTGreen':0 'CTPurple':7 'grey78':0 'CTYellow':0 },200,{ chips  'CTRed':32 'CTGreen':0 'CTPurple':5 'grey78':0 'CTYellow':0 },185
3playersLog_1388320204074.csv,1,540,500,false,{ chips  'CTRed':1 'CTPurple':2 },{ chips  },TRUE,200,120,{ chips  'CTRed':1 'CTPurple':2 'CTGreen':0 'grey78':0 'CTYellow':0 },{ chips  'CTRed':0 'CTPurple':0 'CTGreen':0 'grey78':0 'CTYellow':0 },185,135,1,(R:5,C:3),{ chips  'CTRed':1 'CTGreen':0 'CTPurple':2 'grey78':11 'CTYellow':12 },130,{ chips  'CTRed':33 'CTGreen':0 'CTPurple':7 'grey78':0 'CTYellow':0 },200,{ chips  'CTRed':32 'CTGreen':0 'CTPurple':5 'grey78':0 'CTYellow':0 },185
3playersLog_1388320204074.csv,2,,,,,,,,,,,,,0,(R:5,C:3),{ chips  'CTRed':1 'CTGreen':0 'CTPurple':2 'grey78':11 'CTYellow':12 },130,{ chips  'CTRed':33 'CTGreen':0 'CTPurple':7 'grey78':0 'CTYellow':0 },200,{ chips  'CTRed':32 'CTGreen':0 'CTPurple':5 'grey78':0 'CTYellow':0 },185
3playersLog_1388320204074.csv,3,530,500,false,{ chips  'CTRed':33 'CTPurple':6 },{ chips  'grey78':10 },IGNORED,200,130,,,,,1,(R:4,C:3),{ chips  'CTRed':3 'CTGreen':0 'CTPurple':4 'grey78':10 'CTYellow':12 },145,{ chips  'CTRed':33 'CTGreen':0 'CTPurple':7 'grey78':0 'CTYellow':0 },200,{ chips  'CTRed':30 'CTGreen':0 'CTPurple':3 'grey78':0 'CTYellow':0 },165
3playersLog_1388320204074.csv,3,540,500,false,{ chips  'CTRed':2 'CTPurple':2 },{ chips  },TRUE,185,130,{ chips  'CTRed':2 'CTPurple':2 'CTGreen':0 'grey78':0 'CTYellow':0 },{ chips  'CTRed':0 'CTPurple':0 'CTGreen':0 'grey78':0 'CTYellow':0 },165,150,1,(R:4,C:3),{ chips  'CTRed':3 'CTGreen':0 'CTPurple':4 'grey78':10 'CTYellow':12 },145,{ chips  'CTRed':33 'CTGreen':0 'CTPurple':7 'grey78':0 'CTYellow':0 },200,{ chips  'CTRed':30 'CTGreen':0 'CTPurple':3 'grey78':0 'CTYellow':0 },165
3playersLog_1388320204074.csv,4,500,540,true,{ chips  'CTRed':1 'CTPurple':2 },{ chips  },TRUE,145,200,{ chips  'CTRed':1 'CTPurple':2 'CTGreen':0 'grey78':0 'CTYellow':0 },{ chips  'CTRed':0 'CTPurple':0 'CTGreen':0 'grey78':0 'CTYellow':0 },130,180,4,(R:2,C:1),{ chips  'CTRed':2 'CTGreen':0 'CTPurple':2 'grey78':6 'CTYellow':12 },110,{ chips  'CTRed':33 'CTGreen':0 'CTPurple':7 'grey78':0 'CTYellow':0 },200,{ chips  'CTRed':31 'CTGreen':0 'CTPurple':5 'grey78':0 'CTYellow':0 },180
3playersLog_1388320204074.csv,5,530,500,false,{ chips  },{ chips  },IGNORED,200,110,,,,,2,(R:1,C:0),{ chips  'CTRed':4 'CTGreen':0 'CTPurple':3 'grey78':4 'CTYellow':12 },115,{ chips  'CTRed':33 'CTGreen':0 'CTPurple':7 'grey78':0 'CTYellow':0 },200,{ chips  'CTRed':29 'CTGreen':0 'CTPurple':4 'grey78':0 'CTYellow':0 },165
3playersLog_1388320204074.csv,5,540,500,false,{ chips  'CTRed':2 'CTPurple':1 },{ chips  },TRUE,180,110,{ chips  'CTRed':2 'CTPurple':1 'CTGreen':0 'grey78':0 'CTYellow':0 },{ chips  'CTRed':0 'CTPurple':0 'CTGreen':0 'grey78':0 'CTYellow':0 },165,125,2,(R:1,C:0),{ chips  'CTRed':4 'CTGreen':0 'CTPurple':3 'grey78':4 'CTYellow':12 },115,{ chips  'CTRed':33 'CTGreen':0 'CTPurple':7 'grey78':0 'CTYellow':0 },200,{ chips  'CTRed':29 'CTGreen':0 'CTPurple':4 'grey78':0 'CTYellow':0 },165
3playersLog_1388320204074.csv,6,500,530,true,{ chips  'CTYellow':3 },{ chips  'CTRed':2 },IGNORED,115,200,,,,,0,(R:1,C:0),{ chips  'CTRed':4 'CTGreen':0 'CTPurple':3 'grey78':4 'CTYellow':12 },115,{ chips  'CTRed':33 'CTGreen':0 'CTPurple':7 'grey78':0 'CTYellow':0 },200,{ chips  'CTRed':29 'CTGreen':0 'CTPurple':4 'grey78':0 'CTYellow':0 },165
3playersLog_1388320204074.csv,7,530,500,false,{ chips  },{ chips  },TRUE,200,115,{ chips  'grey78':0 },{ chips  'CTRed':0 'CTPurple':0 },200,115,0,(R:1,C:0),{ chips  'CTRed':4 'CTGreen':0 'CTPurple':3 'grey78':4 'CTYellow':12 },115,{ chips  'CTRed':33 'CTGreen':0 'CTPurple':7 'grey78':0 'CTYellow':0 },200,{ chips  'CTRed':29 'CTGreen':0 'CTPurple':4 'grey78':0 'CTYellow':0 },165
3playersLog_1388320204074.csv,,,,,,,,,,,,,,,,,,,,,,,,false
