filename,round,propID,respID,IsPropCustomer,chipsToSend,chipsToReceive,accept,propCurrentScore,respCurrentScore,actualSent,ActualRcvd,propResultingScore,respResultingScore,#ofCustomerMovesInRound,customerRowPositionAfterMovePhase,customerColPositionAfterMovePhase,Player100ChipsAfterMovePhase,Player100ScoreAfterMovePhase,Player200ChipsAfterMovePhase,Player200ScoreAfterMovePhase,Player300ChipsAfterMovePhase,Player300ScoreAfterMovePhase,generosityLevel,ClientReachedGoal
3playersLog_1388926237343.csv,1,530,500,false,{ chips  'CTRed':33 'CTPurple':7 },{ chips  'grey78':11 },TRUE,200,120,{ chips  'CTRed':33 'CTPurple':7 'CTYellow':0 },{ chips  'grey78':11 },55,265,2,(R:4,C:5),{ chips  'CTRed':33 'CTGreen':0 'CTPurple':7 'grey78':1 'CTYellow':10 },255,{ chips  'CTRed':0 'CTGreen':0 'CTPurple':0 'grey78':11 'CTYellow':0 },55,{ chips  'CTRed':33 'CTGreen':0 'CTPurple':7 'grey78':0 'CTYellow':0 },200
3playersLog_1388926237343.csv,1,540,500,false,{ chips  'CTRed':14 },{ chips  'CTYellow':12 },FALSE,200,120,,,,,2,(R:4,C:5),{ chips  'CTRed':33 'CTGreen':0 'CTPurple':7 'grey78':1 'CTYellow':10 },255,{ chips  'CTRed':0 'CTGreen':0 'CTPurple':0 'grey78':11 'CTYellow':0 },55,{ chips  'CTRed':33 'CTGreen':0 'CTPurple':7 'grey78':0 'CTYellow':0 },200
3playersLog_1388926237343.csv,2,500,530,true,{ chips  },{ chips  },TRUE,250,55,{ chips  'CTRed':0 'CTPurple':0 'CTGreen':0 'grey78':0 'CTYellow':0 },{ chips  'CTRed':0 'CTPurple':0 'CTGreen':0 'grey78':0 'CTYellow':0 },250,55,0,(R:4,C:6),{ chips  'CTRed':33 'CTGreen':0 'CTPurple':7 'grey78':1 'CTYellow':9 },250,{ chips  'CTRed':0 'CTGreen':0 'CTPurple':0 'grey78':11 'CTYellow':0 },55,{ chips  'CTRed':33 'CTGreen':0 'CTPurple':7 'grey78':0 'CTYellow':0 },200
3playersLog_1388926237343.csv,3,530,500,false,{ chips  },{ chips  },IGNORED,55,250,,,,,0,(R:4,C:6),{ chips  'CTRed':63 'CTGreen':0 'CTPurple':12 'grey78':1 'CTYellow':0 },380,{ chips  'CTRed':0 'CTGreen':0 'CTPurple':0 'grey78':11 'CTYellow':0 },55,{ chips  'CTRed':3 'CTGreen':0 'CTPurple':2 'grey78':0 'CTYellow':9 },70
3playersLog_1388926237343.csv,3,540,500,false,{ chips  'CTRed':30 'CTPurple':5 },{ chips  'CTYellow':9 },TRUE,200,250,{ chips  'CTRed':30 'CTPurple':5 'CTGreen':0 'grey78':0 'CTYellow':0 },{ chips  'CTRed':0 'CTPurple':0 'CTGreen':0 'grey78':0 'CTYellow':9 },70,380,0,(R:4,C:6),{ chips  'CTRed':63 'CTGreen':0 'CTPurple':12 'grey78':1 'CTYellow':0 },380,{ chips  'CTRed':0 'CTGreen':0 'CTPurple':0 'grey78':11 'CTYellow':0 },55,{ chips  'CTRed':3 'CTGreen':0 'CTPurple':2 'grey78':0 'CTYellow':9 },70
3playersLog_1388926237343.csv,,,,,,,,,,,,,,,,,,,,,,,,false
