Tue Sep 03 16:54:54 IDT 2013	This is the CT debug logger; svn version 638; sep 27 09
Tue Sep 03 16:54:54 IDT 2013	Tue Sep 03 16:54:54 IDT 2013
Tue Sep 03 16:54:54 IDT 2013	ThreePlayersAgentPlayer(): entering.
Tue Sep 03 16:55:15 IDT 2013	phaseAdvanced(): entering.
Tue Sep 03 16:55:15 IDT 2013	phaseAdvanced(): new phase is 'Strategy Prep Phase'.
Tue Sep 03 16:56:15 IDT 2013	phaseAdvanced(): entering.
Tue Sep 03 16:56:15 IDT 2013	phaseAdvanced(): new phase is 'Communication Phase'.
Tue Sep 03 16:57:17 IDT 2013	onReceipt(): entering.
Tue Sep 03 16:57:17 IDT 2013	onReceipt(): opponent's proposal: ({ chips  'CTRed':18 'CTPurple':6 'CTGreen':0 'grey78':0 'CTYellow':0 }, { chips  'CTRed':0 'CTPurple':0 'CTGreen':0 'grey78':4 'CTYellow':10 }).
Tue Sep 03 16:57:23 IDT 2013	onReceipt(): entering.
Tue Sep 03 16:57:23 IDT 2013	onReceipt(): opponent's proposal: ({ chips  'CTRed':5 'CTPurple':2 'CTGreen':0 'grey78':0 'CTYellow':0 }, { chips  'CTRed':0 'CTPurple':0 'CTGreen':0 'grey78':0 'CTYellow':8 }).
Tue Sep 03 16:57:23 IDT 2013	responseToSend(): entering.
Tue Sep 03 16:57:24 IDT 2013	compareProposals(): decision: 1 utility 170.0
Tue Sep 03 16:57:24 IDT 2013	responseToSend(): accepting proposal ({ chips  'CTRed':18 'CTPurple':6 'CTGreen':0 'grey78':0 'CTYellow':0 }, { chips  'CTRed':0 'CTPurple':0 'CTGreen':0 'grey78':4 'CTYellow':10 }).
Tue Sep 03 16:57:24 IDT 2013	phaseAdvanced(): entering.
Tue Sep 03 16:57:24 IDT 2013	phaseAdvanced(): new phase is 'Movement Phase'.
Tue Sep 03 16:58:08 IDT 2013	phaseAdvanced(): entering.
Tue Sep 03 16:58:08 IDT 2013	phaseAdvanced(): new phase is 'Feedback Phase'.
Tue Sep 03 16:58:13 IDT 2013	phaseAdvanced(): entering.
Tue Sep 03 16:58:13 IDT 2013	phaseAdvanced(): new phase is 'Communication Phase'.
Tue Sep 03 16:59:40 IDT 2013	onReceipt(): entering.
Tue Sep 03 16:59:40 IDT 2013	phaseAdvanced(): entering.
Tue Sep 03 16:59:40 IDT 2013	phaseAdvanced(): new phase is 'Movement Phase'.
Tue Sep 03 17:00:25 IDT 2013	phaseAdvanced(): entering.
Tue Sep 03 17:00:25 IDT 2013	phaseAdvanced(): new phase is 'Feedback Phase'.
Tue Sep 03 17:00:30 IDT 2013	phaseAdvanced(): entering.
Tue Sep 03 17:00:30 IDT 2013	phaseAdvanced(): new phase is 'Communication Phase'.
Tue Sep 03 17:01:26 IDT 2013	onReceipt(): entering.
Tue Sep 03 17:01:26 IDT 2013	onReceipt(): opponent's proposal: ({ chips  'CTRed':19 'CTPurple':1 'CTGreen':0 'grey78':0 'CTYellow':0 }, { chips  'CTRed':0 'CTPurple':0 'CTGreen':0 'grey78':6 'CTYellow':0 }).
Tue Sep 03 17:01:50 IDT 2013	onReceipt(): entering.
Tue Sep 03 17:01:50 IDT 2013	onReceipt(): opponent's proposal: ({ chips  'CTRed':10 'CTPurple':0 'CTGreen':0 'grey78':2 'CTYellow':0 }, { chips  'CTRed':0 'CTPurple':2 'CTGreen':0 'grey78':0 'CTYellow':2 }).
Tue Sep 03 17:01:50 IDT 2013	responseToSend(): entering.
Tue Sep 03 17:01:50 IDT 2013	compareProposals(): decision: 0 utility 240.0
Tue Sep 03 17:01:50 IDT 2013	responseToSend(): accepting proposal ({ chips  'CTRed':19 'CTPurple':1 'CTGreen':0 'grey78':0 'CTYellow':0 }, { chips  'CTRed':0 'CTPurple':0 'CTGreen':0 'grey78':6 'CTYellow':0 }).
Tue Sep 03 17:01:50 IDT 2013	phaseAdvanced(): entering.
Tue Sep 03 17:01:50 IDT 2013	phaseAdvanced(): new phase is 'Movement Phase'.
Tue Sep 03 17:01:50 IDT 2013	phaseAdvanced(): found paths (4).
Tue Sep 03 17:02:34 IDT 2013	phaseAdvanced(): entering.
Tue Sep 03 17:02:34 IDT 2013	phaseAdvanced(): new phase is 'Feedback Phase'.
Tue Sep 03 17:02:39 IDT 2013	phaseAdvanced(): entering.
Tue Sep 03 17:02:39 IDT 2013	phaseAdvanced(): new phase is 'Communication Phase'.
Tue Sep 03 17:03:23 IDT 2013	onReceipt(): entering.
Tue Sep 03 17:03:23 IDT 2013	phaseAdvanced(): entering.
Tue Sep 03 17:03:23 IDT 2013	phaseAdvanced(): new phase is 'Movement Phase'.
Tue Sep 03 17:03:23 IDT 2013	phaseAdvanced(): found paths (4).
Tue Sep 03 17:04:08 IDT 2013	phaseAdvanced(): entering.
Tue Sep 03 17:04:08 IDT 2013	phaseAdvanced(): new phase is 'Feedback Phase'.
Tue Sep 03 17:04:13 IDT 2013	phaseAdvanced(): entering.
Tue Sep 03 17:04:13 IDT 2013	phaseAdvanced(): new phase is 'Communication Phase'.
Tue Sep 03 17:04:57 IDT 2013	onReceipt(): entering.
Tue Sep 03 17:04:57 IDT 2013	onReceipt(): opponent's proposal: ({ chips  'CTRed':3 'CTPurple':0 'CTGreen':0 'grey78':1 'CTYellow':0 }, { chips  'CTRed':0 'CTPurple':1 'CTGreen':0 'grey78':0 'CTYellow':2 }).
Tue Sep 03 17:05:09 IDT 2013	onReceipt(): entering.
Tue Sep 03 17:05:09 IDT 2013	onReceipt(): opponent's proposal: ({ chips  'CTRed':14 'CTPurple':0 'CTGreen':0 'grey78':2 'CTYellow':0 }, { chips  'CTRed':0 'CTPurple':2 'CTGreen':0 'grey78':0 'CTYellow':2 }).
Tue Sep 03 17:05:09 IDT 2013	responseToSend(): entering.
Tue Sep 03 17:05:09 IDT 2013	compareProposals(): decision: 1 utility 290.0
Tue Sep 03 17:05:09 IDT 2013	responseToSend(): accepting proposal ({ chips  'CTRed':14 'CTPurple':0 'CTGreen':0 'grey78':2 'CTYellow':0 }, { chips  'CTRed':0 'CTPurple':2 'CTGreen':0 'grey78':0 'CTYellow':2 }).
Tue Sep 03 17:05:09 IDT 2013	phaseAdvanced(): entering.
Tue Sep 03 17:05:09 IDT 2013	phaseAdvanced(): new phase is 'Movement Phase'.
Tue Sep 03 17:05:09 IDT 2013	phaseAdvanced(): found paths (0).
Tue Sep 03 17:05:53 IDT 2013	phaseAdvanced(): entering.
Tue Sep 03 17:05:53 IDT 2013	phaseAdvanced(): new phase is 'Feedback Phase'.
