filename,round,propID,respID,IsPropCustomer,chipsToSend,chipsToReceive,accept,propCurrentScore,respCurrentScore,actualSent,ActualRcvd,propResultingScore,respResultingScore,#ofCustomerMovesInRound,customerRowPositionAfterMovePhase,customerColPositionAfterMovePhase,Player100ChipsAfterMovePhase,Player100ScoreAfterMovePhase,Player200ChipsAfterMovePhase,Player200ScoreAfterMovePhase,Player300ChipsAfterMovePhase,Player300ScoreAfterMovePhase,generosityLevel,ClientReachedGoal
3playersLog_1391790729519.csv,1,530,500,false,{ chips  'CTRed':33 'CTPurple':7 },{ chips  'grey78':11 },FALSE,200,120,,,,,8,(R:1,C:0),{ chips  'CTRed':15 'CTGreen':0 'CTPurple':6 'grey78':5 'CTYellow':2 },140,{ chips  'CTRed':33 'CTGreen':0 'CTPurple':7 'grey78':0 'CTYellow':0 },200,{ chips  'CTRed':18 'CTGreen':0 'CTPurple':0 'grey78':0 'CTYellow':10 },140
3playersLog_1391790729519.csv,1,540,500,false,{ chips  'CTRed':15 'CTPurple':7 },{ chips  'CTYellow':10 },TRUE,200,120,{ chips  'CTRed':15 'CTPurple':7 'CTGreen':0 'grey78':0 'CTYellow':0 },{ chips  'CTRed':0 'CTPurple':0 'CTGreen':0 'grey78':0 'CTYellow':10 },140,180,8,(R:1,C:0),{ chips  'CTRed':15 'CTGreen':0 'CTPurple':6 'grey78':5 'CTYellow':2 },140,{ chips  'CTRed':33 'CTGreen':0 'CTPurple':7 'grey78':0 'CTYellow':0 },200,{ chips  'CTRed':18 'CTGreen':0 'CTPurple':0 'grey78':0 'CTYellow':10 },140
3playersLog_1391790729519.csv,2,500,530,true,{ chips  'grey78':3 },{ chips  'CTRed':33 'CTPurple':2 },FALSE,135,200,,,,,0,(R:1,C:1),{ chips  'CTRed':15 'CTGreen':0 'CTPurple':5 'grey78':5 'CTYellow':2 },135,{ chips  'CTRed':33 'CTGreen':0 'CTPurple':7 'grey78':0 'CTYellow':0 },200,{ chips  'CTRed':18 'CTGreen':0 'CTPurple':0 'grey78':0 'CTYellow':10 },140
3playersLog_1391790729519.csv,3,530,500,false,{ chips  'CTRed':33 'CTPurple':1 },{ chips  'grey78':5 },TRUE,200,135,{ chips  'CTRed':33 'CTPurple':1 'CTYellow':0 },{ chips  'grey78':5 },55,280,8,(R:0,C:8),{ chips  'CTRed':48 'CTGreen':0 'CTPurple':0 'grey78':0 'CTYellow':0 },390,{ chips  'CTRed':0 'CTGreen':0 'CTPurple':6 'grey78':5 'CTYellow':0 },205,{ chips  'CTRed':18 'CTGreen':0 'CTPurple':0 'grey78':0 'CTYellow':10 },140
3playersLog_1391790729519.csv,,,,,,,,,,,,,,,,,,,,,,,,true
