filename,round,propID,respID,IsPropCustomer,chipsToSend,chipsToReceive,accept,propCurrentScore,respCurrentScore,actualSent,ActualRcvd,propResultingScore,respResultingScore,#ofCustomerMovesInRound,customerRowPositionAfterMovePhase,customerColPositionAfterMovePhase,Player100ChipsAfterMovePhase,Player100ScoreAfterMovePhase,Player200ChipsAfterMovePhase,Player200ScoreAfterMovePhase,Player300ChipsAfterMovePhase,Player300ScoreAfterMovePhase,generosityLevel,ClientReachedGoal
3playersLog_1391790840944.csv,1,530,500,false,{ chips  'CTRed':33 'CTPurple':7 },{ chips  'grey78':11 },TRUE,200,120,{ chips  'CTRed':33 'CTPurple':7 'CTYellow':0 },{ chips  'grey78':11 },55,265,3,(R:3,C:5),{ chips  'CTRed':33 'CTGreen':0 'CTPurple':6 'grey78':1 'CTYellow':10 },250,{ chips  'CTRed':0 'CTGreen':0 'CTPurple':0 'grey78':11 'CTYellow':0 },55,{ chips  'CTRed':33 'CTGreen':0 'CTPurple':7 'grey78':0 'CTYellow':0 },200
3playersLog_1391790840944.csv,2,500,540,true,{ chips  'CTRed':1 'CTPurple':3 'grey78':1 },{ chips  },TRUE,250,55,{ chips  'CTRed':1 'CTPurple':3 'CTGreen':0 'grey78':1 'CTYellow':0 },{ chips  'CTRed':0 'CTPurple':0 'CTGreen':0 'grey78':0 'CTYellow':0 },225,225,3,(R:2,C:7),{ chips  'CTRed':32 'CTGreen':0 'CTPurple':3 'grey78':0 'CTYellow':7 },210,{ chips  'CTRed':0 'CTGreen':0 'CTPurple':0 'grey78':11 'CTYellow':0 },55,{ chips  'CTRed':34 'CTGreen':0 'CTPurple':10 'grey78':1 'CTYellow':0 },225
3playersLog_1391790840944.csv,3,530,500,false,{ chips  },{ chips  },FALSE,55,210,,,,,3,(R:1,C:5),{ chips  'CTRed':38 'CTGreen':0 'CTPurple':5 'grey78':0 'CTYellow':0 },215,{ chips  'CTRed':0 'CTGreen':0 'CTPurple':0 'grey78':11 'CTYellow':0 },55,{ chips  'CTRed':28 'CTGreen':0 'CTPurple':5 'grey78':1 'CTYellow':7 },205
3playersLog_1391790840944.csv,3,540,500,false,{ chips  'CTRed':6 'CTPurple':5 },{ chips  'CTYellow':7 },TRUE,225,210,{ chips  'CTRed':6 'CTPurple':5 'CTGreen':0 'grey78':0 'CTYellow':0 },{ chips  'CTRed':0 'CTPurple':0 'CTGreen':0 'grey78':0 'CTYellow':7 },205,230,3,(R:1,C:5),{ chips  'CTRed':38 'CTGreen':0 'CTPurple':5 'grey78':0 'CTYellow':0 },215,{ chips  'CTRed':0 'CTGreen':0 'CTPurple':0 'grey78':11 'CTYellow':0 },55,{ chips  'CTRed':28 'CTGreen':0 'CTPurple':5 'grey78':1 'CTYellow':7 },205
3playersLog_1391790840944.csv,4,500,540,true,{ chips  'CTRed':2 },{ chips  'CTYellow':2 },FALSE,215,205,,,,,4,(R:1,C:1),{ chips  'CTRed':38 'CTGreen':0 'CTPurple':1 'grey78':0 'CTYellow':0 },195,{ chips  'CTRed':0 'CTGreen':0 'CTPurple':0 'grey78':11 'CTYellow':0 },55,{ chips  'CTRed':28 'CTGreen':0 'CTPurple':5 'grey78':1 'CTYellow':7 },205
3playersLog_1391790840944.csv,5,530,500,false,{ chips  },{ chips  },TRUE,55,195,{ chips  'grey78':0 },{ chips  'CTRed':0 'CTPurple':0 },55,195,1,(R:1,C:2),{ chips  'CTRed':38 'CTGreen':0 'CTPurple':0 'grey78':0 'CTYellow':0 },190,{ chips  'CTRed':0 'CTGreen':0 'CTPurple':0 'grey78':11 'CTYellow':0 },55,{ chips  'CTRed':28 'CTGreen':0 'CTPurple':5 'grey78':1 'CTYellow':7 },205
3playersLog_1391790840944.csv,6,500,530,true,{ chips  'CTRed':13 },{ chips  'grey78':2 },IGNORED,190,55,,,,,0,(R:1,C:2),{ chips  'CTRed':38 'CTGreen':0 'CTPurple':0 'grey78':0 'CTYellow':0 },190,{ chips  'CTRed':0 'CTGreen':0 'CTPurple':0 'grey78':11 'CTYellow':0 },55,{ chips  'CTRed':28 'CTGreen':0 'CTPurple':5 'grey78':1 'CTYellow':7 },205
3playersLog_1391790840944.csv,7,530,500,false,{ chips  },{ chips  },FALSE,55,190,,,,,1,(R:1,C:1),{ chips  'CTRed':28 'CTGreen':0 'CTPurple':1 'grey78':0 'CTYellow':0 },145,{ chips  'CTRed':0 'CTGreen':0 'CTPurple':0 'grey78':11 'CTYellow':0 },55,{ chips  'CTRed':38 'CTGreen':0 'CTPurple':3 'grey78':1 'CTYellow':7 },245
3playersLog_1391790840944.csv,7,540,500,false,{ chips  'CTPurple':2 },{ chips  'CTRed':10 },TRUE,205,190,{ chips  'CTRed':0 'CTPurple':2 'CTGreen':0 'grey78':0 'CTYellow':0 },{ chips  'CTRed':10 'CTPurple':0 'CTGreen':0 'grey78':0 'CTYellow':0 },245,150,1,(R:1,C:1),{ chips  'CTRed':28 'CTGreen':0 'CTPurple':1 'grey78':0 'CTYellow':0 },145,{ chips  'CTRed':0 'CTGreen':0 'CTPurple':0 'grey78':11 'CTYellow':0 },55,{ chips  'CTRed':38 'CTGreen':0 'CTPurple':3 'grey78':1 'CTYellow':7 },245
3playersLog_1391790840944.csv,8,500,530,true,{ chips  'CTRed':28 },{ chips  'grey78':2 },IGNORED,145,55,,,,,0,(R:1,C:1),{ chips  'CTRed':28 'CTGreen':0 'CTPurple':1 'grey78':0 'CTYellow':0 },145,{ chips  'CTRed':0 'CTGreen':0 'CTPurple':0 'grey78':11 'CTYellow':0 },55,{ chips  'CTRed':38 'CTGreen':0 'CTPurple':3 'grey78':1 'CTYellow':7 },245
3playersLog_1391790840944.csv,9,530,500,false,{ chips  },{ chips  },TRUE,55,145,{ chips  'grey78':0 },{ chips  'CTRed':0 'CTPurple':0 },55,145,0,(R:1,C:1),{ chips  'CTRed':28 'CTGreen':0 'CTPurple':1 'grey78':0 'CTYellow':0 },145,{ chips  'CTRed':0 'CTGreen':0 'CTPurple':0 'grey78':11 'CTYellow':0 },55,{ chips  'CTRed':38 'CTGreen':0 'CTPurple':3 'grey78':1 'CTYellow':7 },245
3playersLog_1391790840944.csv,,,,,,,,,,,,,,,,,,,,,,,,false
