Sat Dec 28 20:24:13 CST 2013	This is the CT debug logger; svn version 638; sep 27 09
Sat Dec 28 20:24:13 CST 2013	Sat Dec 28 20:24:13 CST 2013
Sat Dec 28 20:24:13 CST 2013	ID Number: 63937
Sat Dec 28 20:24:13 CST 2013	Creating board
Sat Dec 28 20:24:13 CST 2013	<colors>
Sat Dec 28 20:24:13 CST 2013	{ GamePalette  'CTPurple':0 'CTRed':1 'CTGreen':2 'grey78':3 'CTYellow':4 }
Sat Dec 28 20:24:13 CST 2013	<rows>
Sat Dec 28 20:24:13 CST 2013	6
Sat Dec 28 20:24:13 CST 2013	<columns>
Sat Dec 28 20:24:13 CST 2013	9
Sat Dec 28 20:24:13 CST 2013	<squaresColors>
Sat Dec 28 20:24:13 CST 2013	grey78 CTGreen CTGreen CTGreen CTGreen CTGreen CTGreen CTGreen CTYellow 
Sat Dec 28 20:24:13 CST 2013	grey78 CTPurple CTPurple CTPurple CTPurple CTPurple CTPurple CTPurple CTYellow 
Sat Dec 28 20:24:13 CST 2013	grey78 grey78 CTGreen CTGreen CTGreen CTGreen CTGreen CTYellow CTYellow 
Sat Dec 28 20:24:14 CST 2013	CTGreen grey78 grey78 CTPurple CTPurple CTPurple CTYellow CTYellow CTGreen 
Sat Dec 28 20:24:14 CST 2013	CTGreen CTGreen grey78 grey78 CTGreen CTYellow CTYellow CTGreen CTGreen 
Sat Dec 28 20:24:14 CST 2013	CTGreen CTGreen CTGreen grey78 CTGreen CTYellow CTGreen CTGreen CTGreen 
Sat Dec 28 20:24:14 CST 2013	</squareColors>
Sat Dec 28 20:24:14 CST 2013	<goalPosition>
Sat Dec 28 20:24:14 CST 2013	Goal position: (R:0,C:0)
Sat Dec 28 20:24:14 CST 2013	<goalPosition>
Sat Dec 28 20:24:14 CST 2013	Goal position: (R:0,C:0)
Sat Dec 28 20:24:14 CST 2013	<firstPlayerPossibleGoal1>
Sat Dec 28 20:24:14 CST 2013	0.5
Sat Dec 28 20:24:14 CST 2013	0
Sat Dec 28 20:24:14 CST 2013	0
Sat Dec 28 20:24:14 CST 2013	</firstPlayerPossibleGoal1>
Sat Dec 28 20:24:14 CST 2013	<firstPlayerPossibleGoal2>
Sat Dec 28 20:24:14 CST 2013	0.5
Sat Dec 28 20:24:14 CST 2013	0
Sat Dec 28 20:24:14 CST 2013	8
Sat Dec 28 20:24:14 CST 2013	</firstPlayerPossibleGoal2>
Sat Dec 28 20:24:14 CST 2013	<numberOfPlayers>
Sat Dec 28 20:24:14 CST 2013	3
Sat Dec 28 20:24:14 CST 2013	<firstPlayerChips>
Sat Dec 28 20:24:14 CST 2013	Setting chips for player: 500 id:0
Sat Dec 28 20:24:14 CST 2013	{ chips  'CTRed':0 'CTGreen':0 'CTPurple':0 'grey78':12 'CTYellow':12 }
Sat Dec 28 20:24:14 CST 2013	Player position: (R:5,C:4)
Sat Dec 28 20:24:14 CST 2013	Setting chips for player: 530 id:1
Sat Dec 28 20:24:14 CST 2013	{ chips  'CTRed':33 'CTGreen':0 'CTPurple':7 'grey78':0 'CTYellow':0 }
Sat Dec 28 20:24:14 CST 2013	Player position: (R:0,C:8)
Sat Dec 28 20:24:14 CST 2013	Setting chips for player: 540 id:2
Sat Dec 28 20:24:14 CST 2013	{ chips  'CTRed':33 'CTGreen':0 'CTPurple':7 'grey78':0 'CTYellow':0 }
Sat Dec 28 20:24:14 CST 2013	Player position: (R:0,C:0)
Sat Dec 28 20:24:14 CST 2013	Protocol: A New Phase Began: Strategy Prep Phase. loop is true
Sat Dec 28 20:24:14 CST 2013	---------- Beginning Strategy Prep Phase at round 0 ----------
Sat Dec 28 20:25:14 CST 2013	A Phase Ended: Strategy Prep Phase
Sat Dec 28 20:25:14 CST 2013	Protocol: A New Phase Began: Communication Phase. loop is true
Sat Dec 28 20:25:14 CST 2013	---------- Beginning Communication Phase at round 1 ----------
Sat Dec 28 20:25:19 CST 2013	Received communication message 
Sat Dec 28 20:25:19 CST 2013	From player: 530
Sat Dec 28 20:25:19 CST 2013	To player: 500
Sat Dec 28 20:25:19 CST 2013	Chips to send by proposer: { chips  'CTRed':33 'CTPurple':7 'CTYellow':0 }
Sat Dec 28 20:25:19 CST 2013	Chips to send by responder: { chips  'grey78':11 }
Sat Dec 28 20:25:36 CST 2013	Received communication message 
Sat Dec 28 20:25:36 CST 2013	Proposer 0 accepted? false
Sat Dec 28 20:25:36 CST 2013	case that we had one reject, and one accept
Sat Dec 28 20:26:20 CST 2013	Received communication message 
Sat Dec 28 20:26:20 CST 2013	From player: 540
Sat Dec 28 20:26:20 CST 2013	To player: 500
Sat Dec 28 20:26:20 CST 2013	Chips to send by proposer: { chips  'CTRed':0 'CTPurple':2 'CTGreen':0 'grey78':0 'CTYellow':0 }
Sat Dec 28 20:26:20 CST 2013	Chips to send by responder: { chips  'CTRed':0 'CTPurple':0 'CTGreen':0 'grey78':0 'CTYellow':0 }
Sat Dec 28 20:26:27 CST 2013	Received communication message 
Sat Dec 28 20:26:27 CST 2013	Proposer 1 accepted? true
Sat Dec 28 20:26:27 CST 2013	A Phase Ended: Communication Phase
Sat Dec 28 20:26:27 CST 2013	Protocol: A New Phase Began: Movement Phase. loop is true
Sat Dec 28 20:26:27 CST 2013	---------- Beginning Movement Phase at round 1 ----------
Sat Dec 28 20:26:27 CST 2013	remove strategy phase. 
Sat Dec 28 20:27:12 CST 2013	A Phase Ended: Movement Phase
Sat Dec 28 20:27:12 CST 2013	Protocol: A New Phase Began: Feedback Phase. loop is true
Sat Dec 28 20:27:12 CST 2013	---------- Beginning Feedback Phase at round 1 ----------
Sat Dec 28 20:27:12 CST 2013	The TD player reached the goal, end the game
Sat Dec 28 20:27:12 CST 2013	ended is true
Sat Dec 28 20:27:17 CST 2013	A Phase Ended: Feedback Phase
Sat Dec 28 20:27:17 CST 2013	 numberofMoves in round 1 is 9
Sat Dec 28 20:27:17 CST 2013	Loop status: false
Sat Dec 28 20:27:17 CST 2013	Player: 500 ,role: Responder score is: 235
Sat Dec 28 20:27:17 CST 2013	Player: 500Game Ended
Sat Dec 28 20:27:17 CST 2013	Player: 540 ,role: Proposer score is: 340
Sat Dec 28 20:27:17 CST 2013	Player: 540Game Ended
Sat Dec 28 20:27:17 CST 2013	Player: 530 ,role: Proposer score is: 200
Sat Dec 28 20:27:17 CST 2013	Player: 530Game Ended
Sat Dec 28 20:27:17 CST 2013	Protocol: A New Phase Began: Communication Phase. loop is false
Sat Dec 28 20:27:17 CST 2013	---------- Beginning Communication Phase at round 1 ----------
Sat Dec 28 20:30:17 CST 2013	A Phase Ended: Communication Phase
Sat Dec 28 20:30:17 CST 2013	Protocol: A New Phase Began: Movement Phase. loop is false
Sat Dec 28 20:30:17 CST 2013	---------- Beginning Movement Phase at round 1 ----------
Sat Dec 28 20:31:02 CST 2013	A Phase Ended: Movement Phase
Sat Dec 28 20:31:02 CST 2013	Protocol: A New Phase Began: Feedback Phase. loop is false
Sat Dec 28 20:31:02 CST 2013	---------- Beginning Feedback Phase at round 1 ----------
Sat Dec 28 20:31:02 CST 2013	The TD player reached the goal, end the game
Sat Dec 28 20:31:02 CST 2013	ended is true
Sat Dec 28 20:31:07 CST 2013	A Phase Ended: Feedback Phase
Sat Dec 28 20:31:07 CST 2013	 numberofMoves in round 1 is 0
Sat Dec 28 20:31:07 CST 2013	Loop status: false
Sat Dec 28 20:31:07 CST 2013	Player: 500 ,role: GameEnded score is: 235
Sat Dec 28 20:31:07 CST 2013	Player: 500Game Ended
Sat Dec 28 20:31:07 CST 2013	Player: 540 ,role: GameEnded score is: 340
Sat Dec 28 20:31:07 CST 2013	Player: 540Game Ended
Sat Dec 28 20:31:07 CST 2013	Player: 530 ,role: GameEnded score is: 200
Sat Dec 28 20:31:07 CST 2013	Player: 530Game Ended
