filename,round,propID,respID,IsPropCustomer,chipsToSend,chipsToReceive,accept,propCurrentScore,respCurrentScore,actualSent,ActualRcvd,propResultingScore,respResultingScore,#ofCustomerMovesInRound,customerRowPositionAfterMovePhase,customerColPositionAfterMovePhase,Player100ChipsAfterMovePhase,Player100ScoreAfterMovePhase,Player200ChipsAfterMovePhase,Player200ScoreAfterMovePhase,Player300ChipsAfterMovePhase,Player300ScoreAfterMovePhase,generosityLevel,ClientReachedGoal
3playersLog_1378880874609.csv,1,530,500,false,{ chips  'CTRed':33 'CTPurple':7 },{ chips  'grey78':11 },TRUE,200,120,{ chips  'CTRed':33 'CTPurple':7 'CTYellow':0 },{ chips  'grey78':11 },55,265,3,(R:3,C:5),{ chips  'CTRed':33 'CTGreen':0 'CTPurple':6 'grey78':1 'CTYellow':10 },250,{ chips  'CTRed':0 'CTGreen':0 'CTPurple':0 'grey78':11 'CTYellow':0 },55,{ chips  'CTRed':33 'CTGreen':0 'CTPurple':7 'grey78':0 'CTYellow':0 },200
3playersLog_1378880874609.csv,1,540,500,false,{ chips  'CTPurple':2 },{ chips  'grey78':9 },IGNORED,200,120,,,,,3,(R:3,C:5),{ chips  'CTRed':33 'CTGreen':0 'CTPurple':6 'grey78':1 'CTYellow':10 },250,{ chips  'CTRed':0 'CTGreen':0 'CTPurple':0 'grey78':11 'CTYellow':0 },55,{ chips  'CTRed':33 'CTGreen':0 'CTPurple':7 'grey78':0 'CTYellow':0 },200
3playersLog_1378880874609.csv,2,500,540,true,{ chips  'CTPurple':6 'grey78':1 'CTYellow':2 },{ chips  'CTRed':25 },TRUE,250,55,{ chips  'CTRed':0 'CTPurple':6 'CTGreen':0 'grey78':1 'CTYellow':2 },{ chips  'CTRed':25 'CTPurple':0 'CTGreen':0 'grey78':0 'CTYellow':0 },330,120,3,(R:2,C:7),{ chips  'CTRed':58 'CTGreen':0 'CTPurple':0 'grey78':0 'CTYellow':5 },315,{ chips  'CTRed':0 'CTGreen':0 'CTPurple':0 'grey78':11 'CTYellow':0 },55,{ chips  'CTRed':8 'CTGreen':0 'CTPurple':13 'grey78':1 'CTYellow':2 },120
3playersLog_1378880874609.csv,3,530,500,false,{ chips  },{ chips  },IGNORED,55,315,,,,,1,(R:1,C:7),{ chips  'CTRed':58 'CTGreen':0 'CTPurple':6 'grey78':1 'CTYellow':5 },350,{ chips  'CTRed':0 'CTGreen':0 'CTPurple':0 'grey78':11 'CTYellow':0 },55,{ chips  'CTRed':8 'CTGreen':0 'CTPurple':6 'grey78':0 'CTYellow':2 },80
3playersLog_1378880874609.csv,3,540,500,false,{ chips  'CTPurple':7 'grey78':1 },{ chips  },TRUE,120,315,{ chips  'CTRed':0 'CTPurple':7 'CTGreen':0 'grey78':1 'CTYellow':0 },{ chips  'CTRed':0 'CTPurple':0 'CTGreen':0 'grey78':0 'CTYellow':0 },80,355,1,(R:1,C:7),{ chips  'CTRed':58 'CTGreen':0 'CTPurple':6 'grey78':1 'CTYellow':5 },350,{ chips  'CTRed':0 'CTGreen':0 'CTPurple':0 'grey78':11 'CTYellow':0 },55,{ chips  'CTRed':8 'CTGreen':0 'CTPurple':6 'grey78':0 'CTYellow':2 },80
3playersLog_1378880874609.csv,4,500,540,true,{ chips  'CTYellow':3 },{ chips  'CTRed':8 'CTPurple':3 },FALSE,350,80,,,,,1,(R:1,C:6),{ chips  'CTRed':58 'CTGreen':0 'CTPurple':5 'grey78':1 'CTYellow':5 },345,{ chips  'CTRed':0 'CTGreen':0 'CTPurple':0 'grey78':11 'CTYellow':0 },55,{ chips  'CTRed':8 'CTGreen':0 'CTPurple':6 'grey78':0 'CTYellow':2 },80
3playersLog_1378880874609.csv,5,530,500,false,{ chips  },{ chips  },IGNORED,55,345,,,,,3,(R:0,C:8),{ chips  'CTRed':60 'CTGreen':0 'CTPurple':9 'grey78':0 'CTYellow':3 },510,{ chips  'CTRed':0 'CTGreen':0 'CTPurple':0 'grey78':11 'CTYellow':0 },205,{ chips  'CTRed':6 'CTGreen':0 'CTPurple':1 'grey78':1 'CTYellow':2 },50
3playersLog_1378880874609.csv,5,540,500,false,{ chips  'CTRed':2 'CTPurple':5 },{ chips  'grey78':1 },TRUE,80,345,{ chips  'CTRed':2 'CTPurple':5 'CTGreen':0 'grey78':0 'CTYellow':0 },{ chips  'CTRed':0 'CTPurple':0 'CTGreen':0 'grey78':1 'CTYellow':0 },50,375,3,(R:0,C:8),{ chips  'CTRed':60 'CTGreen':0 'CTPurple':9 'grey78':0 'CTYellow':3 },510,{ chips  'CTRed':0 'CTGreen':0 'CTPurple':0 'grey78':11 'CTYellow':0 },205,{ chips  'CTRed':6 'CTGreen':0 'CTPurple':1 'grey78':1 'CTYellow':2 },50
3playersLog_1378880874609.csv,,,,,,,,,,,,,,,,,,,,,,,,true
