Sun Jun 09 15:00:38 IDT 2013	This is the CT debug logger; svn version 638; sep 27 09
Sun Jun 09 15:00:38 IDT 2013	Sun Jun 09 15:00:38 IDT 2013
Sun Jun 09 15:00:38 IDT 2013	ID Number: 68246
Sun Jun 09 15:00:38 IDT 2013	Creating board
Sun Jun 09 15:00:38 IDT 2013	<colors>
Sun Jun 09 15:00:38 IDT 2013	{ GamePalette  'CTPurple':0 'CTRed':1 'CTGreen':2 'grey78':3 'CTYellow':4 }
Sun Jun 09 15:00:38 IDT 2013	<rows>
Sun Jun 09 15:00:38 IDT 2013	6
Sun Jun 09 15:00:38 IDT 2013	<columns>
Sun Jun 09 15:00:38 IDT 2013	9
Sun Jun 09 15:00:38 IDT 2013	<squaresColors>
Sun Jun 09 15:00:38 IDT 2013	grey78 CTGreen CTGreen CTGreen CTGreen CTGreen CTGreen CTGreen CTYellow 
Sun Jun 09 15:00:38 IDT 2013	grey78 CTPurple CTPurple CTPurple CTPurple CTPurple CTPurple CTPurple CTYellow 
Sun Jun 09 15:00:38 IDT 2013	grey78 grey78 CTGreen CTGreen CTGreen CTGreen CTGreen CTYellow CTYellow 
Sun Jun 09 15:00:38 IDT 2013	CTGreen grey78 grey78 CTPurple CTPurple CTPurple CTYellow CTYellow CTGreen 
Sun Jun 09 15:00:38 IDT 2013	CTGreen CTGreen grey78 grey78 CTGreen CTYellow CTYellow CTGreen CTGreen 
Sun Jun 09 15:00:38 IDT 2013	CTGreen CTGreen CTGreen grey78 CTGreen CTYellow CTGreen CTGreen CTGreen 
Sun Jun 09 15:00:38 IDT 2013	</squareColors>
Sun Jun 09 15:00:38 IDT 2013	<goalPosition>
Sun Jun 09 15:00:38 IDT 2013	Goal position: (R:0,C:0)
Sun Jun 09 15:00:38 IDT 2013	<goalPosition>
Sun Jun 09 15:00:38 IDT 2013	Goal position: (R:0,C:0)
Sun Jun 09 15:00:38 IDT 2013	<firstPlayerPossibleGoal1>
Sun Jun 09 15:00:38 IDT 2013	0.5
Sun Jun 09 15:00:38 IDT 2013	0
Sun Jun 09 15:00:38 IDT 2013	0
Sun Jun 09 15:00:38 IDT 2013	</firstPlayerPossibleGoal1>
Sun Jun 09 15:00:38 IDT 2013	<firstPlayerPossibleGoal2>
Sun Jun 09 15:00:38 IDT 2013	0.5
Sun Jun 09 15:00:38 IDT 2013	0
Sun Jun 09 15:00:38 IDT 2013	8
Sun Jun 09 15:00:38 IDT 2013	</firstPlayerPossibleGoal2>
Sun Jun 09 15:00:38 IDT 2013	<numberOfPlayers>
Sun Jun 09 15:00:38 IDT 2013	3
Sun Jun 09 15:00:38 IDT 2013	<firstPlayerChips>
Sun Jun 09 15:00:38 IDT 2013	Setting chips for player: 100 id:0
Sun Jun 09 15:00:38 IDT 2013	{ chips  'CTRed':0 'CTGreen':0 'CTPurple':0 'grey78':12 'CTYellow':12 }
Sun Jun 09 15:00:38 IDT 2013	Player position: (R:5,C:4)
Sun Jun 09 15:00:38 IDT 2013	Setting chips for player: 200 id:1
Sun Jun 09 15:00:38 IDT 2013	{ chips  'CTRed':33 'CTGreen':0 'CTPurple':7 'grey78':0 'CTYellow':0 }
Sun Jun 09 15:00:38 IDT 2013	Player position: (R:0,C:8)
Sun Jun 09 15:00:38 IDT 2013	Setting chips for player: 300 id:2
Sun Jun 09 15:00:38 IDT 2013	{ chips  'CTRed':33 'CTGreen':0 'CTPurple':7 'grey78':0 'CTYellow':0 }
Sun Jun 09 15:00:38 IDT 2013	Player position: (R:0,C:0)
Sun Jun 09 15:00:38 IDT 2013	Protocol: A New Phase Began: Strategy Prep Phase. loop is true
Sun Jun 09 15:00:38 IDT 2013	---------- Beginning Strategy Prep Phase at round 0 ----------
Sun Jun 09 15:01:38 IDT 2013	A Phase Ended: Strategy Prep Phase
Sun Jun 09 15:01:38 IDT 2013	Protocol: A New Phase Began: Communication Phase. loop is true
Sun Jun 09 15:01:38 IDT 2013	---------- Beginning Communication Phase at round 1 ----------
Sun Jun 09 15:01:44 IDT 2013	Received communication message 
Sun Jun 09 15:01:44 IDT 2013	From player: 300
Sun Jun 09 15:01:44 IDT 2013	To player: 100
Sun Jun 09 15:01:44 IDT 2013	Chips to send by proposer: { chips  'CTRed':1 'CTPurple':2 'CTGreen':0 'grey78':0 'CTYellow':0 }
Sun Jun 09 15:01:44 IDT 2013	Chips to send by responder: { chips  'CTRed':0 'CTPurple':0 'CTGreen':0 'grey78':0 'CTYellow':0 }
Sun Jun 09 15:02:17 IDT 2013	Received communication message 
Sun Jun 09 15:02:17 IDT 2013	From player: 200
Sun Jun 09 15:02:17 IDT 2013	To player: 100
Sun Jun 09 15:02:17 IDT 2013	Chips to send by proposer: { chips  'CTRed':4 'CTPurple':0 'CTGreen':0 'grey78':0 'CTYellow':0 }
Sun Jun 09 15:02:17 IDT 2013	Chips to send by responder: { chips  'CTRed':0 'CTPurple':0 'CTGreen':0 'grey78':0 'CTYellow':1 }
Sun Jun 09 15:02:31 IDT 2013	Received communication message 
Sun Jun 09 15:02:31 IDT 2013	Proposer 0 accepted? false
Sun Jun 09 15:02:31 IDT 2013	case that we had one reject, and one accept
Sun Jun 09 15:02:32 IDT 2013	Received communication message 
Sun Jun 09 15:02:32 IDT 2013	Proposer 1 accepted? true
Sun Jun 09 15:02:32 IDT 2013	A Phase Ended: Communication Phase
Sun Jun 09 15:02:32 IDT 2013	Protocol: A New Phase Began: Movement Phase. loop is true
Sun Jun 09 15:02:32 IDT 2013	---------- Beginning Movement Phase at round 1 ----------
Sun Jun 09 15:02:32 IDT 2013	remove strategy phase. 
Sun Jun 09 15:03:17 IDT 2013	A Phase Ended: Movement Phase
Sun Jun 09 15:03:17 IDT 2013	Protocol: A New Phase Began: Feedback Phase. loop is true
Sun Jun 09 15:03:17 IDT 2013	---------- Beginning Feedback Phase at round 1 ----------
Sun Jun 09 15:03:17 IDT 2013	Number of consecutive no movements for player 100 is 0
Sun Jun 09 15:03:17 IDT 2013	TDPlayerPosition is(R:4,C:3)goal location 0(R:0,C:0)goal location 1(R:0,C:8)
Sun Jun 09 15:03:17 IDT 2013	ended is false
Sun Jun 09 15:03:22 IDT 2013	A Phase Ended: Feedback Phase
Sun Jun 09 15:03:22 IDT 2013	 numberofMoves in round 1 is 2
Sun Jun 09 15:03:22 IDT 2013	Swaping roles:
Sun Jun 09 15:03:22 IDT 2013	Protocol: A New Phase Began: Communication Phase. loop is true
Sun Jun 09 15:03:22 IDT 2013	---------- Beginning Communication Phase at round 2 ----------
Sun Jun 09 15:03:45 IDT 2013	Received communication message 
Sun Jun 09 15:03:45 IDT 2013	From player: 100
Sun Jun 09 15:03:45 IDT 2013	To player: 200
Sun Jun 09 15:03:45 IDT 2013	Chips to send by proposer: { chips  'CTRed':0 'CTPurple':0 'CTGreen':0 'grey78':2 'CTYellow':1 }
Sun Jun 09 15:03:45 IDT 2013	Chips to send by responder: { chips  'CTRed':6 'CTPurple':0 'CTGreen':0 'grey78':0 'CTYellow':0 }
Sun Jun 09 15:03:55 IDT 2013	Received communication message 
Sun Jun 09 15:03:55 IDT 2013	Proposer 0 accepted? true
Sun Jun 09 15:03:55 IDT 2013	A Phase Ended: Communication Phase
Sun Jun 09 15:03:55 IDT 2013	Protocol: A New Phase Began: Movement Phase. loop is true
Sun Jun 09 15:03:55 IDT 2013	---------- Beginning Movement Phase at round 2 ----------
Sun Jun 09 15:04:39 IDT 2013	A Phase Ended: Movement Phase
Sun Jun 09 15:04:39 IDT 2013	Protocol: A New Phase Began: Feedback Phase. loop is true
Sun Jun 09 15:04:39 IDT 2013	---------- Beginning Feedback Phase at round 2 ----------
Sun Jun 09 15:04:39 IDT 2013	Number of consecutive no movements for player 100 is 1
Sun Jun 09 15:04:39 IDT 2013	TDPlayerPosition is(R:4,C:3)goal location 0(R:0,C:0)goal location 1(R:0,C:8)
Sun Jun 09 15:04:39 IDT 2013	ended is false
Sun Jun 09 15:04:44 IDT 2013	A Phase Ended: Feedback Phase
Sun Jun 09 15:04:44 IDT 2013	 numberofMoves in round 2 is 0
Sun Jun 09 15:04:44 IDT 2013	Swaping roles:
Sun Jun 09 15:04:44 IDT 2013	Protocol: A New Phase Began: Communication Phase. loop is true
Sun Jun 09 15:04:44 IDT 2013	---------- Beginning Communication Phase at round 3 ----------
Sun Jun 09 15:04:56 IDT 2013	Received communication message 
Sun Jun 09 15:04:56 IDT 2013	From player: 300
Sun Jun 09 15:04:56 IDT 2013	To player: 100
Sun Jun 09 15:04:56 IDT 2013	Chips to send by proposer: { chips  'CTRed':4 'CTPurple':2 'CTGreen':0 'grey78':0 'CTYellow':0 }
Sun Jun 09 15:04:56 IDT 2013	Chips to send by responder: { chips  'CTRed':0 'CTPurple':0 'CTGreen':0 'grey78':0 'CTYellow':0 }
Sun Jun 09 15:05:17 IDT 2013	Received communication message 
Sun Jun 09 15:05:17 IDT 2013	From player: 200
Sun Jun 09 15:05:17 IDT 2013	To player: 100
Sun Jun 09 15:05:17 IDT 2013	Chips to send by proposer: { chips  'CTRed':0 'CTPurple':1 'CTGreen':0 'grey78':0 'CTYellow':0 }
Sun Jun 09 15:05:17 IDT 2013	Chips to send by responder: { chips  'CTRed':0 'CTPurple':0 'CTGreen':0 'grey78':0 'CTYellow':1 }
Sun Jun 09 15:05:26 IDT 2013	Received communication message 
Sun Jun 09 15:05:26 IDT 2013	Proposer 0 accepted? false
Sun Jun 09 15:05:26 IDT 2013	case that we had one reject, and one accept
Sun Jun 09 15:05:28 IDT 2013	Received communication message 
Sun Jun 09 15:05:28 IDT 2013	Proposer 1 accepted? true
Sun Jun 09 15:05:28 IDT 2013	A Phase Ended: Communication Phase
Sun Jun 09 15:05:28 IDT 2013	Protocol: A New Phase Began: Movement Phase. loop is true
Sun Jun 09 15:05:28 IDT 2013	---------- Beginning Movement Phase at round 3 ----------
Sun Jun 09 15:06:13 IDT 2013	A Phase Ended: Movement Phase
Sun Jun 09 15:06:13 IDT 2013	Protocol: A New Phase Began: Feedback Phase. loop is true
Sun Jun 09 15:06:13 IDT 2013	---------- Beginning Feedback Phase at round 3 ----------
Sun Jun 09 15:06:13 IDT 2013	Number of consecutive no movements for player 100 is 0
Sun Jun 09 15:06:13 IDT 2013	TDPlayerPosition is(R:3,C:3)goal location 0(R:0,C:0)goal location 1(R:0,C:8)
Sun Jun 09 15:06:13 IDT 2013	ended is false
Sun Jun 09 15:06:18 IDT 2013	A Phase Ended: Feedback Phase
Sun Jun 09 15:06:18 IDT 2013	 numberofMoves in round 3 is 1
Sun Jun 09 15:06:18 IDT 2013	Swaping roles:
Sun Jun 09 15:06:18 IDT 2013	Protocol: A New Phase Began: Communication Phase. loop is true
Sun Jun 09 15:06:18 IDT 2013	---------- Beginning Communication Phase at round 4 ----------
Sun Jun 09 15:06:59 IDT 2013	Received communication message 
Sun Jun 09 15:06:59 IDT 2013	From player: 100
Sun Jun 09 15:06:59 IDT 2013	To player: 200
Sun Jun 09 15:06:59 IDT 2013	Chips to send by proposer: { chips  'CTRed':0 'CTPurple':0 'CTGreen':0 'grey78':2 'CTYellow':0 }
Sun Jun 09 15:06:59 IDT 2013	Chips to send by responder: { chips  'CTRed':3 'CTPurple':2 'CTGreen':0 'grey78':0 'CTYellow':0 }
Sun Jun 09 15:07:06 IDT 2013	Received communication message 
Sun Jun 09 15:07:06 IDT 2013	Proposer 0 accepted? true
Sun Jun 09 15:07:06 IDT 2013	A Phase Ended: Communication Phase
Sun Jun 09 15:07:06 IDT 2013	Protocol: A New Phase Began: Movement Phase. loop is true
Sun Jun 09 15:07:06 IDT 2013	---------- Beginning Movement Phase at round 4 ----------
Sun Jun 09 15:07:51 IDT 2013	A Phase Ended: Movement Phase
Sun Jun 09 15:07:51 IDT 2013	Protocol: A New Phase Began: Feedback Phase. loop is true
Sun Jun 09 15:07:51 IDT 2013	---------- Beginning Feedback Phase at round 4 ----------
Sun Jun 09 15:07:51 IDT 2013	Number of consecutive no movements for player 100 is 0
Sun Jun 09 15:07:51 IDT 2013	TDPlayerPosition is(R:3,C:4)goal location 0(R:0,C:0)goal location 1(R:0,C:8)
Sun Jun 09 15:07:51 IDT 2013	ended is false
Sun Jun 09 15:07:56 IDT 2013	A Phase Ended: Feedback Phase
Sun Jun 09 15:07:56 IDT 2013	 numberofMoves in round 4 is 1
Sun Jun 09 15:07:56 IDT 2013	Swaping roles:
Sun Jun 09 15:07:56 IDT 2013	Protocol: A New Phase Began: Communication Phase. loop is true
Sun Jun 09 15:07:56 IDT 2013	---------- Beginning Communication Phase at round 5 ----------
Sun Jun 09 15:08:07 IDT 2013	Received communication message 
Sun Jun 09 15:08:07 IDT 2013	From player: 300
Sun Jun 09 15:08:07 IDT 2013	To player: 100
Sun Jun 09 15:08:07 IDT 2013	Chips to send by proposer: { chips  'CTRed':3 'CTPurple':3 'CTGreen':0 'grey78':0 'CTYellow':0 }
Sun Jun 09 15:08:07 IDT 2013	Chips to send by responder: { chips  'CTRed':0 'CTPurple':0 'CTGreen':0 'grey78':0 'CTYellow':0 }
Sun Jun 09 15:08:31 IDT 2013	Received communication message 
Sun Jun 09 15:08:31 IDT 2013	From player: 200
Sun Jun 09 15:08:31 IDT 2013	To player: 100
Sun Jun 09 15:08:31 IDT 2013	Chips to send by proposer: { chips  'CTRed':3 'CTPurple':1 'CTGreen':0 'grey78':0 'CTYellow':0 }
Sun Jun 09 15:08:31 IDT 2013	Chips to send by responder: { chips  'CTRed':0 'CTPurple':0 'CTGreen':0 'grey78':4 'CTYellow':0 }
Sun Jun 09 15:09:05 IDT 2013	Received communication message 
Sun Jun 09 15:09:05 IDT 2013	Proposer 1 accepted? true
Sun Jun 09 15:09:05 IDT 2013	A Phase Ended: Communication Phase
Sun Jun 09 15:09:05 IDT 2013	Protocol: A New Phase Began: Movement Phase. loop is true
Sun Jun 09 15:09:05 IDT 2013	---------- Beginning Movement Phase at round 5 ----------
Sun Jun 09 15:09:50 IDT 2013	A Phase Ended: Movement Phase
Sun Jun 09 15:09:50 IDT 2013	Protocol: A New Phase Began: Feedback Phase. loop is true
Sun Jun 09 15:09:50 IDT 2013	---------- Beginning Feedback Phase at round 5 ----------
Sun Jun 09 15:09:50 IDT 2013	Number of consecutive no movements for player 100 is 0
Sun Jun 09 15:09:50 IDT 2013	TDPlayerPosition is(R:3,C:6)goal location 0(R:0,C:0)goal location 1(R:0,C:8)
Sun Jun 09 15:09:50 IDT 2013	ended is false
Sun Jun 09 15:09:55 IDT 2013	A Phase Ended: Feedback Phase
Sun Jun 09 15:09:55 IDT 2013	 numberofMoves in round 5 is 2
Sun Jun 09 15:09:55 IDT 2013	Swaping roles:
Sun Jun 09 15:09:55 IDT 2013	Protocol: A New Phase Began: Communication Phase. loop is true
Sun Jun 09 15:09:55 IDT 2013	---------- Beginning Communication Phase at round 6 ----------
Sun Jun 09 15:10:39 IDT 2013	Received communication message 
Sun Jun 09 15:10:39 IDT 2013	From player: 100
Sun Jun 09 15:10:39 IDT 2013	To player: 200
Sun Jun 09 15:10:39 IDT 2013	Chips to send by proposer: { chips  'CTRed':0 'CTPurple':0 'CTGreen':0 'grey78':4 'CTYellow':0 }
Sun Jun 09 15:10:39 IDT 2013	Chips to send by responder: { chips  'CTRed':9 'CTPurple':1 'CTGreen':0 'grey78':0 'CTYellow':0 }
Sun Jun 09 15:10:48 IDT 2013	Received communication message 
Sun Jun 09 15:10:48 IDT 2013	Proposer 0 accepted? false
Sun Jun 09 15:10:48 IDT 2013	case that we had one reject, and one accept
Sun Jun 09 15:10:48 IDT 2013	A Phase Ended: Communication Phase
Sun Jun 09 15:10:48 IDT 2013	Protocol: A New Phase Began: Movement Phase. loop is true
Sun Jun 09 15:10:48 IDT 2013	---------- Beginning Movement Phase at round 6 ----------
Sun Jun 09 15:11:33 IDT 2013	A Phase Ended: Movement Phase
Sun Jun 09 15:11:33 IDT 2013	Protocol: A New Phase Began: Feedback Phase. loop is true
Sun Jun 09 15:11:33 IDT 2013	---------- Beginning Feedback Phase at round 6 ----------
Sun Jun 09 15:11:33 IDT 2013	Number of consecutive no movements for player 100 is 0
Sun Jun 09 15:11:33 IDT 2013	TDPlayerPosition is(R:3,C:5)goal location 0(R:0,C:0)goal location 1(R:0,C:8)
Sun Jun 09 15:11:33 IDT 2013	ended is false
Sun Jun 09 15:11:38 IDT 2013	A Phase Ended: Feedback Phase
Sun Jun 09 15:11:38 IDT 2013	 numberofMoves in round 6 is 1
Sun Jun 09 15:11:38 IDT 2013	Swaping roles:
Sun Jun 09 15:11:38 IDT 2013	Protocol: A New Phase Began: Communication Phase. loop is true
Sun Jun 09 15:11:38 IDT 2013	---------- Beginning Communication Phase at round 7 ----------
Sun Jun 09 15:11:46 IDT 2013	Received communication message 
Sun Jun 09 15:11:46 IDT 2013	From player: 300
Sun Jun 09 15:11:46 IDT 2013	To player: 100
Sun Jun 09 15:11:46 IDT 2013	Chips to send by proposer: { chips  'CTRed':2 'CTPurple':0 'CTGreen':0 'grey78':0 'CTYellow':0 }
Sun Jun 09 15:11:46 IDT 2013	Chips to send by responder: { chips  'CTRed':0 'CTPurple':0 'CTGreen':0 'grey78':0 'CTYellow':0 }
Sun Jun 09 15:12:13 IDT 2013	Received communication message 
Sun Jun 09 15:12:13 IDT 2013	From player: 200
Sun Jun 09 15:12:13 IDT 2013	To player: 100
Sun Jun 09 15:12:13 IDT 2013	Chips to send by proposer: { chips  'CTRed':4 'CTPurple':0 'CTGreen':0 'grey78':0 'CTYellow':0 }
Sun Jun 09 15:12:13 IDT 2013	Chips to send by responder: { chips  'CTRed':0 'CTPurple':0 'CTGreen':0 'grey78':2 'CTYellow':0 }
Sun Jun 09 15:12:39 IDT 2013	Received communication message 
Sun Jun 09 15:12:39 IDT 2013	Proposer 0 accepted? true
Sun Jun 09 15:12:39 IDT 2013	A Phase Ended: Communication Phase
Sun Jun 09 15:12:39 IDT 2013	Protocol: A New Phase Began: Movement Phase. loop is true
Sun Jun 09 15:12:39 IDT 2013	---------- Beginning Movement Phase at round 7 ----------
Sun Jun 09 15:13:23 IDT 2013	A Phase Ended: Movement Phase
Sun Jun 09 15:13:23 IDT 2013	Protocol: A New Phase Began: Feedback Phase. loop is true
Sun Jun 09 15:13:23 IDT 2013	---------- Beginning Feedback Phase at round 7 ----------
Sun Jun 09 15:13:23 IDT 2013	Number of consecutive no movements for player 100 is 0
Sun Jun 09 15:13:23 IDT 2013	TDPlayerPosition is(R:2,C:7)goal location 0(R:0,C:0)goal location 1(R:0,C:8)
Sun Jun 09 15:13:23 IDT 2013	ended is false
Sun Jun 09 15:13:28 IDT 2013	A Phase Ended: Feedback Phase
Sun Jun 09 15:13:28 IDT 2013	 numberofMoves in round 7 is 3
Sun Jun 09 15:13:28 IDT 2013	Swaping roles:
Sun Jun 09 15:13:28 IDT 2013	Protocol: A New Phase Began: Communication Phase. loop is true
Sun Jun 09 15:13:28 IDT 2013	---------- Beginning Communication Phase at round 8 ----------
Sun Jun 09 15:14:12 IDT 2013	Received communication message 
Sun Jun 09 15:14:12 IDT 2013	From player: 100
Sun Jun 09 15:14:12 IDT 2013	To player: 300
Sun Jun 09 15:14:12 IDT 2013	Chips to send by proposer: { chips  'CTRed':0 'CTPurple':0 'CTGreen':0 'grey78':4 'CTYellow':0 }
Sun Jun 09 15:14:12 IDT 2013	Chips to send by responder: { chips  'CTRed':10 'CTPurple':0 'CTGreen':0 'grey78':0 'CTYellow':0 }
Sun Jun 09 15:14:31 IDT 2013	Received communication message 
Sun Jun 09 15:14:31 IDT 2013	Proposer 1 accepted? true
Sun Jun 09 15:14:31 IDT 2013	A Phase Ended: Communication Phase
Sun Jun 09 15:14:31 IDT 2013	Protocol: A New Phase Began: Movement Phase. loop is true
Sun Jun 09 15:14:31 IDT 2013	---------- Beginning Movement Phase at round 8 ----------
Sun Jun 09 15:15:16 IDT 2013	A Phase Ended: Movement Phase
Sun Jun 09 15:15:16 IDT 2013	Protocol: A New Phase Began: Feedback Phase. loop is true
Sun Jun 09 15:15:16 IDT 2013	---------- Beginning Feedback Phase at round 8 ----------
Sun Jun 09 15:15:16 IDT 2013	Number of consecutive no movements for player 100 is 0
Sun Jun 09 15:15:16 IDT 2013	TDPlayerPosition is(R:1,C:8)goal location 0(R:0,C:0)goal location 1(R:0,C:8)
Sun Jun 09 15:15:16 IDT 2013	ended is false
Sun Jun 09 15:15:21 IDT 2013	A Phase Ended: Feedback Phase
Sun Jun 09 15:15:21 IDT 2013	 numberofMoves in round 8 is 2
Sun Jun 09 15:15:21 IDT 2013	Swaping roles:
Sun Jun 09 15:15:21 IDT 2013	Protocol: A New Phase Began: Communication Phase. loop is true
Sun Jun 09 15:15:21 IDT 2013	---------- Beginning Communication Phase at round 9 ----------
Sun Jun 09 15:15:34 IDT 2013	Received communication message 
Sun Jun 09 15:15:34 IDT 2013	From player: 300
Sun Jun 09 15:15:34 IDT 2013	To player: 100
Sun Jun 09 15:15:34 IDT 2013	Chips to send by proposer: { chips  'CTRed':0 'CTPurple':0 'CTGreen':0 'grey78':2 'CTYellow':0 }
Sun Jun 09 15:15:34 IDT 2013	Chips to send by responder: { chips  'CTRed':0 'CTPurple':0 'CTGreen':0 'grey78':0 'CTYellow':0 }
Sun Jun 09 15:15:40 IDT 2013	Received communication message 
Sun Jun 09 15:15:40 IDT 2013	From player: 200
Sun Jun 09 15:15:40 IDT 2013	To player: 100
Sun Jun 09 15:15:40 IDT 2013	Chips to send by proposer: { chips  'CTRed':0 'CTPurple':0 'CTGreen':0 'grey78':2 'CTYellow':0 }
Sun Jun 09 15:15:40 IDT 2013	Chips to send by responder: { chips  'CTRed':6 'CTPurple':0 'CTGreen':0 'grey78':0 'CTYellow':0 }
Sun Jun 09 15:15:54 IDT 2013	Received communication message 
Sun Jun 09 15:15:54 IDT 2013	Proposer 0 accepted? false
Sun Jun 09 15:15:54 IDT 2013	case that we had one reject, and one accept
Sun Jun 09 15:15:56 IDT 2013	Received communication message 
Sun Jun 09 15:15:56 IDT 2013	Proposer 1 accepted? true
Sun Jun 09 15:15:56 IDT 2013	A Phase Ended: Communication Phase
Sun Jun 09 15:15:56 IDT 2013	Protocol: A New Phase Began: Movement Phase. loop is true
Sun Jun 09 15:15:56 IDT 2013	---------- Beginning Movement Phase at round 9 ----------
Sun Jun 09 15:16:40 IDT 2013	A Phase Ended: Movement Phase
Sun Jun 09 15:16:40 IDT 2013	Protocol: A New Phase Began: Feedback Phase. loop is true
Sun Jun 09 15:16:40 IDT 2013	---------- Beginning Feedback Phase at round 9 ----------
Sun Jun 09 15:16:40 IDT 2013	Number of consecutive no movements for player 100 is 1
Sun Jun 09 15:16:40 IDT 2013	TDPlayerPosition is(R:1,C:8)goal location 0(R:0,C:0)goal location 1(R:0,C:8)
Sun Jun 09 15:16:40 IDT 2013	ended is false
Sun Jun 09 15:16:45 IDT 2013	A Phase Ended: Feedback Phase
Sun Jun 09 15:16:45 IDT 2013	 numberofMoves in round 9 is 0
Sun Jun 09 15:16:45 IDT 2013	Swaping roles:
Sun Jun 09 15:16:45 IDT 2013	Protocol: A New Phase Began: Communication Phase. loop is true
Sun Jun 09 15:16:45 IDT 2013	---------- Beginning Communication Phase at round 10 ----------
Sun Jun 09 15:17:23 IDT 2013	Received communication message 
Sun Jun 09 15:17:23 IDT 2013	From player: 100
Sun Jun 09 15:17:23 IDT 2013	To player: 200
Sun Jun 09 15:17:23 IDT 2013	Chips to send by proposer: { chips  'CTRed':0 'CTPurple':3 'CTGreen':0 'grey78':1 'CTYellow':0 }
Sun Jun 09 15:17:23 IDT 2013	Chips to send by responder: { chips  'CTRed':10 'CTPurple':0 'CTGreen':0 'grey78':0 'CTYellow':0 }
Sun Jun 09 15:18:03 IDT 2013	Received communication message 
Sun Jun 09 15:18:03 IDT 2013	Proposer 0 accepted? false
Sun Jun 09 15:18:03 IDT 2013	case that we had one reject, and one accept
Sun Jun 09 15:18:03 IDT 2013	A Phase Ended: Communication Phase
Sun Jun 09 15:18:03 IDT 2013	Protocol: A New Phase Began: Movement Phase. loop is true
Sun Jun 09 15:18:03 IDT 2013	---------- Beginning Movement Phase at round 10 ----------
Sun Jun 09 15:18:48 IDT 2013	A Phase Ended: Movement Phase
Sun Jun 09 15:18:48 IDT 2013	Protocol: A New Phase Began: Feedback Phase. loop is true
Sun Jun 09 15:18:48 IDT 2013	---------- Beginning Feedback Phase at round 10 ----------
Sun Jun 09 15:18:48 IDT 2013	Number of consecutive no movements for player 100 is 0
Sun Jun 09 15:18:48 IDT 2013	TDPlayerPosition is(R:1,C:7)goal location 0(R:0,C:0)goal location 1(R:0,C:8)
Sun Jun 09 15:18:48 IDT 2013	ended is false
Sun Jun 09 15:18:53 IDT 2013	A Phase Ended: Feedback Phase
Sun Jun 09 15:18:53 IDT 2013	 numberofMoves in round 10 is 1
Sun Jun 09 15:18:53 IDT 2013	Swaping roles:
Sun Jun 09 15:18:53 IDT 2013	Protocol: A New Phase Began: Communication Phase. loop is true
Sun Jun 09 15:18:53 IDT 2013	---------- Beginning Communication Phase at round 11 ----------
Sun Jun 09 15:19:00 IDT 2013	Received communication message 
Sun Jun 09 15:19:00 IDT 2013	From player: 300
Sun Jun 09 15:19:00 IDT 2013	To player: 100
Sun Jun 09 15:19:00 IDT 2013	Chips to send by proposer: { chips  'CTRed':0 'CTPurple':0 'CTGreen':0 'grey78':0 'CTYellow':0 }
Sun Jun 09 15:19:00 IDT 2013	Chips to send by responder: { chips  'CTRed':0 'CTPurple':0 'CTGreen':0 'grey78':0 'CTYellow':0 }
Sun Jun 09 15:19:18 IDT 2013	Received communication message 
Sun Jun 09 15:19:18 IDT 2013	From player: 200
Sun Jun 09 15:19:18 IDT 2013	To player: 100
Sun Jun 09 15:19:18 IDT 2013	Chips to send by proposer: { chips  'CTRed':8 'CTPurple':0 'CTGreen':0 'grey78':0 'CTYellow':0 }
Sun Jun 09 15:19:18 IDT 2013	Chips to send by responder: { chips  'CTRed':0 'CTPurple':4 'CTGreen':0 'grey78':0 'CTYellow':0 }
Sun Jun 09 15:19:27 IDT 2013	Received communication message 
Sun Jun 09 15:19:27 IDT 2013	Proposer 0 accepted? true
Sun Jun 09 15:19:27 IDT 2013	A Phase Ended: Communication Phase
Sun Jun 09 15:19:27 IDT 2013	Protocol: A New Phase Began: Movement Phase. loop is true
Sun Jun 09 15:19:27 IDT 2013	---------- Beginning Movement Phase at round 11 ----------
Sun Jun 09 15:20:12 IDT 2013	A Phase Ended: Movement Phase
Sun Jun 09 15:20:12 IDT 2013	Protocol: A New Phase Began: Feedback Phase. loop is true
Sun Jun 09 15:20:12 IDT 2013	---------- Beginning Feedback Phase at round 11 ----------
Sun Jun 09 15:20:12 IDT 2013	The TD player reached the goal, end the game
Sun Jun 09 15:20:12 IDT 2013	ended is true
Sun Jun 09 15:20:17 IDT 2013	A Phase Ended: Feedback Phase
Sun Jun 09 15:20:17 IDT 2013	 numberofMoves in round 11 is 2
Sun Jun 09 15:20:17 IDT 2013	Loop status: false
Sun Jun 09 15:20:17 IDT 2013	Player: 300 ,role: Proposer score is: 85
Sun Jun 09 15:20:17 IDT 2013	Player: 300Game Ended
Sun Jun 09 15:20:17 IDT 2013	Player: 100 ,role: Responder score is: 370
Sun Jun 09 15:20:17 IDT 2013	Player: 100Game Ended
Sun Jun 09 15:20:17 IDT 2013	Player: 200 ,role: Proposer score is: 290
Sun Jun 09 15:20:17 IDT 2013	Player: 200Game Ended
Sun Jun 09 15:20:17 IDT 2013	Protocol: A New Phase Began: Communication Phase. loop is false
Sun Jun 09 15:20:17 IDT 2013	---------- Beginning Communication Phase at round 11 ----------
