Sun Jun 09 14:59:38 IDT 2013	This is the CT debug logger; svn version 638; sep 27 09
Sun Jun 09 14:59:38 IDT 2013	Sun Jun 09 14:59:38 IDT 2013
Sun Jun 09 14:59:38 IDT 2013	ID Number: 68224
Sun Jun 09 14:59:38 IDT 2013	Creating board
Sun Jun 09 14:59:38 IDT 2013	<colors>
Sun Jun 09 14:59:38 IDT 2013	{ GamePalette  'CTPurple':0 'CTRed':1 'CTGreen':2 'grey78':3 'CTYellow':4 }
Sun Jun 09 14:59:38 IDT 2013	<rows>
Sun Jun 09 14:59:38 IDT 2013	6
Sun Jun 09 14:59:38 IDT 2013	<columns>
Sun Jun 09 14:59:38 IDT 2013	9
Sun Jun 09 14:59:38 IDT 2013	<squaresColors>
Sun Jun 09 14:59:38 IDT 2013	grey78 CTGreen CTGreen CTGreen CTGreen CTGreen CTGreen CTGreen CTYellow 
Sun Jun 09 14:59:38 IDT 2013	grey78 CTPurple CTPurple CTPurple CTPurple CTPurple CTPurple CTPurple CTYellow 
Sun Jun 09 14:59:38 IDT 2013	grey78 grey78 CTGreen CTGreen CTGreen CTGreen CTGreen CTYellow CTYellow 
Sun Jun 09 14:59:38 IDT 2013	CTGreen grey78 grey78 CTPurple CTPurple CTPurple CTYellow CTYellow CTGreen 
Sun Jun 09 14:59:38 IDT 2013	CTGreen CTGreen grey78 grey78 CTGreen CTYellow CTYellow CTGreen CTGreen 
Sun Jun 09 14:59:38 IDT 2013	CTGreen CTGreen CTGreen grey78 CTGreen CTYellow CTGreen CTGreen CTGreen 
Sun Jun 09 14:59:38 IDT 2013	</squareColors>
Sun Jun 09 14:59:38 IDT 2013	<goalPosition>
Sun Jun 09 14:59:38 IDT 2013	Goal position: (R:0,C:0)
Sun Jun 09 14:59:38 IDT 2013	<goalPosition>
Sun Jun 09 14:59:38 IDT 2013	Goal position: (R:0,C:0)
Sun Jun 09 14:59:38 IDT 2013	<firstPlayerPossibleGoal1>
Sun Jun 09 14:59:38 IDT 2013	0.5
Sun Jun 09 14:59:38 IDT 2013	0
Sun Jun 09 14:59:38 IDT 2013	0
Sun Jun 09 14:59:38 IDT 2013	</firstPlayerPossibleGoal1>
Sun Jun 09 14:59:38 IDT 2013	<firstPlayerPossibleGoal2>
Sun Jun 09 14:59:38 IDT 2013	0.5
Sun Jun 09 14:59:38 IDT 2013	0
Sun Jun 09 14:59:38 IDT 2013	8
Sun Jun 09 14:59:38 IDT 2013	</firstPlayerPossibleGoal2>
Sun Jun 09 14:59:38 IDT 2013	<numberOfPlayers>
Sun Jun 09 14:59:38 IDT 2013	3
Sun Jun 09 14:59:38 IDT 2013	<firstPlayerChips>
Sun Jun 09 14:59:38 IDT 2013	Setting chips for player: 100 id:0
Sun Jun 09 14:59:38 IDT 2013	{ chips  'CTRed':0 'CTGreen':0 'CTPurple':0 'grey78':12 'CTYellow':12 }
Sun Jun 09 14:59:38 IDT 2013	Player position: (R:5,C:4)
Sun Jun 09 14:59:38 IDT 2013	Setting chips for player: 200 id:1
Sun Jun 09 14:59:38 IDT 2013	{ chips  'CTRed':33 'CTGreen':0 'CTPurple':7 'grey78':0 'CTYellow':0 }
Sun Jun 09 14:59:38 IDT 2013	Player position: (R:0,C:8)
Sun Jun 09 14:59:38 IDT 2013	Setting chips for player: 300 id:2
Sun Jun 09 14:59:38 IDT 2013	{ chips  'CTRed':33 'CTGreen':0 'CTPurple':7 'grey78':0 'CTYellow':0 }
Sun Jun 09 14:59:38 IDT 2013	Player position: (R:0,C:0)
Sun Jun 09 14:59:38 IDT 2013	Protocol: A New Phase Began: Strategy Prep Phase. loop is true
Sun Jun 09 14:59:38 IDT 2013	---------- Beginning Strategy Prep Phase at round 0 ----------
