Tue Sep 03 16:42:49 IDT 2013	This is the CT debug logger; svn version 638; sep 27 09
Tue Sep 03 16:42:49 IDT 2013	Tue Sep 03 16:42:49 IDT 2013
Tue Sep 03 16:42:49 IDT 2013	ThreePlayersAgentPlayer(): entering.
Tue Sep 03 16:43:20 IDT 2013	phaseAdvanced(): entering.
Tue Sep 03 16:43:20 IDT 2013	phaseAdvanced(): new phase is 'Strategy Prep Phase'.
Tue Sep 03 16:44:20 IDT 2013	phaseAdvanced(): entering.
Tue Sep 03 16:44:20 IDT 2013	phaseAdvanced(): new phase is 'Communication Phase'.
Tue Sep 03 16:45:22 IDT 2013	onReceipt(): entering.
Tue Sep 03 16:45:22 IDT 2013	onReceipt(): opponent's proposal: ({ chips  'CTRed':0 'CTPurple':3 'CTGreen':0 'grey78':0 'CTYellow':0 }, { chips  'CTRed':0 'CTPurple':0 'CTGreen':0 'grey78':0 'CTYellow':3 }).
Tue Sep 03 16:46:59 IDT 2013	responseToSend(): entering.
Tue Sep 03 16:46:59 IDT 2013	compareProposals(): decision: 1 utility 120.0
Tue Sep 03 16:46:59 IDT 2013	responseToSend(): rejecting both proposals
Tue Sep 03 16:47:20 IDT 2013	phaseAdvanced(): entering.
Tue Sep 03 16:47:20 IDT 2013	phaseAdvanced(): new phase is 'Movement Phase'.
Tue Sep 03 16:48:05 IDT 2013	phaseAdvanced(): entering.
Tue Sep 03 16:48:05 IDT 2013	phaseAdvanced(): new phase is 'Feedback Phase'.
Tue Sep 03 16:48:10 IDT 2013	phaseAdvanced(): entering.
Tue Sep 03 16:48:10 IDT 2013	phaseAdvanced(): new phase is 'Communication Phase'.
Tue Sep 03 16:50:33 IDT 2013	onReceipt(): entering.
Tue Sep 03 16:50:33 IDT 2013	phaseAdvanced(): entering.
Tue Sep 03 16:50:33 IDT 2013	phaseAdvanced(): new phase is 'Movement Phase'.
Tue Sep 03 16:51:17 IDT 2013	phaseAdvanced(): entering.
Tue Sep 03 16:51:17 IDT 2013	phaseAdvanced(): new phase is 'Feedback Phase'.
Tue Sep 03 16:51:22 IDT 2013	phaseAdvanced(): entering.
Tue Sep 03 16:51:22 IDT 2013	phaseAdvanced(): new phase is 'Communication Phase'.
Tue Sep 03 16:52:12 IDT 2013	onReceipt(): entering.
Tue Sep 03 16:52:12 IDT 2013	onReceipt(): opponent's proposal: ({ chips  'CTRed':0 'CTPurple':4 'CTGreen':0 'grey78':0 'CTYellow':0 }, { chips  'CTRed':0 'CTPurple':0 'CTGreen':0 'grey78':0 'CTYellow':6 }).
Tue Sep 03 16:52:45 IDT 2013	onReceipt(): entering.
Tue Sep 03 16:52:45 IDT 2013	onReceipt(): opponent's proposal: ({ chips  'CTRed':10 'CTPurple':0 'CTGreen':0 'grey78':0 'CTYellow':0 }, { chips  'CTRed':0 'CTPurple':0 'CTGreen':0 'grey78':3 'CTYellow':0 }).
Tue Sep 03 16:52:45 IDT 2013	responseToSend(): entering.
Tue Sep 03 16:52:45 IDT 2013	compareProposals(): decision: 0 utility 155.0
Tue Sep 03 16:52:45 IDT 2013	responseToSend(): accepting proposal ({ chips  'CTRed':10 'CTPurple':0 'CTGreen':0 'grey78':0 'CTYellow':0 }, { chips  'CTRed':0 'CTPurple':0 'CTGreen':0 'grey78':3 'CTYellow':0 }).
Tue Sep 03 16:52:45 IDT 2013	phaseAdvanced(): entering.
Tue Sep 03 16:52:45 IDT 2013	phaseAdvanced(): new phase is 'Movement Phase'.
Tue Sep 03 16:53:30 IDT 2013	phaseAdvanced(): entering.
Tue Sep 03 16:53:30 IDT 2013	phaseAdvanced(): new phase is 'Feedback Phase'.
Tue Sep 03 16:53:35 IDT 2013	phaseAdvanced(): entering.
Tue Sep 03 16:53:35 IDT 2013	phaseAdvanced(): new phase is 'Communication Phase'.
Tue Sep 03 16:53:43 IDT 2013	onReceipt(): entering.
Tue Sep 03 16:53:43 IDT 2013	phaseAdvanced(): entering.
Tue Sep 03 16:53:43 IDT 2013	phaseAdvanced(): new phase is 'Movement Phase'.
Tue Sep 03 16:54:28 IDT 2013	phaseAdvanced(): entering.
Tue Sep 03 16:54:28 IDT 2013	phaseAdvanced(): new phase is 'Feedback Phase'.
Tue Sep 03 16:54:33 IDT 2013	phaseAdvanced(): entering.
Tue Sep 03 16:54:33 IDT 2013	phaseAdvanced(): new phase is 'Communication Phase'.
Tue Sep 03 16:55:02 IDT 2013	onReceipt(): entering.
Tue Sep 03 16:55:02 IDT 2013	onReceipt(): opponent's proposal: ({ chips  'CTRed':0 'CTPurple':4 'CTGreen':0 'grey78':0 'CTYellow':0 }, { chips  'CTRed':10 'CTPurple':0 'CTGreen':0 'grey78':0 'CTYellow':3 }).
Tue Sep 03 16:55:16 IDT 2013	onReceipt(): entering.
Tue Sep 03 16:55:16 IDT 2013	onReceipt(): opponent's proposal: ({ chips  'CTRed':10 'CTPurple':0 'CTGreen':0 'grey78':0 'CTYellow':0 }, { chips  'CTRed':0 'CTPurple':0 'CTGreen':0 'grey78':5 'CTYellow':0 }).
Tue Sep 03 16:55:16 IDT 2013	responseToSend(): entering.
Tue Sep 03 16:55:17 IDT 2013	compareProposals(): decision: 0 utility 175.0
Tue Sep 03 16:55:17 IDT 2013	responseToSend(): accepting proposal ({ chips  'CTRed':10 'CTPurple':0 'CTGreen':0 'grey78':0 'CTYellow':0 }, { chips  'CTRed':0 'CTPurple':0 'CTGreen':0 'grey78':5 'CTYellow':0 }).
Tue Sep 03 16:55:17 IDT 2013	phaseAdvanced(): entering.
Tue Sep 03 16:55:17 IDT 2013	phaseAdvanced(): new phase is 'Movement Phase'.
Tue Sep 03 16:56:01 IDT 2013	phaseAdvanced(): entering.
Tue Sep 03 16:56:01 IDT 2013	phaseAdvanced(): new phase is 'Feedback Phase'.
Tue Sep 03 16:56:06 IDT 2013	phaseAdvanced(): entering.
Tue Sep 03 16:56:06 IDT 2013	phaseAdvanced(): new phase is 'Communication Phase'.
Tue Sep 03 16:56:20 IDT 2013	onReceipt(): entering.
Tue Sep 03 16:56:20 IDT 2013	phaseAdvanced(): entering.
Tue Sep 03 16:56:20 IDT 2013	phaseAdvanced(): new phase is 'Movement Phase'.
Tue Sep 03 16:57:05 IDT 2013	phaseAdvanced(): entering.
Tue Sep 03 16:57:05 IDT 2013	phaseAdvanced(): new phase is 'Feedback Phase'.
Tue Sep 03 16:57:10 IDT 2013	phaseAdvanced(): entering.
Tue Sep 03 16:57:10 IDT 2013	phaseAdvanced(): new phase is 'Communication Phase'.
Tue Sep 03 16:58:14 IDT 2013	onReceipt(): entering.
Tue Sep 03 16:58:14 IDT 2013	onReceipt(): opponent's proposal: ({ chips  'CTRed':1 'CTPurple':0 'CTGreen':0 'grey78':0 'CTYellow':0 }, { chips  'CTRed':0 'CTPurple':0 'CTGreen':0 'grey78':1 'CTYellow':0 }).
Tue Sep 03 16:58:40 IDT 2013	onReceipt(): entering.
Tue Sep 03 16:58:40 IDT 2013	onReceipt(): opponent's proposal: ({ chips  'CTRed':20 'CTPurple':6 'CTGreen':0 'grey78':0 'CTYellow':0 }, { chips  'CTRed':0 'CTPurple':0 'CTGreen':0 'grey78':1 'CTYellow':4 }).
Tue Sep 03 16:58:40 IDT 2013	responseToSend(): entering.
Tue Sep 03 16:58:40 IDT 2013	compareProposals(): decision: 1 utility 275.0
Tue Sep 03 16:58:40 IDT 2013	responseToSend(): accepting proposal ({ chips  'CTRed':20 'CTPurple':6 'CTGreen':0 'grey78':0 'CTYellow':0 }, { chips  'CTRed':0 'CTPurple':0 'CTGreen':0 'grey78':1 'CTYellow':4 }).
Tue Sep 03 16:58:40 IDT 2013	phaseAdvanced(): entering.
Tue Sep 03 16:58:40 IDT 2013	phaseAdvanced(): new phase is 'Movement Phase'.
Tue Sep 03 16:59:25 IDT 2013	phaseAdvanced(): entering.
Tue Sep 03 16:59:25 IDT 2013	phaseAdvanced(): new phase is 'Feedback Phase'.
Tue Sep 03 16:59:30 IDT 2013	phaseAdvanced(): entering.
Tue Sep 03 16:59:30 IDT 2013	phaseAdvanced(): new phase is 'Communication Phase'.
Tue Sep 03 16:59:37 IDT 2013	onReceipt(): entering.
Tue Sep 03 16:59:37 IDT 2013	phaseAdvanced(): entering.
Tue Sep 03 16:59:37 IDT 2013	phaseAdvanced(): new phase is 'Movement Phase'.
Tue Sep 03 17:00:22 IDT 2013	phaseAdvanced(): entering.
Tue Sep 03 17:00:22 IDT 2013	phaseAdvanced(): new phase is 'Feedback Phase'.
Tue Sep 03 17:00:27 IDT 2013	phaseAdvanced(): entering.
Tue Sep 03 17:00:27 IDT 2013	phaseAdvanced(): new phase is 'Communication Phase'.
Tue Sep 03 17:01:14 IDT 2013	onReceipt(): entering.
Tue Sep 03 17:01:14 IDT 2013	onReceipt(): opponent's proposal: ({ chips  'CTRed':8 'CTPurple':0 'CTGreen':0 'grey78':1 'CTYellow':0 }, { chips  'CTRed':0 'CTPurple':0 'CTGreen':0 'grey78':0 'CTYellow':3 }).
Tue Sep 03 17:03:07 IDT 2013	responseToSend(): entering.
Tue Sep 03 17:03:27 IDT 2013	phaseAdvanced(): entering.
Tue Sep 03 17:03:27 IDT 2013	phaseAdvanced(): new phase is 'Movement Phase'.
Tue Sep 03 17:04:12 IDT 2013	phaseAdvanced(): entering.
Tue Sep 03 17:04:12 IDT 2013	phaseAdvanced(): new phase is 'Feedback Phase'.
Tue Sep 03 17:04:17 IDT 2013	phaseAdvanced(): entering.
Tue Sep 03 17:04:17 IDT 2013	phaseAdvanced(): new phase is 'Communication Phase'.
Tue Sep 03 17:04:53 IDT 2013	onReceipt(): entering.
Tue Sep 03 17:04:53 IDT 2013	phaseAdvanced(): entering.
Tue Sep 03 17:04:53 IDT 2013	phaseAdvanced(): new phase is 'Movement Phase'.
Tue Sep 03 17:05:37 IDT 2013	phaseAdvanced(): entering.
Tue Sep 03 17:05:37 IDT 2013	phaseAdvanced(): new phase is 'Feedback Phase'.
Tue Sep 03 17:05:42 IDT 2013	phaseAdvanced(): entering.
Tue Sep 03 17:05:42 IDT 2013	phaseAdvanced(): new phase is 'Communication Phase'.
Tue Sep 03 17:06:25 IDT 2013	onReceipt(): entering.
Tue Sep 03 17:06:25 IDT 2013	onReceipt(): opponent's proposal: ({ chips  'CTRed':10 'CTPurple':1 'CTGreen':0 'grey78':1 'CTYellow':0 }, { chips  'CTRed':0 'CTPurple':0 'CTGreen':0 'grey78':0 'CTYellow':2 }).
Tue Sep 03 17:06:45 IDT 2013	onReceipt(): entering.
Tue Sep 03 17:06:45 IDT 2013	onReceipt(): opponent's proposal: ({ chips  'CTRed':0 'CTPurple':0 'CTGreen':0 'grey78':0 'CTYellow':0 }, { chips  'CTRed':0 'CTPurple':0 'CTGreen':0 'grey78':0 'CTYellow':0 }).
Tue Sep 03 17:06:45 IDT 2013	responseToSend(): entering.
Tue Sep 03 17:06:45 IDT 2013	compareProposals(): decision: 1 utility 315.0
Tue Sep 03 17:06:45 IDT 2013	responseToSend(): accepting proposal ({ chips  'CTRed':10 'CTPurple':1 'CTGreen':0 'grey78':1 'CTYellow':0 }, { chips  'CTRed':0 'CTPurple':0 'CTGreen':0 'grey78':0 'CTYellow':2 }).
Tue Sep 03 17:06:45 IDT 2013	phaseAdvanced(): entering.
Tue Sep 03 17:06:45 IDT 2013	phaseAdvanced(): new phase is 'Movement Phase'.
Tue Sep 03 17:06:45 IDT 2013	phaseAdvanced(): found paths (4).
Tue Sep 03 17:07:30 IDT 2013	phaseAdvanced(): entering.
Tue Sep 03 17:07:30 IDT 2013	phaseAdvanced(): new phase is 'Feedback Phase'.
