Wed Jun 26 17:43:15 IDT 2013	This is the CT debug logger; svn version 638; sep 27 09
Wed Jun 26 17:43:15 IDT 2013	Wed Jun 26 17:43:15 IDT 2013
Wed Jun 26 17:43:15 IDT 2013	ID Number: 65387
Wed Jun 26 17:43:15 IDT 2013	Creating board
Wed Jun 26 17:43:15 IDT 2013	<colors>
Wed Jun 26 17:43:15 IDT 2013	{ GamePalette  'CTPurple':0 'CTRed':1 'CTGreen':2 'grey78':3 'CTYellow':4 }
Wed Jun 26 17:43:15 IDT 2013	<rows>
Wed Jun 26 17:43:15 IDT 2013	6
Wed Jun 26 17:43:15 IDT 2013	<columns>
Wed Jun 26 17:43:15 IDT 2013	9
Wed Jun 26 17:43:15 IDT 2013	<squaresColors>
Wed Jun 26 17:43:15 IDT 2013	grey78 CTGreen CTGreen CTGreen CTGreen CTGreen CTGreen CTGreen CTYellow 
Wed Jun 26 17:43:15 IDT 2013	grey78 CTPurple CTPurple CTPurple CTPurple CTPurple CTPurple CTPurple CTYellow 
Wed Jun 26 17:43:15 IDT 2013	grey78 grey78 CTGreen CTGreen CTGreen CTGreen CTGreen CTYellow CTYellow 
Wed Jun 26 17:43:15 IDT 2013	CTGreen grey78 grey78 CTPurple CTPurple CTPurple CTYellow CTYellow CTGreen 
Wed Jun 26 17:43:15 IDT 2013	CTGreen CTGreen grey78 grey78 CTGreen CTYellow CTYellow CTGreen CTGreen 
Wed Jun 26 17:43:15 IDT 2013	CTGreen CTGreen CTGreen grey78 CTGreen CTYellow CTGreen CTGreen CTGreen 
Wed Jun 26 17:43:15 IDT 2013	</squareColors>
Wed Jun 26 17:43:15 IDT 2013	<goalPosition>
Wed Jun 26 17:43:15 IDT 2013	Goal position: (R:0,C:0)
Wed Jun 26 17:43:15 IDT 2013	<goalPosition>
Wed Jun 26 17:43:15 IDT 2013	Goal position: (R:0,C:0)
Wed Jun 26 17:43:15 IDT 2013	<firstPlayerPossibleGoal1>
Wed Jun 26 17:43:15 IDT 2013	0.5
Wed Jun 26 17:43:15 IDT 2013	0
Wed Jun 26 17:43:15 IDT 2013	0
Wed Jun 26 17:43:15 IDT 2013	</firstPlayerPossibleGoal1>
Wed Jun 26 17:43:15 IDT 2013	<firstPlayerPossibleGoal2>
Wed Jun 26 17:43:15 IDT 2013	0.5
Wed Jun 26 17:43:15 IDT 2013	0
Wed Jun 26 17:43:15 IDT 2013	8
Wed Jun 26 17:43:15 IDT 2013	</firstPlayerPossibleGoal2>
Wed Jun 26 17:43:15 IDT 2013	<numberOfPlayers>
Wed Jun 26 17:43:15 IDT 2013	3
Wed Jun 26 17:43:15 IDT 2013	<firstPlayerChips>
Wed Jun 26 17:43:15 IDT 2013	Setting chips for player: 100 id:0
Wed Jun 26 17:43:15 IDT 2013	{ chips  'CTRed':0 'CTGreen':0 'CTPurple':0 'grey78':12 'CTYellow':12 }
Wed Jun 26 17:43:15 IDT 2013	Player position: (R:5,C:4)
Wed Jun 26 17:43:15 IDT 2013	Setting chips for player: 200 id:1
Wed Jun 26 17:43:15 IDT 2013	{ chips  'CTRed':33 'CTGreen':0 'CTPurple':7 'grey78':0 'CTYellow':0 }
Wed Jun 26 17:43:15 IDT 2013	Player position: (R:0,C:8)
Wed Jun 26 17:43:15 IDT 2013	Setting chips for player: 300 id:2
Wed Jun 26 17:43:15 IDT 2013	{ chips  'CTRed':33 'CTGreen':0 'CTPurple':7 'grey78':0 'CTYellow':0 }
Wed Jun 26 17:43:15 IDT 2013	Player position: (R:0,C:0)
Wed Jun 26 17:43:15 IDT 2013	Protocol: A New Phase Began: Strategy Prep Phase. loop is true
Wed Jun 26 17:43:15 IDT 2013	---------- Beginning Strategy Prep Phase at round 0 ----------
Wed Jun 26 17:44:15 IDT 2013	A Phase Ended: Strategy Prep Phase
Wed Jun 26 17:44:15 IDT 2013	Protocol: A New Phase Began: Communication Phase. loop is true
Wed Jun 26 17:44:15 IDT 2013	---------- Beginning Communication Phase at round 1 ----------
Wed Jun 26 17:45:01 IDT 2013	Received communication message 
Wed Jun 26 17:45:01 IDT 2013	From player: 200
Wed Jun 26 17:45:01 IDT 2013	To player: 100
Wed Jun 26 17:45:01 IDT 2013	Chips to send by proposer: { chips  'CTRed':0 'CTPurple':0 'CTGreen':0 'grey78':0 'CTYellow':0 }
Wed Jun 26 17:45:01 IDT 2013	Chips to send by responder: { chips  'CTRed':0 'CTPurple':0 'CTGreen':0 'grey78':0 'CTYellow':0 }
Wed Jun 26 17:45:09 IDT 2013	Received communication message 
Wed Jun 26 17:45:09 IDT 2013	Proposer 0 accepted? false
Wed Jun 26 17:45:09 IDT 2013	case that we had one reject, and one accept
Wed Jun 26 17:47:01 IDT 2013	Received communication message 
Wed Jun 26 17:47:01 IDT 2013	From player: 300
Wed Jun 26 17:47:01 IDT 2013	To player: 100
Wed Jun 26 17:47:01 IDT 2013	Chips to send by proposer: { chips  'CTRed':19 'CTPurple':0 'CTGreen':0 'grey78':0 'CTYellow':0 }
Wed Jun 26 17:47:01 IDT 2013	Chips to send by responder: { chips  'CTRed':0 'CTPurple':0 'CTGreen':0 'grey78':0 'CTYellow':7 }
Wed Jun 26 17:47:11 IDT 2013	Received communication message 
Wed Jun 26 17:47:11 IDT 2013	Proposer 1 accepted? true
Wed Jun 26 17:47:11 IDT 2013	A Phase Ended: Communication Phase
Wed Jun 26 17:47:11 IDT 2013	Protocol: A New Phase Began: Movement Phase. loop is true
Wed Jun 26 17:47:11 IDT 2013	---------- Beginning Movement Phase at round 1 ----------
Wed Jun 26 17:47:11 IDT 2013	remove strategy phase. 
Wed Jun 26 17:47:55 IDT 2013	A Phase Ended: Movement Phase
Wed Jun 26 17:47:55 IDT 2013	Protocol: A New Phase Began: Feedback Phase. loop is true
Wed Jun 26 17:47:55 IDT 2013	---------- Beginning Feedback Phase at round 1 ----------
Wed Jun 26 17:47:55 IDT 2013	Number of consecutive no movements for player 100 is 0
Wed Jun 26 17:47:55 IDT 2013	TDPlayerPosition is(R:3,C:2)goal location 0(R:0,C:0)goal location 1(R:0,C:8)
Wed Jun 26 17:47:55 IDT 2013	ended is false
Wed Jun 26 17:48:00 IDT 2013	A Phase Ended: Feedback Phase
Wed Jun 26 17:48:00 IDT 2013	 numberofMoves in round 1 is 4
Wed Jun 26 17:48:00 IDT 2013	Swaping roles:
Wed Jun 26 17:48:00 IDT 2013	Protocol: A New Phase Began: Communication Phase. loop is true
Wed Jun 26 17:48:00 IDT 2013	---------- Beginning Communication Phase at round 2 ----------
Wed Jun 26 17:49:03 IDT 2013	Received communication message 
Wed Jun 26 17:49:03 IDT 2013	From player: 100
Wed Jun 26 17:49:03 IDT 2013	To player: 300
Wed Jun 26 17:49:03 IDT 2013	Chips to send by proposer: { chips  'CTRed':0 'CTPurple':0 'CTGreen':0 'grey78':1 'CTYellow':0 }
Wed Jun 26 17:49:03 IDT 2013	Chips to send by responder: { chips  'CTRed':0 'CTPurple':2 'CTGreen':0 'grey78':0 'CTYellow':0 }
Wed Jun 26 17:50:46 IDT 2013	Received communication message 
Wed Jun 26 17:50:46 IDT 2013	Proposer 1 accepted? false
Wed Jun 26 17:50:46 IDT 2013	case that we had one reject, and one accept
Wed Jun 26 17:50:46 IDT 2013	A Phase Ended: Communication Phase
Wed Jun 26 17:50:46 IDT 2013	Protocol: A New Phase Began: Movement Phase. loop is true
Wed Jun 26 17:50:46 IDT 2013	---------- Beginning Movement Phase at round 2 ----------
Wed Jun 26 17:51:30 IDT 2013	A Phase Ended: Movement Phase
Wed Jun 26 17:51:30 IDT 2013	Protocol: A New Phase Began: Feedback Phase. loop is true
Wed Jun 26 17:51:30 IDT 2013	---------- Beginning Feedback Phase at round 2 ----------
Wed Jun 26 17:51:30 IDT 2013	Number of consecutive no movements for player 100 is 0
Wed Jun 26 17:51:30 IDT 2013	TDPlayerPosition is(R:1,C:0)goal location 0(R:0,C:0)goal location 1(R:0,C:8)
Wed Jun 26 17:51:30 IDT 2013	ended is false
Wed Jun 26 17:51:35 IDT 2013	A Phase Ended: Feedback Phase
Wed Jun 26 17:51:35 IDT 2013	 numberofMoves in round 2 is 4
Wed Jun 26 17:51:35 IDT 2013	Swaping roles:
Wed Jun 26 17:51:35 IDT 2013	Protocol: A New Phase Began: Communication Phase. loop is true
Wed Jun 26 17:51:35 IDT 2013	---------- Beginning Communication Phase at round 3 ----------
Wed Jun 26 17:52:09 IDT 2013	Received communication message 
Wed Jun 26 17:52:09 IDT 2013	From player: 200
Wed Jun 26 17:52:09 IDT 2013	To player: 100
Wed Jun 26 17:52:09 IDT 2013	Chips to send by proposer: { chips  'CTRed':0 'CTPurple':0 'CTGreen':0 'grey78':0 'CTYellow':0 }
Wed Jun 26 17:52:09 IDT 2013	Chips to send by responder: { chips  'CTRed':7 'CTPurple':0 'CTGreen':0 'grey78':0 'CTYellow':0 }
Wed Jun 26 17:52:28 IDT 2013	Received communication message 
Wed Jun 26 17:52:28 IDT 2013	Proposer 0 accepted? false
Wed Jun 26 17:52:28 IDT 2013	case that we had one reject, and one accept
Wed Jun 26 17:53:17 IDT 2013	Received communication message 
Wed Jun 26 17:53:17 IDT 2013	From player: 300
Wed Jun 26 17:53:17 IDT 2013	To player: 100
Wed Jun 26 17:53:17 IDT 2013	Chips to send by proposer: { chips  'CTRed':10 'CTPurple':0 'CTGreen':0 'grey78':0 'CTYellow':0 }
Wed Jun 26 17:53:17 IDT 2013	Chips to send by responder: { chips  'CTRed':0 'CTPurple':0 'CTGreen':0 'grey78':0 'CTYellow':5 }
Wed Jun 26 17:53:31 IDT 2013	Received communication message 
Wed Jun 26 17:53:31 IDT 2013	Proposer 1 accepted? true
Wed Jun 26 17:53:31 IDT 2013	A Phase Ended: Communication Phase
Wed Jun 26 17:53:31 IDT 2013	Protocol: A New Phase Began: Movement Phase. loop is true
Wed Jun 26 17:53:31 IDT 2013	---------- Beginning Movement Phase at round 3 ----------
Wed Jun 26 17:54:16 IDT 2013	A Phase Ended: Movement Phase
Wed Jun 26 17:54:16 IDT 2013	Protocol: A New Phase Began: Feedback Phase. loop is true
Wed Jun 26 17:54:16 IDT 2013	---------- Beginning Feedback Phase at round 3 ----------
Wed Jun 26 17:54:16 IDT 2013	The TD player reached the goal, end the game
Wed Jun 26 17:54:16 IDT 2013	ended is true
Wed Jun 26 17:54:21 IDT 2013	A Phase Ended: Feedback Phase
Wed Jun 26 17:54:21 IDT 2013	 numberofMoves in round 3 is 1
Wed Jun 26 17:54:21 IDT 2013	Loop status: false
Wed Jun 26 17:54:21 IDT 2013	Player: 300 ,role: Proposer score is: 265
Wed Jun 26 17:54:21 IDT 2013	Player: 300Game Ended
Wed Jun 26 17:54:21 IDT 2013	Player: 200 ,role: Proposer score is: 200
Wed Jun 26 17:54:21 IDT 2013	Player: 200Game Ended
Wed Jun 26 17:54:21 IDT 2013	Player: 100 ,role: Responder score is: 310
Wed Jun 26 17:54:21 IDT 2013	Player: 100Game Ended
Wed Jun 26 17:54:21 IDT 2013	Protocol: A New Phase Began: Communication Phase. loop is false
Wed Jun 26 17:54:21 IDT 2013	---------- Beginning Communication Phase at round 3 ----------
