Sun Jun 02 13:14:43 IDT 2013	This is the CT debug logger; svn version 638; sep 27 09
Sun Jun 02 13:14:43 IDT 2013	Sun Jun 02 13:14:43 IDT 2013
Sun Jun 02 13:14:43 IDT 2013	ID Number: 63939
Sun Jun 02 13:14:43 IDT 2013	Creating board
Sun Jun 02 13:14:43 IDT 2013	<colors>
Sun Jun 02 13:14:43 IDT 2013	{ GamePalette  'CTPurple':0 'CTRed':1 'CTGreen':2 'grey78':3 'CTYellow':4 }
Sun Jun 02 13:14:43 IDT 2013	<rows>
Sun Jun 02 13:14:43 IDT 2013	6
Sun Jun 02 13:14:43 IDT 2013	<columns>
Sun Jun 02 13:14:43 IDT 2013	9
Sun Jun 02 13:14:43 IDT 2013	<squaresColors>
Sun Jun 02 13:14:43 IDT 2013	grey78 CTGreen CTGreen CTGreen CTGreen CTGreen CTGreen CTGreen CTYellow 
Sun Jun 02 13:14:43 IDT 2013	grey78 CTPurple CTPurple CTPurple CTPurple CTPurple CTPurple CTPurple CTYellow 
Sun Jun 02 13:14:43 IDT 2013	grey78 grey78 CTGreen CTGreen CTGreen CTGreen CTGreen CTYellow CTYellow 
Sun Jun 02 13:14:43 IDT 2013	CTGreen grey78 grey78 CTPurple CTPurple CTPurple CTYellow CTYellow CTGreen 
Sun Jun 02 13:14:43 IDT 2013	CTGreen CTGreen grey78 grey78 CTGreen CTYellow CTYellow CTGreen CTGreen 
Sun Jun 02 13:14:43 IDT 2013	CTGreen CTGreen CTGreen grey78 CTGreen CTYellow CTGreen CTGreen CTGreen 
Sun Jun 02 13:14:43 IDT 2013	</squareColors>
Sun Jun 02 13:14:43 IDT 2013	<goalPosition>
Sun Jun 02 13:14:43 IDT 2013	Goal position: (R:0,C:0)
Sun Jun 02 13:14:43 IDT 2013	<goalPosition>
Sun Jun 02 13:14:43 IDT 2013	Goal position: (R:0,C:0)
Sun Jun 02 13:14:43 IDT 2013	<firstPlayerPossibleGoal1>
Sun Jun 02 13:14:43 IDT 2013	0.5
Sun Jun 02 13:14:43 IDT 2013	0
Sun Jun 02 13:14:43 IDT 2013	0
Sun Jun 02 13:14:43 IDT 2013	</firstPlayerPossibleGoal1>
Sun Jun 02 13:14:43 IDT 2013	<firstPlayerPossibleGoal2>
Sun Jun 02 13:14:43 IDT 2013	0.5
Sun Jun 02 13:14:43 IDT 2013	0
Sun Jun 02 13:14:43 IDT 2013	8
Sun Jun 02 13:14:43 IDT 2013	</firstPlayerPossibleGoal2>
Sun Jun 02 13:14:43 IDT 2013	<numberOfPlayers>
Sun Jun 02 13:14:43 IDT 2013	3
Sun Jun 02 13:14:43 IDT 2013	<firstPlayerChips>
Sun Jun 02 13:14:43 IDT 2013	Setting chips for player: 100 id:0
Sun Jun 02 13:14:43 IDT 2013	{ chips  'CTRed':0 'CTGreen':0 'CTPurple':0 'grey78':12 'CTYellow':12 }
Sun Jun 02 13:14:43 IDT 2013	Player position: (R:5,C:4)
Sun Jun 02 13:14:43 IDT 2013	Setting chips for player: 200 id:1
Sun Jun 02 13:14:43 IDT 2013	{ chips  'CTRed':33 'CTGreen':0 'CTPurple':7 'grey78':0 'CTYellow':0 }
Sun Jun 02 13:14:43 IDT 2013	Player position: (R:0,C:8)
Sun Jun 02 13:14:43 IDT 2013	Setting chips for player: 300 id:2
Sun Jun 02 13:14:43 IDT 2013	{ chips  'CTRed':33 'CTGreen':0 'CTPurple':7 'grey78':0 'CTYellow':0 }
Sun Jun 02 13:14:43 IDT 2013	Player position: (R:0,C:0)
Sun Jun 02 13:14:44 IDT 2013	Protocol: A New Phase Began: Strategy Prep Phase. loop is true
Sun Jun 02 13:14:44 IDT 2013	---------- Beginning Strategy Prep Phase at round 0 ----------
Sun Jun 02 13:15:44 IDT 2013	A Phase Ended: Strategy Prep Phase
Sun Jun 02 13:15:44 IDT 2013	Protocol: A New Phase Began: Communication Phase. loop is true
Sun Jun 02 13:15:44 IDT 2013	---------- Beginning Communication Phase at round 1 ----------
Sun Jun 02 13:16:51 IDT 2013	Received communication message 
Sun Jun 02 13:16:51 IDT 2013	From player: 200
Sun Jun 02 13:16:51 IDT 2013	To player: 100
Sun Jun 02 13:16:51 IDT 2013	Chips to send by proposer: { chips  'CTRed':0 'CTPurple':0 'CTGreen':0 'grey78':0 'CTYellow':0 }
Sun Jun 02 13:16:51 IDT 2013	Chips to send by responder: { chips  'CTRed':0 'CTPurple':0 'CTGreen':0 'grey78':0 'CTYellow':0 }
Sun Jun 02 13:17:01 IDT 2013	Received communication message 
Sun Jun 02 13:17:01 IDT 2013	Proposer 0 accepted? false
Sun Jun 02 13:17:01 IDT 2013	case that we had one reject, and one accept
Sun Jun 02 13:17:06 IDT 2013	Received communication message 
Sun Jun 02 13:17:06 IDT 2013	From player: 300
Sun Jun 02 13:17:06 IDT 2013	To player: 100
Sun Jun 02 13:17:06 IDT 2013	Chips to send by proposer: { chips  'CTRed':5 'CTPurple':7 'CTGreen':0 'grey78':0 'CTYellow':0 }
Sun Jun 02 13:17:06 IDT 2013	Chips to send by responder: { chips  'CTRed':0 'CTPurple':0 'CTGreen':0 'grey78':0 'CTYellow':0 }
Sun Jun 02 13:17:16 IDT 2013	Received communication message 
Sun Jun 02 13:17:16 IDT 2013	Proposer 1 accepted? true
Sun Jun 02 13:17:16 IDT 2013	A Phase Ended: Communication Phase
Sun Jun 02 13:17:16 IDT 2013	Protocol: A New Phase Began: Movement Phase. loop is true
Sun Jun 02 13:17:16 IDT 2013	---------- Beginning Movement Phase at round 1 ----------
Sun Jun 02 13:17:16 IDT 2013	remove strategy phase. 
Sun Jun 02 13:18:01 IDT 2013	A Phase Ended: Movement Phase
Sun Jun 02 13:18:01 IDT 2013	Protocol: A New Phase Began: Feedback Phase. loop is true
Sun Jun 02 13:18:01 IDT 2013	---------- Beginning Feedback Phase at round 1 ----------
Sun Jun 02 13:18:01 IDT 2013	Number of consecutive no movements for player 100 is 0
Sun Jun 02 13:18:01 IDT 2013	TDPlayerPosition is(R:3,C:3)goal location 0(R:0,C:0)goal location 1(R:0,C:8)
Sun Jun 02 13:18:01 IDT 2013	ended is false
Sun Jun 02 13:18:06 IDT 2013	A Phase Ended: Feedback Phase
Sun Jun 02 13:18:06 IDT 2013	 numberofMoves in round 1 is 3
Sun Jun 02 13:18:06 IDT 2013	Swaping roles:
Sun Jun 02 13:18:06 IDT 2013	Protocol: A New Phase Began: Communication Phase. loop is true
Sun Jun 02 13:18:06 IDT 2013	---------- Beginning Communication Phase at round 2 ----------
Sun Jun 02 13:18:52 IDT 2013	Received communication message 
Sun Jun 02 13:18:52 IDT 2013	From player: 100
Sun Jun 02 13:18:52 IDT 2013	To player: 200
Sun Jun 02 13:18:52 IDT 2013	Chips to send by proposer: { chips  'CTRed':0 'CTPurple':0 'CTGreen':0 'grey78':0 'CTYellow':0 }
Sun Jun 02 13:18:52 IDT 2013	Chips to send by responder: { chips  'CTRed':8 'CTPurple':7 'CTGreen':0 'grey78':0 'CTYellow':0 }
Sun Jun 02 13:19:53 IDT 2013	Received communication message 
Sun Jun 02 13:19:53 IDT 2013	Proposer 0 accepted? false
Sun Jun 02 13:19:53 IDT 2013	case that we had one reject, and one accept
Sun Jun 02 13:19:53 IDT 2013	A Phase Ended: Communication Phase
Sun Jun 02 13:19:53 IDT 2013	Protocol: A New Phase Began: Movement Phase. loop is true
Sun Jun 02 13:19:53 IDT 2013	---------- Beginning Movement Phase at round 2 ----------
Sun Jun 02 13:20:38 IDT 2013	A Phase Ended: Movement Phase
Sun Jun 02 13:20:38 IDT 2013	Protocol: A New Phase Began: Feedback Phase. loop is true
Sun Jun 02 13:20:38 IDT 2013	---------- Beginning Feedback Phase at round 2 ----------
Sun Jun 02 13:20:38 IDT 2013	Number of consecutive no movements for player 100 is 1
Sun Jun 02 13:20:38 IDT 2013	TDPlayerPosition is(R:3,C:3)goal location 0(R:0,C:0)goal location 1(R:0,C:8)
Sun Jun 02 13:20:38 IDT 2013	ended is false
Sun Jun 02 13:20:43 IDT 2013	A Phase Ended: Feedback Phase
Sun Jun 02 13:20:43 IDT 2013	 numberofMoves in round 2 is 0
Sun Jun 02 13:20:43 IDT 2013	Swaping roles:
Sun Jun 02 13:20:43 IDT 2013	Protocol: A New Phase Began: Communication Phase. loop is true
Sun Jun 02 13:20:43 IDT 2013	---------- Beginning Communication Phase at round 3 ----------
Sun Jun 02 13:21:43 IDT 2013	Received communication message 
Sun Jun 02 13:21:43 IDT 2013	From player: 200
Sun Jun 02 13:21:43 IDT 2013	To player: 100
Sun Jun 02 13:21:43 IDT 2013	Chips to send by proposer: { chips  'CTRed':5 'CTPurple':5 'CTGreen':0 'grey78':0 'CTYellow':0 }
Sun Jun 02 13:21:43 IDT 2013	Chips to send by responder: { chips  'CTRed':0 'CTPurple':0 'CTGreen':0 'grey78':5 'CTYellow':0 }
Sun Jun 02 13:22:01 IDT 2013	Received communication message 
Sun Jun 02 13:22:01 IDT 2013	From player: 300
Sun Jun 02 13:22:01 IDT 2013	To player: 100
Sun Jun 02 13:22:01 IDT 2013	Chips to send by proposer: { chips  'CTRed':2 'CTPurple':0 'CTGreen':0 'grey78':0 'CTYellow':0 }
Sun Jun 02 13:22:01 IDT 2013	Chips to send by responder: { chips  'CTRed':0 'CTPurple':2 'CTGreen':0 'grey78':0 'CTYellow':2 }
Sun Jun 02 13:22:15 IDT 2013	Received communication message 
Sun Jun 02 13:22:15 IDT 2013	Proposer 1 accepted? false
Sun Jun 02 13:22:15 IDT 2013	case that we had one reject, and one accept
Sun Jun 02 13:22:43 IDT 2013	Received communication message 
Sun Jun 02 13:22:43 IDT 2013	Proposer 0 accepted? false
Sun Jun 02 13:22:43 IDT 2013	case that we had one reject, and one accept
Sun Jun 02 13:22:43 IDT 2013	A Phase Ended: Communication Phase
Sun Jun 02 13:22:43 IDT 2013	Protocol: A New Phase Began: Movement Phase. loop is true
Sun Jun 02 13:22:43 IDT 2013	---------- Beginning Movement Phase at round 3 ----------
Sun Jun 02 13:23:28 IDT 2013	A Phase Ended: Movement Phase
Sun Jun 02 13:23:28 IDT 2013	Protocol: A New Phase Began: Feedback Phase. loop is true
Sun Jun 02 13:23:28 IDT 2013	---------- Beginning Feedback Phase at round 3 ----------
Sun Jun 02 13:23:28 IDT 2013	Number of consecutive no movements for player 100 is 0
Sun Jun 02 13:23:28 IDT 2013	TDPlayerPosition is(R:1,C:1)goal location 0(R:0,C:0)goal location 1(R:0,C:8)
Sun Jun 02 13:23:28 IDT 2013	ended is false
Sun Jun 02 13:23:33 IDT 2013	A Phase Ended: Feedback Phase
Sun Jun 02 13:23:33 IDT 2013	 numberofMoves in round 3 is 4
Sun Jun 02 13:23:33 IDT 2013	Swaping roles:
Sun Jun 02 13:23:33 IDT 2013	Protocol: A New Phase Began: Communication Phase. loop is true
Sun Jun 02 13:23:33 IDT 2013	---------- Beginning Communication Phase at round 4 ----------
Sun Jun 02 13:24:00 IDT 2013	Received communication message 
Sun Jun 02 13:24:00 IDT 2013	From player: 100
Sun Jun 02 13:24:00 IDT 2013	To player: 200
Sun Jun 02 13:24:00 IDT 2013	Chips to send by proposer: { chips  'CTRed':0 'CTPurple':0 'CTGreen':0 'grey78':7 'CTYellow':0 }
Sun Jun 02 13:24:00 IDT 2013	Chips to send by responder: { chips  'CTRed':15 'CTPurple':7 'CTGreen':0 'grey78':0 'CTYellow':0 }
Sun Jun 02 13:24:27 IDT 2013	Received communication message 
Sun Jun 02 13:24:27 IDT 2013	Proposer 0 accepted? true
Sun Jun 02 13:24:27 IDT 2013	A Phase Ended: Communication Phase
Sun Jun 02 13:24:27 IDT 2013	Protocol: A New Phase Began: Movement Phase. loop is true
Sun Jun 02 13:24:27 IDT 2013	---------- Beginning Movement Phase at round 4 ----------
Sun Jun 02 13:25:12 IDT 2013	A Phase Ended: Movement Phase
Sun Jun 02 13:25:12 IDT 2013	Protocol: A New Phase Began: Feedback Phase. loop is true
Sun Jun 02 13:25:12 IDT 2013	---------- Beginning Feedback Phase at round 4 ----------
Sun Jun 02 13:25:12 IDT 2013	The TD player reached the goal, end the game
Sun Jun 02 13:25:12 IDT 2013	ended is true
Sun Jun 02 13:25:17 IDT 2013	A Phase Ended: Feedback Phase
Sun Jun 02 13:25:17 IDT 2013	 numberofMoves in round 4 is 8
Sun Jun 02 13:25:17 IDT 2013	Loop status: false
Sun Jun 02 13:25:17 IDT 2013	Player: 300 ,role: Responder score is: 140
Sun Jun 02 13:25:17 IDT 2013	Player: 300Game Ended
Sun Jun 02 13:25:17 IDT 2013	Player: 200 ,role: Responder score is: 275
Sun Jun 02 13:25:17 IDT 2013	Player: 200Game Ended
Sun Jun 02 13:25:17 IDT 2013	Player: 100 ,role: Proposer score is: 330
Sun Jun 02 13:25:17 IDT 2013	Player: 100Game Ended
Sun Jun 02 13:25:17 IDT 2013	Protocol: A New Phase Began: Communication Phase. loop is false
Sun Jun 02 13:25:17 IDT 2013	---------- Beginning Communication Phase at round 4 ----------
