Sun Jun 16 11:21:11 IDT 2013	This is the CT debug logger; svn version 638; sep 27 09
Sun Jun 16 11:21:11 IDT 2013	Sun Jun 16 11:21:11 IDT 2013
Sun Jun 16 11:21:11 IDT 2013	ID Number: 61906
Sun Jun 16 11:21:11 IDT 2013	Creating board
Sun Jun 16 11:21:11 IDT 2013	<colors>
Sun Jun 16 11:21:11 IDT 2013	{ GamePalette  'CTPurple':0 'CTRed':1 'CTGreen':2 'grey78':3 'CTYellow':4 }
Sun Jun 16 11:21:11 IDT 2013	<rows>
Sun Jun 16 11:21:11 IDT 2013	6
Sun Jun 16 11:21:11 IDT 2013	<columns>
Sun Jun 16 11:21:11 IDT 2013	9
Sun Jun 16 11:21:11 IDT 2013	<squaresColors>
Sun Jun 16 11:21:11 IDT 2013	grey78 CTGreen CTGreen CTGreen CTGreen CTGreen CTGreen CTGreen CTYellow 
Sun Jun 16 11:21:11 IDT 2013	grey78 CTPurple CTPurple CTPurple CTPurple CTPurple CTPurple CTPurple CTYellow 
Sun Jun 16 11:21:11 IDT 2013	grey78 grey78 CTGreen CTGreen CTGreen CTGreen CTGreen CTYellow CTYellow 
Sun Jun 16 11:21:11 IDT 2013	CTGreen grey78 grey78 CTPurple CTPurple CTPurple CTYellow CTYellow CTGreen 
Sun Jun 16 11:21:11 IDT 2013	CTGreen CTGreen grey78 grey78 CTGreen CTYellow CTYellow CTGreen CTGreen 
Sun Jun 16 11:21:11 IDT 2013	CTGreen CTGreen CTGreen grey78 CTGreen CTYellow CTGreen CTGreen CTGreen 
Sun Jun 16 11:21:11 IDT 2013	</squareColors>
Sun Jun 16 11:21:11 IDT 2013	<goalPosition>
Sun Jun 16 11:21:11 IDT 2013	Goal position: (R:0,C:0)
Sun Jun 16 11:21:11 IDT 2013	<goalPosition>
Sun Jun 16 11:21:11 IDT 2013	Goal position: (R:0,C:0)
Sun Jun 16 11:21:11 IDT 2013	<firstPlayerPossibleGoal1>
Sun Jun 16 11:21:11 IDT 2013	0.5
Sun Jun 16 11:21:11 IDT 2013	0
Sun Jun 16 11:21:11 IDT 2013	0
Sun Jun 16 11:21:11 IDT 2013	</firstPlayerPossibleGoal1>
Sun Jun 16 11:21:11 IDT 2013	<firstPlayerPossibleGoal2>
Sun Jun 16 11:21:11 IDT 2013	0.5
Sun Jun 16 11:21:11 IDT 2013	0
Sun Jun 16 11:21:11 IDT 2013	8
Sun Jun 16 11:21:11 IDT 2013	</firstPlayerPossibleGoal2>
Sun Jun 16 11:21:11 IDT 2013	<numberOfPlayers>
Sun Jun 16 11:21:11 IDT 2013	3
Sun Jun 16 11:21:11 IDT 2013	<firstPlayerChips>
Sun Jun 16 11:21:11 IDT 2013	Setting chips for player: 100 id:0
Sun Jun 16 11:21:11 IDT 2013	{ chips  'CTRed':0 'CTGreen':0 'CTPurple':0 'grey78':12 'CTYellow':12 }
Sun Jun 16 11:21:11 IDT 2013	Player position: (R:5,C:4)
Sun Jun 16 11:21:11 IDT 2013	Setting chips for player: 200 id:1
Sun Jun 16 11:21:11 IDT 2013	{ chips  'CTRed':33 'CTGreen':0 'CTPurple':7 'grey78':0 'CTYellow':0 }
Sun Jun 16 11:21:11 IDT 2013	Player position: (R:0,C:8)
Sun Jun 16 11:21:11 IDT 2013	Setting chips for player: 300 id:2
Sun Jun 16 11:21:11 IDT 2013	{ chips  'CTRed':33 'CTGreen':0 'CTPurple':7 'grey78':0 'CTYellow':0 }
Sun Jun 16 11:21:11 IDT 2013	Player position: (R:0,C:0)
Sun Jun 16 11:21:11 IDT 2013	Protocol: A New Phase Began: Strategy Prep Phase. loop is true
Sun Jun 16 11:21:11 IDT 2013	---------- Beginning Strategy Prep Phase at round 0 ----------
Sun Jun 16 11:22:11 IDT 2013	A Phase Ended: Strategy Prep Phase
Sun Jun 16 11:22:11 IDT 2013	Protocol: A New Phase Began: Communication Phase. loop is true
Sun Jun 16 11:22:11 IDT 2013	---------- Beginning Communication Phase at round 1 ----------
Sun Jun 16 11:22:51 IDT 2013	Received communication message 
Sun Jun 16 11:22:51 IDT 2013	From player: 300
Sun Jun 16 11:22:51 IDT 2013	To player: 100
Sun Jun 16 11:22:51 IDT 2013	Chips to send by proposer: { chips  'CTRed':16 'CTPurple':0 'CTGreen':0 'grey78':0 'CTYellow':0 }
Sun Jun 16 11:22:51 IDT 2013	Chips to send by responder: { chips  'CTRed':0 'CTPurple':0 'CTGreen':0 'grey78':0 'CTYellow':6 }
Sun Jun 16 11:23:37 IDT 2013	Received communication message 
Sun Jun 16 11:23:37 IDT 2013	From player: 200
Sun Jun 16 11:23:37 IDT 2013	To player: 100
Sun Jun 16 11:23:37 IDT 2013	Chips to send by proposer: { chips  'CTRed':0 'CTPurple':2 'CTGreen':0 'grey78':0 'CTYellow':0 }
Sun Jun 16 11:23:37 IDT 2013	Chips to send by responder: { chips  'CTRed':0 'CTPurple':0 'CTGreen':0 'grey78':0 'CTYellow':2 }
Sun Jun 16 11:24:32 IDT 2013	Received communication message 
Sun Jun 16 11:24:32 IDT 2013	Proposer 0 accepted? true
Sun Jun 16 11:24:32 IDT 2013	A Phase Ended: Communication Phase
Sun Jun 16 11:24:32 IDT 2013	Protocol: A New Phase Began: Movement Phase. loop is true
Sun Jun 16 11:24:32 IDT 2013	---------- Beginning Movement Phase at round 1 ----------
Sun Jun 16 11:24:32 IDT 2013	remove strategy phase. 
Sun Jun 16 11:25:16 IDT 2013	A Phase Ended: Movement Phase
Sun Jun 16 11:25:16 IDT 2013	Protocol: A New Phase Began: Feedback Phase. loop is true
Sun Jun 16 11:25:16 IDT 2013	---------- Beginning Feedback Phase at round 1 ----------
Sun Jun 16 11:25:16 IDT 2013	The TD player reached the goal, end the game
Sun Jun 16 11:25:16 IDT 2013	ended is true
Sun Jun 16 11:25:21 IDT 2013	A Phase Ended: Feedback Phase
Sun Jun 16 11:25:21 IDT 2013	 numberofMoves in round 1 is 9
Sun Jun 16 11:25:21 IDT 2013	Loop status: false
Sun Jun 16 11:25:21 IDT 2013	Player: 300 ,role: Proposer score is: 200
Sun Jun 16 11:25:21 IDT 2013	Player: 300Game Ended
Sun Jun 16 11:25:21 IDT 2013	Player: 200 ,role: Proposer score is: 350
Sun Jun 16 11:25:21 IDT 2013	Player: 200Game Ended
Sun Jun 16 11:25:21 IDT 2013	Player: 100 ,role: Responder score is: 225
Sun Jun 16 11:25:21 IDT 2013	Player: 100Game Ended
Sun Jun 16 11:25:21 IDT 2013	Protocol: A New Phase Began: Communication Phase. loop is false
Sun Jun 16 11:25:22 IDT 2013	---------- Beginning Communication Phase at round 1 ----------
