filename,round,propID,respID,IsPropCustomer,chipsToSend,chipsToReceive,accept,propCurrentScore,respCurrentScore,actualSent,ActualRcvd,propResultingScore,respResultingScore,#ofCustomerMovesInRound,customerRowPositionAfterMovePhase,customerColPositionAfterMovePhase,Player100ChipsAfterMovePhase,Player100ScoreAfterMovePhase,Player200ChipsAfterMovePhase,Player200ScoreAfterMovePhase,Player300ChipsAfterMovePhase,Player300ScoreAfterMovePhase,generosityLevel,ClientReachedGoal
3playersLog_1367319625514.csv,1,200,100,false,{ chips  'CTRed':8 'CTPurple':2 },{ chips  },FALSE,200,120,,,,,0,(R:5,C:4),{ chips  'CTRed':0 'CTGreen':0 'CTPurple':0 'grey78':12 'CTYellow':12 },120,{ chips  'CTRed':33 'CTGreen':0 'CTPurple':7 'grey78':0 'CTYellow':0 },200,{ chips  'CTRed':33 'CTGreen':0 'CTPurple':7 'grey78':0 'CTYellow':0 },200
3playersLog_1367319625514.csv,1,300,100,false,{ chips  'CTRed':26 'CTPurple':3 },{ chips  'CTYellow':10 },FALSE,200,120,,,,,0,(R:5,C:4),{ chips  'CTRed':0 'CTGreen':0 'CTPurple':0 'grey78':12 'CTYellow':12 },120,{ chips  'CTRed':33 'CTGreen':0 'CTPurple':7 'grey78':0 'CTYellow':0 },200,{ chips  'CTRed':33 'CTGreen':0 'CTPurple':7 'grey78':0 'CTYellow':0 },200
3playersLog_1367319625514.csv,2,100,300,true,{ chips  'CTYellow':4 },{ chips  'CTRed':33 'CTPurple':7 },FALSE,120,200,,,,,1,(R:5,C:5),{ chips  'CTRed':0 'CTGreen':0 'CTPurple':0 'grey78':12 'CTYellow':11 },115,{ chips  'CTRed':33 'CTGreen':0 'CTPurple':7 'grey78':0 'CTYellow':0 },200,{ chips  'CTRed':33 'CTGreen':0 'CTPurple':7 'grey78':0 'CTYellow':0 },200
3playersLog_1367319625514.csv,3,200,100,false,{ chips  'CTRed':18 'CTPurple':2 },{ chips  'grey78':2 'CTYellow':1 },FALSE,200,115,,,,,0,(R:5,C:5),{ chips  'CTRed':0 'CTGreen':0 'CTPurple':0 'grey78':12 'CTYellow':11 },115,{ chips  'CTRed':33 'CTGreen':0 'CTPurple':7 'grey78':0 'CTYellow':0 },200,{ chips  'CTRed':33 'CTGreen':0 'CTPurple':7 'grey78':0 'CTYellow':0 },200
3playersLog_1367319625514.csv,3,300,100,false,{ chips  'CTRed':23 'CTPurple':3 },{ chips  'CTYellow':7 },FALSE,200,115,,,,,0,(R:5,C:5),{ chips  'CTRed':0 'CTGreen':0 'CTPurple':0 'grey78':12 'CTYellow':11 },115,{ chips  'CTRed':33 'CTGreen':0 'CTPurple':7 'grey78':0 'CTYellow':0 },200,{ chips  'CTRed':33 'CTGreen':0 'CTPurple':7 'grey78':0 'CTYellow':0 },200
3playersLog_1367319625514.csv,4,100,200,true,{ chips  'grey78':2 },{ chips  'CTRed':31 'CTPurple':4 },FALSE,115,200,,,,,1,(R:4,C:5),{ chips  'CTRed':0 'CTGreen':0 'CTPurple':0 'grey78':12 'CTYellow':10 },110,{ chips  'CTRed':33 'CTGreen':0 'CTPurple':7 'grey78':0 'CTYellow':0 },200,{ chips  'CTRed':33 'CTGreen':0 'CTPurple':7 'grey78':0 'CTYellow':0 },200
3playersLog_1367319625514.csv,5,200,100,false,{ chips  'CTRed':25 'CTPurple':2 },{ chips  'grey78':3 },TRUE,200,110,{ chips  'CTRed':25 'CTPurple':2 'CTGreen':0 'grey78':0 'CTYellow':0 },{ chips  'CTRed':0 'CTPurple':0 'CTGreen':0 'grey78':3 'CTYellow':0 },80,230,1,(R:3,C:5),{ chips  'CTRed':25 'CTGreen':0 'CTPurple':1 'grey78':9 'CTYellow':10 },225,{ chips  'CTRed':8 'CTGreen':0 'CTPurple':5 'grey78':3 'CTYellow':0 },80,{ chips  'CTRed':33 'CTGreen':0 'CTPurple':7 'grey78':0 'CTYellow':0 },200
3playersLog_1367319625514.csv,5,300,100,false,{ chips  'CTRed':31 'CTPurple':3 },{ chips  'grey78':2 'CTYellow':10 },IGNORED,200,230,,,,,1,(R:3,C:5),{ chips  'CTRed':25 'CTGreen':0 'CTPurple':1 'grey78':9 'CTYellow':10 },225,{ chips  'CTRed':8 'CTGreen':0 'CTPurple':5 'grey78':3 'CTYellow':0 },80,{ chips  'CTRed':33 'CTGreen':0 'CTPurple':7 'grey78':0 'CTYellow':0 },200
3playersLog_1367319625514.csv,6,100,300,true,{ chips  'CTYellow':3 },{ chips  'CTRed':25 'CTPurple':7 },FALSE,225,200,,,,,1,(R:3,C:4),{ chips  'CTRed':25 'CTGreen':0 'CTPurple':0 'grey78':9 'CTYellow':10 },220,{ chips  'CTRed':8 'CTGreen':0 'CTPurple':5 'grey78':3 'CTYellow':0 },80,{ chips  'CTRed':33 'CTGreen':0 'CTPurple':7 'grey78':0 'CTYellow':0 },200
3playersLog_1367319625514.csv,7,200,100,false,{ chips  'CTRed':5 },{ chips  'grey78':4 },FALSE,80,305,,,,,1,(R:3,C:3),{ chips  'CTRed':44 'CTGreen':0 'CTPurple':3 'grey78':9 'CTYellow':4 },300,{ chips  'CTRed':8 'CTGreen':0 'CTPurple':5 'grey78':3 'CTYellow':0 },80,{ chips  'CTRed':14 'CTGreen':0 'CTPurple':3 'grey78':0 'CTYellow':6 },115
3playersLog_1367319625514.csv,7,300,100,false,{ chips  'CTRed':19 'CTPurple':4 },{ chips  'CTYellow':6 },TRUE,200,220,{ chips  'CTRed':19 'CTPurple':4 'CTGreen':0 'grey78':0 'CTYellow':0 },{ chips  'CTRed':0 'CTPurple':0 'CTGreen':0 'grey78':0 'CTYellow':6 },115,305,1,(R:3,C:3),{ chips  'CTRed':44 'CTGreen':0 'CTPurple':3 'grey78':9 'CTYellow':4 },300,{ chips  'CTRed':8 'CTGreen':0 'CTPurple':5 'grey78':3 'CTYellow':0 },80,{ chips  'CTRed':14 'CTGreen':0 'CTPurple':3 'grey78':0 'CTYellow':6 },115
3playersLog_1367319625514.csv,8,100,200,true,{ chips  'CTYellow':2 },{ chips  'CTRed':2 'CTPurple':5 },FALSE,300,80,,,,,1,(R:3,C:2),{ chips  'CTRed':44 'CTGreen':0 'CTPurple':3 'grey78':8 'CTYellow':4 },295,{ chips  'CTRed':8 'CTGreen':0 'CTPurple':5 'grey78':3 'CTYellow':0 },80,{ chips  'CTRed':14 'CTGreen':0 'CTPurple':3 'grey78':0 'CTYellow':6 },115
3playersLog_1367319625514.csv,9,200,100,false,{ chips  'CTRed':2 'CTPurple':5 },{ chips  'grey78':4 },TRUE,80,295,{ chips  'CTRed':2 'CTPurple':5 'CTGreen':0 'grey78':0 'CTYellow':0 },{ chips  'CTRed':0 'CTPurple':0 'CTGreen':0 'grey78':4 'CTYellow':0 },65,310,3,(R:1,C:1),{ chips  'CTRed':46 'CTGreen':0 'CTPurple':7 'grey78':2 'CTYellow':4 },295,{ chips  'CTRed':6 'CTGreen':0 'CTPurple':0 'grey78':7 'CTYellow':0 },65,{ chips  'CTRed':14 'CTGreen':0 'CTPurple':3 'grey78':0 'CTYellow':6 },115
3playersLog_1367319625514.csv,9,300,100,false,{ chips  'CTRed':11 },{ chips  'CTPurple':3 'CTYellow':4 },FALSE,115,310,,,,,3,(R:1,C:1),{ chips  'CTRed':46 'CTGreen':0 'CTPurple':7 'grey78':2 'CTYellow':4 },295,{ chips  'CTRed':6 'CTGreen':0 'CTPurple':0 'grey78':7 'CTYellow':0 },65,{ chips  'CTRed':14 'CTGreen':0 'CTPurple':3 'grey78':0 'CTYellow':6 },115
3playersLog_1367319625514.csv,10,100,300,true,{ chips  'CTPurple':1 'CTYellow':2 },{ chips  'CTRed':10 },FALSE,295,115,,,,,3,(R:1,C:4),{ chips  'CTRed':46 'CTGreen':0 'CTPurple':4 'grey78':2 'CTYellow':4 },280,{ chips  'CTRed':6 'CTGreen':0 'CTPurple':0 'grey78':7 'CTYellow':0 },65,{ chips  'CTRed':14 'CTGreen':0 'CTPurple':3 'grey78':0 'CTYellow':6 },115
3playersLog_1367319625514.csv,11,200,100,false,{ chips  'CTRed':6 },{ chips  'grey78':1 },IGNORED,65,330,,,,,5,(R:0,C:0),{ chips  'CTRed':57 'CTGreen':0 'CTPurple':3 'grey78':0 'CTYellow':1 },455,{ chips  'CTRed':6 'CTGreen':0 'CTPurple':0 'grey78':7 'CTYellow':0 },65,{ chips  'CTRed':3 'CTGreen':0 'CTPurple':1 'grey78':0 'CTYellow':9 },215
3playersLog_1367319625514.csv,11,300,100,false,{ chips  'CTRed':11 'CTPurple':2 },{ chips  'CTYellow':3 },TRUE,115,280,{ chips  'CTRed':11 'CTPurple':2 'CTGreen':0 'grey78':0 'CTYellow':0 },{ chips  'CTRed':0 'CTPurple':0 'CTGreen':0 'grey78':0 'CTYellow':3 },65,330,5,(R:0,C:0),{ chips  'CTRed':57 'CTGreen':0 'CTPurple':3 'grey78':0 'CTYellow':1 },455,{ chips  'CTRed':6 'CTGreen':0 'CTPurple':0 'grey78':7 'CTYellow':0 },65,{ chips  'CTRed':3 'CTGreen':0 'CTPurple':1 'grey78':0 'CTYellow':9 },215
3playersLog_1367319625514.csv,,,,,,,,,,,,,,,,,,,,,,,,true
