Thu Sep 12 10:44:39 IDT 2013	This is the CT debug logger; svn version 638; sep 27 09
Thu Sep 12 10:44:39 IDT 2013	Thu Sep 12 10:44:39 IDT 2013
Thu Sep 12 10:44:39 IDT 2013	ID Number: 69270
Thu Sep 12 10:44:39 IDT 2013	Creating board
Thu Sep 12 10:44:39 IDT 2013	<colors>
Thu Sep 12 10:44:39 IDT 2013	{ GamePalette  'CTPurple':0 'CTRed':1 'CTGreen':2 'grey78':3 'CTYellow':4 }
Thu Sep 12 10:44:39 IDT 2013	<rows>
Thu Sep 12 10:44:39 IDT 2013	6
Thu Sep 12 10:44:39 IDT 2013	<columns>
Thu Sep 12 10:44:39 IDT 2013	9
Thu Sep 12 10:44:39 IDT 2013	<squaresColors>
Thu Sep 12 10:44:39 IDT 2013	grey78 CTGreen CTGreen CTGreen CTGreen CTGreen CTGreen CTGreen CTYellow 
Thu Sep 12 10:44:39 IDT 2013	grey78 CTPurple CTPurple CTPurple CTPurple CTPurple CTPurple CTPurple CTYellow 
Thu Sep 12 10:44:39 IDT 2013	grey78 grey78 CTGreen CTGreen CTGreen CTGreen CTGreen CTYellow CTYellow 
Thu Sep 12 10:44:39 IDT 2013	CTGreen grey78 grey78 CTPurple CTPurple CTPurple CTYellow CTYellow CTGreen 
Thu Sep 12 10:44:39 IDT 2013	CTGreen CTGreen grey78 grey78 CTGreen CTYellow CTYellow CTGreen CTGreen 
Thu Sep 12 10:44:39 IDT 2013	CTGreen CTGreen CTGreen grey78 CTGreen CTYellow CTGreen CTGreen CTGreen 
Thu Sep 12 10:44:39 IDT 2013	</squareColors>
Thu Sep 12 10:44:39 IDT 2013	<goalPosition>
Thu Sep 12 10:44:39 IDT 2013	Goal position: (R:0,C:0)
Thu Sep 12 10:44:39 IDT 2013	<goalPosition>
Thu Sep 12 10:44:39 IDT 2013	Goal position: (R:0,C:0)
Thu Sep 12 10:44:39 IDT 2013	<firstPlayerPossibleGoal1>
Thu Sep 12 10:44:39 IDT 2013	0.5
Thu Sep 12 10:44:39 IDT 2013	0
Thu Sep 12 10:44:39 IDT 2013	0
Thu Sep 12 10:44:39 IDT 2013	</firstPlayerPossibleGoal1>
Thu Sep 12 10:44:39 IDT 2013	<firstPlayerPossibleGoal2>
Thu Sep 12 10:44:39 IDT 2013	0.5
Thu Sep 12 10:44:39 IDT 2013	0
Thu Sep 12 10:44:39 IDT 2013	8
Thu Sep 12 10:44:39 IDT 2013	</firstPlayerPossibleGoal2>
Thu Sep 12 10:44:39 IDT 2013	<numberOfPlayers>
Thu Sep 12 10:44:39 IDT 2013	3
Thu Sep 12 10:44:39 IDT 2013	<firstPlayerChips>
Thu Sep 12 10:44:39 IDT 2013	Setting chips for player: 500 id:0
Thu Sep 12 10:44:39 IDT 2013	{ chips  'CTRed':0 'CTGreen':0 'CTPurple':0 'grey78':12 'CTYellow':12 }
Thu Sep 12 10:44:39 IDT 2013	Player position: (R:5,C:4)
Thu Sep 12 10:44:39 IDT 2013	Setting chips for player: 530 id:1
Thu Sep 12 10:44:39 IDT 2013	{ chips  'CTRed':33 'CTGreen':0 'CTPurple':7 'grey78':0 'CTYellow':0 }
Thu Sep 12 10:44:39 IDT 2013	Player position: (R:0,C:8)
Thu Sep 12 10:44:39 IDT 2013	Setting chips for player: 540 id:2
Thu Sep 12 10:44:39 IDT 2013	{ chips  'CTRed':33 'CTGreen':0 'CTPurple':7 'grey78':0 'CTYellow':0 }
Thu Sep 12 10:44:39 IDT 2013	Player position: (R:0,C:0)
Thu Sep 12 10:44:39 IDT 2013	Protocol: A New Phase Began: Strategy Prep Phase. loop is true
Thu Sep 12 10:44:39 IDT 2013	---------- Beginning Strategy Prep Phase at round 0 ----------
Thu Sep 12 10:45:39 IDT 2013	A Phase Ended: Strategy Prep Phase
Thu Sep 12 10:45:39 IDT 2013	Protocol: A New Phase Began: Communication Phase. loop is true
Thu Sep 12 10:45:39 IDT 2013	---------- Beginning Communication Phase at round 1 ----------
Thu Sep 12 10:45:42 IDT 2013	Received communication message 
Thu Sep 12 10:45:42 IDT 2013	From player: 530
Thu Sep 12 10:45:42 IDT 2013	To player: 500
Thu Sep 12 10:45:42 IDT 2013	Chips to send by proposer: { chips  'CTRed':33 'CTPurple':7 'CTYellow':0 }
Thu Sep 12 10:45:42 IDT 2013	Chips to send by responder: { chips  'grey78':11 }
Thu Sep 12 10:46:15 IDT 2013	Received communication message 
Thu Sep 12 10:46:15 IDT 2013	From player: 540
Thu Sep 12 10:46:15 IDT 2013	To player: 500
Thu Sep 12 10:46:15 IDT 2013	Chips to send by proposer: { chips  'CTRed':0 'CTPurple':4 'CTGreen':0 'grey78':0 'CTYellow':0 }
Thu Sep 12 10:46:15 IDT 2013	Chips to send by responder: { chips  'CTRed':0 'CTPurple':0 'CTGreen':0 'grey78':1 'CTYellow':0 }
Thu Sep 12 10:48:35 IDT 2013	Received communication message 
Thu Sep 12 10:48:35 IDT 2013	Proposer 0 accepted? true
Thu Sep 12 10:48:35 IDT 2013	A Phase Ended: Communication Phase
Thu Sep 12 10:48:35 IDT 2013	Protocol: A New Phase Began: Movement Phase. loop is true
Thu Sep 12 10:48:35 IDT 2013	---------- Beginning Movement Phase at round 1 ----------
Thu Sep 12 10:48:35 IDT 2013	remove strategy phase. 
Thu Sep 12 10:49:20 IDT 2013	A Phase Ended: Movement Phase
Thu Sep 12 10:49:20 IDT 2013	Protocol: A New Phase Began: Feedback Phase. loop is true
Thu Sep 12 10:49:20 IDT 2013	---------- Beginning Feedback Phase at round 1 ----------
Thu Sep 12 10:49:20 IDT 2013	Number of consecutive no movements for player 500 is 0
Thu Sep 12 10:49:20 IDT 2013	TDPlayerPosition is(R:5,C:5)goal location 0(R:0,C:0)goal location 1(R:0,C:8)
Thu Sep 12 10:49:20 IDT 2013	ended is false
Thu Sep 12 10:49:25 IDT 2013	A Phase Ended: Feedback Phase
Thu Sep 12 10:49:25 IDT 2013	 numberofMoves in round 1 is 2
Thu Sep 12 10:49:25 IDT 2013	Swaping roles:
Thu Sep 12 10:49:25 IDT 2013	Protocol: A New Phase Began: Communication Phase. loop is true
Thu Sep 12 10:49:25 IDT 2013	---------- Beginning Communication Phase at round 2 ----------
Thu Sep 12 10:51:41 IDT 2013	Received communication message 
Thu Sep 12 10:51:41 IDT 2013	From player: 500
Thu Sep 12 10:51:41 IDT 2013	To player: 540
Thu Sep 12 10:51:41 IDT 2013	Chips to send by proposer: { chips  'CTRed':0 'CTPurple':0 'CTGreen':0 'grey78':0 'CTYellow':4 }
Thu Sep 12 10:51:41 IDT 2013	Chips to send by responder: { chips  'CTRed':10 'CTPurple':3 'CTGreen':0 'grey78':0 'CTYellow':0 }
Thu Sep 12 10:52:19 IDT 2013	Received communication message 
Thu Sep 12 10:52:19 IDT 2013	Proposer 1 accepted? false
Thu Sep 12 10:52:19 IDT 2013	case that we had one reject, and one accept
Thu Sep 12 10:52:19 IDT 2013	A Phase Ended: Communication Phase
Thu Sep 12 10:52:19 IDT 2013	Protocol: A New Phase Began: Movement Phase. loop is true
Thu Sep 12 10:52:19 IDT 2013	---------- Beginning Movement Phase at round 2 ----------
Thu Sep 12 10:53:03 IDT 2013	A Phase Ended: Movement Phase
Thu Sep 12 10:53:03 IDT 2013	Protocol: A New Phase Began: Feedback Phase. loop is true
Thu Sep 12 10:53:03 IDT 2013	---------- Beginning Feedback Phase at round 2 ----------
Thu Sep 12 10:53:03 IDT 2013	Number of consecutive no movements for player 500 is 0
Thu Sep 12 10:53:03 IDT 2013	TDPlayerPosition is(R:3,C:5)goal location 0(R:0,C:0)goal location 1(R:0,C:8)
Thu Sep 12 10:53:03 IDT 2013	ended is false
Thu Sep 12 10:53:08 IDT 2013	A Phase Ended: Feedback Phase
Thu Sep 12 10:53:08 IDT 2013	 numberofMoves in round 2 is 1
Thu Sep 12 10:53:08 IDT 2013	Swaping roles:
Thu Sep 12 10:53:08 IDT 2013	Protocol: A New Phase Began: Communication Phase. loop is true
Thu Sep 12 10:53:08 IDT 2013	---------- Beginning Communication Phase at round 3 ----------
Thu Sep 12 10:53:08 IDT 2013	Received communication message 
Thu Sep 12 10:53:08 IDT 2013	From player: 530
Thu Sep 12 10:53:08 IDT 2013	To player: 500
Thu Sep 12 10:53:08 IDT 2013	Chips to send by proposer: { chips  'CTRed':0 'CTPurple':0 'CTYellow':0 }
Thu Sep 12 10:53:08 IDT 2013	Chips to send by responder: { chips  'grey78':0 }
Thu Sep 12 10:53:15 IDT 2013	Received communication message 
Thu Sep 12 10:53:15 IDT 2013	Proposer 0 accepted? false
Thu Sep 12 10:53:15 IDT 2013	case that we had one reject, and one accept
Thu Sep 12 10:55:13 IDT 2013	Received communication message 
Thu Sep 12 10:55:13 IDT 2013	From player: 540
Thu Sep 12 10:55:13 IDT 2013	To player: 500
Thu Sep 12 10:55:13 IDT 2013	Chips to send by proposer: { chips  'CTRed':17 'CTPurple':5 'CTGreen':0 'grey78':0 'CTYellow':0 }
Thu Sep 12 10:55:13 IDT 2013	Chips to send by responder: { chips  'CTRed':0 'CTPurple':0 'CTGreen':0 'grey78':0 'CTYellow':5 }
Thu Sep 12 10:56:06 IDT 2013	Received communication message 
Thu Sep 12 10:56:06 IDT 2013	Proposer 1 accepted? true
Thu Sep 12 10:56:06 IDT 2013	A Phase Ended: Communication Phase
Thu Sep 12 10:56:06 IDT 2013	Protocol: A New Phase Began: Movement Phase. loop is true
Thu Sep 12 10:56:06 IDT 2013	---------- Beginning Movement Phase at round 3 ----------
Thu Sep 12 10:56:50 IDT 2013	A Phase Ended: Movement Phase
Thu Sep 12 10:56:50 IDT 2013	Protocol: A New Phase Began: Feedback Phase. loop is true
Thu Sep 12 10:56:50 IDT 2013	---------- Beginning Feedback Phase at round 3 ----------
Thu Sep 12 10:56:50 IDT 2013	Number of consecutive no movements for player 500 is 0
Thu Sep 12 10:56:50 IDT 2013	TDPlayerPosition is(R:3,C:4)goal location 0(R:0,C:0)goal location 1(R:0,C:8)
Thu Sep 12 10:56:50 IDT 2013	ended is false
Thu Sep 12 10:56:55 IDT 2013	A Phase Ended: Feedback Phase
Thu Sep 12 10:56:55 IDT 2013	 numberofMoves in round 3 is 1
Thu Sep 12 10:56:55 IDT 2013	Swaping roles:
Thu Sep 12 10:56:55 IDT 2013	Protocol: A New Phase Began: Communication Phase. loop is true
Thu Sep 12 10:56:55 IDT 2013	---------- Beginning Communication Phase at round 4 ----------
Thu Sep 12 10:59:36 IDT 2013	Received communication message 
Thu Sep 12 10:59:36 IDT 2013	From player: 500
Thu Sep 12 10:59:36 IDT 2013	To player: 530
Thu Sep 12 10:59:36 IDT 2013	Chips to send by proposer: { chips  'CTRed':0 'CTPurple':0 'CTGreen':0 'grey78':1 'CTYellow':5 }
Thu Sep 12 10:59:36 IDT 2013	Chips to send by responder: { chips  'CTRed':0 'CTPurple':0 'CTGreen':0 'grey78':6 'CTYellow':0 }
Thu Sep 12 10:59:55 IDT 2013	A Phase Ended: Communication Phase
Thu Sep 12 10:59:55 IDT 2013	Protocol: A New Phase Began: Movement Phase. loop is true
Thu Sep 12 10:59:55 IDT 2013	---------- Beginning Movement Phase at round 4 ----------
Thu Sep 12 11:00:40 IDT 2013	A Phase Ended: Movement Phase
Thu Sep 12 11:00:40 IDT 2013	Protocol: A New Phase Began: Feedback Phase. loop is true
Thu Sep 12 11:00:40 IDT 2013	---------- Beginning Feedback Phase at round 4 ----------
Thu Sep 12 11:00:40 IDT 2013	Number of consecutive no movements for player 500 is 0
Thu Sep 12 11:00:40 IDT 2013	TDPlayerPosition is(R:3,C:3)goal location 0(R:0,C:0)goal location 1(R:0,C:8)
Thu Sep 12 11:00:40 IDT 2013	ended is false
Thu Sep 12 11:00:45 IDT 2013	A Phase Ended: Feedback Phase
Thu Sep 12 11:00:45 IDT 2013	 numberofMoves in round 4 is 1
Thu Sep 12 11:00:45 IDT 2013	Swaping roles:
Thu Sep 12 11:00:45 IDT 2013	Protocol: A New Phase Began: Communication Phase. loop is true
Thu Sep 12 11:00:45 IDT 2013	---------- Beginning Communication Phase at round 5 ----------
Thu Sep 12 11:00:45 IDT 2013	Received communication message 
Thu Sep 12 11:00:45 IDT 2013	From player: 530
Thu Sep 12 11:00:45 IDT 2013	To player: 500
Thu Sep 12 11:00:45 IDT 2013	Chips to send by proposer: { chips  'CTRed':0 'CTPurple':0 'CTYellow':0 }
Thu Sep 12 11:00:45 IDT 2013	Chips to send by responder: { chips  'grey78':0 }
Thu Sep 12 11:01:21 IDT 2013	Received communication message 
Thu Sep 12 11:01:21 IDT 2013	Proposer 0 accepted? false
Thu Sep 12 11:01:21 IDT 2013	case that we had one reject, and one accept
Thu Sep 12 11:03:24 IDT 2013	Received communication message 
Thu Sep 12 11:03:24 IDT 2013	From player: 540
Thu Sep 12 11:03:24 IDT 2013	To player: 500
Thu Sep 12 11:03:24 IDT 2013	Chips to send by proposer: { chips  'CTRed':2 'CTPurple':0 'CTGreen':0 'grey78':0 'CTYellow':0 }
Thu Sep 12 11:03:24 IDT 2013	Chips to send by responder: { chips  'CTRed':0 'CTPurple':0 'CTGreen':0 'grey78':0 'CTYellow':0 }
Thu Sep 12 11:03:41 IDT 2013	Received communication message 
Thu Sep 12 11:03:41 IDT 2013	Proposer 1 accepted? true
Thu Sep 12 11:03:41 IDT 2013	A Phase Ended: Communication Phase
Thu Sep 12 11:03:41 IDT 2013	Protocol: A New Phase Began: Movement Phase. loop is true
Thu Sep 12 11:03:41 IDT 2013	---------- Beginning Movement Phase at round 5 ----------
Thu Sep 12 11:04:25 IDT 2013	A Phase Ended: Movement Phase
Thu Sep 12 11:04:25 IDT 2013	Protocol: A New Phase Began: Feedback Phase. loop is true
Thu Sep 12 11:04:25 IDT 2013	---------- Beginning Feedback Phase at round 5 ----------
Thu Sep 12 11:04:25 IDT 2013	Number of consecutive no movements for player 500 is 1
Thu Sep 12 11:04:25 IDT 2013	TDPlayerPosition is(R:3,C:3)goal location 0(R:0,C:0)goal location 1(R:0,C:8)
Thu Sep 12 11:04:25 IDT 2013	ended is false
Thu Sep 12 11:04:30 IDT 2013	A Phase Ended: Feedback Phase
Thu Sep 12 11:04:30 IDT 2013	 numberofMoves in round 5 is 0
Thu Sep 12 11:04:30 IDT 2013	Swaping roles:
Thu Sep 12 11:04:30 IDT 2013	Protocol: A New Phase Began: Communication Phase. loop is true
Thu Sep 12 11:04:30 IDT 2013	---------- Beginning Communication Phase at round 6 ----------
Thu Sep 12 11:06:51 IDT 2013	Received communication message 
Thu Sep 12 11:06:51 IDT 2013	From player: 500
Thu Sep 12 11:06:51 IDT 2013	To player: 530
Thu Sep 12 11:06:51 IDT 2013	Chips to send by proposer: { chips  'CTRed':15 'CTPurple':0 'CTGreen':0 'grey78':0 'CTYellow':0 }
Thu Sep 12 11:06:51 IDT 2013	Chips to send by responder: { chips  'CTRed':0 'CTPurple':0 'CTGreen':0 'grey78':6 'CTYellow':0 }
Thu Sep 12 11:07:30 IDT 2013	A Phase Ended: Communication Phase
Thu Sep 12 11:07:30 IDT 2013	Protocol: A New Phase Began: Movement Phase. loop is true
Thu Sep 12 11:07:30 IDT 2013	---------- Beginning Movement Phase at round 6 ----------
Thu Sep 12 11:08:15 IDT 2013	A Phase Ended: Movement Phase
Thu Sep 12 11:08:15 IDT 2013	Protocol: A New Phase Began: Feedback Phase. loop is true
Thu Sep 12 11:08:15 IDT 2013	---------- Beginning Feedback Phase at round 6 ----------
Thu Sep 12 11:08:15 IDT 2013	Number of consecutive no movements for player 500 is 0
Thu Sep 12 11:08:15 IDT 2013	TDPlayerPosition is(R:3,C:2)goal location 0(R:0,C:0)goal location 1(R:0,C:8)
Thu Sep 12 11:08:15 IDT 2013	ended is false
Thu Sep 12 11:08:20 IDT 2013	A Phase Ended: Feedback Phase
Thu Sep 12 11:08:20 IDT 2013	 numberofMoves in round 6 is 1
Thu Sep 12 11:08:20 IDT 2013	Swaping roles:
Thu Sep 12 11:08:20 IDT 2013	Protocol: A New Phase Began: Communication Phase. loop is true
Thu Sep 12 11:08:20 IDT 2013	---------- Beginning Communication Phase at round 7 ----------
Thu Sep 12 11:08:20 IDT 2013	Received communication message 
Thu Sep 12 11:08:20 IDT 2013	From player: 530
Thu Sep 12 11:08:20 IDT 2013	To player: 500
Thu Sep 12 11:08:20 IDT 2013	Chips to send by proposer: { chips  'CTRed':0 'CTPurple':0 'CTYellow':0 }
Thu Sep 12 11:08:20 IDT 2013	Chips to send by responder: { chips  'grey78':0 }
Thu Sep 12 11:08:30 IDT 2013	Received communication message 
Thu Sep 12 11:08:30 IDT 2013	Proposer 0 accepted? false
Thu Sep 12 11:08:30 IDT 2013	case that we had one reject, and one accept
Thu Sep 12 11:10:55 IDT 2013	Received communication message 
Thu Sep 12 11:10:55 IDT 2013	From player: 540
Thu Sep 12 11:10:55 IDT 2013	To player: 500
Thu Sep 12 11:10:55 IDT 2013	Chips to send by proposer: { chips  'CTRed':0 'CTPurple':0 'CTGreen':0 'grey78':0 'CTYellow':0 }
Thu Sep 12 11:10:55 IDT 2013	Chips to send by responder: { chips  'CTRed':0 'CTPurple':0 'CTGreen':0 'grey78':0 'CTYellow':0 }
Thu Sep 12 11:11:04 IDT 2013	Received communication message 
Thu Sep 12 11:11:04 IDT 2013	Proposer 1 accepted? false
Thu Sep 12 11:11:04 IDT 2013	case that we had one reject, and one accept
Thu Sep 12 11:11:04 IDT 2013	A Phase Ended: Communication Phase
Thu Sep 12 11:11:04 IDT 2013	Protocol: A New Phase Began: Movement Phase. loop is true
Thu Sep 12 11:11:04 IDT 2013	---------- Beginning Movement Phase at round 7 ----------
Thu Sep 12 11:11:49 IDT 2013	A Phase Ended: Movement Phase
Thu Sep 12 11:11:49 IDT 2013	Protocol: A New Phase Began: Feedback Phase. loop is true
Thu Sep 12 11:11:49 IDT 2013	---------- Beginning Feedback Phase at round 7 ----------
Thu Sep 12 11:11:49 IDT 2013	Number of consecutive no movements for player 500 is 1
Thu Sep 12 11:11:49 IDT 2013	TDPlayerPosition is(R:3,C:2)goal location 0(R:0,C:0)goal location 1(R:0,C:8)
Thu Sep 12 11:11:49 IDT 2013	ended is false
Thu Sep 12 11:11:54 IDT 2013	A Phase Ended: Feedback Phase
Thu Sep 12 11:11:54 IDT 2013	 numberofMoves in round 7 is 0
Thu Sep 12 11:11:54 IDT 2013	Swaping roles:
Thu Sep 12 11:11:54 IDT 2013	Protocol: A New Phase Began: Communication Phase. loop is true
Thu Sep 12 11:11:54 IDT 2013	---------- Beginning Communication Phase at round 8 ----------
Thu Sep 12 11:14:49 IDT 2013	Received communication message 
Thu Sep 12 11:14:49 IDT 2013	From player: 500
Thu Sep 12 11:14:49 IDT 2013	To player: 540
Thu Sep 12 11:14:49 IDT 2013	Chips to send by proposer: { chips  'CTRed':10 'CTPurple':0 'CTGreen':0 'grey78':0 'CTYellow':0 }
Thu Sep 12 11:14:49 IDT 2013	Chips to send by responder: { chips  'CTRed':0 'CTPurple':0 'CTGreen':0 'grey78':0 'CTYellow':5 }
Thu Sep 12 11:14:54 IDT 2013	A Phase Ended: Communication Phase
Thu Sep 12 11:14:54 IDT 2013	Protocol: A New Phase Began: Movement Phase. loop is true
Thu Sep 12 11:14:54 IDT 2013	---------- Beginning Movement Phase at round 8 ----------
Thu Sep 12 11:15:39 IDT 2013	A Phase Ended: Movement Phase
Thu Sep 12 11:15:39 IDT 2013	Protocol: A New Phase Began: Feedback Phase. loop is true
Thu Sep 12 11:15:39 IDT 2013	---------- Beginning Feedback Phase at round 8 ----------
Thu Sep 12 11:15:39 IDT 2013	Number of consecutive no movements for player 500 is 0
Thu Sep 12 11:15:39 IDT 2013	TDPlayerPosition is(R:3,C:3)goal location 0(R:0,C:0)goal location 1(R:0,C:8)
Thu Sep 12 11:15:39 IDT 2013	ended is false
Thu Sep 12 11:15:44 IDT 2013	A Phase Ended: Feedback Phase
Thu Sep 12 11:15:44 IDT 2013	 numberofMoves in round 8 is 1
Thu Sep 12 11:15:44 IDT 2013	Swaping roles:
Thu Sep 12 11:15:44 IDT 2013	Protocol: A New Phase Began: Communication Phase. loop is true
Thu Sep 12 11:15:44 IDT 2013	---------- Beginning Communication Phase at round 9 ----------
Thu Sep 12 11:15:44 IDT 2013	Received communication message 
Thu Sep 12 11:15:44 IDT 2013	From player: 530
Thu Sep 12 11:15:44 IDT 2013	To player: 500
Thu Sep 12 11:15:44 IDT 2013	Chips to send by proposer: { chips  'CTRed':0 'CTPurple':0 'CTYellow':0 }
Thu Sep 12 11:15:44 IDT 2013	Chips to send by responder: { chips  'grey78':0 }
Thu Sep 12 11:15:53 IDT 2013	Received communication message 
Thu Sep 12 11:15:53 IDT 2013	Proposer 0 accepted? false
Thu Sep 12 11:15:53 IDT 2013	case that we had one reject, and one accept
Thu Sep 12 11:18:24 IDT 2013	Received communication message 
Thu Sep 12 11:18:24 IDT 2013	From player: 540
Thu Sep 12 11:18:24 IDT 2013	To player: 500
Thu Sep 12 11:18:24 IDT 2013	Chips to send by proposer: { chips  'CTRed':0 'CTPurple':0 'CTGreen':0 'grey78':0 'CTYellow':0 }
Thu Sep 12 11:18:24 IDT 2013	Chips to send by responder: { chips  'CTRed':0 'CTPurple':0 'CTGreen':0 'grey78':0 'CTYellow':0 }
Thu Sep 12 11:18:31 IDT 2013	Received communication message 
Thu Sep 12 11:18:31 IDT 2013	Proposer 1 accepted? false
Thu Sep 12 11:18:31 IDT 2013	case that we had one reject, and one accept
Thu Sep 12 11:18:31 IDT 2013	A Phase Ended: Communication Phase
Thu Sep 12 11:18:31 IDT 2013	Protocol: A New Phase Began: Movement Phase. loop is true
Thu Sep 12 11:18:31 IDT 2013	---------- Beginning Movement Phase at round 9 ----------
Thu Sep 12 11:19:16 IDT 2013	A Phase Ended: Movement Phase
Thu Sep 12 11:19:16 IDT 2013	Protocol: A New Phase Began: Feedback Phase. loop is true
Thu Sep 12 11:19:16 IDT 2013	---------- Beginning Feedback Phase at round 9 ----------
Thu Sep 12 11:19:16 IDT 2013	Number of consecutive no movements for player 500 is 0
Thu Sep 12 11:19:16 IDT 2013	TDPlayerPosition is(R:3,C:4)goal location 0(R:0,C:0)goal location 1(R:0,C:8)
Thu Sep 12 11:19:16 IDT 2013	ended is false
Thu Sep 12 11:19:21 IDT 2013	A Phase Ended: Feedback Phase
Thu Sep 12 11:19:21 IDT 2013	 numberofMoves in round 9 is 1
Thu Sep 12 11:19:21 IDT 2013	Swaping roles:
Thu Sep 12 11:19:21 IDT 2013	Protocol: A New Phase Began: Communication Phase. loop is true
Thu Sep 12 11:19:21 IDT 2013	---------- Beginning Communication Phase at round 10 ----------
Thu Sep 12 11:20:03 IDT 2013	Received communication message 
Thu Sep 12 11:20:03 IDT 2013	From player: 500
Thu Sep 12 11:20:03 IDT 2013	To player: 530
Thu Sep 12 11:20:03 IDT 2013	Chips to send by proposer: { chips  'CTRed':0 'CTPurple':0 'CTGreen':0 'grey78':0 'CTYellow':0 }
Thu Sep 12 11:20:03 IDT 2013	Chips to send by responder: { chips  'CTRed':0 'CTPurple':0 'CTGreen':0 'grey78':6 'CTYellow':0 }
Thu Sep 12 11:22:21 IDT 2013	A Phase Ended: Communication Phase
Thu Sep 12 11:22:21 IDT 2013	Protocol: A New Phase Began: Movement Phase. loop is true
Thu Sep 12 11:22:21 IDT 2013	---------- Beginning Movement Phase at round 10 ----------
Thu Sep 12 11:23:06 IDT 2013	A Phase Ended: Movement Phase
Thu Sep 12 11:23:06 IDT 2013	Protocol: A New Phase Began: Feedback Phase. loop is true
Thu Sep 12 11:23:06 IDT 2013	---------- Beginning Feedback Phase at round 10 ----------
Thu Sep 12 11:23:06 IDT 2013	Number of consecutive no movements for player 500 is 1
Thu Sep 12 11:23:06 IDT 2013	TDPlayerPosition is(R:3,C:4)goal location 0(R:0,C:0)goal location 1(R:0,C:8)
Thu Sep 12 11:23:06 IDT 2013	ended is false
Thu Sep 12 11:23:11 IDT 2013	A Phase Ended: Feedback Phase
Thu Sep 12 11:23:11 IDT 2013	 numberofMoves in round 10 is 0
Thu Sep 12 11:23:11 IDT 2013	Swaping roles:
Thu Sep 12 11:23:11 IDT 2013	Protocol: A New Phase Began: Communication Phase. loop is true
Thu Sep 12 11:23:11 IDT 2013	---------- Beginning Communication Phase at round 11 ----------
Thu Sep 12 11:23:11 IDT 2013	Received communication message 
Thu Sep 12 11:23:11 IDT 2013	From player: 530
Thu Sep 12 11:23:11 IDT 2013	To player: 500
Thu Sep 12 11:23:11 IDT 2013	Chips to send by proposer: { chips  'CTRed':0 'CTPurple':0 'CTYellow':0 }
Thu Sep 12 11:23:11 IDT 2013	Chips to send by responder: { chips  'grey78':0 }
Thu Sep 12 11:23:33 IDT 2013	Received communication message 
Thu Sep 12 11:23:33 IDT 2013	Proposer 0 accepted? false
Thu Sep 12 11:23:33 IDT 2013	case that we had one reject, and one accept
Thu Sep 12 11:23:34 IDT 2013	Received communication message 
Thu Sep 12 11:23:34 IDT 2013	From player: 540
Thu Sep 12 11:23:34 IDT 2013	To player: 500
Thu Sep 12 11:23:34 IDT 2013	Chips to send by proposer: { chips  'CTRed':0 'CTPurple':0 'CTGreen':0 'grey78':0 'CTYellow':0 }
Thu Sep 12 11:23:34 IDT 2013	Chips to send by responder: { chips  'CTRed':0 'CTPurple':0 'CTGreen':0 'grey78':0 'CTYellow':0 }
Thu Sep 12 11:23:37 IDT 2013	Received communication message 
Thu Sep 12 11:23:37 IDT 2013	Proposer 1 accepted? false
Thu Sep 12 11:23:37 IDT 2013	case that we had one reject, and one accept
Thu Sep 12 11:23:37 IDT 2013	A Phase Ended: Communication Phase
Thu Sep 12 11:23:38 IDT 2013	Protocol: A New Phase Began: Movement Phase. loop is true
Thu Sep 12 11:23:38 IDT 2013	---------- Beginning Movement Phase at round 11 ----------
Thu Sep 12 11:24:22 IDT 2013	A Phase Ended: Movement Phase
Thu Sep 12 11:24:22 IDT 2013	Protocol: A New Phase Began: Feedback Phase. loop is true
Thu Sep 12 11:24:22 IDT 2013	---------- Beginning Feedback Phase at round 11 ----------
Thu Sep 12 11:24:22 IDT 2013	Number of consecutive no movements for player 500 is 0
Thu Sep 12 11:24:22 IDT 2013	TDPlayerPosition is(R:3,C:5)goal location 0(R:0,C:0)goal location 1(R:0,C:8)
Thu Sep 12 11:24:22 IDT 2013	ended is false
Thu Sep 12 11:24:27 IDT 2013	A Phase Ended: Feedback Phase
Thu Sep 12 11:24:27 IDT 2013	 numberofMoves in round 11 is 1
Thu Sep 12 11:24:27 IDT 2013	Swaping roles:
Thu Sep 12 11:24:27 IDT 2013	Protocol: A New Phase Began: Communication Phase. loop is true
Thu Sep 12 11:24:27 IDT 2013	---------- Beginning Communication Phase at round 12 ----------
Thu Sep 12 11:25:03 IDT 2013	Received communication message 
Thu Sep 12 11:25:03 IDT 2013	From player: 500
Thu Sep 12 11:25:03 IDT 2013	To player: 540
Thu Sep 12 11:25:03 IDT 2013	Chips to send by proposer: { chips  'CTRed':0 'CTPurple':0 'CTGreen':0 'grey78':0 'CTYellow':0 }
Thu Sep 12 11:25:03 IDT 2013	Chips to send by responder: { chips  'CTRed':0 'CTPurple':0 'CTGreen':0 'grey78':0 'CTYellow':1 }
Thu Sep 12 11:25:21 IDT 2013	Received communication message 
Thu Sep 12 11:25:21 IDT 2013	Proposer 1 accepted? false
Thu Sep 12 11:25:21 IDT 2013	case that we had one reject, and one accept
Thu Sep 12 11:25:21 IDT 2013	A Phase Ended: Communication Phase
Thu Sep 12 11:25:21 IDT 2013	Protocol: A New Phase Began: Movement Phase. loop is true
Thu Sep 12 11:25:21 IDT 2013	---------- Beginning Movement Phase at round 12 ----------
Thu Sep 12 11:26:06 IDT 2013	A Phase Ended: Movement Phase
Thu Sep 12 11:26:06 IDT 2013	Protocol: A New Phase Began: Feedback Phase. loop is true
Thu Sep 12 11:26:06 IDT 2013	---------- Beginning Feedback Phase at round 12 ----------
Thu Sep 12 11:26:06 IDT 2013	Number of consecutive no movements for player 500 is 0
Thu Sep 12 11:26:06 IDT 2013	TDPlayerPosition is(R:3,C:6)goal location 0(R:0,C:0)goal location 1(R:0,C:8)
Thu Sep 12 11:26:06 IDT 2013	ended is false
Thu Sep 12 11:26:11 IDT 2013	A Phase Ended: Feedback Phase
Thu Sep 12 11:26:11 IDT 2013	 numberofMoves in round 12 is 1
Thu Sep 12 11:26:11 IDT 2013	Swaping roles:
Thu Sep 12 11:26:11 IDT 2013	Protocol: A New Phase Began: Communication Phase. loop is true
Thu Sep 12 11:26:11 IDT 2013	---------- Beginning Communication Phase at round 13 ----------
Thu Sep 12 11:26:11 IDT 2013	Received communication message 
Thu Sep 12 11:26:11 IDT 2013	From player: 530
Thu Sep 12 11:26:11 IDT 2013	To player: 500
Thu Sep 12 11:26:11 IDT 2013	Chips to send by proposer: { chips  'CTRed':0 'CTPurple':0 'CTYellow':0 }
Thu Sep 12 11:26:11 IDT 2013	Chips to send by responder: { chips  'grey78':0 }
Thu Sep 12 11:26:15 IDT 2013	Received communication message 
Thu Sep 12 11:26:15 IDT 2013	Proposer 0 accepted? false
Thu Sep 12 11:26:15 IDT 2013	case that we had one reject, and one accept
Thu Sep 12 11:26:47 IDT 2013	Received communication message 
Thu Sep 12 11:26:47 IDT 2013	From player: 540
Thu Sep 12 11:26:47 IDT 2013	To player: 500
Thu Sep 12 11:26:47 IDT 2013	Chips to send by proposer: { chips  'CTRed':0 'CTPurple':2 'CTGreen':0 'grey78':0 'CTYellow':0 }
Thu Sep 12 11:26:47 IDT 2013	Chips to send by responder: { chips  'CTRed':10 'CTPurple':0 'CTGreen':0 'grey78':0 'CTYellow':0 }
Thu Sep 12 11:27:26 IDT 2013	Received communication message 
Thu Sep 12 11:27:26 IDT 2013	Proposer 1 accepted? false
Thu Sep 12 11:27:26 IDT 2013	case that we had one reject, and one accept
Thu Sep 12 11:27:26 IDT 2013	A Phase Ended: Communication Phase
Thu Sep 12 11:27:26 IDT 2013	Protocol: A New Phase Began: Movement Phase. loop is true
Thu Sep 12 11:27:26 IDT 2013	---------- Beginning Movement Phase at round 13 ----------
Thu Sep 12 11:28:10 IDT 2013	A Phase Ended: Movement Phase
Thu Sep 12 11:28:10 IDT 2013	Protocol: A New Phase Began: Feedback Phase. loop is true
Thu Sep 12 11:28:10 IDT 2013	---------- Beginning Feedback Phase at round 13 ----------
Thu Sep 12 11:28:10 IDT 2013	Number of consecutive no movements for player 500 is 0
Thu Sep 12 11:28:10 IDT 2013	TDPlayerPosition is(R:3,C:7)goal location 0(R:0,C:0)goal location 1(R:0,C:8)
Thu Sep 12 11:28:10 IDT 2013	ended is false
Thu Sep 12 11:28:15 IDT 2013	A Phase Ended: Feedback Phase
Thu Sep 12 11:28:15 IDT 2013	 numberofMoves in round 13 is 1
Thu Sep 12 11:28:15 IDT 2013	Swaping roles:
Thu Sep 12 11:28:15 IDT 2013	Protocol: A New Phase Began: Communication Phase. loop is true
Thu Sep 12 11:28:15 IDT 2013	---------- Beginning Communication Phase at round 14 ----------
Thu Sep 12 11:28:30 IDT 2013	Received communication message 
Thu Sep 12 11:28:30 IDT 2013	From player: 500
Thu Sep 12 11:28:30 IDT 2013	To player: 540
Thu Sep 12 11:28:30 IDT 2013	Chips to send by proposer: { chips  'CTRed':0 'CTPurple':0 'CTGreen':0 'grey78':0 'CTYellow':0 }
Thu Sep 12 11:28:30 IDT 2013	Chips to send by responder: { chips  'CTRed':0 'CTPurple':0 'CTGreen':0 'grey78':0 'CTYellow':1 }
Thu Sep 12 11:28:39 IDT 2013	Received communication message 
Thu Sep 12 11:28:39 IDT 2013	Proposer 1 accepted? false
Thu Sep 12 11:28:39 IDT 2013	case that we had one reject, and one accept
Thu Sep 12 11:28:39 IDT 2013	A Phase Ended: Communication Phase
Thu Sep 12 11:28:39 IDT 2013	Protocol: A New Phase Began: Movement Phase. loop is true
Thu Sep 12 11:28:39 IDT 2013	---------- Beginning Movement Phase at round 14 ----------
Thu Sep 12 11:29:23 IDT 2013	A Phase Ended: Movement Phase
Thu Sep 12 11:29:23 IDT 2013	Protocol: A New Phase Began: Feedback Phase. loop is true
Thu Sep 12 11:29:23 IDT 2013	---------- Beginning Feedback Phase at round 14 ----------
Thu Sep 12 11:29:23 IDT 2013	Number of consecutive no movements for player 500 is 0
Thu Sep 12 11:29:23 IDT 2013	TDPlayerPosition is(R:2,C:7)goal location 0(R:0,C:0)goal location 1(R:0,C:8)
Thu Sep 12 11:29:23 IDT 2013	ended is false
Thu Sep 12 11:29:28 IDT 2013	A Phase Ended: Feedback Phase
Thu Sep 12 11:29:28 IDT 2013	 numberofMoves in round 14 is 1
Thu Sep 12 11:29:28 IDT 2013	Swaping roles:
Thu Sep 12 11:29:28 IDT 2013	Protocol: A New Phase Began: Communication Phase. loop is true
Thu Sep 12 11:29:28 IDT 2013	---------- Beginning Communication Phase at round 15 ----------
Thu Sep 12 11:29:28 IDT 2013	Received communication message 
Thu Sep 12 11:29:28 IDT 2013	From player: 530
Thu Sep 12 11:29:28 IDT 2013	To player: 500
Thu Sep 12 11:29:28 IDT 2013	Chips to send by proposer: { chips  'CTRed':0 'CTPurple':0 'CTYellow':0 }
Thu Sep 12 11:29:28 IDT 2013	Chips to send by responder: { chips  'grey78':0 }
Thu Sep 12 11:29:32 IDT 2013	Received communication message 
Thu Sep 12 11:29:32 IDT 2013	Proposer 0 accepted? false
Thu Sep 12 11:29:32 IDT 2013	case that we had one reject, and one accept
Thu Sep 12 11:29:34 IDT 2013	Received communication message 
Thu Sep 12 11:29:34 IDT 2013	From player: 540
Thu Sep 12 11:29:34 IDT 2013	To player: 500
Thu Sep 12 11:29:34 IDT 2013	Chips to send by proposer: { chips  'CTRed':0 'CTPurple':0 'CTGreen':0 'grey78':0 'CTYellow':0 }
Thu Sep 12 11:29:34 IDT 2013	Chips to send by responder: { chips  'CTRed':0 'CTPurple':0 'CTGreen':0 'grey78':0 'CTYellow':0 }
Thu Sep 12 11:29:38 IDT 2013	Received communication message 
Thu Sep 12 11:29:38 IDT 2013	Proposer 1 accepted? false
Thu Sep 12 11:29:38 IDT 2013	case that we had one reject, and one accept
Thu Sep 12 11:29:38 IDT 2013	A Phase Ended: Communication Phase
Thu Sep 12 11:29:38 IDT 2013	Protocol: A New Phase Began: Movement Phase. loop is true
Thu Sep 12 11:29:38 IDT 2013	---------- Beginning Movement Phase at round 15 ----------
Thu Sep 12 11:30:23 IDT 2013	A Phase Ended: Movement Phase
Thu Sep 12 11:30:23 IDT 2013	Protocol: A New Phase Began: Feedback Phase. loop is true
Thu Sep 12 11:30:23 IDT 2013	---------- Beginning Feedback Phase at round 15 ----------
Thu Sep 12 11:30:23 IDT 2013	Number of consecutive no movements for player 500 is 0
Thu Sep 12 11:30:23 IDT 2013	TDPlayerPosition is(R:2,C:8)goal location 0(R:0,C:0)goal location 1(R:0,C:8)
Thu Sep 12 11:30:23 IDT 2013	ended is false
Thu Sep 12 11:30:28 IDT 2013	A Phase Ended: Feedback Phase
Thu Sep 12 11:30:28 IDT 2013	 numberofMoves in round 15 is 1
Thu Sep 12 11:30:28 IDT 2013	Swaping roles:
Thu Sep 12 11:30:28 IDT 2013	Protocol: A New Phase Began: Communication Phase. loop is true
Thu Sep 12 11:30:28 IDT 2013	---------- Beginning Communication Phase at round 16 ----------
Thu Sep 12 11:30:37 IDT 2013	Received communication message 
Thu Sep 12 11:30:37 IDT 2013	From player: 500
Thu Sep 12 11:30:37 IDT 2013	To player: 540
Thu Sep 12 11:30:37 IDT 2013	Chips to send by proposer: { chips  'CTRed':0 'CTPurple':0 'CTGreen':0 'grey78':0 'CTYellow':0 }
Thu Sep 12 11:30:37 IDT 2013	Chips to send by responder: { chips  'CTRed':0 'CTPurple':0 'CTGreen':0 'grey78':0 'CTYellow':1 }
Thu Sep 12 11:30:55 IDT 2013	Received communication message 
Thu Sep 12 11:30:55 IDT 2013	Proposer 1 accepted? false
Thu Sep 12 11:30:55 IDT 2013	case that we had one reject, and one accept
Thu Sep 12 11:30:55 IDT 2013	A Phase Ended: Communication Phase
Thu Sep 12 11:30:55 IDT 2013	Protocol: A New Phase Began: Movement Phase. loop is true
Thu Sep 12 11:30:55 IDT 2013	---------- Beginning Movement Phase at round 16 ----------
Thu Sep 12 11:31:40 IDT 2013	A Phase Ended: Movement Phase
Thu Sep 12 11:31:40 IDT 2013	Protocol: A New Phase Began: Feedback Phase. loop is true
Thu Sep 12 11:31:40 IDT 2013	---------- Beginning Feedback Phase at round 16 ----------
Thu Sep 12 11:31:40 IDT 2013	Number of consecutive no movements for player 500 is 1
Thu Sep 12 11:31:40 IDT 2013	TDPlayerPosition is(R:2,C:8)goal location 0(R:0,C:0)goal location 1(R:0,C:8)
Thu Sep 12 11:31:40 IDT 2013	ended is false
Thu Sep 12 11:31:45 IDT 2013	A Phase Ended: Feedback Phase
Thu Sep 12 11:31:45 IDT 2013	 numberofMoves in round 16 is 0
Thu Sep 12 11:31:45 IDT 2013	Swaping roles:
Thu Sep 12 11:31:45 IDT 2013	Protocol: A New Phase Began: Communication Phase. loop is true
Thu Sep 12 11:31:45 IDT 2013	---------- Beginning Communication Phase at round 17 ----------
Thu Sep 12 11:31:45 IDT 2013	Received communication message 
Thu Sep 12 11:31:45 IDT 2013	From player: 530
Thu Sep 12 11:31:45 IDT 2013	To player: 500
Thu Sep 12 11:31:45 IDT 2013	Chips to send by proposer: { chips  'grey78':0 }
Thu Sep 12 11:31:45 IDT 2013	Chips to send by responder: { chips  'CTRed':0 'CTPurple':0 }
Thu Sep 12 11:31:49 IDT 2013	Received communication message 
Thu Sep 12 11:31:49 IDT 2013	Proposer 0 accepted? false
Thu Sep 12 11:31:49 IDT 2013	case that we had one reject, and one accept
Thu Sep 12 11:31:57 IDT 2013	Received communication message 
Thu Sep 12 11:31:57 IDT 2013	From player: 540
Thu Sep 12 11:31:57 IDT 2013	To player: 500
Thu Sep 12 11:31:57 IDT 2013	Chips to send by proposer: { chips  'CTRed':0 'CTPurple':0 'CTGreen':0 'grey78':0 'CTYellow':0 }
Thu Sep 12 11:31:57 IDT 2013	Chips to send by responder: { chips  'CTRed':0 'CTPurple':0 'CTGreen':0 'grey78':0 'CTYellow':0 }
Thu Sep 12 11:32:04 IDT 2013	Received communication message 
Thu Sep 12 11:32:04 IDT 2013	Proposer 1 accepted? false
Thu Sep 12 11:32:04 IDT 2013	case that we had one reject, and one accept
Thu Sep 12 11:32:04 IDT 2013	A Phase Ended: Communication Phase
Thu Sep 12 11:32:04 IDT 2013	Protocol: A New Phase Began: Movement Phase. loop is true
Thu Sep 12 11:32:04 IDT 2013	---------- Beginning Movement Phase at round 17 ----------
Thu Sep 12 11:32:49 IDT 2013	A Phase Ended: Movement Phase
Thu Sep 12 11:32:49 IDT 2013	Protocol: A New Phase Began: Feedback Phase. loop is true
Thu Sep 12 11:32:49 IDT 2013	---------- Beginning Feedback Phase at round 17 ----------
Thu Sep 12 11:32:49 IDT 2013	Number of consecutive no movements for player 500 is 0
Thu Sep 12 11:32:49 IDT 2013	TDPlayerPosition is(R:1,C:8)goal location 0(R:0,C:0)goal location 1(R:0,C:8)
Thu Sep 12 11:32:49 IDT 2013	ended is false
Thu Sep 12 11:32:54 IDT 2013	A Phase Ended: Feedback Phase
Thu Sep 12 11:32:54 IDT 2013	 numberofMoves in round 17 is 1
Thu Sep 12 11:32:54 IDT 2013	Swaping roles:
Thu Sep 12 11:32:54 IDT 2013	Protocol: A New Phase Began: Communication Phase. loop is true
Thu Sep 12 11:32:54 IDT 2013	---------- Beginning Communication Phase at round 18 ----------
Thu Sep 12 11:33:04 IDT 2013	Received communication message 
Thu Sep 12 11:33:04 IDT 2013	From player: 500
Thu Sep 12 11:33:04 IDT 2013	To player: 540
Thu Sep 12 11:33:04 IDT 2013	Chips to send by proposer: { chips  'CTRed':0 'CTPurple':0 'CTGreen':0 'grey78':0 'CTYellow':0 }
Thu Sep 12 11:33:04 IDT 2013	Chips to send by responder: { chips  'CTRed':0 'CTPurple':0 'CTGreen':0 'grey78':0 'CTYellow':1 }
Thu Sep 12 11:33:08 IDT 2013	Received communication message 
Thu Sep 12 11:33:08 IDT 2013	Proposer 1 accepted? false
Thu Sep 12 11:33:08 IDT 2013	case that we had one reject, and one accept
Thu Sep 12 11:33:08 IDT 2013	A Phase Ended: Communication Phase
Thu Sep 12 11:33:08 IDT 2013	Protocol: A New Phase Began: Movement Phase. loop is true
Thu Sep 12 11:33:08 IDT 2013	---------- Beginning Movement Phase at round 18 ----------
Thu Sep 12 11:33:53 IDT 2013	A Phase Ended: Movement Phase
Thu Sep 12 11:33:53 IDT 2013	Protocol: A New Phase Began: Feedback Phase. loop is true
Thu Sep 12 11:33:53 IDT 2013	---------- Beginning Feedback Phase at round 18 ----------
Thu Sep 12 11:33:53 IDT 2013	Number of consecutive no movements for player 500 is 1
Thu Sep 12 11:33:53 IDT 2013	TDPlayerPosition is(R:1,C:8)goal location 0(R:0,C:0)goal location 1(R:0,C:8)
Thu Sep 12 11:33:53 IDT 2013	ended is false
Thu Sep 12 11:33:58 IDT 2013	A Phase Ended: Feedback Phase
Thu Sep 12 11:33:58 IDT 2013	 numberofMoves in round 18 is 0
Thu Sep 12 11:33:58 IDT 2013	Swaping roles:
Thu Sep 12 11:33:58 IDT 2013	Protocol: A New Phase Began: Communication Phase. loop is true
Thu Sep 12 11:33:58 IDT 2013	---------- Beginning Communication Phase at round 19 ----------
Thu Sep 12 11:33:58 IDT 2013	Received communication message 
Thu Sep 12 11:33:58 IDT 2013	From player: 530
Thu Sep 12 11:33:58 IDT 2013	To player: 500
Thu Sep 12 11:33:58 IDT 2013	Chips to send by proposer: { chips  'grey78':0 }
Thu Sep 12 11:33:58 IDT 2013	Chips to send by responder: { chips  'CTRed':0 'CTPurple':0 }
Thu Sep 12 11:34:05 IDT 2013	Received communication message 
Thu Sep 12 11:34:05 IDT 2013	From player: 540
Thu Sep 12 11:34:05 IDT 2013	To player: 500
Thu Sep 12 11:34:05 IDT 2013	Chips to send by proposer: { chips  'CTRed':0 'CTPurple':0 'CTGreen':0 'grey78':0 'CTYellow':0 }
Thu Sep 12 11:34:05 IDT 2013	Chips to send by responder: { chips  'CTRed':0 'CTPurple':0 'CTGreen':0 'grey78':0 'CTYellow':0 }
Thu Sep 12 11:34:08 IDT 2013	Received communication message 
Thu Sep 12 11:34:08 IDT 2013	Proposer 1 accepted? false
Thu Sep 12 11:34:08 IDT 2013	case that we had one reject, and one accept
Thu Sep 12 11:34:09 IDT 2013	Received communication message 
Thu Sep 12 11:34:09 IDT 2013	Proposer 0 accepted? false
Thu Sep 12 11:34:09 IDT 2013	case that we had one reject, and one accept
Thu Sep 12 11:34:09 IDT 2013	A Phase Ended: Communication Phase
Thu Sep 12 11:34:09 IDT 2013	Protocol: A New Phase Began: Movement Phase. loop is true
Thu Sep 12 11:34:09 IDT 2013	---------- Beginning Movement Phase at round 19 ----------
Thu Sep 12 11:34:54 IDT 2013	A Phase Ended: Movement Phase
Thu Sep 12 11:34:54 IDT 2013	Protocol: A New Phase Began: Feedback Phase. loop is true
Thu Sep 12 11:34:54 IDT 2013	---------- Beginning Feedback Phase at round 19 ----------
Thu Sep 12 11:34:54 IDT 2013	ended is true
Thu Sep 12 11:34:59 IDT 2013	A Phase Ended: Feedback Phase
Thu Sep 12 11:34:59 IDT 2013	 numberofMoves in round 19 is 0
Thu Sep 12 11:34:59 IDT 2013	Loop status: false
Thu Sep 12 11:34:59 IDT 2013	Player: 500 ,role: Responder score is: 290
Thu Sep 12 11:34:59 IDT 2013	Player: 500Game Ended
Thu Sep 12 11:34:59 IDT 2013	Player: 540 ,role: Proposer score is: 105
Thu Sep 12 11:34:59 IDT 2013	Player: 540Game Ended
Thu Sep 12 11:34:59 IDT 2013	Player: 530 ,role: Proposer score is: 55
Thu Sep 12 11:34:59 IDT 2013	Player: 530Game Ended
Thu Sep 12 11:34:59 IDT 2013	Protocol: A New Phase Began: Communication Phase. loop is false
Thu Sep 12 11:34:59 IDT 2013	---------- Beginning Communication Phase at round 19 ----------
Thu Sep 12 11:37:59 IDT 2013	A Phase Ended: Communication Phase
Thu Sep 12 11:37:59 IDT 2013	Protocol: A New Phase Began: Movement Phase. loop is false
Thu Sep 12 11:37:59 IDT 2013	---------- Beginning Movement Phase at round 19 ----------
Thu Sep 12 11:38:44 IDT 2013	A Phase Ended: Movement Phase
Thu Sep 12 11:38:44 IDT 2013	Protocol: A New Phase Began: Feedback Phase. loop is false
Thu Sep 12 11:38:44 IDT 2013	---------- Beginning Feedback Phase at round 19 ----------
Thu Sep 12 11:38:44 IDT 2013	ended is true
Thu Sep 12 11:38:49 IDT 2013	A Phase Ended: Feedback Phase
Thu Sep 12 11:38:49 IDT 2013	 numberofMoves in round 19 is 0
Thu Sep 12 11:38:49 IDT 2013	Loop status: false
Thu Sep 12 11:38:49 IDT 2013	Player: 500 ,role: GameEnded score is: 290
Thu Sep 12 11:38:49 IDT 2013	Player: 500Game Ended
Thu Sep 12 11:38:49 IDT 2013	Player: 540 ,role: GameEnded score is: 105
Thu Sep 12 11:38:49 IDT 2013	Player: 540Game Ended
Thu Sep 12 11:38:49 IDT 2013	Player: 530 ,role: GameEnded score is: 55
Thu Sep 12 11:38:49 IDT 2013	Player: 530Game Ended
