filename,round,propID,respID,IsPropCustomer,chipsToSend,chipsToReceive,accept,propCurrentScore,respCurrentScore,actualSent,ActualRcvd,propResultingScore,respResultingScore,#ofCustomerMovesInRound,customerRowPositionAfterMovePhase,customerColPositionAfterMovePhase,Player100ChipsAfterMovePhase,Player100ScoreAfterMovePhase,Player200ChipsAfterMovePhase,Player200ScoreAfterMovePhase,Player300ChipsAfterMovePhase,Player300ScoreAfterMovePhase,generosityLevel,ClientReachedGoal
3playersLog_1378215800276.csv,1,540,510,false,{ chips  'CTPurple':3 },{ chips  'CTYellow':3 },IGNORED,200,120,,,,,0,(R:5,C:4),{ chips  'CTRed':0 'CTGreen':0 'CTPurple':0 'grey78':12 'CTYellow':12 },120,{ chips  'CTRed':33 'CTGreen':0 'CTPurple':7 'grey78':0 'CTYellow':0 },200,{ chips  'CTRed':33 'CTGreen':0 'CTPurple':7 'grey78':0 'CTYellow':0 },200
3playersLog_1378215800276.csv,2,510,520,true,{ chips  'grey78':11 },{ chips  'CTRed':33 'CTPurple':7 },FALSE,120,200,,,,,1,(R:5,C:5),{ chips  'CTRed':0 'CTGreen':0 'CTPurple':0 'grey78':12 'CTYellow':11 },115,{ chips  'CTRed':33 'CTGreen':0 'CTPurple':7 'grey78':0 'CTYellow':0 },200,{ chips  'CTRed':33 'CTGreen':0 'CTPurple':7 'grey78':0 'CTYellow':0 },200
3playersLog_1378215800276.csv,3,520,510,false,{ chips  'CTRed':10 },{ chips  'grey78':3 },TRUE,200,115,{ chips  'CTRed':10 'CTPurple':0 'CTGreen':0 'grey78':0 'CTYellow':0 },{ chips  'CTRed':0 'CTPurple':0 'CTGreen':0 'grey78':3 'CTYellow':0 },165,150,0,(R:5,C:5),{ chips  'CTRed':10 'CTGreen':0 'CTPurple':0 'grey78':9 'CTYellow':11 },150,{ chips  'CTRed':23 'CTGreen':0 'CTPurple':7 'grey78':3 'CTYellow':0 },165,{ chips  'CTRed':33 'CTGreen':0 'CTPurple':7 'grey78':0 'CTYellow':0 },200
3playersLog_1378215800276.csv,3,540,510,false,{ chips  'CTPurple':4 },{ chips  'CTYellow':6 },IGNORED,200,115,,,,,0,(R:5,C:5),{ chips  'CTRed':10 'CTGreen':0 'CTPurple':0 'grey78':9 'CTYellow':11 },150,{ chips  'CTRed':23 'CTGreen':0 'CTPurple':7 'grey78':3 'CTYellow':0 },165,{ chips  'CTRed':33 'CTGreen':0 'CTPurple':7 'grey78':0 'CTYellow':0 },200
3playersLog_1378215800276.csv,4,510,520,true,{ chips  'grey78':8 },{ chips  'CTRed':23 'CTPurple':7 },FALSE,150,165,,,,,1,(R:4,C:5),{ chips  'CTRed':10 'CTGreen':0 'CTPurple':0 'grey78':9 'CTYellow':10 },145,{ chips  'CTRed':23 'CTGreen':0 'CTPurple':7 'grey78':3 'CTYellow':0 },165,{ chips  'CTRed':33 'CTGreen':0 'CTPurple':7 'grey78':0 'CTYellow':0 },200
3playersLog_1378215800276.csv,5,520,510,false,{ chips  'CTRed':10 },{ chips  'grey78':5 },TRUE,165,145,{ chips  'CTRed':10 'CTPurple':0 'CTGreen':0 'grey78':0 'CTYellow':0 },{ chips  'CTRed':0 'CTPurple':0 'CTGreen':0 'grey78':5 'CTYellow':0 },140,170,0,(R:4,C:5),{ chips  'CTRed':20 'CTGreen':0 'CTPurple':0 'grey78':4 'CTYellow':10 },170,{ chips  'CTRed':13 'CTGreen':0 'CTPurple':7 'grey78':8 'CTYellow':0 },140,{ chips  'CTRed':33 'CTGreen':0 'CTPurple':7 'grey78':0 'CTYellow':0 },200
3playersLog_1378215800276.csv,5,540,510,false,{ chips  'CTPurple':4 },{ chips  'CTRed':10 'CTYellow':3 },IGNORED,200,145,,,,,0,(R:4,C:5),{ chips  'CTRed':20 'CTGreen':0 'CTPurple':0 'grey78':4 'CTYellow':10 },170,{ chips  'CTRed':13 'CTGreen':0 'CTPurple':7 'grey78':8 'CTYellow':0 },140,{ chips  'CTRed':33 'CTGreen':0 'CTPurple':7 'grey78':0 'CTYellow':0 },200
3playersLog_1378215800276.csv,6,510,520,true,{ chips  'grey78':3 },{ chips  'CTRed':13 'CTPurple':7 },FALSE,170,140,,,,,1,(R:4,C:6),{ chips  'CTRed':20 'CTGreen':0 'CTPurple':0 'grey78':4 'CTYellow':9 },165,{ chips  'CTRed':13 'CTGreen':0 'CTPurple':7 'grey78':8 'CTYellow':0 },140,{ chips  'CTRed':33 'CTGreen':0 'CTPurple':7 'grey78':0 'CTYellow':0 },200
3playersLog_1378215800276.csv,7,520,510,false,{ chips  'CTRed':1 },{ chips  'grey78':1 },IGNORED,140,165,,,,,0,(R:4,C:6),{ chips  'CTRed':40 'CTGreen':0 'CTPurple':6 'grey78':3 'CTYellow':5 },270,{ chips  'CTRed':13 'CTGreen':0 'CTPurple':7 'grey78':8 'CTYellow':0 },140,{ chips  'CTRed':13 'CTGreen':0 'CTPurple':1 'grey78':1 'CTYellow':4 },95
3playersLog_1378215800276.csv,7,540,510,false,{ chips  'CTRed':20 'CTPurple':6 },{ chips  'grey78':1 'CTYellow':4 },TRUE,200,165,{ chips  'CTRed':20 'CTPurple':6 'CTGreen':0 'grey78':0 'CTYellow':0 },{ chips  'CTRed':0 'CTPurple':0 'CTGreen':0 'grey78':1 'CTYellow':4 },95,270,0,(R:4,C:6),{ chips  'CTRed':40 'CTGreen':0 'CTPurple':6 'grey78':3 'CTYellow':5 },270,{ chips  'CTRed':13 'CTGreen':0 'CTPurple':7 'grey78':8 'CTYellow':0 },140,{ chips  'CTRed':13 'CTGreen':0 'CTPurple':1 'grey78':1 'CTYellow':4 },95
3playersLog_1378215800276.csv,8,510,520,true,{ chips  'grey78':3 },{ chips  'CTRed':13 'CTPurple':7 },FALSE,270,140,,,,,1,(R:3,C:6),{ chips  'CTRed':40 'CTGreen':0 'CTPurple':6 'grey78':3 'CTYellow':4 },265,{ chips  'CTRed':13 'CTGreen':0 'CTPurple':7 'grey78':8 'CTYellow':0 },140,{ chips  'CTRed':13 'CTGreen':0 'CTPurple':1 'grey78':1 'CTYellow':4 },95
3playersLog_1378215800276.csv,9,540,510,false,{ chips  'CTRed':8 'grey78':1 },{ chips  'CTYellow':3 },IGNORED,95,265,,,,,0,(R:3,C:6),{ chips  'CTRed':40 'CTGreen':0 'CTPurple':6 'grey78':3 'CTYellow':4 },265,{ chips  'CTRed':13 'CTGreen':0 'CTPurple':7 'grey78':8 'CTYellow':0 },140,{ chips  'CTRed':13 'CTGreen':0 'CTPurple':1 'grey78':1 'CTYellow':4 },95
3playersLog_1378215800276.csv,10,510,520,true,{ chips  'grey78':3 },{ chips  'CTRed':13 'CTPurple':7 },FALSE,265,140,,,,,1,(R:3,C:7),{ chips  'CTRed':40 'CTGreen':0 'CTPurple':6 'grey78':3 'CTYellow':3 },260,{ chips  'CTRed':13 'CTGreen':0 'CTPurple':7 'grey78':8 'CTYellow':0 },140,{ chips  'CTRed':13 'CTGreen':0 'CTPurple':1 'grey78':1 'CTYellow':4 },95
3playersLog_1378215800276.csv,11,520,510,false,{ chips  },{ chips  },IGNORED,140,260,,,,,10,(R:0,C:0),{ chips  'CTRed':50 'CTGreen':0 'CTPurple':0 'grey78':2 'CTYellow':0 },410,{ chips  'CTRed':13 'CTGreen':0 'CTPurple':7 'grey78':8 'CTYellow':0 },140,{ chips  'CTRed':3 'CTGreen':0 'CTPurple':0 'grey78':0 'CTYellow':6 },195
3playersLog_1378215800276.csv,11,540,510,false,{ chips  'CTRed':10 'CTPurple':1 'grey78':1 },{ chips  'CTYellow':2 },TRUE,95,260,{ chips  'CTRed':10 'CTPurple':1 'CTGreen':0 'grey78':1 'CTYellow':0 },{ chips  'CTRed':0 'CTPurple':0 'CTGreen':0 'grey78':0 'CTYellow':2 },45,310,10,(R:0,C:0),{ chips  'CTRed':50 'CTGreen':0 'CTPurple':0 'grey78':2 'CTYellow':0 },410,{ chips  'CTRed':13 'CTGreen':0 'CTPurple':7 'grey78':8 'CTYellow':0 },140,{ chips  'CTRed':3 'CTGreen':0 'CTPurple':0 'grey78':0 'CTYellow':6 },195
3playersLog_1378215800276.csv,,,,,,,,,,,,,,,,,,,,,,,,true
