filename,round,propID,respID,IsPropCustomer,chipsToSend,chipsToReceive,accept,propCurrentScore,respCurrentScore,actualSent,ActualRcvd,propResultingScore,respResultingScore,#ofCustomerMovesInRound,customerRowPositionAfterMovePhase,customerColPositionAfterMovePhase,Player100ChipsAfterMovePhase,Player100ScoreAfterMovePhase,Player200ChipsAfterMovePhase,Player200ScoreAfterMovePhase,Player300ChipsAfterMovePhase,Player300ScoreAfterMovePhase,generosityLevel,ClientReachedGoal
3playersLog_1378200529121.csv,1,520,510,false,{ chips  'CTPurple':1 },{ chips  'grey78':1 },IGNORED,200,120,,,,,0,(R:5,C:4),{ chips  'CTRed':5 'CTGreen':0 'CTPurple':0 'grey78':12 'CTYellow':12 },145,{ chips  'CTRed':33 'CTGreen':0 'CTPurple':7 'grey78':0 'CTYellow':0 },200,{ chips  'CTRed':28 'CTGreen':0 'CTPurple':7 'grey78':0 'CTYellow':0 },175
3playersLog_1378200529121.csv,1,540,510,false,{ chips  'CTRed':5 },{ chips  },TRUE,200,120,{ chips  'CTRed':5 'CTPurple':0 'CTGreen':0 'grey78':0 'CTYellow':0 },{ chips  'CTRed':0 'CTPurple':0 'CTGreen':0 'grey78':0 'CTYellow':0 },175,145,0,(R:5,C:4),{ chips  'CTRed':5 'CTGreen':0 'CTPurple':0 'grey78':12 'CTYellow':12 },145,{ chips  'CTRed':33 'CTGreen':0 'CTPurple':7 'grey78':0 'CTYellow':0 },200,{ chips  'CTRed':28 'CTGreen':0 'CTPurple':7 'grey78':0 'CTYellow':0 },175
3playersLog_1378200529121.csv,2,510,540,true,{ chips  'CTYellow':11 },{ chips  'CTRed':28 'CTPurple':7 },FALSE,145,175,,,,,1,(R:5,C:3),{ chips  'CTRed':5 'CTGreen':0 'CTPurple':0 'grey78':11 'CTYellow':12 },140,{ chips  'CTRed':33 'CTGreen':0 'CTPurple':7 'grey78':0 'CTYellow':0 },200,{ chips  'CTRed':28 'CTGreen':0 'CTPurple':7 'grey78':0 'CTYellow':0 },175
3playersLog_1378200529121.csv,3,520,510,false,{ chips  'CTPurple':3 },{ chips  'grey78':1 },IGNORED,200,140,,,,,0,(R:5,C:3),{ chips  'CTRed':16 'CTGreen':0 'CTPurple':0 'grey78':11 'CTYellow':5 },160,{ chips  'CTRed':33 'CTGreen':0 'CTPurple':7 'grey78':0 'CTYellow':0 },200,{ chips  'CTRed':17 'CTGreen':0 'CTPurple':7 'grey78':0 'CTYellow':7 },155
3playersLog_1378200529121.csv,3,540,510,false,{ chips  'CTRed':11 },{ chips  'CTYellow':7 },TRUE,175,140,{ chips  'CTRed':11 'CTPurple':0 'CTGreen':0 'grey78':0 'CTYellow':0 },{ chips  'CTRed':0 'CTPurple':0 'CTGreen':0 'grey78':0 'CTYellow':7 },155,160,0,(R:5,C:3),{ chips  'CTRed':16 'CTGreen':0 'CTPurple':0 'grey78':11 'CTYellow':5 },160,{ chips  'CTRed':33 'CTGreen':0 'CTPurple':7 'grey78':0 'CTYellow':0 },200,{ chips  'CTRed':17 'CTGreen':0 'CTPurple':7 'grey78':0 'CTYellow':7 },155
3playersLog_1378200529121.csv,4,510,540,true,{ chips  'CTYellow':4 },{ chips  'CTRed':17 'CTPurple':7 },FALSE,160,155,,,,,1,(R:4,C:3),{ chips  'CTRed':16 'CTGreen':0 'CTPurple':0 'grey78':10 'CTYellow':5 },155,{ chips  'CTRed':33 'CTGreen':0 'CTPurple':7 'grey78':0 'CTYellow':0 },200,{ chips  'CTRed':17 'CTGreen':0 'CTPurple':7 'grey78':0 'CTYellow':7 },155
3playersLog_1378200529121.csv,5,520,510,false,{ chips  'CTRed':10 'CTPurple':4 },{ chips  'grey78':4 },IGNORED,200,155,,,,,0,(R:4,C:3),{ chips  'CTRed':16 'CTGreen':0 'CTPurple':0 'grey78':10 'CTYellow':5 },155,{ chips  'CTRed':33 'CTGreen':0 'CTPurple':7 'grey78':0 'CTYellow':0 },200,{ chips  'CTRed':17 'CTGreen':0 'CTPurple':7 'grey78':0 'CTYellow':7 },155
3playersLog_1378200529121.csv,5,540,510,false,{ chips  'CTRed':7 },{ chips  'CTYellow':5 },IGNORED,155,155,,,,,0,(R:4,C:3),{ chips  'CTRed':16 'CTGreen':0 'CTPurple':0 'grey78':10 'CTYellow':5 },155,{ chips  'CTRed':33 'CTGreen':0 'CTPurple':7 'grey78':0 'CTYellow':0 },200,{ chips  'CTRed':17 'CTGreen':0 'CTPurple':7 'grey78':0 'CTYellow':7 },155
3playersLog_1378200529121.csv,6,510,540,true,{ chips  'CTYellow':4 },{ chips  'CTRed':17 'CTPurple':7 },FALSE,155,155,,,,,1,(R:4,C:2),{ chips  'CTRed':16 'CTGreen':0 'CTPurple':0 'grey78':9 'CTYellow':5 },150,{ chips  'CTRed':33 'CTGreen':0 'CTPurple':7 'grey78':0 'CTYellow':0 },200,{ chips  'CTRed':17 'CTGreen':0 'CTPurple':7 'grey78':0 'CTYellow':7 },155
3playersLog_1378200529121.csv,7,520,510,false,{ chips  'CTRed':13 'CTPurple':7 },{ chips  'grey78':4 },TRUE,200,150,{ chips  'CTRed':13 'CTPurple':7 'CTGreen':0 'grey78':0 'CTYellow':0 },{ chips  'CTRed':0 'CTPurple':0 'CTGreen':0 'grey78':4 'CTYellow':0 },120,230,0,(R:4,C:2),{ chips  'CTRed':29 'CTGreen':0 'CTPurple':7 'grey78':5 'CTYellow':5 },230,{ chips  'CTRed':20 'CTGreen':0 'CTPurple':0 'grey78':4 'CTYellow':0 },120,{ chips  'CTRed':17 'CTGreen':0 'CTPurple':7 'grey78':0 'CTYellow':7 },155
3playersLog_1378200529121.csv,7,540,510,false,{ chips  'CTRed':6 },{ chips  'CTYellow':5 },IGNORED,155,150,,,,,0,(R:4,C:2),{ chips  'CTRed':29 'CTGreen':0 'CTPurple':7 'grey78':5 'CTYellow':5 },230,{ chips  'CTRed':20 'CTGreen':0 'CTPurple':0 'grey78':4 'CTYellow':0 },120,{ chips  'CTRed':17 'CTGreen':0 'CTPurple':7 'grey78':0 'CTYellow':7 },155
3playersLog_1378200529121.csv,8,510,540,true,{ chips  'CTYellow':4 },{ chips  'CTRed':17 'CTPurple':7 },FALSE,230,155,,,,,1,(R:3,C:2),{ chips  'CTRed':29 'CTGreen':0 'CTPurple':7 'grey78':4 'CTYellow':5 },225,{ chips  'CTRed':20 'CTGreen':0 'CTPurple':0 'grey78':4 'CTYellow':0 },120,{ chips  'CTRed':17 'CTGreen':0 'CTPurple':7 'grey78':0 'CTYellow':7 },155
3playersLog_1378200529121.csv,9,520,510,false,{ chips  'CTRed':8 },{ chips  'CTPurple':1 },IGNORED,120,225,,,,,2,(R:2,C:1),{ chips  'CTRed':46 'CTGreen':0 'CTPurple':0 'grey78':2 'CTYellow':1 },245,{ chips  'CTRed':20 'CTGreen':0 'CTPurple':0 'grey78':4 'CTYellow':0 },120,{ chips  'CTRed':0 'CTGreen':0 'CTPurple':14 'grey78':0 'CTYellow':11 },125
3playersLog_1378200529121.csv,9,540,510,false,{ chips  'CTRed':17 },{ chips  'CTPurple':7 'CTYellow':4 },TRUE,155,225,{ chips  'CTRed':17 'CTPurple':0 'CTGreen':0 'grey78':0 'CTYellow':0 },{ chips  'CTRed':0 'CTPurple':7 'CTGreen':0 'grey78':0 'CTYellow':4 },125,255,2,(R:2,C:1),{ chips  'CTRed':46 'CTGreen':0 'CTPurple':0 'grey78':2 'CTYellow':1 },245,{ chips  'CTRed':20 'CTGreen':0 'CTPurple':0 'grey78':4 'CTYellow':0 },120,{ chips  'CTRed':0 'CTGreen':0 'CTPurple':14 'grey78':0 'CTYellow':11 },125
3playersLog_1378200529121.csv,10,510,540,true,{ chips  },{ chips  'CTPurple':14 },FALSE,245,125,,,,,0,(R:2,C:1),{ chips  'CTRed':46 'CTGreen':0 'CTPurple':0 'grey78':2 'CTYellow':1 },245,{ chips  'CTRed':20 'CTGreen':0 'CTPurple':0 'grey78':4 'CTYellow':0 },120,{ chips  'CTRed':0 'CTGreen':0 'CTPurple':14 'grey78':0 'CTYellow':11 },125
3playersLog_1378200529121.csv,11,540,510,false,{ chips  'CTPurple':5 },{ chips  'CTRed':3 },IGNORED,125,245,,,,,0,(R:2,C:1),{ chips  'CTRed':46 'CTGreen':0 'CTPurple':0 'grey78':2 'CTYellow':1 },245,{ chips  'CTRed':20 'CTGreen':0 'CTPurple':0 'grey78':4 'CTYellow':0 },120,{ chips  'CTRed':0 'CTGreen':0 'CTPurple':14 'grey78':0 'CTYellow':11 },125
3playersLog_1378200529121.csv,,,,,,,,,,,,,,,,,,,,,,,,false
filename,round,propID,respID,IsPropCustomer,chipsToSend,chipsToReceive,accept,propCurrentScore,respCurrentScore,actualSent,ActualRcvd,propResultingScore,respResultingScore,#ofCustomerMovesInRound,customerRowPositionAfterMovePhase,customerColPositionAfterMovePhase,Player100ChipsAfterMovePhase,Player100ScoreAfterMovePhase,Player200ChipsAfterMovePhase,Player200ScoreAfterMovePhase,Player300ChipsAfterMovePhase,Player300ScoreAfterMovePhase,generosityLevel,ClientReachedGoal
3playersLog_1378200535753.csv,1,520,510,false,{ chips  'CTRed':7 'CTPurple':1 },{ chips  'grey78':3 },TRUE,200,120,{ chips  'CTRed':7 'CTPurple':1 'CTGreen':0 'grey78':0 'CTYellow':0 },{ chips  'CTRed':0 'CTPurple':0 'CTGreen':0 'grey78':3 'CTYellow':0 },175,145,0,(R:5,C:4),{ chips  'CTRed':7 'CTGreen':0 'CTPurple':1 'grey78':9 'CTYellow':12 },145,{ chips  'CTRed':26 'CTGreen':0 'CTPurple':6 'grey78':3 'CTYellow':0 },175,{ chips  'CTRed':33 'CTGreen':0 'CTPurple':7 'grey78':0 'CTYellow':0 },200
3playersLog_1378200535753.csv,1,540,510,false,{ chips  'CTRed':20 },{ chips  'CTYellow':12 },IGNORED,200,120,,,,,0,(R:5,C:4),{ chips  'CTRed':7 'CTGreen':0 'CTPurple':1 'grey78':9 'CTYellow':12 },145,{ chips  'CTRed':26 'CTGreen':0 'CTPurple':6 'grey78':3 'CTYellow':0 },175,{ chips  'CTRed':33 'CTGreen':0 'CTPurple':7 'grey78':0 'CTYellow':0 },200
3playersLog_1378200535753.csv,2,510,540,true,{ chips  'CTYellow':11 },{ chips  'CTRed':33 'CTPurple':7 },FALSE,145,200,,,,,1,(R:5,C:3),{ chips  'CTRed':7 'CTGreen':0 'CTPurple':1 'grey78':8 'CTYellow':12 },140,{ chips  'CTRed':26 'CTGreen':0 'CTPurple':6 'grey78':3 'CTYellow':0 },175,{ chips  'CTRed':33 'CTGreen':0 'CTPurple':7 'grey78':0 'CTYellow':0 },200
3playersLog_1378200535753.csv,3,520,510,false,{ chips  'CTRed':8 },{ chips  'grey78':3 },TRUE,175,140,{ chips  'CTRed':8 'CTPurple':0 'CTGreen':0 'grey78':0 'CTYellow':0 },{ chips  'CTRed':0 'CTPurple':0 'CTGreen':0 'grey78':3 'CTYellow':0 },150,165,2,(R:3,C:3),{ chips  'CTRed':15 'CTGreen':0 'CTPurple':0 'grey78':4 'CTYellow':12 },155,{ chips  'CTRed':18 'CTGreen':0 'CTPurple':6 'grey78':6 'CTYellow':0 },150,{ chips  'CTRed':33 'CTGreen':0 'CTPurple':7 'grey78':0 'CTYellow':0 },200
3playersLog_1378200535753.csv,3,540,510,false,{ chips  'CTRed':5 },{ chips  'CTPurple':1 'CTYellow':1 },IGNORED,200,140,,,,,2,(R:3,C:3),{ chips  'CTRed':15 'CTGreen':0 'CTPurple':0 'grey78':4 'CTYellow':12 },155,{ chips  'CTRed':18 'CTGreen':0 'CTPurple':6 'grey78':6 'CTYellow':0 },150,{ chips  'CTRed':33 'CTGreen':0 'CTPurple':7 'grey78':0 'CTYellow':0 },200
3playersLog_1378200535753.csv,4,510,520,true,{ chips  'grey78':3 },{ chips  'CTRed':18 'CTPurple':6 },FALSE,155,150,,,,,0,(R:3,C:3),{ chips  'CTRed':15 'CTGreen':0 'CTPurple':0 'grey78':4 'CTYellow':12 },155,{ chips  'CTRed':18 'CTGreen':0 'CTPurple':6 'grey78':6 'CTYellow':0 },150,{ chips  'CTRed':33 'CTGreen':0 'CTPurple':7 'grey78':0 'CTYellow':0 },200
3playersLog_1378200535753.csv,5,520,510,false,{ chips  'CTRed':3 'CTPurple':3 },{ chips  'grey78':1 },TRUE,150,155,{ chips  'CTRed':3 'CTPurple':3 'CTGreen':0 'grey78':0 'CTYellow':0 },{ chips  'CTRed':0 'CTPurple':0 'CTGreen':0 'grey78':1 'CTYellow':0 },125,180,0,(R:3,C:3),{ chips  'CTRed':18 'CTGreen':0 'CTPurple':3 'grey78':3 'CTYellow':12 },180,{ chips  'CTRed':15 'CTGreen':0 'CTPurple':3 'grey78':7 'CTYellow':0 },125,{ chips  'CTRed':33 'CTGreen':0 'CTPurple':7 'grey78':0 'CTYellow':0 },200
3playersLog_1378200535753.csv,5,540,510,false,{ chips  'CTPurple':5 },{ chips  'CTRed':3 'CTYellow':10 },IGNORED,200,155,,,,,0,(R:3,C:3),{ chips  'CTRed':18 'CTGreen':0 'CTPurple':3 'grey78':3 'CTYellow':12 },180,{ chips  'CTRed':15 'CTGreen':0 'CTPurple':3 'grey78':7 'CTYellow':0 },125,{ chips  'CTRed':33 'CTGreen':0 'CTPurple':7 'grey78':0 'CTYellow':0 },200
3playersLog_1378200535753.csv,,,,,,,,,,,,,,,,,,,,,,,,false
filename,round,propID,respID,IsPropCustomer,chipsToSend,chipsToReceive,accept,propCurrentScore,respCurrentScore,actualSent,ActualRcvd,propResultingScore,respResultingScore,#ofCustomerMovesInRound,customerRowPositionAfterMovePhase,customerColPositionAfterMovePhase,Player100ChipsAfterMovePhase,Player100ScoreAfterMovePhase,Player200ChipsAfterMovePhase,Player200ScoreAfterMovePhase,Player300ChipsAfterMovePhase,Player300ScoreAfterMovePhase,generosityLevel,ClientReachedGoal
3playersLog_1378207807843.csv,1,520,510,false,{ chips  'CTRed':2 'CTPurple':2 },{ chips  'grey78':4 },FALSE,200,120,,,,,0,(R:5,C:4),{ chips  'CTRed':0 'CTGreen':0 'CTPurple':0 'grey78':12 'CTYellow':12 },120,{ chips  'CTRed':33 'CTGreen':0 'CTPurple':7 'grey78':0 'CTYellow':0 },200,{ chips  'CTRed':33 'CTGreen':0 'CTPurple':7 'grey78':0 'CTYellow':0 },200
3playersLog_1378207807843.csv,1,540,510,false,{ chips  'CTPurple':1 },{ chips  'CTYellow':1 },FALSE,200,120,,,,,0,(R:5,C:4),{ chips  'CTRed':0 'CTGreen':0 'CTPurple':0 'grey78':12 'CTYellow':12 },120,{ chips  'CTRed':33 'CTGreen':0 'CTPurple':7 'grey78':0 'CTYellow':0 },200,{ chips  'CTRed':33 'CTGreen':0 'CTPurple':7 'grey78':0 'CTYellow':0 },200
3playersLog_1378207807843.csv,2,510,520,true,{ chips  'grey78':11 },{ chips  'CTRed':33 'CTPurple':7 },TRUE,120,200,{ chips  'grey78':11 },{ chips  'CTRed':33 'CTPurple':7 'CTYellow':0 },265,55,9,(R:0,C:8),{ chips  'CTRed':33 'CTGreen':0 'CTPurple':7 'grey78':1 'CTYellow':3 },370,{ chips  'CTRed':0 'CTGreen':0 'CTPurple':0 'grey78':11 'CTYellow':0 },205,{ chips  'CTRed':33 'CTGreen':0 'CTPurple':7 'grey78':0 'CTYellow':0 },200
3playersLog_1378207807843.csv,,,,,,,,,,,,,,,,,,,,,,,,true
filename,round,propID,respID,IsPropCustomer,chipsToSend,chipsToReceive,accept,propCurrentScore,respCurrentScore,actualSent,ActualRcvd,propResultingScore,respResultingScore,#ofCustomerMovesInRound,customerRowPositionAfterMovePhase,customerColPositionAfterMovePhase,Player100ChipsAfterMovePhase,Player100ScoreAfterMovePhase,Player200ChipsAfterMovePhase,Player200ScoreAfterMovePhase,Player300ChipsAfterMovePhase,Player300ScoreAfterMovePhase,generosityLevel,ClientReachedGoal
3playersLog_1378207813176.csv,1,520,510,false,{ chips  'CTRed':7 'CTPurple':2 },{ chips  'CTYellow':5 },TRUE,200,120,{ chips  'CTRed':7 'CTPurple':2 'CTGreen':0 'grey78':0 'CTYellow':0 },{ chips  'CTRed':0 'CTPurple':0 'CTGreen':0 'grey78':0 'CTYellow':5 },180,140,0,(R:5,C:4),{ chips  'CTRed':7 'CTGreen':0 'CTPurple':2 'grey78':12 'CTYellow':7 },140,{ chips  'CTRed':26 'CTGreen':0 'CTPurple':5 'grey78':0 'CTYellow':5 },180,{ chips  'CTRed':33 'CTGreen':0 'CTPurple':7 'grey78':0 'CTYellow':0 },200
3playersLog_1378207813176.csv,1,540,510,false,{ chips  'CTPurple':2 },{ chips  'grey78':1 },IGNORED,200,120,,,,,0,(R:5,C:4),{ chips  'CTRed':7 'CTGreen':0 'CTPurple':2 'grey78':12 'CTYellow':7 },140,{ chips  'CTRed':26 'CTGreen':0 'CTPurple':5 'grey78':0 'CTYellow':5 },180,{ chips  'CTRed':33 'CTGreen':0 'CTPurple':7 'grey78':0 'CTYellow':0 },200
3playersLog_1378207813176.csv,2,510,540,true,{ chips  },{ chips  'CTRed':11 'CTPurple':2 },FALSE,140,200,,,,,1,(R:5,C:5),{ chips  'CTRed':7 'CTGreen':0 'CTPurple':2 'grey78':12 'CTYellow':6 },135,{ chips  'CTRed':26 'CTGreen':0 'CTPurple':5 'grey78':0 'CTYellow':5 },180,{ chips  'CTRed':33 'CTGreen':0 'CTPurple':7 'grey78':0 'CTYellow':0 },200
3playersLog_1378207813176.csv,3,520,510,false,{ chips  'CTRed':10 },{ chips  'CTYellow':6 },TRUE,180,135,{ chips  'CTRed':10 'CTPurple':0 'CTGreen':0 'grey78':0 'CTYellow':0 },{ chips  'CTRed':0 'CTPurple':0 'CTGreen':0 'grey78':0 'CTYellow':6 },160,155,0,(R:5,C:5),{ chips  'CTRed':17 'CTGreen':0 'CTPurple':2 'grey78':12 'CTYellow':0 },155,{ chips  'CTRed':16 'CTGreen':0 'CTPurple':5 'grey78':0 'CTYellow':11 },160,{ chips  'CTRed':33 'CTGreen':0 'CTPurple':7 'grey78':0 'CTYellow':0 },200
3playersLog_1378207813176.csv,3,540,510,false,{ chips  'CTRed':3 },{ chips  'CTYellow':2 },IGNORED,200,135,,,,,0,(R:5,C:5),{ chips  'CTRed':17 'CTGreen':0 'CTPurple':2 'grey78':12 'CTYellow':0 },155,{ chips  'CTRed':16 'CTGreen':0 'CTPurple':5 'grey78':0 'CTYellow':11 },160,{ chips  'CTRed':33 'CTGreen':0 'CTPurple':7 'grey78':0 'CTYellow':0 },200
3playersLog_1378207813176.csv,4,510,520,true,{ chips  },{ chips  'CTRed':14 'CTPurple':2 'CTYellow':11 },FALSE,155,160,,,,,0,(R:5,C:5),{ chips  'CTRed':17 'CTGreen':0 'CTPurple':2 'grey78':12 'CTYellow':0 },155,{ chips  'CTRed':16 'CTGreen':0 'CTPurple':5 'grey78':0 'CTYellow':11 },160,{ chips  'CTRed':33 'CTGreen':0 'CTPurple':7 'grey78':0 'CTYellow':0 },200
3playersLog_1378207813176.csv,,,,,,,,,,,,,,,,,,,,,,,,false
filename,round,propID,respID,IsPropCustomer,chipsToSend,chipsToReceive,accept,propCurrentScore,respCurrentScore,actualSent,ActualRcvd,propResultingScore,respResultingScore,#ofCustomerMovesInRound,customerRowPositionAfterMovePhase,customerColPositionAfterMovePhase,Player100ChipsAfterMovePhase,Player100ScoreAfterMovePhase,Player200ChipsAfterMovePhase,Player200ScoreAfterMovePhase,Player300ChipsAfterMovePhase,Player300ScoreAfterMovePhase,generosityLevel,ClientReachedGoal
3playersLog_1378215771635.csv,1,,,,,,,,,,,,,0,(R:5,C:4),{ chips  'CTRed':0 'CTGreen':0 'CTPurple':0 'grey78':12 'CTYellow':12 },120,{ chips  'CTRed':33 'CTGreen':0 'CTPurple':7 'grey78':0 'CTYellow':0 },200,{ chips  'CTRed':33 'CTGreen':0 'CTPurple':7 'grey78':0 'CTYellow':0 },200
3playersLog_1378215771635.csv,2,510,520,true,{ chips  'grey78':11 },{ chips  'CTRed':33 'CTPurple':7 },FALSE,120,200,,,,,1,(R:5,C:5),{ chips  'CTRed':0 'CTGreen':0 'CTPurple':0 'grey78':12 'CTYellow':11 },115,{ chips  'CTRed':33 'CTGreen':0 'CTPurple':7 'grey78':0 'CTYellow':0 },200,{ chips  'CTRed':33 'CTGreen':0 'CTPurple':7 'grey78':0 'CTYellow':0 },200
3playersLog_1378215771635.csv,3,520,510,false,{ chips  'CTRed':6 'CTPurple':2 },{ chips  'CTYellow':7 },TRUE,200,115,{ chips  'CTRed':6 'CTPurple':2 'CTGreen':0 'grey78':0 'CTYellow':0 },{ chips  'CTRed':0 'CTPurple':0 'CTGreen':0 'grey78':0 'CTYellow':7 },195,120,0,(R:5,C:5),{ chips  'CTRed':6 'CTGreen':0 'CTPurple':2 'grey78':12 'CTYellow':4 },120,{ chips  'CTRed':27 'CTGreen':0 'CTPurple':5 'grey78':0 'CTYellow':7 },195,{ chips  'CTRed':33 'CTGreen':0 'CTPurple':7 'grey78':0 'CTYellow':0 },200
3playersLog_1378215771635.csv,3,540,510,false,{ chips  'CTRed':6 'CTPurple':7 },{ chips  'grey78':6 'CTYellow':6 },IGNORED,200,115,,,,,0,(R:5,C:5),{ chips  'CTRed':6 'CTGreen':0 'CTPurple':2 'grey78':12 'CTYellow':4 },120,{ chips  'CTRed':27 'CTGreen':0 'CTPurple':5 'grey78':0 'CTYellow':7 },195,{ chips  'CTRed':33 'CTGreen':0 'CTPurple':7 'grey78':0 'CTYellow':0 },200
3playersLog_1378215771635.csv,4,510,540,true,{ chips  },{ chips  'CTRed':20 'CTPurple':1 },FALSE,120,200,,,,,0,(R:5,C:5),{ chips  'CTRed':6 'CTGreen':0 'CTPurple':2 'grey78':12 'CTYellow':4 },120,{ chips  'CTRed':27 'CTGreen':0 'CTPurple':5 'grey78':0 'CTYellow':7 },195,{ chips  'CTRed':33 'CTGreen':0 'CTPurple':7 'grey78':0 'CTYellow':0 },200
3playersLog_1378215771635.csv,,,,,,,,,,,,,,,,,,,,,,,,false
filename,round,propID,respID,IsPropCustomer,chipsToSend,chipsToReceive,accept,propCurrentScore,respCurrentScore,actualSent,ActualRcvd,propResultingScore,respResultingScore,#ofCustomerMovesInRound,customerRowPositionAfterMovePhase,customerColPositionAfterMovePhase,Player100ChipsAfterMovePhase,Player100ScoreAfterMovePhase,Player200ChipsAfterMovePhase,Player200ScoreAfterMovePhase,Player300ChipsAfterMovePhase,Player300ScoreAfterMovePhase,generosityLevel,ClientReachedGoal
3playersLog_1378215778808.csv,1,540,510,false,{ chips  'CTRed':12 'CTPurple':2 },{ chips  'grey78':4 'CTYellow':1 },TRUE,200,120,{ chips  'CTRed':12 'CTPurple':2 'CTGreen':0 'grey78':0 'CTYellow':0 },{ chips  'CTRed':0 'CTPurple':0 'CTGreen':0 'grey78':4 'CTYellow':1 },155,165,0,(R:5,C:4),{ chips  'CTRed':12 'CTGreen':0 'CTPurple':2 'grey78':8 'CTYellow':11 },165,{ chips  'CTRed':33 'CTGreen':0 'CTPurple':7 'grey78':0 'CTYellow':0 },200,{ chips  'CTRed':21 'CTGreen':0 'CTPurple':5 'grey78':4 'CTYellow':1 },155
3playersLog_1378215778808.csv,2,510,520,true,{ chips  },{ chips  'CTRed':3 'CTPurple':3 },FALSE,165,200,,,,,1,(R:5,C:5),{ chips  'CTRed':12 'CTGreen':0 'CTPurple':2 'grey78':8 'CTYellow':10 },160,{ chips  'CTRed':33 'CTGreen':0 'CTPurple':7 'grey78':0 'CTYellow':0 },200,{ chips  'CTRed':21 'CTGreen':0 'CTPurple':5 'grey78':4 'CTYellow':1 },155
3playersLog_1378215778808.csv,3,520,510,false,{ chips  'CTRed':5 },{ chips  'CTYellow':2 },TRUE,200,160,{ chips  'CTRed':5 'CTPurple':0 'CTGreen':0 'grey78':0 'CTYellow':0 },{ chips  'CTRed':0 'CTPurple':0 'CTGreen':0 'grey78':0 'CTYellow':2 },185,175,0,(R:5,C:5),{ chips  'CTRed':17 'CTGreen':0 'CTPurple':2 'grey78':8 'CTYellow':8 },175,{ chips  'CTRed':28 'CTGreen':0 'CTPurple':7 'grey78':0 'CTYellow':2 },185,{ chips  'CTRed':21 'CTGreen':0 'CTPurple':5 'grey78':4 'CTYellow':1 },155
3playersLog_1378215778808.csv,4,510,520,true,{ chips  },{ chips  'CTRed':11 'CTPurple':2 'CTYellow':2 },FALSE,175,185,,,,,1,(R:4,C:5),{ chips  'CTRed':17 'CTGreen':0 'CTPurple':2 'grey78':8 'CTYellow':7 },170,{ chips  'CTRed':28 'CTGreen':0 'CTPurple':7 'grey78':0 'CTYellow':2 },185,{ chips  'CTRed':21 'CTGreen':0 'CTPurple':5 'grey78':4 'CTYellow':1 },155
3playersLog_1378215778808.csv,5,520,510,false,{ chips  'CTRed':10 'CTPurple':1 },{ chips  'grey78':6 'CTYellow':1 },IGNORED,185,170,,,,,0,(R:4,C:5),{ chips  'CTRed':32 'CTGreen':0 'CTPurple':3 'grey78':7 'CTYellow':6 },240,{ chips  'CTRed':28 'CTGreen':0 'CTPurple':7 'grey78':0 'CTYellow':2 },185,{ chips  'CTRed':6 'CTGreen':0 'CTPurple':4 'grey78':5 'CTYellow':2 },85
3playersLog_1378215778808.csv,5,540,510,false,{ chips  'CTRed':15 'CTPurple':1 },{ chips  'grey78':1 'CTYellow':1 },TRUE,155,170,{ chips  'CTRed':15 'CTPurple':1 'CTGreen':0 'grey78':0 'CTYellow':0 },{ chips  'CTRed':0 'CTPurple':0 'CTGreen':0 'grey78':1 'CTYellow':1 },85,240,0,(R:4,C:5),{ chips  'CTRed':32 'CTGreen':0 'CTPurple':3 'grey78':7 'CTYellow':6 },240,{ chips  'CTRed':28 'CTGreen':0 'CTPurple':7 'grey78':0 'CTYellow':2 },185,{ chips  'CTRed':6 'CTGreen':0 'CTPurple':4 'grey78':5 'CTYellow':2 },85
3playersLog_1378215778808.csv,6,510,520,true,{ chips  },{ chips  'CTRed':21 'CTPurple':3 'CTYellow':2 },FALSE,240,185,,,,,1,(R:3,C:5),{ chips  'CTRed':32 'CTGreen':0 'CTPurple':2 'grey78':7 'CTYellow':6 },235,{ chips  'CTRed':28 'CTGreen':0 'CTPurple':7 'grey78':0 'CTYellow':2 },185,{ chips  'CTRed':6 'CTGreen':0 'CTPurple':4 'grey78':5 'CTYellow':2 },85
3playersLog_1378215778808.csv,7,520,510,false,{ chips  'CTRed':4 'CTPurple':2 },{ chips  'CTPurple':2 'grey78':3 },IGNORED,185,235,,,,,0,(R:3,C:5),{ chips  'CTRed':36 'CTGreen':0 'CTPurple':4 'grey78':7 'CTYellow':4 },255,{ chips  'CTRed':28 'CTGreen':0 'CTPurple':7 'grey78':0 'CTYellow':2 },185,{ chips  'CTRed':2 'CTGreen':0 'CTPurple':2 'grey78':5 'CTYellow':4 },65
3playersLog_1378215778808.csv,7,540,510,false,{ chips  'CTRed':4 'CTPurple':2 },{ chips  'CTYellow':2 },TRUE,85,235,{ chips  'CTRed':4 'CTPurple':2 'CTGreen':0 'grey78':0 'CTYellow':0 },{ chips  'CTRed':0 'CTPurple':0 'CTGreen':0 'grey78':0 'CTYellow':2 },65,255,0,(R:3,C:5),{ chips  'CTRed':36 'CTGreen':0 'CTPurple':4 'grey78':7 'CTYellow':4 },255,{ chips  'CTRed':28 'CTGreen':0 'CTPurple':7 'grey78':0 'CTYellow':2 },185,{ chips  'CTRed':2 'CTGreen':0 'CTPurple':2 'grey78':5 'CTYellow':4 },65
3playersLog_1378215778808.csv,8,510,540,true,{ chips  },{ chips  'CTPurple':1 'grey78':5 },FALSE,255,65,,,,,1,(R:3,C:4),{ chips  'CTRed':36 'CTGreen':0 'CTPurple':3 'grey78':7 'CTYellow':4 },250,{ chips  'CTRed':28 'CTGreen':0 'CTPurple':7 'grey78':0 'CTYellow':2 },185,{ chips  'CTRed':2 'CTGreen':0 'CTPurple':2 'grey78':5 'CTYellow':4 },65
3playersLog_1378215778808.csv,9,520,510,false,{ chips  'CTRed':10 },{ chips  'grey78':5 },TRUE,185,250,{ chips  'CTRed':10 'CTPurple':0 'CTGreen':0 'grey78':0 'CTYellow':0 },{ chips  'CTRed':0 'CTPurple':0 'CTGreen':0 'grey78':5 'CTYellow':0 },160,275,0,(R:3,C:4),{ chips  'CTRed':46 'CTGreen':0 'CTPurple':3 'grey78':2 'CTYellow':4 },275,{ chips  'CTRed':18 'CTGreen':0 'CTPurple':7 'grey78':5 'CTYellow':2 },160,{ chips  'CTRed':2 'CTGreen':0 'CTPurple':2 'grey78':5 'CTYellow':4 },65
3playersLog_1378215778808.csv,9,540,510,false,{ chips  },{ chips  'CTRed':20 },IGNORED,65,250,,,,,0,(R:3,C:4),{ chips  'CTRed':46 'CTGreen':0 'CTPurple':3 'grey78':2 'CTYellow':4 },275,{ chips  'CTRed':18 'CTGreen':0 'CTPurple':7 'grey78':5 'CTYellow':2 },160,{ chips  'CTRed':2 'CTGreen':0 'CTPurple':2 'grey78':5 'CTYellow':4 },65
3playersLog_1378215778808.csv,10,510,540,true,{ chips  },{ chips  'grey78':5 },FALSE,275,65,,,,,0,(R:3,C:4),{ chips  'CTRed':46 'CTGreen':0 'CTPurple':3 'grey78':2 'CTYellow':4 },275,{ chips  'CTRed':18 'CTGreen':0 'CTPurple':7 'grey78':5 'CTYellow':2 },160,{ chips  'CTRed':2 'CTGreen':0 'CTPurple':2 'grey78':5 'CTYellow':4 },65
3playersLog_1378215778808.csv,,,,,,,,,,,,,,,,,,,,,,,,false
filename,round,propID,respID,IsPropCustomer,chipsToSend,chipsToReceive,accept,propCurrentScore,respCurrentScore,actualSent,ActualRcvd,propResultingScore,respResultingScore,#ofCustomerMovesInRound,customerRowPositionAfterMovePhase,customerColPositionAfterMovePhase,Player100ChipsAfterMovePhase,Player100ScoreAfterMovePhase,Player200ChipsAfterMovePhase,Player200ScoreAfterMovePhase,Player300ChipsAfterMovePhase,Player300ScoreAfterMovePhase,generosityLevel,ClientReachedGoal
3playersLog_1378215800276.csv,1,540,510,false,{ chips  'CTPurple':3 },{ chips  'CTYellow':3 },IGNORED,200,120,,,,,0,(R:5,C:4),{ chips  'CTRed':0 'CTGreen':0 'CTPurple':0 'grey78':12 'CTYellow':12 },120,{ chips  'CTRed':33 'CTGreen':0 'CTPurple':7 'grey78':0 'CTYellow':0 },200,{ chips  'CTRed':33 'CTGreen':0 'CTPurple':7 'grey78':0 'CTYellow':0 },200
3playersLog_1378215800276.csv,2,510,520,true,{ chips  'grey78':11 },{ chips  'CTRed':33 'CTPurple':7 },FALSE,120,200,,,,,1,(R:5,C:5),{ chips  'CTRed':0 'CTGreen':0 'CTPurple':0 'grey78':12 'CTYellow':11 },115,{ chips  'CTRed':33 'CTGreen':0 'CTPurple':7 'grey78':0 'CTYellow':0 },200,{ chips  'CTRed':33 'CTGreen':0 'CTPurple':7 'grey78':0 'CTYellow':0 },200
3playersLog_1378215800276.csv,3,520,510,false,{ chips  'CTRed':10 },{ chips  'grey78':3 },TRUE,200,115,{ chips  'CTRed':10 'CTPurple':0 'CTGreen':0 'grey78':0 'CTYellow':0 },{ chips  'CTRed':0 'CTPurple':0 'CTGreen':0 'grey78':3 'CTYellow':0 },165,150,0,(R:5,C:5),{ chips  'CTRed':10 'CTGreen':0 'CTPurple':0 'grey78':9 'CTYellow':11 },150,{ chips  'CTRed':23 'CTGreen':0 'CTPurple':7 'grey78':3 'CTYellow':0 },165,{ chips  'CTRed':33 'CTGreen':0 'CTPurple':7 'grey78':0 'CTYellow':0 },200
3playersLog_1378215800276.csv,3,540,510,false,{ chips  'CTPurple':4 },{ chips  'CTYellow':6 },IGNORED,200,115,,,,,0,(R:5,C:5),{ chips  'CTRed':10 'CTGreen':0 'CTPurple':0 'grey78':9 'CTYellow':11 },150,{ chips  'CTRed':23 'CTGreen':0 'CTPurple':7 'grey78':3 'CTYellow':0 },165,{ chips  'CTRed':33 'CTGreen':0 'CTPurple':7 'grey78':0 'CTYellow':0 },200
3playersLog_1378215800276.csv,4,510,520,true,{ chips  'grey78':8 },{ chips  'CTRed':23 'CTPurple':7 },FALSE,150,165,,,,,1,(R:4,C:5),{ chips  'CTRed':10 'CTGreen':0 'CTPurple':0 'grey78':9 'CTYellow':10 },145,{ chips  'CTRed':23 'CTGreen':0 'CTPurple':7 'grey78':3 'CTYellow':0 },165,{ chips  'CTRed':33 'CTGreen':0 'CTPurple':7 'grey78':0 'CTYellow':0 },200
3playersLog_1378215800276.csv,5,520,510,false,{ chips  'CTRed':10 },{ chips  'grey78':5 },TRUE,165,145,{ chips  'CTRed':10 'CTPurple':0 'CTGreen':0 'grey78':0 'CTYellow':0 },{ chips  'CTRed':0 'CTPurple':0 'CTGreen':0 'grey78':5 'CTYellow':0 },140,170,0,(R:4,C:5),{ chips  'CTRed':20 'CTGreen':0 'CTPurple':0 'grey78':4 'CTYellow':10 },170,{ chips  'CTRed':13 'CTGreen':0 'CTPurple':7 'grey78':8 'CTYellow':0 },140,{ chips  'CTRed':33 'CTGreen':0 'CTPurple':7 'grey78':0 'CTYellow':0 },200
3playersLog_1378215800276.csv,5,540,510,false,{ chips  'CTPurple':4 },{ chips  'CTRed':10 'CTYellow':3 },IGNORED,200,145,,,,,0,(R:4,C:5),{ chips  'CTRed':20 'CTGreen':0 'CTPurple':0 'grey78':4 'CTYellow':10 },170,{ chips  'CTRed':13 'CTGreen':0 'CTPurple':7 'grey78':8 'CTYellow':0 },140,{ chips  'CTRed':33 'CTGreen':0 'CTPurple':7 'grey78':0 'CTYellow':0 },200
3playersLog_1378215800276.csv,6,510,520,true,{ chips  'grey78':3 },{ chips  'CTRed':13 'CTPurple':7 },FALSE,170,140,,,,,1,(R:4,C:6),{ chips  'CTRed':20 'CTGreen':0 'CTPurple':0 'grey78':4 'CTYellow':9 },165,{ chips  'CTRed':13 'CTGreen':0 'CTPurple':7 'grey78':8 'CTYellow':0 },140,{ chips  'CTRed':33 'CTGreen':0 'CTPurple':7 'grey78':0 'CTYellow':0 },200
3playersLog_1378215800276.csv,7,520,510,false,{ chips  'CTRed':1 },{ chips  'grey78':1 },IGNORED,140,165,,,,,0,(R:4,C:6),{ chips  'CTRed':40 'CTGreen':0 'CTPurple':6 'grey78':3 'CTYellow':5 },270,{ chips  'CTRed':13 'CTGreen':0 'CTPurple':7 'grey78':8 'CTYellow':0 },140,{ chips  'CTRed':13 'CTGreen':0 'CTPurple':1 'grey78':1 'CTYellow':4 },95
3playersLog_1378215800276.csv,7,540,510,false,{ chips  'CTRed':20 'CTPurple':6 },{ chips  'grey78':1 'CTYellow':4 },TRUE,200,165,{ chips  'CTRed':20 'CTPurple':6 'CTGreen':0 'grey78':0 'CTYellow':0 },{ chips  'CTRed':0 'CTPurple':0 'CTGreen':0 'grey78':1 'CTYellow':4 },95,270,0,(R:4,C:6),{ chips  'CTRed':40 'CTGreen':0 'CTPurple':6 'grey78':3 'CTYellow':5 },270,{ chips  'CTRed':13 'CTGreen':0 'CTPurple':7 'grey78':8 'CTYellow':0 },140,{ chips  'CTRed':13 'CTGreen':0 'CTPurple':1 'grey78':1 'CTYellow':4 },95
3playersLog_1378215800276.csv,8,510,520,true,{ chips  'grey78':3 },{ chips  'CTRed':13 'CTPurple':7 },FALSE,270,140,,,,,1,(R:3,C:6),{ chips  'CTRed':40 'CTGreen':0 'CTPurple':6 'grey78':3 'CTYellow':4 },265,{ chips  'CTRed':13 'CTGreen':0 'CTPurple':7 'grey78':8 'CTYellow':0 },140,{ chips  'CTRed':13 'CTGreen':0 'CTPurple':1 'grey78':1 'CTYellow':4 },95
3playersLog_1378215800276.csv,9,540,510,false,{ chips  'CTRed':8 'grey78':1 },{ chips  'CTYellow':3 },IGNORED,95,265,,,,,0,(R:3,C:6),{ chips  'CTRed':40 'CTGreen':0 'CTPurple':6 'grey78':3 'CTYellow':4 },265,{ chips  'CTRed':13 'CTGreen':0 'CTPurple':7 'grey78':8 'CTYellow':0 },140,{ chips  'CTRed':13 'CTGreen':0 'CTPurple':1 'grey78':1 'CTYellow':4 },95
3playersLog_1378215800276.csv,10,510,520,true,{ chips  'grey78':3 },{ chips  'CTRed':13 'CTPurple':7 },FALSE,265,140,,,,,1,(R:3,C:7),{ chips  'CTRed':40 'CTGreen':0 'CTPurple':6 'grey78':3 'CTYellow':3 },260,{ chips  'CTRed':13 'CTGreen':0 'CTPurple':7 'grey78':8 'CTYellow':0 },140,{ chips  'CTRed':13 'CTGreen':0 'CTPurple':1 'grey78':1 'CTYellow':4 },95
3playersLog_1378215800276.csv,11,520,510,false,{ chips  },{ chips  },IGNORED,140,260,,,,,10,(R:0,C:0),{ chips  'CTRed':50 'CTGreen':0 'CTPurple':0 'grey78':2 'CTYellow':0 },410,{ chips  'CTRed':13 'CTGreen':0 'CTPurple':7 'grey78':8 'CTYellow':0 },140,{ chips  'CTRed':3 'CTGreen':0 'CTPurple':0 'grey78':0 'CTYellow':6 },195
3playersLog_1378215800276.csv,11,540,510,false,{ chips  'CTRed':10 'CTPurple':1 'grey78':1 },{ chips  'CTYellow':2 },TRUE,95,260,{ chips  'CTRed':10 'CTPurple':1 'CTGreen':0 'grey78':1 'CTYellow':0 },{ chips  'CTRed':0 'CTPurple':0 'CTGreen':0 'grey78':0 'CTYellow':2 },45,310,10,(R:0,C:0),{ chips  'CTRed':50 'CTGreen':0 'CTPurple':0 'grey78':2 'CTYellow':0 },410,{ chips  'CTRed':13 'CTGreen':0 'CTPurple':7 'grey78':8 'CTYellow':0 },140,{ chips  'CTRed':3 'CTGreen':0 'CTPurple':0 'grey78':0 'CTYellow':6 },195
3playersLog_1378215800276.csv,,,,,,,,,,,,,,,,,,,,,,,,true
