filename,round,propID,respID,IsPropCustomer,chipsToSend,chipsToReceive,accept,propCurrentScore,respCurrentScore,actualSent,ActualRcvd,propResultingScore,respResultingScore,#ofCustomerMovesInRound,customerRowPositionAfterMovePhase,customerColPositionAfterMovePhase,Player100ChipsAfterMovePhase,Player100ScoreAfterMovePhase,Player200ChipsAfterMovePhase,Player200ScoreAfterMovePhase,Player300ChipsAfterMovePhase,Player300ScoreAfterMovePhase,generosityLevel,ClientReachedGoal
3playersLog_1378889406775.csv,1,520,510,false,{ chips  'CTPurple':6 },{ chips  'grey78':4 },IGNORED,200,120,,,,,0,(R:5,C:4),{ chips  'CTRed':11 'CTGreen':0 'CTPurple':0 'grey78':11 'CTYellow':6 },140,{ chips  'CTRed':33 'CTGreen':0 'CTPurple':7 'grey78':0 'CTYellow':0 },200,{ chips  'CTRed':22 'CTGreen':0 'CTPurple':7 'grey78':1 'CTYellow':6 },180
3playersLog_1378889406775.csv,1,540,510,false,{ chips  'CTRed':11 },{ chips  'grey78':1 'CTYellow':6 },TRUE,200,120,{ chips  'CTRed':11 'CTPurple':0 'CTGreen':0 'grey78':0 'CTYellow':0 },{ chips  'CTRed':0 'CTPurple':0 'CTGreen':0 'grey78':1 'CTYellow':6 },180,140,0,(R:5,C:4),{ chips  'CTRed':11 'CTGreen':0 'CTPurple':0 'grey78':11 'CTYellow':6 },140,{ chips  'CTRed':33 'CTGreen':0 'CTPurple':7 'grey78':0 'CTYellow':0 },200,{ chips  'CTRed':22 'CTGreen':0 'CTPurple':7 'grey78':1 'CTYellow':6 },180
3playersLog_1378889406775.csv,2,510,540,true,{ chips  'CTYellow':5 },{ chips  'CTRed':22 'CTPurple':7 'grey78':1 },FALSE,140,180,,,,,1,(R:5,C:3),{ chips  'CTRed':11 'CTGreen':0 'CTPurple':0 'grey78':10 'CTYellow':6 },135,{ chips  'CTRed':33 'CTGreen':0 'CTPurple':7 'grey78':0 'CTYellow':0 },200,{ chips  'CTRed':22 'CTGreen':0 'CTPurple':7 'grey78':1 'CTYellow':6 },180
3playersLog_1378889406775.csv,3,520,510,false,{ chips  'CTRed':6 'CTPurple':6 },{ chips  'grey78':3 },TRUE,200,135,{ chips  'CTRed':6 'CTPurple':6 'CTGreen':0 'grey78':0 'CTYellow':0 },{ chips  'CTRed':0 'CTPurple':0 'CTGreen':0 'grey78':3 'CTYellow':0 },155,180,0,(R:5,C:3),{ chips  'CTRed':17 'CTGreen':0 'CTPurple':6 'grey78':7 'CTYellow':6 },180,{ chips  'CTRed':27 'CTGreen':0 'CTPurple':1 'grey78':3 'CTYellow':0 },155,{ chips  'CTRed':22 'CTGreen':0 'CTPurple':7 'grey78':1 'CTYellow':6 },180
3playersLog_1378889406775.csv,3,540,510,false,{ chips  'grey78':1 'CTYellow':3 },{ chips  'CTRed':5 },IGNORED,180,135,,,,,0,(R:5,C:3),{ chips  'CTRed':17 'CTGreen':0 'CTPurple':6 'grey78':7 'CTYellow':6 },180,{ chips  'CTRed':27 'CTGreen':0 'CTPurple':1 'grey78':3 'CTYellow':0 },155,{ chips  'CTRed':22 'CTGreen':0 'CTPurple':7 'grey78':1 'CTYellow':6 },180
3playersLog_1378889406775.csv,4,510,540,true,{ chips  'CTYellow':5 },{ chips  'CTRed':22 'CTPurple':7 'grey78':1 },FALSE,180,180,,,,,1,(R:4,C:3),{ chips  'CTRed':17 'CTGreen':0 'CTPurple':6 'grey78':6 'CTYellow':6 },175,{ chips  'CTRed':27 'CTGreen':0 'CTPurple':1 'grey78':3 'CTYellow':0 },155,{ chips  'CTRed':22 'CTGreen':0 'CTPurple':7 'grey78':1 'CTYellow':6 },180
3playersLog_1378889406775.csv,5,520,510,false,{ chips  'CTRed':4 },{ chips  'grey78':2 },IGNORED,155,175,,,,,0,(R:4,C:3),{ chips  'CTRed':29 'CTGreen':0 'CTPurple':5 'grey78':6 'CTYellow':5 },225,{ chips  'CTRed':27 'CTGreen':0 'CTPurple':1 'grey78':3 'CTYellow':0 },155,{ chips  'CTRed':10 'CTGreen':0 'CTPurple':8 'grey78':1 'CTYellow':7 },130
3playersLog_1378889406775.csv,5,540,510,false,{ chips  'CTRed':12 },{ chips  'CTPurple':1 'CTYellow':1 },TRUE,180,175,{ chips  'CTRed':12 'CTPurple':0 'CTGreen':0 'grey78':0 'CTYellow':0 },{ chips  'CTRed':0 'CTPurple':1 'CTGreen':0 'grey78':0 'CTYellow':1 },130,225,0,(R:4,C:3),{ chips  'CTRed':29 'CTGreen':0 'CTPurple':5 'grey78':6 'CTYellow':5 },225,{ chips  'CTRed':27 'CTGreen':0 'CTPurple':1 'grey78':3 'CTYellow':0 },155,{ chips  'CTRed':10 'CTGreen':0 'CTPurple':8 'grey78':1 'CTYellow':7 },130
3playersLog_1378889406775.csv,6,510,540,true,{ chips  'CTYellow':4 },{ chips  'CTRed':10 'CTPurple':8 'grey78':1 },FALSE,225,130,,,,,1,(R:3,C:3),{ chips  'CTRed':29 'CTGreen':0 'CTPurple':4 'grey78':6 'CTYellow':5 },220,{ chips  'CTRed':27 'CTGreen':0 'CTPurple':1 'grey78':3 'CTYellow':0 },155,{ chips  'CTRed':10 'CTGreen':0 'CTPurple':8 'grey78':1 'CTYellow':7 },130
3playersLog_1378889406775.csv,7,520,510,false,{ chips  'CTRed':6 },{ chips  'CTYellow':3 },TRUE,155,220,{ chips  'CTRed':6 'CTPurple':0 'CTGreen':0 'grey78':0 'CTYellow':0 },{ chips  'CTRed':0 'CTPurple':0 'CTGreen':0 'grey78':0 'CTYellow':3 },140,235,0,(R:3,C:3),{ chips  'CTRed':35 'CTGreen':0 'CTPurple':4 'grey78':6 'CTYellow':2 },235,{ chips  'CTRed':21 'CTGreen':0 'CTPurple':1 'grey78':3 'CTYellow':3 },140,{ chips  'CTRed':10 'CTGreen':0 'CTPurple':8 'grey78':1 'CTYellow':7 },130
3playersLog_1378889406775.csv,7,540,510,false,{ chips  'CTRed':2 },{ chips  'CTPurple':2 },IGNORED,130,220,,,,,0,(R:3,C:3),{ chips  'CTRed':35 'CTGreen':0 'CTPurple':4 'grey78':6 'CTYellow':2 },235,{ chips  'CTRed':21 'CTGreen':0 'CTPurple':1 'grey78':3 'CTYellow':3 },140,{ chips  'CTRed':10 'CTGreen':0 'CTPurple':8 'grey78':1 'CTYellow':7 },130
3playersLog_1378889406775.csv,8,510,540,true,{ chips  'CTYellow':1 },{ chips  'CTRed':10 'CTPurple':1 'grey78':1 },FALSE,235,130,,,,,1,(R:3,C:2),{ chips  'CTRed':35 'CTGreen':0 'CTPurple':4 'grey78':5 'CTYellow':2 },230,{ chips  'CTRed':21 'CTGreen':0 'CTPurple':1 'grey78':3 'CTYellow':3 },140,{ chips  'CTRed':10 'CTGreen':0 'CTPurple':8 'grey78':1 'CTYellow':7 },130
3playersLog_1378889406775.csv,9,520,510,false,{ chips  'CTRed':2 'CTPurple':1 'CTYellow':3 },{ chips  'grey78':2 },TRUE,140,230,{ chips  'CTRed':2 'CTPurple':1 'CTGreen':0 'grey78':0 'CTYellow':3 },{ chips  'CTRed':0 'CTPurple':0 'CTGreen':0 'grey78':2 'CTYellow':0 },120,250,0,(R:3,C:2),{ chips  'CTRed':37 'CTGreen':0 'CTPurple':5 'grey78':3 'CTYellow':5 },250,{ chips  'CTRed':19 'CTGreen':0 'CTPurple':0 'grey78':5 'CTYellow':0 },120,{ chips  'CTRed':10 'CTGreen':0 'CTPurple':8 'grey78':1 'CTYellow':7 },130
3playersLog_1378889406775.csv,9,540,510,false,{ chips  'CTRed':2 },{ chips  'CTPurple':2 },IGNORED,130,230,,,,,0,(R:3,C:2),{ chips  'CTRed':37 'CTGreen':0 'CTPurple':5 'grey78':3 'CTYellow':5 },250,{ chips  'CTRed':19 'CTGreen':0 'CTPurple':0 'grey78':5 'CTYellow':0 },120,{ chips  'CTRed':10 'CTGreen':0 'CTPurple':8 'grey78':1 'CTYellow':7 },130
3playersLog_1378889406775.csv,10,510,520,true,{ chips  'grey78':3 },{ chips  'CTRed':19 },TRUE,250,120,{ chips  'grey78':3 },{ chips  'CTRed':19 'CTPurple':0 'CTYellow':0 },330,40,9,(R:0,C:8),{ chips  'CTRed':56 'CTGreen':0 'CTPurple':1 'grey78':0 'CTYellow':0 },435,{ chips  'CTRed':0 'CTGreen':0 'CTPurple':0 'grey78':8 'CTYellow':0 },190,{ chips  'CTRed':10 'CTGreen':0 'CTPurple':8 'grey78':1 'CTYellow':7 },130
3playersLog_1378889406775.csv,,,,,,,,,,,,,,,,,,,,,,,,true
