Wed Sep 11 10:49:28 IST 2013	This is the CT debug logger; svn version 638; sep 27 09
Wed Sep 11 10:49:28 IST 2013	Wed Sep 11 10:49:28 IST 2013
Wed Sep 11 10:49:28 IST 2013	ThreePlayersAgentPlayer(): entering.
Wed Sep 11 10:50:06 IST 2013	phaseAdvanced(): entering.
Wed Sep 11 10:50:06 IST 2013	phaseAdvanced(): new phase is 'Strategy Prep Phase'.
Wed Sep 11 10:51:06 IST 2013	phaseAdvanced(): entering.
Wed Sep 11 10:51:06 IST 2013	phaseAdvanced(): new phase is 'Communication Phase'.
Wed Sep 11 10:51:45 IST 2013	onReceipt(): entering.
Wed Sep 11 10:51:45 IST 2013	onReceipt(): opponent's proposal: ({ chips  'CTRed':0 'CTPurple':6 'CTGreen':0 'grey78':0 'CTYellow':0 }, { chips  'CTRed':0 'CTPurple':0 'CTGreen':0 'grey78':4 'CTYellow':0 }).
Wed Sep 11 10:53:35 IST 2013	onReceipt(): entering.
Wed Sep 11 10:53:35 IST 2013	onReceipt(): opponent's proposal: ({ chips  'CTRed':11 'CTPurple':0 'CTGreen':0 'grey78':0 'CTYellow':0 }, { chips  'CTRed':0 'CTPurple':0 'CTGreen':0 'grey78':1 'CTYellow':6 }).
Wed Sep 11 10:53:35 IST 2013	responseToSend(): entering.
Wed Sep 11 10:53:35 IST 2013	compareProposals(): decision: 1 utility 140.0
Wed Sep 11 10:53:35 IST 2013	responseToSend(): accepting proposal ({ chips  'CTRed':11 'CTPurple':0 'CTGreen':0 'grey78':0 'CTYellow':0 }, { chips  'CTRed':0 'CTPurple':0 'CTGreen':0 'grey78':1 'CTYellow':6 }).
Wed Sep 11 10:53:35 IST 2013	phaseAdvanced(): entering.
Wed Sep 11 10:53:35 IST 2013	phaseAdvanced(): new phase is 'Movement Phase'.
Wed Sep 11 10:53:46 IST 2013	responseToSend(): entering.
Wed Sep 11 10:54:19 IST 2013	phaseAdvanced(): entering.
Wed Sep 11 10:54:19 IST 2013	phaseAdvanced(): new phase is 'Feedback Phase'.
Wed Sep 11 10:54:24 IST 2013	phaseAdvanced(): entering.
Wed Sep 11 10:54:24 IST 2013	phaseAdvanced(): new phase is 'Communication Phase'.
Wed Sep 11 10:55:36 IST 2013	onReceipt(): entering.
Wed Sep 11 10:55:36 IST 2013	phaseAdvanced(): entering.
Wed Sep 11 10:55:36 IST 2013	phaseAdvanced(): new phase is 'Movement Phase'.
Wed Sep 11 10:56:20 IST 2013	phaseAdvanced(): entering.
Wed Sep 11 10:56:20 IST 2013	phaseAdvanced(): new phase is 'Feedback Phase'.
Wed Sep 11 10:56:25 IST 2013	phaseAdvanced(): entering.
Wed Sep 11 10:56:25 IST 2013	phaseAdvanced(): new phase is 'Communication Phase'.
Wed Sep 11 10:57:18 IST 2013	onReceipt(): entering.
Wed Sep 11 10:57:18 IST 2013	onReceipt(): opponent's proposal: ({ chips  'CTRed':6 'CTPurple':6 'CTGreen':0 'grey78':0 'CTYellow':0 }, { chips  'CTRed':0 'CTPurple':0 'CTGreen':0 'grey78':3 'CTYellow':0 }).
Wed Sep 11 10:57:34 IST 2013	onReceipt(): entering.
Wed Sep 11 10:57:34 IST 2013	onReceipt(): opponent's proposal: ({ chips  'CTRed':0 'CTPurple':0 'CTGreen':0 'grey78':1 'CTYellow':3 }, { chips  'CTRed':5 'CTPurple':0 'CTGreen':0 'grey78':0 'CTYellow':0 }).
Wed Sep 11 10:57:34 IST 2013	responseToSend(): entering.
Wed Sep 11 10:57:34 IST 2013	compareProposals(): decision: 0 utility 180.0
Wed Sep 11 10:57:34 IST 2013	responseToSend(): accepting proposal ({ chips  'CTRed':6 'CTPurple':6 'CTGreen':0 'grey78':0 'CTYellow':0 }, { chips  'CTRed':0 'CTPurple':0 'CTGreen':0 'grey78':3 'CTYellow':0 }).
Wed Sep 11 10:57:34 IST 2013	phaseAdvanced(): entering.
Wed Sep 11 10:57:34 IST 2013	phaseAdvanced(): new phase is 'Movement Phase'.
Wed Sep 11 10:58:18 IST 2013	phaseAdvanced(): entering.
Wed Sep 11 10:58:18 IST 2013	phaseAdvanced(): new phase is 'Feedback Phase'.
Wed Sep 11 10:58:23 IST 2013	phaseAdvanced(): entering.
Wed Sep 11 10:58:23 IST 2013	phaseAdvanced(): new phase is 'Communication Phase'.
Wed Sep 11 10:58:39 IST 2013	onReceipt(): entering.
Wed Sep 11 10:58:39 IST 2013	phaseAdvanced(): entering.
Wed Sep 11 10:58:39 IST 2013	phaseAdvanced(): new phase is 'Movement Phase'.
Wed Sep 11 10:59:24 IST 2013	phaseAdvanced(): entering.
Wed Sep 11 10:59:24 IST 2013	phaseAdvanced(): new phase is 'Feedback Phase'.
Wed Sep 11 10:59:29 IST 2013	phaseAdvanced(): entering.
Wed Sep 11 10:59:29 IST 2013	phaseAdvanced(): new phase is 'Communication Phase'.
Wed Sep 11 10:59:57 IST 2013	onReceipt(): entering.
Wed Sep 11 10:59:57 IST 2013	onReceipt(): opponent's proposal: ({ chips  'CTRed':12 'CTPurple':0 'CTGreen':0 'grey78':0 'CTYellow':0 }, { chips  'CTRed':0 'CTPurple':1 'CTGreen':0 'grey78':0 'CTYellow':1 }).
Wed Sep 11 11:00:05 IST 2013	onReceipt(): entering.
Wed Sep 11 11:00:05 IST 2013	onReceipt(): opponent's proposal: ({ chips  'CTRed':4 'CTPurple':0 'CTGreen':0 'grey78':0 'CTYellow':0 }, { chips  'CTRed':0 'CTPurple':0 'CTGreen':0 'grey78':2 'CTYellow':0 }).
Wed Sep 11 11:00:05 IST 2013	responseToSend(): entering.
Wed Sep 11 11:00:05 IST 2013	compareProposals(): decision: 1 utility 225.0
Wed Sep 11 11:00:05 IST 2013	responseToSend(): accepting proposal ({ chips  'CTRed':12 'CTPurple':0 'CTGreen':0 'grey78':0 'CTYellow':0 }, { chips  'CTRed':0 'CTPurple':1 'CTGreen':0 'grey78':0 'CTYellow':1 }).
Wed Sep 11 11:00:05 IST 2013	phaseAdvanced(): entering.
Wed Sep 11 11:00:05 IST 2013	phaseAdvanced(): new phase is 'Movement Phase'.
Wed Sep 11 11:00:49 IST 2013	phaseAdvanced(): entering.
Wed Sep 11 11:00:49 IST 2013	phaseAdvanced(): new phase is 'Feedback Phase'.
Wed Sep 11 11:00:54 IST 2013	phaseAdvanced(): entering.
Wed Sep 11 11:00:54 IST 2013	phaseAdvanced(): new phase is 'Communication Phase'.
Wed Sep 11 11:01:02 IST 2013	onReceipt(): entering.
Wed Sep 11 11:01:02 IST 2013	phaseAdvanced(): entering.
Wed Sep 11 11:01:02 IST 2013	phaseAdvanced(): new phase is 'Movement Phase'.
Wed Sep 11 11:01:47 IST 2013	phaseAdvanced(): entering.
Wed Sep 11 11:01:47 IST 2013	phaseAdvanced(): new phase is 'Feedback Phase'.
Wed Sep 11 11:01:52 IST 2013	phaseAdvanced(): entering.
Wed Sep 11 11:01:52 IST 2013	phaseAdvanced(): new phase is 'Communication Phase'.
Wed Sep 11 11:02:19 IST 2013	onReceipt(): entering.
Wed Sep 11 11:02:19 IST 2013	onReceipt(): opponent's proposal: ({ chips  'CTRed':6 'CTPurple':0 'CTGreen':0 'grey78':0 'CTYellow':0 }, { chips  'CTRed':0 'CTPurple':0 'CTGreen':0 'grey78':0 'CTYellow':3 }).
Wed Sep 11 11:02:25 IST 2013	onReceipt(): entering.
Wed Sep 11 11:02:25 IST 2013	onReceipt(): opponent's proposal: ({ chips  'CTRed':2 'CTPurple':0 'CTGreen':0 'grey78':0 'CTYellow':0 }, { chips  'CTRed':0 'CTPurple':2 'CTGreen':0 'grey78':0 'CTYellow':0 }).
Wed Sep 11 11:02:25 IST 2013	responseToSend(): entering.
Wed Sep 11 11:02:25 IST 2013	compareProposals(): decision: 0 utility 235.0
Wed Sep 11 11:02:25 IST 2013	responseToSend(): accepting proposal ({ chips  'CTRed':6 'CTPurple':0 'CTGreen':0 'grey78':0 'CTYellow':0 }, { chips  'CTRed':0 'CTPurple':0 'CTGreen':0 'grey78':0 'CTYellow':3 }).
Wed Sep 11 11:02:25 IST 2013	phaseAdvanced(): entering.
Wed Sep 11 11:02:25 IST 2013	phaseAdvanced(): new phase is 'Movement Phase'.
Wed Sep 11 11:03:09 IST 2013	phaseAdvanced(): entering.
Wed Sep 11 11:03:09 IST 2013	phaseAdvanced(): new phase is 'Feedback Phase'.
Wed Sep 11 11:03:14 IST 2013	phaseAdvanced(): entering.
Wed Sep 11 11:03:14 IST 2013	phaseAdvanced(): new phase is 'Communication Phase'.
Wed Sep 11 11:03:28 IST 2013	onReceipt(): entering.
Wed Sep 11 11:03:28 IST 2013	phaseAdvanced(): entering.
Wed Sep 11 11:03:28 IST 2013	phaseAdvanced(): new phase is 'Movement Phase'.
Wed Sep 11 11:04:12 IST 2013	phaseAdvanced(): entering.
Wed Sep 11 11:04:12 IST 2013	phaseAdvanced(): new phase is 'Feedback Phase'.
Wed Sep 11 11:04:17 IST 2013	phaseAdvanced(): entering.
Wed Sep 11 11:04:17 IST 2013	phaseAdvanced(): new phase is 'Communication Phase'.
Wed Sep 11 11:04:34 IST 2013	onReceipt(): entering.
Wed Sep 11 11:04:34 IST 2013	onReceipt(): opponent's proposal: ({ chips  'CTRed':2 'CTPurple':1 'CTGreen':0 'grey78':0 'CTYellow':3 }, { chips  'CTRed':0 'CTPurple':0 'CTGreen':0 'grey78':2 'CTYellow':0 }).
Wed Sep 11 11:04:34 IST 2013	onReceipt(): entering.
Wed Sep 11 11:04:34 IST 2013	onReceipt(): opponent's proposal: ({ chips  'CTRed':2 'CTPurple':0 'CTGreen':0 'grey78':0 'CTYellow':0 }, { chips  'CTRed':0 'CTPurple':2 'CTGreen':0 'grey78':0 'CTYellow':0 }).
Wed Sep 11 11:04:34 IST 2013	responseToSend(): entering.
Wed Sep 11 11:04:34 IST 2013	compareProposals(): decision: 0 utility 250.0
Wed Sep 11 11:04:34 IST 2013	responseToSend(): accepting proposal ({ chips  'CTRed':2 'CTPurple':1 'CTGreen':0 'grey78':0 'CTYellow':3 }, { chips  'CTRed':0 'CTPurple':0 'CTGreen':0 'grey78':2 'CTYellow':0 }).
Wed Sep 11 11:04:34 IST 2013	phaseAdvanced(): entering.
Wed Sep 11 11:04:34 IST 2013	phaseAdvanced(): new phase is 'Movement Phase'.
Wed Sep 11 11:05:18 IST 2013	phaseAdvanced(): entering.
Wed Sep 11 11:05:18 IST 2013	phaseAdvanced(): new phase is 'Feedback Phase'.
Wed Sep 11 11:05:23 IST 2013	phaseAdvanced(): entering.
Wed Sep 11 11:05:23 IST 2013	phaseAdvanced(): new phase is 'Communication Phase'.
Wed Sep 11 11:05:48 IST 2013	onReceipt(): entering.
Wed Sep 11 11:05:48 IST 2013	phaseAdvanced(): entering.
Wed Sep 11 11:05:48 IST 2013	phaseAdvanced(): new phase is 'Movement Phase'.
Wed Sep 11 11:05:48 IST 2013	phaseAdvanced(): found paths (2).
Wed Sep 11 11:06:32 IST 2013	phaseAdvanced(): entering.
Wed Sep 11 11:06:32 IST 2013	phaseAdvanced(): new phase is 'Feedback Phase'.
