Fri Dec 07 08:26:50 IST 2012	This is the CT debug logger; svn version 638; sep 27 09
Fri Dec 07 08:26:50 IST 2012	Fri Dec 07 08:26:50 IST 2012
Fri Dec 07 08:26:50 IST 2012	A new Alternative Offers game has began
Fri Dec 07 08:26:50 IST 2012	ID Number: 40665
Fri Dec 07 08:26:50 IST 2012	Creating board
Fri Dec 07 08:26:50 IST 2012	<colors>
Fri Dec 07 08:26:50 IST 2012	{ GamePalette  'CTRed':0 'CTPurple':1 'CTGreen':2 'grey78':3 }
Fri Dec 07 08:26:50 IST 2012	<rows>
Fri Dec 07 08:26:50 IST 2012	7
Fri Dec 07 08:26:50 IST 2012	<columns>
Fri Dec 07 08:26:50 IST 2012	5
Fri Dec 07 08:26:50 IST 2012	<squaresColors>
Fri Dec 07 08:26:50 IST 2012	CTPurple CTRed CTRed CTGreen CTPurple 
Fri Dec 07 08:26:50 IST 2012	CTPurple grey78 CTPurple grey78 CTPurple 
Fri Dec 07 08:26:50 IST 2012	CTPurple CTRed CTPurple CTGreen CTPurple 
Fri Dec 07 08:26:50 IST 2012	CTPurple grey78 CTPurple grey78 CTPurple 
Fri Dec 07 08:26:50 IST 2012	CTPurple CTRed CTPurple CTGreen CTPurple 
Fri Dec 07 08:26:50 IST 2012	CTPurple grey78 CTPurple grey78 CTPurple 
Fri Dec 07 08:26:50 IST 2012	CTPurple CTRed CTPurple CTGreen CTPurple 
Fri Dec 07 08:26:50 IST 2012	</squareColors>
Fri Dec 07 08:26:50 IST 2012	<goalPosition>
Fri Dec 07 08:26:50 IST 2012	Goal position: (R:0,C:2)
Fri Dec 07 08:26:50 IST 2012	<numberOfPlayers>
Fri Dec 07 08:26:50 IST 2012	2
Fri Dec 07 08:26:50 IST 2012	<firstPlayerChips>
Fri Dec 07 08:26:50 IST 2012	Setting chips for player: 337 id:0
Fri Dec 07 08:26:50 IST 2012	{ chips  'CTRed':1 'CTGreen':13 'CTPurple':0 'grey78':10 }
Fri Dec 07 08:26:50 IST 2012	Player position: (R:6,C:4)
Fri Dec 07 08:26:50 IST 2012	Setting chips for player: 210 id:1
Fri Dec 07 08:26:50 IST 2012	{ chips  'CTRed':5 'CTGreen':19 'CTPurple':0 'grey78':0 }
Fri Dec 07 08:26:50 IST 2012	Player position: (R:6,C:0)
Fri Dec 07 08:26:50 IST 2012	Protocol: A New Phase Began: Strategy Prep Phase
Fri Dec 07 08:26:50 IST 2012	Protocol: Strategy Preparation phase, Round: 0
Fri Dec 07 08:26:50 IST 2012	Maximum number of rounds with no consecutive movement is 3
Fri Dec 07 08:26:50 IST 2012	In begin comm. phase, set counter offers count to: 0
Fri Dec 07 08:26:50 IST 2012	In begin comm. phase, get counter offers returned: 0
Fri Dec 07 08:27:10 IST 2012	A Phase Ended: Strategy Prep Phase
Fri Dec 07 08:27:10 IST 2012	Protocol: A New Phase Began: Communication Phase
Fri Dec 07 08:27:10 IST 2012	Protocol: Communication phase, Round: 0
Fri Dec 07 08:28:10 IST 2012	Received communication message 
Fri Dec 07 08:28:10 IST 2012	From player: 337
Fri Dec 07 08:28:10 IST 2012	To player: 210
Fri Dec 07 08:28:10 IST 2012	Message type: basicproposal
Fri Dec 07 08:28:10 IST 2012	Chips to send by proposer: { chips  'grey78':3 }
Fri Dec 07 08:28:10 IST 2012	Chips to send by responder: { chips  'CTGreen':2 }
Fri Dec 07 08:28:21 IST 2012	Received communication message 
Fri Dec 07 08:28:21 IST 2012	From player: 210
Fri Dec 07 08:28:21 IST 2012	To player: 337
Fri Dec 07 08:28:21 IST 2012	Message type: basicproposaldiscussion
Fri Dec 07 08:28:21 IST 2012	Player 210 accepted offer
Fri Dec 07 08:28:21 IST 2012	Prop accepted, set counter offers count to: 0
Fri Dec 07 08:28:21 IST 2012	Prop accepted, get counter offers returned: 0
Fri Dec 07 08:28:21 IST 2012	A Phase Ended: Communication Phase
Fri Dec 07 08:28:21 IST 2012	Protocol: A New Phase Began: Exchange Phase
Fri Dec 07 08:28:21 IST 2012	Protocol: Exchange phase, Round: 0
Fri Dec 07 08:28:21 IST 2012	In begin exch.phase, get counter offers returned: 0
Fri Dec 07 08:28:50 IST 2012	A Phase Ended: Exchange Phase
Fri Dec 07 08:28:50 IST 2012	Proposer 337 sent: { chips  'CTRed':0 'CTPurple':0 'CTGreen':0 'grey78':1 }
Fri Dec 07 08:28:50 IST 2012	Responder 210 sent: { chips  'CTRed':0 'CTPurple':0 'CTGreen':1 'grey78':0 }
Fri Dec 07 08:28:50 IST 2012	Protocol: A New Phase Began: Movement Phase
Fri Dec 07 08:28:50 IST 2012	Protocol: Movement phase, Round: 0
Fri Dec 07 08:29:09 IST 2012	A Phase Ended: Movement Phase
Fri Dec 07 08:29:09 IST 2012	Swaping roles:
Fri Dec 07 08:29:09 IST 2012	Proposer is: 210
Fri Dec 07 08:29:09 IST 2012	Responder is: 337
Fri Dec 07 08:29:09 IST 2012	Protocol: A New Phase Began: Feedback Phase
Fri Dec 07 08:29:09 IST 2012	Protocol: Feedback phase, Round: 0
Fri Dec 07 08:29:09 IST 2012	Number of consecutive no movements for player 337 is 1
Fri Dec 07 08:29:09 IST 2012	Number of consecutive no movements for player 210 is 1
Fri Dec 07 08:29:14 IST 2012	A Phase Ended: Feedback Phase
Fri Dec 07 08:29:14 IST 2012	Protocol: A New Phase Began: Communication Phase
Fri Dec 07 08:29:14 IST 2012	Protocol: Communication phase, Round: 1
Fri Dec 07 08:29:28 IST 2012	Received communication message 
Fri Dec 07 08:29:28 IST 2012	From player: 210
Fri Dec 07 08:29:28 IST 2012	To player: 337
Fri Dec 07 08:29:28 IST 2012	Message type: basicproposal
Fri Dec 07 08:29:28 IST 2012	Chips to send by proposer: { chips  'CTRed':0 'CTPurple':0 'CTGreen':1 'grey78':0 }
Fri Dec 07 08:29:28 IST 2012	Chips to send by responder: { chips  'CTRed':0 'CTPurple':0 'CTGreen':0 'grey78':1 }
Fri Dec 07 08:30:28 IST 2012	Received communication message 
Fri Dec 07 08:30:28 IST 2012	From player: 337
Fri Dec 07 08:30:28 IST 2012	To player: 210
Fri Dec 07 08:30:28 IST 2012	Message type: basicproposaldiscussion
Fri Dec 07 08:30:28 IST 2012	Player 337 rejected offer
Fri Dec 07 08:30:28 IST 2012	Swaping roles:
Fri Dec 07 08:30:28 IST 2012	Proposer is: 337
Fri Dec 07 08:30:28 IST 2012	Responder is: 210
Fri Dec 07 08:30:28 IST 2012	Prop rejected, set counter offers count to: 1
Fri Dec 07 08:30:28 IST 2012	Prop rejected, get counter offers returned: 1
Fri Dec 07 08:30:32 IST 2012	Slept 4 seconds
Fri Dec 07 08:30:32 IST 2012	Sent role changed msgs
Fri Dec 07 08:31:32 IST 2012	Received communication message 
Fri Dec 07 08:31:32 IST 2012	From player: 337
Fri Dec 07 08:31:32 IST 2012	To player: 210
Fri Dec 07 08:31:32 IST 2012	Message type: basicproposal
Fri Dec 07 08:31:32 IST 2012	Chips to send by proposer: { chips  'CTRed':0 'CTPurple':0 'CTGreen':0 'grey78':2 }
Fri Dec 07 08:31:32 IST 2012	Chips to send by responder: { chips  'CTRed':0 'CTPurple':0 'CTGreen':1 'grey78':0 }
Fri Dec 07 08:31:41 IST 2012	Received communication message 
Fri Dec 07 08:31:41 IST 2012	From player: 210
Fri Dec 07 08:31:41 IST 2012	To player: 337
Fri Dec 07 08:31:41 IST 2012	Message type: basicproposaldiscussion
Fri Dec 07 08:31:41 IST 2012	Player 210 rejected offer
Fri Dec 07 08:31:41 IST 2012	Set counter offers count to: 0
Fri Dec 07 08:31:41 IST 2012	A Phase Ended: Communication Phase
Fri Dec 07 08:31:41 IST 2012	Protocol: A New Phase Began: Exchange Phase
Fri Dec 07 08:31:41 IST 2012	Protocol: Exchange phase, Round: 1
Fri Dec 07 08:31:41 IST 2012	In begin exch.phase, get counter offers returned: 0
Fri Dec 07 08:32:21 IST 2012	A Phase Ended: Exchange Phase
Fri Dec 07 08:32:21 IST 2012	Proposer 337 sent: { chips  }
Fri Dec 07 08:32:21 IST 2012	Protocol: A New Phase Began: Movement Phase
Fri Dec 07 08:32:21 IST 2012	Protocol: Movement phase, Round: 1
Fri Dec 07 08:32:41 IST 2012	A Phase Ended: Movement Phase
Fri Dec 07 08:32:41 IST 2012	Protocol: A New Phase Began: Feedback Phase
Fri Dec 07 08:32:41 IST 2012	Protocol: Feedback phase, Round: 1
Fri Dec 07 08:32:41 IST 2012	Number of consecutive no movements for player 337 is 2
Fri Dec 07 08:32:41 IST 2012	Number of consecutive no movements for player 210 is 2
Fri Dec 07 08:32:46 IST 2012	A Phase Ended: Feedback Phase
Fri Dec 07 08:32:46 IST 2012	Protocol: A New Phase Began: Communication Phase
Fri Dec 07 08:32:46 IST 2012	Protocol: Communication phase, Round: 2
Fri Dec 07 08:33:46 IST 2012	Received communication message 
Fri Dec 07 08:33:46 IST 2012	From player: 337
Fri Dec 07 08:33:46 IST 2012	To player: 210
Fri Dec 07 08:33:46 IST 2012	Message type: basicproposal
Fri Dec 07 08:33:46 IST 2012	Chips to send by proposer: { chips  'grey78':2 }
Fri Dec 07 08:33:46 IST 2012	Chips to send by responder: { chips  'CTGreen':1 }
Fri Dec 07 08:33:58 IST 2012	Received communication message 
Fri Dec 07 08:33:58 IST 2012	From player: 210
Fri Dec 07 08:33:58 IST 2012	To player: 337
Fri Dec 07 08:33:58 IST 2012	Message type: basicproposaldiscussion
Fri Dec 07 08:33:58 IST 2012	Player 210 rejected offer
Fri Dec 07 08:33:58 IST 2012	Swaping roles:
Fri Dec 07 08:33:58 IST 2012	Proposer is: 210
Fri Dec 07 08:33:58 IST 2012	Responder is: 337
Fri Dec 07 08:33:58 IST 2012	Prop rejected, set counter offers count to: 1
Fri Dec 07 08:33:58 IST 2012	Prop rejected, get counter offers returned: 1
Fri Dec 07 08:34:02 IST 2012	Slept 4 seconds
Fri Dec 07 08:34:02 IST 2012	Sent role changed msgs
Fri Dec 07 08:34:20 IST 2012	Received communication message 
Fri Dec 07 08:34:20 IST 2012	From player: 210
Fri Dec 07 08:34:20 IST 2012	To player: 337
Fri Dec 07 08:34:20 IST 2012	Message type: basicproposal
Fri Dec 07 08:34:20 IST 2012	Chips to send by proposer: { chips  'CTRed':0 'CTPurple':0 'CTGreen':1 'grey78':0 }
Fri Dec 07 08:34:20 IST 2012	Chips to send by responder: { chips  'CTRed':0 'CTPurple':0 'CTGreen':0 'grey78':1 }
Fri Dec 07 08:35:20 IST 2012	Received communication message 
Fri Dec 07 08:35:20 IST 2012	From player: 337
Fri Dec 07 08:35:20 IST 2012	To player: 210
Fri Dec 07 08:35:20 IST 2012	Message type: basicproposaldiscussion
Fri Dec 07 08:35:20 IST 2012	Player 337 accepted offer
Fri Dec 07 08:35:20 IST 2012	Prop accepted, set counter offers count to: 0
Fri Dec 07 08:35:20 IST 2012	Prop accepted, get counter offers returned: 0
Fri Dec 07 08:35:20 IST 2012	A Phase Ended: Communication Phase
Fri Dec 07 08:35:20 IST 2012	Protocol: A New Phase Began: Exchange Phase
Fri Dec 07 08:35:20 IST 2012	Protocol: Exchange phase, Round: 2
Fri Dec 07 08:35:20 IST 2012	In begin exch.phase, get counter offers returned: 0
Fri Dec 07 08:35:49 IST 2012	A Phase Ended: Exchange Phase
Fri Dec 07 08:35:49 IST 2012	Proposer 210 sent: { chips  'CTRed':0 'CTPurple':0 'CTGreen':1 'grey78':0 }
Fri Dec 07 08:35:49 IST 2012	Responder 337 sent: { chips  'CTRed':0 'CTPurple':0 'CTGreen':0 'grey78':0 }
Fri Dec 07 08:35:49 IST 2012	Protocol: A New Phase Began: Movement Phase
Fri Dec 07 08:35:49 IST 2012	Protocol: Movement phase, Round: 2
Fri Dec 07 08:35:49 IST 2012	Player 337 moved to (R:6,C:3)
Fri Dec 07 08:35:49 IST 2012	Player 210 moved to (R:6,C:1)
Fri Dec 07 08:36:09 IST 2012	A Phase Ended: Movement Phase
Fri Dec 07 08:36:09 IST 2012	Protocol: A New Phase Began: Feedback Phase
Fri Dec 07 08:36:09 IST 2012	Protocol: Feedback phase, Round: 2
Fri Dec 07 08:36:09 IST 2012	Number of consecutive no movements for player 337 is 0
Fri Dec 07 08:36:09 IST 2012	Number of consecutive no movements for player 210 is 0
Fri Dec 07 08:36:14 IST 2012	A Phase Ended: Feedback Phase
Fri Dec 07 08:36:14 IST 2012	Protocol: A New Phase Began: Communication Phase
Fri Dec 07 08:36:14 IST 2012	Protocol: Communication phase, Round: 3
Fri Dec 07 08:36:27 IST 2012	Received communication message 
Fri Dec 07 08:36:27 IST 2012	From player: 210
Fri Dec 07 08:36:27 IST 2012	To player: 337
Fri Dec 07 08:36:27 IST 2012	Message type: basicproposal
Fri Dec 07 08:36:27 IST 2012	Chips to send by proposer: { chips  'CTRed':0 'CTPurple':0 'CTGreen':6 'grey78':0 }
Fri Dec 07 08:36:27 IST 2012	Chips to send by responder: { chips  'CTRed':0 'CTPurple':0 'CTGreen':0 'grey78':1 }
Fri Dec 07 08:37:27 IST 2012	Received communication message 
Fri Dec 07 08:37:27 IST 2012	From player: 337
Fri Dec 07 08:37:27 IST 2012	To player: 210
Fri Dec 07 08:37:27 IST 2012	Message type: basicproposaldiscussion
Fri Dec 07 08:37:27 IST 2012	Player 337 rejected offer
Fri Dec 07 08:37:27 IST 2012	Swaping roles:
Fri Dec 07 08:37:27 IST 2012	Proposer is: 337
Fri Dec 07 08:37:27 IST 2012	Responder is: 210
Fri Dec 07 08:37:27 IST 2012	Prop rejected, set counter offers count to: 1
Fri Dec 07 08:37:27 IST 2012	Prop rejected, get counter offers returned: 1
Fri Dec 07 08:37:31 IST 2012	Slept 4 seconds
Fri Dec 07 08:37:31 IST 2012	Sent role changed msgs
Fri Dec 07 08:38:31 IST 2012	Received communication message 
Fri Dec 07 08:38:31 IST 2012	From player: 337
Fri Dec 07 08:38:31 IST 2012	To player: 210
Fri Dec 07 08:38:31 IST 2012	Message type: basicproposal
Fri Dec 07 08:38:31 IST 2012	Chips to send by proposer: { chips  'CTRed':0 'CTPurple':0 'CTGreen':0 'grey78':2 }
Fri Dec 07 08:38:31 IST 2012	Chips to send by responder: { chips  'CTRed':0 'CTPurple':0 'CTGreen':1 'grey78':0 }
Fri Dec 07 08:38:45 IST 2012	Received communication message 
Fri Dec 07 08:38:45 IST 2012	From player: 210
Fri Dec 07 08:38:45 IST 2012	To player: 337
Fri Dec 07 08:38:45 IST 2012	Message type: basicproposaldiscussion
Fri Dec 07 08:38:45 IST 2012	Player 210 accepted offer
Fri Dec 07 08:38:45 IST 2012	Prop accepted, set counter offers count to: 0
Fri Dec 07 08:38:45 IST 2012	Prop accepted, get counter offers returned: 0
Fri Dec 07 08:38:45 IST 2012	A Phase Ended: Communication Phase
Fri Dec 07 08:38:45 IST 2012	Protocol: A New Phase Began: Exchange Phase
Fri Dec 07 08:38:45 IST 2012	Protocol: Exchange phase, Round: 3
Fri Dec 07 08:38:45 IST 2012	In begin exch.phase, get counter offers returned: 0
Fri Dec 07 08:39:14 IST 2012	A Phase Ended: Exchange Phase
Fri Dec 07 08:39:14 IST 2012	Proposer 337 sent: { chips  'CTRed':0 'CTPurple':0 'CTGreen':0 'grey78':0 }
Fri Dec 07 08:39:14 IST 2012	Responder 210 sent: { chips  }
Fri Dec 07 08:39:14 IST 2012	Protocol: A New Phase Began: Movement Phase
Fri Dec 07 08:39:14 IST 2012	Protocol: Movement phase, Round: 3
Fri Dec 07 08:39:33 IST 2012	A Phase Ended: Movement Phase
Fri Dec 07 08:39:33 IST 2012	Protocol: A New Phase Began: Feedback Phase
Fri Dec 07 08:39:33 IST 2012	Protocol: Feedback phase, Round: 3
Fri Dec 07 08:39:33 IST 2012	Number of consecutive no movements for player 337 is 1
Fri Dec 07 08:39:33 IST 2012	Number of consecutive no movements for player 210 is 1
Fri Dec 07 08:39:38 IST 2012	A Phase Ended: Feedback Phase
Fri Dec 07 08:39:38 IST 2012	Protocol: A New Phase Began: Communication Phase
Fri Dec 07 08:39:38 IST 2012	Protocol: Communication phase, Round: 4
Fri Dec 07 08:40:38 IST 2012	Received communication message 
Fri Dec 07 08:40:38 IST 2012	From player: 337
Fri Dec 07 08:40:38 IST 2012	To player: 210
Fri Dec 07 08:40:38 IST 2012	Message type: basicproposal
Fri Dec 07 08:40:38 IST 2012	Chips to send by proposer: { chips  'grey78':1 }
Fri Dec 07 08:40:38 IST 2012	Chips to send by responder: { chips  'CTGreen':1 }
Fri Dec 07 08:40:47 IST 2012	Received communication message 
Fri Dec 07 08:40:47 IST 2012	From player: 210
Fri Dec 07 08:40:47 IST 2012	To player: 337
Fri Dec 07 08:40:47 IST 2012	Message type: basicproposaldiscussion
Fri Dec 07 08:40:47 IST 2012	Player 210 accepted offer
Fri Dec 07 08:40:47 IST 2012	Prop accepted, set counter offers count to: 0
Fri Dec 07 08:40:47 IST 2012	Prop accepted, get counter offers returned: 0
Fri Dec 07 08:40:47 IST 2012	A Phase Ended: Communication Phase
Fri Dec 07 08:40:47 IST 2012	Protocol: A New Phase Began: Exchange Phase
Fri Dec 07 08:40:47 IST 2012	Protocol: Exchange phase, Round: 4
Fri Dec 07 08:40:47 IST 2012	In begin exch.phase, get counter offers returned: 0
Fri Dec 07 08:41:16 IST 2012	A Phase Ended: Exchange Phase
Fri Dec 07 08:41:16 IST 2012	Proposer 337 sent: { chips  'CTRed':0 'CTPurple':0 'CTGreen':0 'grey78':1 }
Fri Dec 07 08:41:16 IST 2012	Responder 210 sent: { chips  'CTRed':0 'CTPurple':0 'CTGreen':1 'grey78':0 }
Fri Dec 07 08:41:16 IST 2012	Protocol: A New Phase Began: Movement Phase
Fri Dec 07 08:41:16 IST 2012	Protocol: Movement phase, Round: 4
Fri Dec 07 08:41:35 IST 2012	A Phase Ended: Movement Phase
Fri Dec 07 08:41:35 IST 2012	Swaping roles:
Fri Dec 07 08:41:35 IST 2012	Proposer is: 210
Fri Dec 07 08:41:35 IST 2012	Responder is: 337
Fri Dec 07 08:41:35 IST 2012	Protocol: A New Phase Began: Feedback Phase
Fri Dec 07 08:41:35 IST 2012	Protocol: Feedback phase, Round: 4
Fri Dec 07 08:41:35 IST 2012	Number of consecutive no movements for player 337 is 2
Fri Dec 07 08:41:35 IST 2012	Number of consecutive no movements for player 210 is 2
Fri Dec 07 08:41:40 IST 2012	A Phase Ended: Feedback Phase
Fri Dec 07 08:41:40 IST 2012	Protocol: A New Phase Began: Communication Phase
Fri Dec 07 08:41:40 IST 2012	Protocol: Communication phase, Round: 5
Fri Dec 07 08:42:00 IST 2012	Received communication message 
Fri Dec 07 08:42:00 IST 2012	From player: 210
Fri Dec 07 08:42:00 IST 2012	To player: 337
Fri Dec 07 08:42:00 IST 2012	Message type: basicproposal
Fri Dec 07 08:42:00 IST 2012	Chips to send by proposer: { chips  'CTRed':0 'CTPurple':0 'CTGreen':1 'grey78':0 }
Fri Dec 07 08:42:00 IST 2012	Chips to send by responder: { chips  'CTRed':0 'CTPurple':0 'CTGreen':0 'grey78':1 }
Fri Dec 07 08:42:09 IST 2012	Received communication message 
Fri Dec 07 08:42:09 IST 2012	From player: 337
Fri Dec 07 08:42:09 IST 2012	To player: 210
Fri Dec 07 08:42:09 IST 2012	Message type: basicproposaldiscussion
Fri Dec 07 08:42:09 IST 2012	Player 337 accepted offer
Fri Dec 07 08:42:09 IST 2012	Prop accepted, set counter offers count to: 0
Fri Dec 07 08:42:09 IST 2012	Prop accepted, get counter offers returned: 0
Fri Dec 07 08:42:09 IST 2012	A Phase Ended: Communication Phase
Fri Dec 07 08:42:09 IST 2012	Protocol: A New Phase Began: Exchange Phase
Fri Dec 07 08:42:09 IST 2012	Protocol: Exchange phase, Round: 5
Fri Dec 07 08:42:09 IST 2012	In begin exch.phase, get counter offers returned: 0
Fri Dec 07 08:42:38 IST 2012	A Phase Ended: Exchange Phase
Fri Dec 07 08:42:38 IST 2012	Proposer 210 sent: { chips  }
Fri Dec 07 08:42:38 IST 2012	Responder 337 sent: { chips  'CTRed':0 'CTPurple':0 'CTGreen':0 'grey78':0 }
Fri Dec 07 08:42:38 IST 2012	Protocol: A New Phase Began: Movement Phase
Fri Dec 07 08:42:38 IST 2012	Protocol: Movement phase, Round: 5
Fri Dec 07 08:42:38 IST 2012	Player 210 moved to (R:5,C:1)
Fri Dec 07 08:42:38 IST 2012	Player 337 moved to (R:5,C:3)
Fri Dec 07 08:42:57 IST 2012	A Phase Ended: Movement Phase
Fri Dec 07 08:42:57 IST 2012	Swaping roles:
Fri Dec 07 08:42:57 IST 2012	Proposer is: 337
Fri Dec 07 08:42:57 IST 2012	Responder is: 210
Fri Dec 07 08:42:57 IST 2012	Protocol: A New Phase Began: Feedback Phase
Fri Dec 07 08:42:57 IST 2012	Protocol: Feedback phase, Round: 5
Fri Dec 07 08:42:57 IST 2012	Number of consecutive no movements for player 337 is 0
Fri Dec 07 08:42:57 IST 2012	Number of consecutive no movements for player 210 is 0
Fri Dec 07 08:43:02 IST 2012	A Phase Ended: Feedback Phase
Fri Dec 07 08:43:02 IST 2012	Protocol: A New Phase Began: Communication Phase
Fri Dec 07 08:43:02 IST 2012	Protocol: Communication phase, Round: 6
Fri Dec 07 08:44:02 IST 2012	Received communication message 
Fri Dec 07 08:44:02 IST 2012	From player: 337
Fri Dec 07 08:44:02 IST 2012	To player: 210
Fri Dec 07 08:44:02 IST 2012	Message type: basicproposal
Fri Dec 07 08:44:02 IST 2012	Chips to send by proposer: { chips  'grey78':1 }
Fri Dec 07 08:44:02 IST 2012	Chips to send by responder: { chips  'CTGreen':1 }
Fri Dec 07 08:44:16 IST 2012	Received communication message 
Fri Dec 07 08:44:16 IST 2012	From player: 210
Fri Dec 07 08:44:16 IST 2012	To player: 337
Fri Dec 07 08:44:16 IST 2012	Message type: basicproposaldiscussion
Fri Dec 07 08:44:16 IST 2012	Player 210 accepted offer
Fri Dec 07 08:44:16 IST 2012	Prop accepted, set counter offers count to: 0
Fri Dec 07 08:44:16 IST 2012	Prop accepted, get counter offers returned: 0
Fri Dec 07 08:44:16 IST 2012	A Phase Ended: Communication Phase
Fri Dec 07 08:44:16 IST 2012	Protocol: A New Phase Began: Exchange Phase
Fri Dec 07 08:44:16 IST 2012	Protocol: Exchange phase, Round: 6
Fri Dec 07 08:44:16 IST 2012	In begin exch.phase, get counter offers returned: 0
Fri Dec 07 08:44:45 IST 2012	A Phase Ended: Exchange Phase
Fri Dec 07 08:44:45 IST 2012	Proposer 337 sent: { chips  'CTRed':0 'CTPurple':0 'CTGreen':0 'grey78':0 }
Fri Dec 07 08:44:45 IST 2012	Responder 210 sent: { chips  'CTRed':0 'CTPurple':0 'CTGreen':1 'grey78':0 }
Fri Dec 07 08:44:45 IST 2012	Protocol: A New Phase Began: Movement Phase
Fri Dec 07 08:44:45 IST 2012	Protocol: Movement phase, Round: 6
Fri Dec 07 08:45:04 IST 2012	A Phase Ended: Movement Phase
Fri Dec 07 08:45:04 IST 2012	Swaping roles:
Fri Dec 07 08:45:04 IST 2012	Proposer is: 210
Fri Dec 07 08:45:04 IST 2012	Responder is: 337
Fri Dec 07 08:45:04 IST 2012	Protocol: A New Phase Began: Feedback Phase
Fri Dec 07 08:45:04 IST 2012	Protocol: Feedback phase, Round: 6
Fri Dec 07 08:45:04 IST 2012	Number of consecutive no movements for player 337 is 1
Fri Dec 07 08:45:04 IST 2012	Number of consecutive no movements for player 210 is 1
Fri Dec 07 08:45:09 IST 2012	A Phase Ended: Feedback Phase
Fri Dec 07 08:45:09 IST 2012	Protocol: A New Phase Began: Communication Phase
Fri Dec 07 08:45:09 IST 2012	Protocol: Communication phase, Round: 7
Fri Dec 07 08:45:22 IST 2012	Received communication message 
Fri Dec 07 08:45:22 IST 2012	From player: 210
Fri Dec 07 08:45:22 IST 2012	To player: 337
Fri Dec 07 08:45:22 IST 2012	Message type: basicproposal
Fri Dec 07 08:45:22 IST 2012	Chips to send by proposer: { chips  'CTRed':0 'CTPurple':0 'CTGreen':1 'grey78':0 }
Fri Dec 07 08:45:22 IST 2012	Chips to send by responder: { chips  'CTRed':0 'CTPurple':0 'CTGreen':0 'grey78':1 }
Fri Dec 07 08:46:22 IST 2012	Received communication message 
Fri Dec 07 08:46:22 IST 2012	From player: 337
Fri Dec 07 08:46:22 IST 2012	To player: 210
Fri Dec 07 08:46:22 IST 2012	Message type: basicproposaldiscussion
Fri Dec 07 08:46:22 IST 2012	Player 337 rejected offer
Fri Dec 07 08:46:22 IST 2012	Swaping roles:
Fri Dec 07 08:46:22 IST 2012	Proposer is: 337
Fri Dec 07 08:46:22 IST 2012	Responder is: 210
Fri Dec 07 08:46:22 IST 2012	Prop rejected, set counter offers count to: 1
Fri Dec 07 08:46:22 IST 2012	Prop rejected, get counter offers returned: 1
Fri Dec 07 08:46:26 IST 2012	Slept 4 seconds
Fri Dec 07 08:46:26 IST 2012	Sent role changed msgs
Fri Dec 07 08:47:26 IST 2012	Received communication message 
Fri Dec 07 08:47:26 IST 2012	From player: 337
Fri Dec 07 08:47:26 IST 2012	To player: 210
Fri Dec 07 08:47:26 IST 2012	Message type: basicproposal
Fri Dec 07 08:47:26 IST 2012	Chips to send by proposer: { chips  'CTRed':0 'CTPurple':0 'CTGreen':0 'grey78':1 }
Fri Dec 07 08:47:26 IST 2012	Chips to send by responder: { chips  'CTRed':0 'CTPurple':0 'CTGreen':1 'grey78':0 }
Fri Dec 07 08:47:33 IST 2012	Received communication message 
Fri Dec 07 08:47:33 IST 2012	From player: 210
Fri Dec 07 08:47:33 IST 2012	To player: 337
Fri Dec 07 08:47:33 IST 2012	Message type: basicproposaldiscussion
Fri Dec 07 08:47:33 IST 2012	Player 210 accepted offer
Fri Dec 07 08:47:33 IST 2012	Prop accepted, set counter offers count to: 0
Fri Dec 07 08:47:33 IST 2012	Prop accepted, get counter offers returned: 0
Fri Dec 07 08:47:33 IST 2012	A Phase Ended: Communication Phase
Fri Dec 07 08:47:33 IST 2012	Protocol: A New Phase Began: Exchange Phase
Fri Dec 07 08:47:33 IST 2012	Protocol: Exchange phase, Round: 7
Fri Dec 07 08:47:33 IST 2012	In begin exch.phase, get counter offers returned: 0
Fri Dec 07 08:48:02 IST 2012	A Phase Ended: Exchange Phase
Fri Dec 07 08:48:02 IST 2012	Proposer 337 sent: { chips  'CTRed':0 'CTPurple':0 'CTGreen':0 'grey78':0 }
Fri Dec 07 08:48:02 IST 2012	Responder 210 sent: { chips  }
Fri Dec 07 08:48:02 IST 2012	Protocol: A New Phase Began: Movement Phase
Fri Dec 07 08:48:02 IST 2012	Protocol: Movement phase, Round: 7
Fri Dec 07 08:48:21 IST 2012	A Phase Ended: Movement Phase
Fri Dec 07 08:48:21 IST 2012	Protocol: A New Phase Began: Feedback Phase
Fri Dec 07 08:48:21 IST 2012	Protocol: Feedback phase, Round: 7
Fri Dec 07 08:48:21 IST 2012	Number of consecutive no movements for player 337 is 2
Fri Dec 07 08:48:21 IST 2012	Number of consecutive no movements for player 210 is 2
Fri Dec 07 08:48:26 IST 2012	A Phase Ended: Feedback Phase
Fri Dec 07 08:48:26 IST 2012	Protocol: A New Phase Began: Communication Phase
Fri Dec 07 08:48:26 IST 2012	Protocol: Communication phase, Round: 8
Fri Dec 07 08:49:26 IST 2012	Received communication message 
Fri Dec 07 08:49:26 IST 2012	From player: 337
Fri Dec 07 08:49:26 IST 2012	To player: 210
Fri Dec 07 08:49:26 IST 2012	Message type: basicproposal
Fri Dec 07 08:49:26 IST 2012	Chips to send by proposer: { chips  'grey78':1 }
Fri Dec 07 08:49:26 IST 2012	Chips to send by responder: { chips  'CTGreen':1 }
Fri Dec 07 08:49:38 IST 2012	Received communication message 
Fri Dec 07 08:49:38 IST 2012	From player: 210
Fri Dec 07 08:49:38 IST 2012	To player: 337
Fri Dec 07 08:49:38 IST 2012	Message type: basicproposaldiscussion
Fri Dec 07 08:49:38 IST 2012	Player 210 accepted offer
Fri Dec 07 08:49:38 IST 2012	Prop accepted, set counter offers count to: 0
Fri Dec 07 08:49:38 IST 2012	Prop accepted, get counter offers returned: 0
Fri Dec 07 08:49:38 IST 2012	A Phase Ended: Communication Phase
Fri Dec 07 08:49:38 IST 2012	Protocol: A New Phase Began: Exchange Phase
Fri Dec 07 08:49:38 IST 2012	Protocol: Exchange phase, Round: 8
Fri Dec 07 08:49:38 IST 2012	In begin exch.phase, get counter offers returned: 0
Fri Dec 07 08:50:07 IST 2012	A Phase Ended: Exchange Phase
Fri Dec 07 08:50:07 IST 2012	Proposer 337 sent: { chips  'CTRed':0 'CTPurple':0 'CTGreen':0 'grey78':0 }
Fri Dec 07 08:50:07 IST 2012	Responder 210 sent: { chips  'CTRed':0 'CTPurple':0 'CTGreen':1 'grey78':0 }
Fri Dec 07 08:50:07 IST 2012	Protocol: A New Phase Began: Movement Phase
Fri Dec 07 08:50:07 IST 2012	Protocol: Movement phase, Round: 8
Fri Dec 07 08:50:07 IST 2012	Player 210 moved to (R:4,C:1)
Fri Dec 07 08:50:07 IST 2012	Player 337 moved to (R:4,C:3)
Fri Dec 07 08:50:26 IST 2012	A Phase Ended: Movement Phase
Fri Dec 07 08:50:26 IST 2012	Swaping roles:
Fri Dec 07 08:50:26 IST 2012	Proposer is: 210
Fri Dec 07 08:50:26 IST 2012	Responder is: 337
Fri Dec 07 08:50:26 IST 2012	Protocol: A New Phase Began: Feedback Phase
Fri Dec 07 08:50:26 IST 2012	Protocol: Feedback phase, Round: 8
Fri Dec 07 08:50:26 IST 2012	Number of consecutive no movements for player 337 is 0
Fri Dec 07 08:50:26 IST 2012	Number of consecutive no movements for player 210 is 0
Fri Dec 07 08:50:31 IST 2012	A Phase Ended: Feedback Phase
Fri Dec 07 08:50:31 IST 2012	Protocol: A New Phase Began: Communication Phase
Fri Dec 07 08:50:31 IST 2012	Protocol: Communication phase, Round: 9
Fri Dec 07 08:50:43 IST 2012	Received communication message 
Fri Dec 07 08:50:43 IST 2012	From player: 210
Fri Dec 07 08:50:43 IST 2012	To player: 337
Fri Dec 07 08:50:43 IST 2012	Message type: basicproposal
Fri Dec 07 08:50:43 IST 2012	Chips to send by proposer: { chips  'CTRed':0 'CTPurple':0 'CTGreen':1 'grey78':0 }
Fri Dec 07 08:50:43 IST 2012	Chips to send by responder: { chips  'CTRed':0 'CTPurple':0 'CTGreen':0 'grey78':1 }
Fri Dec 07 08:51:43 IST 2012	Received communication message 
Fri Dec 07 08:51:43 IST 2012	From player: 337
Fri Dec 07 08:51:43 IST 2012	To player: 210
Fri Dec 07 08:51:43 IST 2012	Message type: basicproposaldiscussion
Fri Dec 07 08:51:43 IST 2012	Player 337 rejected offer
Fri Dec 07 08:51:43 IST 2012	Swaping roles:
Fri Dec 07 08:51:43 IST 2012	Proposer is: 337
Fri Dec 07 08:51:43 IST 2012	Responder is: 210
Fri Dec 07 08:51:43 IST 2012	Prop rejected, set counter offers count to: 1
Fri Dec 07 08:51:43 IST 2012	Prop rejected, get counter offers returned: 1
Fri Dec 07 08:51:47 IST 2012	Slept 4 seconds
Fri Dec 07 08:51:47 IST 2012	Sent role changed msgs
Fri Dec 07 08:52:47 IST 2012	Received communication message 
Fri Dec 07 08:52:47 IST 2012	From player: 337
Fri Dec 07 08:52:47 IST 2012	To player: 210
Fri Dec 07 08:52:47 IST 2012	Message type: basicproposal
Fri Dec 07 08:52:47 IST 2012	Chips to send by proposer: { chips  'CTRed':0 'CTPurple':0 'CTGreen':0 'grey78':1 }
Fri Dec 07 08:52:47 IST 2012	Chips to send by responder: { chips  'CTRed':0 'CTPurple':0 'CTGreen':1 'grey78':0 }
Fri Dec 07 08:52:57 IST 2012	Received communication message 
Fri Dec 07 08:52:57 IST 2012	From player: 210
Fri Dec 07 08:52:57 IST 2012	To player: 337
Fri Dec 07 08:52:57 IST 2012	Message type: basicproposaldiscussion
Fri Dec 07 08:52:57 IST 2012	Player 210 rejected offer
Fri Dec 07 08:52:57 IST 2012	Set counter offers count to: 0
Fri Dec 07 08:52:57 IST 2012	A Phase Ended: Communication Phase
Fri Dec 07 08:52:57 IST 2012	Protocol: A New Phase Began: Exchange Phase
Fri Dec 07 08:52:57 IST 2012	Protocol: Exchange phase, Round: 9
Fri Dec 07 08:52:57 IST 2012	In begin exch.phase, get counter offers returned: 0
Fri Dec 07 08:53:36 IST 2012	A Phase Ended: Exchange Phase
Fri Dec 07 08:53:36 IST 2012	Proposer 337 sent: { chips  }
Fri Dec 07 08:53:36 IST 2012	Protocol: A New Phase Began: Movement Phase
Fri Dec 07 08:53:36 IST 2012	Protocol: Movement phase, Round: 9
Fri Dec 07 08:53:56 IST 2012	A Phase Ended: Movement Phase
Fri Dec 07 08:53:56 IST 2012	Protocol: A New Phase Began: Feedback Phase
Fri Dec 07 08:53:56 IST 2012	Protocol: Feedback phase, Round: 9
Fri Dec 07 08:53:56 IST 2012	Number of consecutive no movements for player 337 is 1
Fri Dec 07 08:53:56 IST 2012	Number of consecutive no movements for player 210 is 1
Fri Dec 07 08:54:01 IST 2012	A Phase Ended: Feedback Phase
Fri Dec 07 08:54:01 IST 2012	Protocol: A New Phase Began: Communication Phase
Fri Dec 07 08:54:01 IST 2012	Protocol: Communication phase, Round: 10
Fri Dec 07 08:55:01 IST 2012	Received communication message 
Fri Dec 07 08:55:01 IST 2012	From player: 337
Fri Dec 07 08:55:01 IST 2012	To player: 210
Fri Dec 07 08:55:01 IST 2012	Message type: basicproposal
Fri Dec 07 08:55:01 IST 2012	Chips to send by proposer: { chips  'grey78':1 }
Fri Dec 07 08:55:01 IST 2012	Chips to send by responder: { chips  'CTGreen':1 }
Fri Dec 07 08:55:12 IST 2012	Received communication message 
Fri Dec 07 08:55:12 IST 2012	From player: 210
Fri Dec 07 08:55:12 IST 2012	To player: 337
Fri Dec 07 08:55:12 IST 2012	Message type: basicproposaldiscussion
Fri Dec 07 08:55:12 IST 2012	Player 210 accepted offer
Fri Dec 07 08:55:12 IST 2012	Prop accepted, set counter offers count to: 0
Fri Dec 07 08:55:12 IST 2012	Prop accepted, get counter offers returned: 0
Fri Dec 07 08:55:12 IST 2012	A Phase Ended: Communication Phase
Fri Dec 07 08:55:12 IST 2012	Protocol: A New Phase Began: Exchange Phase
Fri Dec 07 08:55:12 IST 2012	Protocol: Exchange phase, Round: 10
Fri Dec 07 08:55:12 IST 2012	In begin exch.phase, get counter offers returned: 0
Fri Dec 07 08:55:41 IST 2012	A Phase Ended: Exchange Phase
Fri Dec 07 08:55:41 IST 2012	Proposer 337 sent: { chips  'CTRed':0 'CTPurple':0 'CTGreen':0 'grey78':0 }
Fri Dec 07 08:55:41 IST 2012	Responder 210 sent: { chips  'CTRed':0 'CTPurple':0 'CTGreen':1 'grey78':0 }
Fri Dec 07 08:55:41 IST 2012	Protocol: A New Phase Began: Movement Phase
Fri Dec 07 08:55:41 IST 2012	Protocol: Movement phase, Round: 10
Fri Dec 07 08:56:00 IST 2012	A Phase Ended: Movement Phase
Fri Dec 07 08:56:00 IST 2012	Swaping roles:
Fri Dec 07 08:56:00 IST 2012	Proposer is: 210
Fri Dec 07 08:56:00 IST 2012	Responder is: 337
Fri Dec 07 08:56:00 IST 2012	Protocol: A New Phase Began: Feedback Phase
Fri Dec 07 08:56:00 IST 2012	Protocol: Feedback phase, Round: 10
Fri Dec 07 08:56:00 IST 2012	Number of consecutive no movements for player 337 is 2
Fri Dec 07 08:56:00 IST 2012	Number of consecutive no movements for player 210 is 2
Fri Dec 07 08:56:05 IST 2012	A Phase Ended: Feedback Phase
Fri Dec 07 08:56:05 IST 2012	Protocol: A New Phase Began: Communication Phase
Fri Dec 07 08:56:05 IST 2012	Protocol: Communication phase, Round: 11
Fri Dec 07 08:56:23 IST 2012	Received communication message 
Fri Dec 07 08:56:23 IST 2012	From player: 210
Fri Dec 07 08:56:23 IST 2012	To player: 337
Fri Dec 07 08:56:23 IST 2012	Message type: basicproposal
Fri Dec 07 08:56:23 IST 2012	Chips to send by proposer: { chips  'CTRed':0 'CTPurple':0 'CTGreen':2 'grey78':0 }
Fri Dec 07 08:56:23 IST 2012	Chips to send by responder: { chips  'CTRed':0 'CTPurple':0 'CTGreen':0 'grey78':1 }
Fri Dec 07 08:57:12 IST 2012	Received communication message 
Fri Dec 07 08:57:12 IST 2012	From player: 337
Fri Dec 07 08:57:12 IST 2012	To player: 210
Fri Dec 07 08:57:12 IST 2012	Message type: basicproposaldiscussion
Fri Dec 07 08:57:12 IST 2012	Player 337 rejected offer
Fri Dec 07 08:57:12 IST 2012	Swaping roles:
Fri Dec 07 08:57:12 IST 2012	Proposer is: 337
Fri Dec 07 08:57:12 IST 2012	Responder is: 210
Fri Dec 07 08:57:12 IST 2012	Prop rejected, set counter offers count to: 1
Fri Dec 07 08:57:12 IST 2012	Prop rejected, get counter offers returned: 1
Fri Dec 07 08:57:16 IST 2012	Slept 4 seconds
Fri Dec 07 08:57:16 IST 2012	Sent role changed msgs
Fri Dec 07 08:58:16 IST 2012	Received communication message 
Fri Dec 07 08:58:16 IST 2012	From player: 337
Fri Dec 07 08:58:16 IST 2012	To player: 210
Fri Dec 07 08:58:16 IST 2012	Message type: basicproposal
Fri Dec 07 08:58:16 IST 2012	Chips to send by proposer: { chips  'CTRed':0 'CTPurple':0 'CTGreen':0 'grey78':1 }
Fri Dec 07 08:58:16 IST 2012	Chips to send by responder: { chips  'CTRed':0 'CTPurple':0 'CTGreen':1 'grey78':0 }
Fri Dec 07 08:58:25 IST 2012	Received communication message 
Fri Dec 07 08:58:25 IST 2012	From player: 210
Fri Dec 07 08:58:25 IST 2012	To player: 337
Fri Dec 07 08:58:25 IST 2012	Message type: basicproposaldiscussion
Fri Dec 07 08:58:25 IST 2012	Player 210 accepted offer
Fri Dec 07 08:58:25 IST 2012	Prop accepted, set counter offers count to: 0
Fri Dec 07 08:58:25 IST 2012	Prop accepted, get counter offers returned: 0
Fri Dec 07 08:58:25 IST 2012	A Phase Ended: Communication Phase
Fri Dec 07 08:58:25 IST 2012	Protocol: A New Phase Began: Exchange Phase
Fri Dec 07 08:58:25 IST 2012	Protocol: Exchange phase, Round: 11
Fri Dec 07 08:58:25 IST 2012	In begin exch.phase, get counter offers returned: 0
Fri Dec 07 08:58:54 IST 2012	A Phase Ended: Exchange Phase
Fri Dec 07 08:58:54 IST 2012	Proposer 337 sent: { chips  'CTRed':0 'CTPurple':0 'CTGreen':0 'grey78':0 }
Fri Dec 07 08:58:54 IST 2012	Responder 210 sent: { chips  }
Fri Dec 07 08:58:54 IST 2012	Protocol: A New Phase Began: Movement Phase
Fri Dec 07 08:58:54 IST 2012	Protocol: Movement phase, Round: 11
Fri Dec 07 08:58:54 IST 2012	Player 210 moved to (R:3,C:1)
Fri Dec 07 08:58:54 IST 2012	Player 337 moved to (R:3,C:3)
Fri Dec 07 08:59:13 IST 2012	A Phase Ended: Movement Phase
Fri Dec 07 08:59:13 IST 2012	Protocol: A New Phase Began: Feedback Phase
Fri Dec 07 08:59:13 IST 2012	Protocol: Feedback phase, Round: 11
Fri Dec 07 08:59:13 IST 2012	Number of consecutive no movements for player 337 is 0
Fri Dec 07 08:59:13 IST 2012	Number of consecutive no movements for player 210 is 0
Fri Dec 07 08:59:18 IST 2012	A Phase Ended: Feedback Phase
Fri Dec 07 08:59:18 IST 2012	Protocol: A New Phase Began: Communication Phase
Fri Dec 07 08:59:18 IST 2012	Protocol: Communication phase, Round: 12
Fri Dec 07 09:00:18 IST 2012	Received communication message 
Fri Dec 07 09:00:18 IST 2012	From player: 337
Fri Dec 07 09:00:18 IST 2012	To player: 210
Fri Dec 07 09:00:18 IST 2012	Message type: basicproposal
Fri Dec 07 09:00:18 IST 2012	Chips to send by proposer: { chips  'grey78':1 }
Fri Dec 07 09:00:18 IST 2012	Chips to send by responder: { chips  'CTGreen':1 }
Fri Dec 07 09:00:26 IST 2012	Received communication message 
Fri Dec 07 09:00:26 IST 2012	From player: 210
Fri Dec 07 09:00:26 IST 2012	To player: 337
Fri Dec 07 09:00:26 IST 2012	Message type: basicproposaldiscussion
Fri Dec 07 09:00:26 IST 2012	Player 210 accepted offer
Fri Dec 07 09:00:26 IST 2012	Prop accepted, set counter offers count to: 0
Fri Dec 07 09:00:26 IST 2012	Prop accepted, get counter offers returned: 0
Fri Dec 07 09:00:26 IST 2012	A Phase Ended: Communication Phase
Fri Dec 07 09:00:26 IST 2012	Protocol: A New Phase Began: Exchange Phase
Fri Dec 07 09:00:26 IST 2012	Protocol: Exchange phase, Round: 12
Fri Dec 07 09:00:26 IST 2012	In begin exch.phase, get counter offers returned: 0
Fri Dec 07 09:00:53 IST 2012	A Phase Ended: Exchange Phase
Fri Dec 07 09:00:53 IST 2012	Proposer 337 sent: { chips  'CTRed':0 'CTPurple':0 'CTGreen':0 'grey78':0 }
Fri Dec 07 09:00:53 IST 2012	Responder 210 sent: { chips  'CTRed':0 'CTPurple':0 'CTGreen':1 'grey78':0 }
Fri Dec 07 09:00:53 IST 2012	Protocol: A New Phase Began: Movement Phase
Fri Dec 07 09:00:53 IST 2012	Protocol: Movement phase, Round: 12
Fri Dec 07 09:01:13 IST 2012	A Phase Ended: Movement Phase
Fri Dec 07 09:01:13 IST 2012	Swaping roles:
Fri Dec 07 09:01:13 IST 2012	Proposer is: 210
Fri Dec 07 09:01:13 IST 2012	Responder is: 337
Fri Dec 07 09:01:13 IST 2012	Protocol: A New Phase Began: Feedback Phase
Fri Dec 07 09:01:13 IST 2012	Protocol: Feedback phase, Round: 12
Fri Dec 07 09:01:13 IST 2012	Number of consecutive no movements for player 337 is 1
Fri Dec 07 09:01:13 IST 2012	Number of consecutive no movements for player 210 is 1
Fri Dec 07 09:01:18 IST 2012	A Phase Ended: Feedback Phase
Fri Dec 07 09:01:18 IST 2012	Protocol: A New Phase Began: Communication Phase
Fri Dec 07 09:01:18 IST 2012	Protocol: Communication phase, Round: 13
Fri Dec 07 09:01:31 IST 2012	Received communication message 
Fri Dec 07 09:01:31 IST 2012	From player: 210
Fri Dec 07 09:01:31 IST 2012	To player: 337
Fri Dec 07 09:01:31 IST 2012	Message type: basicproposal
Fri Dec 07 09:01:31 IST 2012	Chips to send by proposer: { chips  'CTRed':0 'CTPurple':0 'CTGreen':1 'grey78':0 }
Fri Dec 07 09:01:31 IST 2012	Chips to send by responder: { chips  'CTRed':0 'CTPurple':0 'CTGreen':0 'grey78':1 }
Fri Dec 07 09:02:05 IST 2012	Received communication message 
Fri Dec 07 09:02:05 IST 2012	From player: 337
Fri Dec 07 09:02:05 IST 2012	To player: 210
Fri Dec 07 09:02:05 IST 2012	Message type: basicproposaldiscussion
Fri Dec 07 09:02:05 IST 2012	Player 337 rejected offer
Fri Dec 07 09:02:05 IST 2012	Swaping roles:
Fri Dec 07 09:02:05 IST 2012	Proposer is: 337
Fri Dec 07 09:02:05 IST 2012	Responder is: 210
Fri Dec 07 09:02:05 IST 2012	Prop rejected, set counter offers count to: 1
Fri Dec 07 09:02:05 IST 2012	Prop rejected, get counter offers returned: 1
Fri Dec 07 09:02:09 IST 2012	Slept 4 seconds
Fri Dec 07 09:02:09 IST 2012	Sent role changed msgs
Fri Dec 07 09:03:09 IST 2012	Received communication message 
Fri Dec 07 09:03:09 IST 2012	From player: 337
Fri Dec 07 09:03:09 IST 2012	To player: 210
Fri Dec 07 09:03:09 IST 2012	Message type: basicproposal
Fri Dec 07 09:03:09 IST 2012	Chips to send by proposer: { chips  'CTRed':0 'CTPurple':0 'CTGreen':0 'grey78':1 }
Fri Dec 07 09:03:09 IST 2012	Chips to send by responder: { chips  'CTRed':0 'CTPurple':0 'CTGreen':1 'grey78':0 }
Fri Dec 07 09:03:16 IST 2012	Received communication message 
Fri Dec 07 09:03:16 IST 2012	From player: 210
Fri Dec 07 09:03:16 IST 2012	To player: 337
Fri Dec 07 09:03:16 IST 2012	Message type: basicproposaldiscussion
Fri Dec 07 09:03:16 IST 2012	Player 210 accepted offer
Fri Dec 07 09:03:16 IST 2012	Prop accepted, set counter offers count to: 0
Fri Dec 07 09:03:16 IST 2012	Prop accepted, get counter offers returned: 0
Fri Dec 07 09:03:16 IST 2012	A Phase Ended: Communication Phase
Fri Dec 07 09:03:16 IST 2012	Protocol: A New Phase Began: Exchange Phase
Fri Dec 07 09:03:16 IST 2012	Protocol: Exchange phase, Round: 13
Fri Dec 07 09:03:16 IST 2012	In begin exch.phase, get counter offers returned: 0
Fri Dec 07 09:03:38 IST 2012	A Phase Ended: Exchange Phase
Fri Dec 07 09:03:38 IST 2012	Proposer 337 sent: { chips  'CTRed':0 'CTPurple':0 'CTGreen':0 'grey78':0 }
Fri Dec 07 09:03:38 IST 2012	Responder 210 sent: { chips  'CTRed':0 'CTPurple':0 'CTGreen':1 'grey78':0 }
Fri Dec 07 09:03:38 IST 2012	Protocol: A New Phase Began: Movement Phase
Fri Dec 07 09:03:38 IST 2012	Protocol: Movement phase, Round: 13
Fri Dec 07 09:03:58 IST 2012	A Phase Ended: Movement Phase
Fri Dec 07 09:03:58 IST 2012	Protocol: A New Phase Began: Feedback Phase
Fri Dec 07 09:03:58 IST 2012	Protocol: Feedback phase, Round: 13
Fri Dec 07 09:03:58 IST 2012	Number of consecutive no movements for player 337 is 2
Fri Dec 07 09:03:58 IST 2012	Number of consecutive no movements for player 210 is 2
Fri Dec 07 09:04:03 IST 2012	A Phase Ended: Feedback Phase
Fri Dec 07 09:04:03 IST 2012	Protocol: A New Phase Began: Communication Phase
Fri Dec 07 09:04:03 IST 2012	Protocol: Communication phase, Round: 14
Fri Dec 07 09:05:03 IST 2012	Received communication message 
Fri Dec 07 09:05:03 IST 2012	From player: 337
Fri Dec 07 09:05:03 IST 2012	To player: 210
Fri Dec 07 09:05:03 IST 2012	Message type: basicproposal
Fri Dec 07 09:05:03 IST 2012	Chips to send by proposer: { chips  'grey78':1 }
Fri Dec 07 09:05:03 IST 2012	Chips to send by responder: { chips  'CTGreen':1 }
Fri Dec 07 09:05:14 IST 2012	Received communication message 
Fri Dec 07 09:05:14 IST 2012	From player: 210
Fri Dec 07 09:05:14 IST 2012	To player: 337
Fri Dec 07 09:05:14 IST 2012	Message type: basicproposaldiscussion
Fri Dec 07 09:05:14 IST 2012	Player 210 rejected offer
Fri Dec 07 09:05:14 IST 2012	Swaping roles:
Fri Dec 07 09:05:14 IST 2012	Proposer is: 210
Fri Dec 07 09:05:14 IST 2012	Responder is: 337
Fri Dec 07 09:05:14 IST 2012	Prop rejected, set counter offers count to: 1
Fri Dec 07 09:05:14 IST 2012	Prop rejected, get counter offers returned: 1
Fri Dec 07 09:05:18 IST 2012	Slept 4 seconds
Fri Dec 07 09:05:18 IST 2012	Sent role changed msgs
Fri Dec 07 09:05:30 IST 2012	Received communication message 
Fri Dec 07 09:05:30 IST 2012	From player: 210
Fri Dec 07 09:05:30 IST 2012	To player: 337
Fri Dec 07 09:05:30 IST 2012	Message type: basicproposal
Fri Dec 07 09:05:30 IST 2012	Chips to send by proposer: { chips  'CTRed':0 'CTPurple':0 'CTGreen':1 'grey78':0 }
Fri Dec 07 09:05:30 IST 2012	Chips to send by responder: { chips  'CTRed':0 'CTPurple':0 'CTGreen':0 'grey78':1 }
Fri Dec 07 09:05:54 IST 2012	Received communication message 
Fri Dec 07 09:05:54 IST 2012	From player: 337
Fri Dec 07 09:05:54 IST 2012	To player: 210
Fri Dec 07 09:05:54 IST 2012	Message type: basicproposaldiscussion
Fri Dec 07 09:05:54 IST 2012	Player 337 accepted offer
Fri Dec 07 09:05:54 IST 2012	Prop accepted, set counter offers count to: 0
Fri Dec 07 09:05:54 IST 2012	Prop accepted, get counter offers returned: 0
Fri Dec 07 09:05:54 IST 2012	A Phase Ended: Communication Phase
Fri Dec 07 09:05:54 IST 2012	Protocol: A New Phase Began: Exchange Phase
Fri Dec 07 09:05:54 IST 2012	Protocol: Exchange phase, Round: 14
Fri Dec 07 09:05:54 IST 2012	In begin exch.phase, get counter offers returned: 0
Fri Dec 07 09:06:13 IST 2012	A Phase Ended: Exchange Phase
Fri Dec 07 09:06:13 IST 2012	Proposer 210 sent: { chips  }
Fri Dec 07 09:06:13 IST 2012	Responder 337 sent: { chips  'CTRed':0 'CTPurple':0 'CTGreen':0 'grey78':0 }
Fri Dec 07 09:06:13 IST 2012	Protocol: A New Phase Began: Movement Phase
Fri Dec 07 09:06:13 IST 2012	Protocol: Movement phase, Round: 14
Fri Dec 07 09:06:13 IST 2012	Player 210 moved to (R:2,C:1)
Fri Dec 07 09:06:13 IST 2012	Player 337 moved to (R:2,C:3)
Fri Dec 07 09:06:32 IST 2012	A Phase Ended: Movement Phase
Fri Dec 07 09:06:32 IST 2012	Protocol: A New Phase Began: Feedback Phase
Fri Dec 07 09:06:32 IST 2012	Protocol: Feedback phase, Round: 14
Fri Dec 07 09:06:32 IST 2012	Number of consecutive no movements for player 337 is 0
Fri Dec 07 09:06:32 IST 2012	Number of consecutive no movements for player 210 is 0
Fri Dec 07 09:06:37 IST 2012	A Phase Ended: Feedback Phase
Fri Dec 07 09:06:37 IST 2012	Protocol: A New Phase Began: Communication Phase
Fri Dec 07 09:06:37 IST 2012	Protocol: Communication phase, Round: 15
Fri Dec 07 09:06:49 IST 2012	Received communication message 
Fri Dec 07 09:06:49 IST 2012	From player: 210
Fri Dec 07 09:06:49 IST 2012	To player: 337
Fri Dec 07 09:06:49 IST 2012	Message type: basicproposal
Fri Dec 07 09:06:49 IST 2012	Chips to send by proposer: { chips  'CTRed':0 'CTPurple':0 'CTGreen':1 'grey78':0 }
Fri Dec 07 09:06:49 IST 2012	Chips to send by responder: { chips  'CTRed':0 'CTPurple':0 'CTGreen':0 'grey78':1 }
Fri Dec 07 09:07:08 IST 2012	Received communication message 
Fri Dec 07 09:07:08 IST 2012	From player: 337
Fri Dec 07 09:07:08 IST 2012	To player: 210
Fri Dec 07 09:07:08 IST 2012	Message type: basicproposaldiscussion
Fri Dec 07 09:07:08 IST 2012	Player 337 accepted offer
Fri Dec 07 09:07:08 IST 2012	Prop accepted, set counter offers count to: 0
Fri Dec 07 09:07:08 IST 2012	Prop accepted, get counter offers returned: 0
Fri Dec 07 09:07:08 IST 2012	A Phase Ended: Communication Phase
Fri Dec 07 09:07:08 IST 2012	Protocol: A New Phase Began: Exchange Phase
Fri Dec 07 09:07:08 IST 2012	Protocol: Exchange phase, Round: 15
Fri Dec 07 09:07:08 IST 2012	In begin exch.phase, get counter offers returned: 0
Fri Dec 07 09:07:22 IST 2012	A Phase Ended: Exchange Phase
Fri Dec 07 09:07:22 IST 2012	Proposer 210 sent: { chips  'CTRed':0 'CTPurple':0 'CTGreen':1 'grey78':0 }
Fri Dec 07 09:07:22 IST 2012	Responder 337 sent: { chips  'CTRed':0 'CTPurple':0 'CTGreen':0 'grey78':0 }
Fri Dec 07 09:07:22 IST 2012	Protocol: A New Phase Began: Movement Phase
Fri Dec 07 09:07:22 IST 2012	Protocol: Movement phase, Round: 15
Fri Dec 07 09:07:41 IST 2012	A Phase Ended: Movement Phase
Fri Dec 07 09:07:41 IST 2012	Swaping roles:
Fri Dec 07 09:07:41 IST 2012	Proposer is: 337
Fri Dec 07 09:07:41 IST 2012	Responder is: 210
Fri Dec 07 09:07:41 IST 2012	Protocol: A New Phase Began: Feedback Phase
Fri Dec 07 09:07:41 IST 2012	Protocol: Feedback phase, Round: 15
Fri Dec 07 09:07:41 IST 2012	Number of consecutive no movements for player 337 is 1
Fri Dec 07 09:07:41 IST 2012	Number of consecutive no movements for player 210 is 1
Fri Dec 07 09:07:46 IST 2012	A Phase Ended: Feedback Phase
Fri Dec 07 09:07:46 IST 2012	Protocol: A New Phase Began: Communication Phase
Fri Dec 07 09:07:46 IST 2012	Protocol: Communication phase, Round: 16
Fri Dec 07 09:08:30 IST 2012	Received communication message 
Fri Dec 07 09:08:30 IST 2012	From player: 337
Fri Dec 07 09:08:30 IST 2012	To player: 210
Fri Dec 07 09:08:30 IST 2012	Message type: basicproposal
Fri Dec 07 09:08:30 IST 2012	Chips to send by proposer: { chips  'grey78':1 }
Fri Dec 07 09:08:30 IST 2012	Chips to send by responder: { chips  'CTGreen':1 }
Fri Dec 07 09:08:36 IST 2012	Received communication message 
Fri Dec 07 09:08:36 IST 2012	From player: 210
Fri Dec 07 09:08:36 IST 2012	To player: 337
Fri Dec 07 09:08:36 IST 2012	Message type: basicproposaldiscussion
Fri Dec 07 09:08:36 IST 2012	Player 210 accepted offer
Fri Dec 07 09:08:36 IST 2012	Prop accepted, set counter offers count to: 0
Fri Dec 07 09:08:36 IST 2012	Prop accepted, get counter offers returned: 0
Fri Dec 07 09:08:36 IST 2012	A Phase Ended: Communication Phase
Fri Dec 07 09:08:36 IST 2012	Protocol: A New Phase Began: Exchange Phase
Fri Dec 07 09:08:36 IST 2012	Protocol: Exchange phase, Round: 16
Fri Dec 07 09:08:36 IST 2012	In begin exch.phase, get counter offers returned: 0
Fri Dec 07 09:08:45 IST 2012	A Phase Ended: Exchange Phase
Fri Dec 07 09:08:45 IST 2012	Proposer 337 sent: { chips  'CTRed':0 'CTPurple':0 'CTGreen':0 'grey78':0 }
Fri Dec 07 09:08:45 IST 2012	Responder 210 sent: { chips  'CTRed':0 'CTPurple':0 'CTGreen':1 'grey78':0 }
Fri Dec 07 09:08:45 IST 2012	Protocol: A New Phase Began: Movement Phase
Fri Dec 07 09:08:45 IST 2012	Protocol: Movement phase, Round: 16
Fri Dec 07 09:09:04 IST 2012	A Phase Ended: Movement Phase
Fri Dec 07 09:09:04 IST 2012	Swaping roles:
Fri Dec 07 09:09:04 IST 2012	Proposer is: 210
Fri Dec 07 09:09:04 IST 2012	Responder is: 337
Fri Dec 07 09:09:04 IST 2012	Protocol: A New Phase Began: Feedback Phase
Fri Dec 07 09:09:04 IST 2012	Protocol: Feedback phase, Round: 16
Fri Dec 07 09:09:04 IST 2012	Number of consecutive no movements for player 337 is 2
Fri Dec 07 09:09:04 IST 2012	Number of consecutive no movements for player 210 is 2
Fri Dec 07 09:09:09 IST 2012	A Phase Ended: Feedback Phase
Fri Dec 07 09:09:09 IST 2012	Protocol: A New Phase Began: Communication Phase
Fri Dec 07 09:09:09 IST 2012	Protocol: Communication phase, Round: 17
Fri Dec 07 09:09:22 IST 2012	Received communication message 
Fri Dec 07 09:09:22 IST 2012	From player: 210
Fri Dec 07 09:09:22 IST 2012	To player: 337
Fri Dec 07 09:09:22 IST 2012	Message type: basicproposal
Fri Dec 07 09:09:22 IST 2012	Chips to send by proposer: { chips  'CTRed':0 'CTPurple':0 'CTGreen':1 'grey78':0 }
Fri Dec 07 09:09:22 IST 2012	Chips to send by responder: { chips  'CTRed':0 'CTPurple':0 'CTGreen':0 'grey78':1 }
Fri Dec 07 09:09:29 IST 2012	Received communication message 
Fri Dec 07 09:09:29 IST 2012	From player: 337
Fri Dec 07 09:09:29 IST 2012	To player: 210
Fri Dec 07 09:09:29 IST 2012	Message type: basicproposaldiscussion
Fri Dec 07 09:09:29 IST 2012	Player 337 accepted offer
Fri Dec 07 09:09:29 IST 2012	Prop accepted, set counter offers count to: 0
Fri Dec 07 09:09:29 IST 2012	Prop accepted, get counter offers returned: 0
Fri Dec 07 09:09:29 IST 2012	A Phase Ended: Communication Phase
Fri Dec 07 09:09:29 IST 2012	Protocol: A New Phase Began: Exchange Phase
Fri Dec 07 09:09:29 IST 2012	Protocol: Exchange phase, Round: 17
Fri Dec 07 09:09:29 IST 2012	In begin exch.phase, get counter offers returned: 0
Fri Dec 07 09:09:34 IST 2012	A Phase Ended: Exchange Phase
Fri Dec 07 09:09:34 IST 2012	Proposer 210 sent: { chips  }
Fri Dec 07 09:09:34 IST 2012	Responder 337 sent: { chips  'CTRed':0 'CTPurple':0 'CTGreen':0 'grey78':0 }
Fri Dec 07 09:09:34 IST 2012	Protocol: A New Phase Began: Movement Phase
Fri Dec 07 09:09:34 IST 2012	Protocol: Movement phase, Round: 17
Fri Dec 07 09:09:34 IST 2012	Player 337 moved to (R:1,C:3)
Fri Dec 07 09:09:53 IST 2012	A Phase Ended: Movement Phase
Fri Dec 07 09:09:53 IST 2012	Swaping roles:
Fri Dec 07 09:09:53 IST 2012	Proposer is: 337
Fri Dec 07 09:09:53 IST 2012	Responder is: 210
Fri Dec 07 09:09:53 IST 2012	Protocol: A New Phase Began: Feedback Phase
Fri Dec 07 09:09:53 IST 2012	Protocol: Feedback phase, Round: 17
Fri Dec 07 09:09:53 IST 2012	Number of consecutive no movements for player 337 is 0
Fri Dec 07 09:09:53 IST 2012	Number of consecutive no movements for player 210 is 3
Fri Dec 07 09:09:53 IST 2012	Ending game, all players move as much as they can towards goal
Fri Dec 07 09:09:53 IST 2012	Player: 337 ,role: Proposer score is: 220
Fri Dec 07 09:09:53 IST 2012	Player: 210 ,role: Responder score is: 25
