Fri Dec 07 09:52:33 IST 2012	This is the CT debug logger; svn version 638; sep 27 09
Fri Dec 07 09:52:33 IST 2012	Fri Dec 07 09:52:33 IST 2012
Fri Dec 07 09:52:33 IST 2012	A new Alternative Offers game has began
Fri Dec 07 09:52:33 IST 2012	ID Number: 43604
Fri Dec 07 09:52:33 IST 2012	Creating board
Fri Dec 07 09:52:33 IST 2012	<colors>
Fri Dec 07 09:52:33 IST 2012	{ GamePalette  'CTRed':0 'CTPurple':1 'CTGreen':2 'grey78':3 }
Fri Dec 07 09:52:33 IST 2012	<rows>
Fri Dec 07 09:52:33 IST 2012	7
Fri Dec 07 09:52:33 IST 2012	<columns>
Fri Dec 07 09:52:33 IST 2012	5
Fri Dec 07 09:52:33 IST 2012	<squaresColors>
Fri Dec 07 09:52:33 IST 2012	CTPurple CTRed CTRed CTGreen CTPurple 
Fri Dec 07 09:52:33 IST 2012	CTPurple grey78 CTPurple grey78 CTPurple 
Fri Dec 07 09:52:33 IST 2012	CTPurple CTRed CTPurple CTGreen CTPurple 
Fri Dec 07 09:52:33 IST 2012	CTPurple grey78 CTPurple grey78 CTPurple 
Fri Dec 07 09:52:33 IST 2012	CTPurple CTRed CTPurple CTGreen CTPurple 
Fri Dec 07 09:52:33 IST 2012	CTPurple grey78 CTPurple grey78 CTPurple 
Fri Dec 07 09:52:33 IST 2012	CTPurple CTRed CTPurple CTGreen CTPurple 
Fri Dec 07 09:52:33 IST 2012	</squareColors>
Fri Dec 07 09:52:33 IST 2012	<goalPosition>
Fri Dec 07 09:52:33 IST 2012	Goal position: (R:0,C:2)
Fri Dec 07 09:52:33 IST 2012	<numberOfPlayers>
Fri Dec 07 09:52:33 IST 2012	2
Fri Dec 07 09:52:33 IST 2012	<firstPlayerChips>
Fri Dec 07 09:52:33 IST 2012	Setting chips for player: 337 id:0
Fri Dec 07 09:52:33 IST 2012	{ chips  'CTRed':1 'CTGreen':13 'CTPurple':0 'grey78':10 }
Fri Dec 07 09:52:33 IST 2012	Player position: (R:6,C:4)
Fri Dec 07 09:52:33 IST 2012	Setting chips for player: 210 id:1
Fri Dec 07 09:52:33 IST 2012	{ chips  'CTRed':5 'CTGreen':19 'CTPurple':0 'grey78':0 }
Fri Dec 07 09:52:33 IST 2012	Player position: (R:6,C:0)
Fri Dec 07 09:52:33 IST 2012	Protocol: A New Phase Began: Strategy Prep Phase
Fri Dec 07 09:52:33 IST 2012	Protocol: Strategy Preparation phase, Round: 0
Fri Dec 07 09:52:33 IST 2012	Maximum number of rounds with no consecutive movement is 3
Fri Dec 07 09:52:33 IST 2012	In begin comm. phase, set counter offers count to: 0
Fri Dec 07 09:52:33 IST 2012	In begin comm. phase, get counter offers returned: 0
Fri Dec 07 09:52:53 IST 2012	A Phase Ended: Strategy Prep Phase
Fri Dec 07 09:52:53 IST 2012	Protocol: A New Phase Began: Communication Phase
Fri Dec 07 09:52:53 IST 2012	Protocol: Communication phase, Round: 0
Fri Dec 07 09:53:53 IST 2012	Received communication message 
Fri Dec 07 09:53:53 IST 2012	From player: 337
Fri Dec 07 09:53:53 IST 2012	To player: 210
Fri Dec 07 09:53:53 IST 2012	Message type: basicproposal
Fri Dec 07 09:53:53 IST 2012	Chips to send by proposer: { chips  'grey78':3 }
Fri Dec 07 09:53:53 IST 2012	Chips to send by responder: { chips  'CTGreen':1 }
Fri Dec 07 09:54:02 IST 2012	Received communication message 
Fri Dec 07 09:54:02 IST 2012	From player: 210
Fri Dec 07 09:54:02 IST 2012	To player: 337
Fri Dec 07 09:54:02 IST 2012	Message type: basicproposaldiscussion
Fri Dec 07 09:54:02 IST 2012	Player 210 accepted offer
Fri Dec 07 09:54:02 IST 2012	Prop accepted, set counter offers count to: 0
Fri Dec 07 09:54:02 IST 2012	Prop accepted, get counter offers returned: 0
Fri Dec 07 09:54:02 IST 2012	A Phase Ended: Communication Phase
Fri Dec 07 09:54:02 IST 2012	Protocol: A New Phase Began: Exchange Phase
Fri Dec 07 09:54:02 IST 2012	Protocol: Exchange phase, Round: 0
Fri Dec 07 09:54:02 IST 2012	In begin exch.phase, get counter offers returned: 0
Fri Dec 07 09:54:31 IST 2012	A Phase Ended: Exchange Phase
Fri Dec 07 09:54:31 IST 2012	Proposer 337 sent: { chips  'CTRed':0 'CTPurple':0 'CTGreen':0 'grey78':0 }
Fri Dec 07 09:54:31 IST 2012	Responder 210 sent: { chips  }
Fri Dec 07 09:54:31 IST 2012	Protocol: A New Phase Began: Movement Phase
Fri Dec 07 09:54:31 IST 2012	Protocol: Movement phase, Round: 0
Fri Dec 07 09:54:50 IST 2012	A Phase Ended: Movement Phase
Fri Dec 07 09:54:50 IST 2012	Swaping roles:
Fri Dec 07 09:54:50 IST 2012	Proposer is: 210
Fri Dec 07 09:54:50 IST 2012	Responder is: 337
Fri Dec 07 09:54:50 IST 2012	Protocol: A New Phase Began: Feedback Phase
Fri Dec 07 09:54:50 IST 2012	Protocol: Feedback phase, Round: 0
Fri Dec 07 09:54:50 IST 2012	Number of consecutive no movements for player 337 is 1
Fri Dec 07 09:54:50 IST 2012	Number of consecutive no movements for player 210 is 1
Fri Dec 07 09:54:55 IST 2012	A Phase Ended: Feedback Phase
Fri Dec 07 09:54:55 IST 2012	Protocol: A New Phase Began: Communication Phase
Fri Dec 07 09:54:55 IST 2012	Protocol: Communication phase, Round: 1
Fri Dec 07 09:55:13 IST 2012	Received communication message 
Fri Dec 07 09:55:13 IST 2012	From player: 210
Fri Dec 07 09:55:13 IST 2012	To player: 337
Fri Dec 07 09:55:13 IST 2012	Message type: basicproposal
Fri Dec 07 09:55:13 IST 2012	Chips to send by proposer: { chips  'CTRed':0 'CTPurple':0 'CTGreen':2 'grey78':0 }
Fri Dec 07 09:55:13 IST 2012	Chips to send by responder: { chips  'CTRed':0 'CTPurple':0 'CTGreen':0 'grey78':2 }
Fri Dec 07 09:55:44 IST 2012	Received communication message 
Fri Dec 07 09:55:44 IST 2012	From player: 337
Fri Dec 07 09:55:44 IST 2012	To player: 210
Fri Dec 07 09:55:44 IST 2012	Message type: basicproposaldiscussion
Fri Dec 07 09:55:44 IST 2012	Player 337 accepted offer
Fri Dec 07 09:55:44 IST 2012	Prop accepted, set counter offers count to: 0
Fri Dec 07 09:55:44 IST 2012	Prop accepted, get counter offers returned: 0
Fri Dec 07 09:55:44 IST 2012	A Phase Ended: Communication Phase
Fri Dec 07 09:55:44 IST 2012	Protocol: A New Phase Began: Exchange Phase
Fri Dec 07 09:55:44 IST 2012	Protocol: Exchange phase, Round: 1
Fri Dec 07 09:55:44 IST 2012	In begin exch.phase, get counter offers returned: 0
Fri Dec 07 09:56:13 IST 2012	A Phase Ended: Exchange Phase
Fri Dec 07 09:56:13 IST 2012	Proposer 210 sent: { chips  'CTRed':0 'CTPurple':0 'CTGreen':2 'grey78':0 }
Fri Dec 07 09:56:13 IST 2012	Responder 337 sent: { chips  'CTRed':0 'CTPurple':0 'CTGreen':0 'grey78':0 }
Fri Dec 07 09:56:13 IST 2012	Protocol: A New Phase Began: Movement Phase
Fri Dec 07 09:56:13 IST 2012	Protocol: Movement phase, Round: 1
Fri Dec 07 09:56:33 IST 2012	A Phase Ended: Movement Phase
Fri Dec 07 09:56:33 IST 2012	Swaping roles:
Fri Dec 07 09:56:33 IST 2012	Proposer is: 337
Fri Dec 07 09:56:33 IST 2012	Responder is: 210
Fri Dec 07 09:56:33 IST 2012	Protocol: A New Phase Began: Feedback Phase
Fri Dec 07 09:56:33 IST 2012	Protocol: Feedback phase, Round: 1
Fri Dec 07 09:56:33 IST 2012	Number of consecutive no movements for player 337 is 2
Fri Dec 07 09:56:33 IST 2012	Number of consecutive no movements for player 210 is 2
Fri Dec 07 09:56:38 IST 2012	A Phase Ended: Feedback Phase
Fri Dec 07 09:56:38 IST 2012	Protocol: A New Phase Began: Communication Phase
Fri Dec 07 09:56:38 IST 2012	Protocol: Communication phase, Round: 2
Fri Dec 07 09:57:38 IST 2012	Received communication message 
Fri Dec 07 09:57:38 IST 2012	From player: 337
Fri Dec 07 09:57:38 IST 2012	To player: 210
Fri Dec 07 09:57:38 IST 2012	Message type: basicproposal
Fri Dec 07 09:57:38 IST 2012	Chips to send by proposer: { chips  'grey78':3 }
Fri Dec 07 09:57:38 IST 2012	Chips to send by responder: { chips  'CTGreen':1 }
Fri Dec 07 09:57:46 IST 2012	Received communication message 
Fri Dec 07 09:57:46 IST 2012	From player: 210
Fri Dec 07 09:57:46 IST 2012	To player: 337
Fri Dec 07 09:57:46 IST 2012	Message type: basicproposaldiscussion
Fri Dec 07 09:57:46 IST 2012	Player 210 accepted offer
Fri Dec 07 09:57:46 IST 2012	Prop accepted, set counter offers count to: 0
Fri Dec 07 09:57:46 IST 2012	Prop accepted, get counter offers returned: 0
Fri Dec 07 09:57:46 IST 2012	A Phase Ended: Communication Phase
Fri Dec 07 09:57:46 IST 2012	Protocol: A New Phase Began: Exchange Phase
Fri Dec 07 09:57:46 IST 2012	Protocol: Exchange phase, Round: 2
Fri Dec 07 09:57:46 IST 2012	In begin exch.phase, get counter offers returned: 0
Fri Dec 07 09:58:15 IST 2012	A Phase Ended: Exchange Phase
Fri Dec 07 09:58:15 IST 2012	Proposer 337 sent: { chips  'CTRed':0 'CTPurple':0 'CTGreen':0 'grey78':0 }
Fri Dec 07 09:58:15 IST 2012	Responder 210 sent: { chips  }
Fri Dec 07 09:58:15 IST 2012	Protocol: A New Phase Began: Movement Phase
Fri Dec 07 09:58:15 IST 2012	Protocol: Movement phase, Round: 2
Fri Dec 07 09:58:15 IST 2012	Player 337 moved to (R:6,C:3)
Fri Dec 07 09:58:15 IST 2012	Player 210 moved to (R:6,C:1)
Fri Dec 07 09:58:35 IST 2012	A Phase Ended: Movement Phase
Fri Dec 07 09:58:35 IST 2012	Swaping roles:
Fri Dec 07 09:58:35 IST 2012	Proposer is: 210
Fri Dec 07 09:58:35 IST 2012	Responder is: 337
Fri Dec 07 09:58:35 IST 2012	Protocol: A New Phase Began: Feedback Phase
Fri Dec 07 09:58:35 IST 2012	Protocol: Feedback phase, Round: 2
Fri Dec 07 09:58:35 IST 2012	Number of consecutive no movements for player 337 is 0
Fri Dec 07 09:58:35 IST 2012	Number of consecutive no movements for player 210 is 0
Fri Dec 07 09:58:40 IST 2012	A Phase Ended: Feedback Phase
Fri Dec 07 09:58:40 IST 2012	Protocol: A New Phase Began: Communication Phase
Fri Dec 07 09:58:40 IST 2012	Protocol: Communication phase, Round: 3
Fri Dec 07 09:59:01 IST 2012	Received communication message 
Fri Dec 07 09:59:01 IST 2012	From player: 210
Fri Dec 07 09:59:01 IST 2012	To player: 337
Fri Dec 07 09:59:01 IST 2012	Message type: basicproposal
Fri Dec 07 09:59:01 IST 2012	Chips to send by proposer: { chips  'CTRed':0 'CTPurple':0 'CTGreen':3 'grey78':0 }
Fri Dec 07 09:59:01 IST 2012	Chips to send by responder: { chips  'CTRed':0 'CTPurple':0 'CTGreen':0 'grey78':2 }
Fri Dec 07 09:59:19 IST 2012	Received communication message 
Fri Dec 07 09:59:19 IST 2012	From player: 337
Fri Dec 07 09:59:19 IST 2012	To player: 210
Fri Dec 07 09:59:19 IST 2012	Message type: basicproposaldiscussion
Fri Dec 07 09:59:19 IST 2012	Player 337 rejected offer
Fri Dec 07 09:59:19 IST 2012	Swaping roles:
Fri Dec 07 09:59:19 IST 2012	Proposer is: 337
Fri Dec 07 09:59:19 IST 2012	Responder is: 210
Fri Dec 07 09:59:19 IST 2012	Prop rejected, set counter offers count to: 1
Fri Dec 07 09:59:19 IST 2012	Prop rejected, get counter offers returned: 1
Fri Dec 07 09:59:23 IST 2012	Slept 4 seconds
Fri Dec 07 09:59:23 IST 2012	Sent role changed msgs
Fri Dec 07 10:00:16 IST 2012	Received communication message 
Fri Dec 07 10:00:16 IST 2012	From player: 337
Fri Dec 07 10:00:16 IST 2012	To player: 210
Fri Dec 07 10:00:16 IST 2012	Message type: basicproposal
Fri Dec 07 10:00:16 IST 2012	Chips to send by proposer: { chips  'CTRed':0 'CTPurple':0 'CTGreen':0 'grey78':2 }
Fri Dec 07 10:00:16 IST 2012	Chips to send by responder: { chips  'CTRed':0 'CTPurple':0 'CTGreen':1 'grey78':0 }
Fri Dec 07 10:00:22 IST 2012	Received communication message 
Fri Dec 07 10:00:22 IST 2012	From player: 210
Fri Dec 07 10:00:22 IST 2012	To player: 337
Fri Dec 07 10:00:22 IST 2012	Message type: basicproposaldiscussion
Fri Dec 07 10:00:22 IST 2012	Player 210 accepted offer
Fri Dec 07 10:00:22 IST 2012	Prop accepted, set counter offers count to: 0
Fri Dec 07 10:00:22 IST 2012	Prop accepted, get counter offers returned: 0
Fri Dec 07 10:00:22 IST 2012	A Phase Ended: Communication Phase
Fri Dec 07 10:00:22 IST 2012	Protocol: A New Phase Began: Exchange Phase
Fri Dec 07 10:00:22 IST 2012	Protocol: Exchange phase, Round: 3
Fri Dec 07 10:00:22 IST 2012	In begin exch.phase, get counter offers returned: 0
Fri Dec 07 10:00:51 IST 2012	A Phase Ended: Exchange Phase
Fri Dec 07 10:00:51 IST 2012	Proposer 337 sent: { chips  'CTRed':0 'CTPurple':0 'CTGreen':0 'grey78':0 }
Fri Dec 07 10:00:51 IST 2012	Responder 210 sent: { chips  'CTRed':0 'CTPurple':0 'CTGreen':1 'grey78':0 }
Fri Dec 07 10:00:51 IST 2012	Protocol: A New Phase Began: Movement Phase
Fri Dec 07 10:00:51 IST 2012	Protocol: Movement phase, Round: 3
Fri Dec 07 10:01:10 IST 2012	A Phase Ended: Movement Phase
Fri Dec 07 10:01:10 IST 2012	Protocol: A New Phase Began: Feedback Phase
Fri Dec 07 10:01:10 IST 2012	Protocol: Feedback phase, Round: 3
Fri Dec 07 10:01:10 IST 2012	Number of consecutive no movements for player 337 is 1
Fri Dec 07 10:01:10 IST 2012	Number of consecutive no movements for player 210 is 1
Fri Dec 07 10:01:15 IST 2012	A Phase Ended: Feedback Phase
Fri Dec 07 10:01:15 IST 2012	Protocol: A New Phase Began: Communication Phase
Fri Dec 07 10:01:15 IST 2012	Protocol: Communication phase, Round: 4
Fri Dec 07 10:01:57 IST 2012	Received communication message 
Fri Dec 07 10:01:57 IST 2012	From player: 337
Fri Dec 07 10:01:57 IST 2012	To player: 210
Fri Dec 07 10:01:57 IST 2012	Message type: basicproposal
Fri Dec 07 10:01:57 IST 2012	Chips to send by proposer: { chips  'grey78':3 }
Fri Dec 07 10:01:57 IST 2012	Chips to send by responder: { chips  'CTGreen':1 }
Fri Dec 07 10:02:08 IST 2012	Received communication message 
Fri Dec 07 10:02:08 IST 2012	From player: 210
Fri Dec 07 10:02:08 IST 2012	To player: 337
Fri Dec 07 10:02:08 IST 2012	Message type: basicproposaldiscussion
Fri Dec 07 10:02:08 IST 2012	Player 210 accepted offer
Fri Dec 07 10:02:08 IST 2012	Prop accepted, set counter offers count to: 0
Fri Dec 07 10:02:08 IST 2012	Prop accepted, get counter offers returned: 0
Fri Dec 07 10:02:08 IST 2012	A Phase Ended: Communication Phase
Fri Dec 07 10:02:08 IST 2012	Protocol: A New Phase Began: Exchange Phase
Fri Dec 07 10:02:08 IST 2012	Protocol: Exchange phase, Round: 4
Fri Dec 07 10:02:08 IST 2012	In begin exch.phase, get counter offers returned: 0
Fri Dec 07 10:02:37 IST 2012	A Phase Ended: Exchange Phase
Fri Dec 07 10:02:37 IST 2012	Proposer 337 sent: { chips  'CTRed':0 'CTPurple':0 'CTGreen':0 'grey78':0 }
Fri Dec 07 10:02:37 IST 2012	Responder 210 sent: { chips  }
Fri Dec 07 10:02:37 IST 2012	Protocol: A New Phase Began: Movement Phase
Fri Dec 07 10:02:37 IST 2012	Protocol: Movement phase, Round: 4
Fri Dec 07 10:02:56 IST 2012	A Phase Ended: Movement Phase
Fri Dec 07 10:02:56 IST 2012	Swaping roles:
Fri Dec 07 10:02:56 IST 2012	Proposer is: 210
Fri Dec 07 10:02:56 IST 2012	Responder is: 337
Fri Dec 07 10:02:56 IST 2012	Protocol: A New Phase Began: Feedback Phase
Fri Dec 07 10:02:56 IST 2012	Protocol: Feedback phase, Round: 4
Fri Dec 07 10:02:56 IST 2012	Number of consecutive no movements for player 337 is 2
Fri Dec 07 10:02:56 IST 2012	Number of consecutive no movements for player 210 is 2
Fri Dec 07 10:03:01 IST 2012	A Phase Ended: Feedback Phase
Fri Dec 07 10:03:01 IST 2012	Protocol: A New Phase Began: Communication Phase
Fri Dec 07 10:03:01 IST 2012	Protocol: Communication phase, Round: 5
Fri Dec 07 10:03:19 IST 2012	Received communication message 
Fri Dec 07 10:03:19 IST 2012	From player: 210
Fri Dec 07 10:03:19 IST 2012	To player: 337
Fri Dec 07 10:03:19 IST 2012	Message type: basicproposal
Fri Dec 07 10:03:19 IST 2012	Chips to send by proposer: { chips  'CTRed':0 'CTPurple':0 'CTGreen':3 'grey78':0 }
Fri Dec 07 10:03:19 IST 2012	Chips to send by responder: { chips  'CTRed':0 'CTPurple':0 'CTGreen':0 'grey78':2 }
Fri Dec 07 10:03:26 IST 2012	Received communication message 
Fri Dec 07 10:03:26 IST 2012	From player: 337
Fri Dec 07 10:03:26 IST 2012	To player: 210
Fri Dec 07 10:03:26 IST 2012	Message type: basicproposaldiscussion
Fri Dec 07 10:03:26 IST 2012	Player 337 rejected offer
Fri Dec 07 10:03:26 IST 2012	Swaping roles:
Fri Dec 07 10:03:26 IST 2012	Proposer is: 337
Fri Dec 07 10:03:26 IST 2012	Responder is: 210
Fri Dec 07 10:03:26 IST 2012	Prop rejected, set counter offers count to: 1
Fri Dec 07 10:03:26 IST 2012	Prop rejected, get counter offers returned: 1
Fri Dec 07 10:03:30 IST 2012	Slept 4 seconds
Fri Dec 07 10:03:30 IST 2012	Sent role changed msgs
Fri Dec 07 10:03:46 IST 2012	Received communication message 
Fri Dec 07 10:03:46 IST 2012	From player: 337
Fri Dec 07 10:03:46 IST 2012	To player: 210
Fri Dec 07 10:03:46 IST 2012	Message type: basicproposal
Fri Dec 07 10:03:46 IST 2012	Chips to send by proposer: { chips  'CTRed':0 'CTPurple':0 'CTGreen':0 'grey78':2 }
Fri Dec 07 10:03:46 IST 2012	Chips to send by responder: { chips  'CTRed':0 'CTPurple':0 'CTGreen':1 'grey78':0 }
Fri Dec 07 10:03:52 IST 2012	Received communication message 
Fri Dec 07 10:03:52 IST 2012	From player: 210
Fri Dec 07 10:03:52 IST 2012	To player: 337
Fri Dec 07 10:03:52 IST 2012	Message type: basicproposaldiscussion
Fri Dec 07 10:03:52 IST 2012	Player 210 accepted offer
Fri Dec 07 10:03:52 IST 2012	Prop accepted, set counter offers count to: 0
Fri Dec 07 10:03:52 IST 2012	Prop accepted, get counter offers returned: 0
Fri Dec 07 10:03:52 IST 2012	A Phase Ended: Communication Phase
Fri Dec 07 10:03:52 IST 2012	Protocol: A New Phase Began: Exchange Phase
Fri Dec 07 10:03:52 IST 2012	Protocol: Exchange phase, Round: 5
Fri Dec 07 10:03:52 IST 2012	In begin exch.phase, get counter offers returned: 0
Fri Dec 07 10:04:21 IST 2012	A Phase Ended: Exchange Phase
Fri Dec 07 10:04:21 IST 2012	Proposer 337 sent: { chips  'CTRed':0 'CTPurple':0 'CTGreen':0 'grey78':2 }
Fri Dec 07 10:04:21 IST 2012	Responder 210 sent: { chips  'CTRed':0 'CTPurple':0 'CTGreen':1 'grey78':0 }
Fri Dec 07 10:04:21 IST 2012	Protocol: A New Phase Began: Movement Phase
Fri Dec 07 10:04:21 IST 2012	Protocol: Movement phase, Round: 5
Fri Dec 07 10:04:21 IST 2012	Player 210 moved to (R:5,C:1)
Fri Dec 07 10:04:21 IST 2012	Player 337 moved to (R:5,C:3)
Fri Dec 07 10:04:41 IST 2012	A Phase Ended: Movement Phase
Fri Dec 07 10:04:41 IST 2012	Protocol: A New Phase Began: Feedback Phase
Fri Dec 07 10:04:41 IST 2012	Protocol: Feedback phase, Round: 5
Fri Dec 07 10:04:41 IST 2012	Number of consecutive no movements for player 337 is 0
Fri Dec 07 10:04:41 IST 2012	Number of consecutive no movements for player 210 is 0
Fri Dec 07 10:04:46 IST 2012	A Phase Ended: Feedback Phase
Fri Dec 07 10:04:46 IST 2012	Protocol: A New Phase Began: Communication Phase
Fri Dec 07 10:04:46 IST 2012	Protocol: Communication phase, Round: 6
Fri Dec 07 10:05:46 IST 2012	Received communication message 
Fri Dec 07 10:05:46 IST 2012	From player: 337
Fri Dec 07 10:05:46 IST 2012	To player: 210
Fri Dec 07 10:05:46 IST 2012	Message type: basicproposal
Fri Dec 07 10:05:46 IST 2012	Chips to send by proposer: { chips  'grey78':1 }
Fri Dec 07 10:05:46 IST 2012	Chips to send by responder: { chips  'CTGreen':1 }
Fri Dec 07 10:05:55 IST 2012	Received communication message 
Fri Dec 07 10:05:55 IST 2012	From player: 210
Fri Dec 07 10:05:55 IST 2012	To player: 337
Fri Dec 07 10:05:55 IST 2012	Message type: basicproposaldiscussion
Fri Dec 07 10:05:55 IST 2012	Player 210 rejected offer
Fri Dec 07 10:05:55 IST 2012	Swaping roles:
Fri Dec 07 10:05:55 IST 2012	Proposer is: 210
Fri Dec 07 10:05:55 IST 2012	Responder is: 337
Fri Dec 07 10:05:55 IST 2012	Prop rejected, set counter offers count to: 1
Fri Dec 07 10:05:55 IST 2012	Prop rejected, get counter offers returned: 1
Fri Dec 07 10:05:59 IST 2012	Slept 4 seconds
Fri Dec 07 10:05:59 IST 2012	Sent role changed msgs
Fri Dec 07 10:06:11 IST 2012	Received communication message 
Fri Dec 07 10:06:11 IST 2012	From player: 210
Fri Dec 07 10:06:11 IST 2012	To player: 337
Fri Dec 07 10:06:11 IST 2012	Message type: basicproposal
Fri Dec 07 10:06:11 IST 2012	Chips to send by proposer: { chips  'CTRed':0 'CTPurple':0 'CTGreen':1 'grey78':0 }
Fri Dec 07 10:06:11 IST 2012	Chips to send by responder: { chips  'CTRed':0 'CTPurple':0 'CTGreen':0 'grey78':1 }
Fri Dec 07 10:07:11 IST 2012	Received communication message 
Fri Dec 07 10:07:11 IST 2012	From player: 337
Fri Dec 07 10:07:11 IST 2012	To player: 210
Fri Dec 07 10:07:11 IST 2012	Message type: basicproposaldiscussion
Fri Dec 07 10:07:11 IST 2012	Player 337 accepted offer
Fri Dec 07 10:07:11 IST 2012	Prop accepted, set counter offers count to: 0
Fri Dec 07 10:07:11 IST 2012	Prop accepted, get counter offers returned: 0
Fri Dec 07 10:07:11 IST 2012	A Phase Ended: Communication Phase
Fri Dec 07 10:07:11 IST 2012	Protocol: A New Phase Began: Exchange Phase
Fri Dec 07 10:07:11 IST 2012	Protocol: Exchange phase, Round: 6
Fri Dec 07 10:07:11 IST 2012	In begin exch.phase, get counter offers returned: 0
Fri Dec 07 10:07:40 IST 2012	A Phase Ended: Exchange Phase
Fri Dec 07 10:07:40 IST 2012	Proposer 210 sent: { chips  }
Fri Dec 07 10:07:40 IST 2012	Responder 337 sent: { chips  'CTRed':0 'CTPurple':0 'CTGreen':0 'grey78':0 }
Fri Dec 07 10:07:40 IST 2012	Protocol: A New Phase Began: Movement Phase
Fri Dec 07 10:07:40 IST 2012	Protocol: Movement phase, Round: 6
Fri Dec 07 10:07:59 IST 2012	A Phase Ended: Movement Phase
Fri Dec 07 10:07:59 IST 2012	Protocol: A New Phase Began: Feedback Phase
Fri Dec 07 10:07:59 IST 2012	Protocol: Feedback phase, Round: 6
Fri Dec 07 10:07:59 IST 2012	Number of consecutive no movements for player 337 is 1
Fri Dec 07 10:07:59 IST 2012	Number of consecutive no movements for player 210 is 1
Fri Dec 07 10:08:05 IST 2012	A Phase Ended: Feedback Phase
Fri Dec 07 10:08:05 IST 2012	Protocol: A New Phase Began: Communication Phase
Fri Dec 07 10:08:05 IST 2012	Protocol: Communication phase, Round: 7
Fri Dec 07 10:08:20 IST 2012	Received communication message 
Fri Dec 07 10:08:20 IST 2012	From player: 210
Fri Dec 07 10:08:20 IST 2012	To player: 337
Fri Dec 07 10:08:20 IST 2012	Message type: basicproposal
Fri Dec 07 10:08:20 IST 2012	Chips to send by proposer: { chips  'CTRed':0 'CTPurple':0 'CTGreen':1 'grey78':0 }
Fri Dec 07 10:08:20 IST 2012	Chips to send by responder: { chips  'CTRed':0 'CTPurple':0 'CTGreen':0 'grey78':1 }
Fri Dec 07 10:09:20 IST 2012	Received communication message 
Fri Dec 07 10:09:20 IST 2012	From player: 337
Fri Dec 07 10:09:20 IST 2012	To player: 210
Fri Dec 07 10:09:20 IST 2012	Message type: basicproposaldiscussion
Fri Dec 07 10:09:20 IST 2012	Player 337 accepted offer
Fri Dec 07 10:09:20 IST 2012	Prop accepted, set counter offers count to: 0
Fri Dec 07 10:09:20 IST 2012	Prop accepted, get counter offers returned: 0
Fri Dec 07 10:09:20 IST 2012	A Phase Ended: Communication Phase
Fri Dec 07 10:09:20 IST 2012	Protocol: A New Phase Began: Exchange Phase
Fri Dec 07 10:09:20 IST 2012	Protocol: Exchange phase, Round: 7
Fri Dec 07 10:09:20 IST 2012	In begin exch.phase, get counter offers returned: 0
Fri Dec 07 10:09:49 IST 2012	A Phase Ended: Exchange Phase
Fri Dec 07 10:09:49 IST 2012	Proposer 210 sent: { chips  'CTRed':0 'CTPurple':0 'CTGreen':1 'grey78':0 }
Fri Dec 07 10:09:49 IST 2012	Responder 337 sent: { chips  'CTRed':0 'CTPurple':0 'CTGreen':0 'grey78':0 }
Fri Dec 07 10:09:49 IST 2012	Protocol: A New Phase Began: Movement Phase
Fri Dec 07 10:09:49 IST 2012	Protocol: Movement phase, Round: 7
Fri Dec 07 10:10:08 IST 2012	A Phase Ended: Movement Phase
Fri Dec 07 10:10:08 IST 2012	Swaping roles:
Fri Dec 07 10:10:08 IST 2012	Proposer is: 337
Fri Dec 07 10:10:08 IST 2012	Responder is: 210
Fri Dec 07 10:10:08 IST 2012	Protocol: A New Phase Began: Feedback Phase
Fri Dec 07 10:10:08 IST 2012	Protocol: Feedback phase, Round: 7
Fri Dec 07 10:10:08 IST 2012	Number of consecutive no movements for player 337 is 2
Fri Dec 07 10:10:08 IST 2012	Number of consecutive no movements for player 210 is 2
Fri Dec 07 10:10:13 IST 2012	A Phase Ended: Feedback Phase
Fri Dec 07 10:10:13 IST 2012	Protocol: A New Phase Began: Communication Phase
Fri Dec 07 10:10:13 IST 2012	Protocol: Communication phase, Round: 8
Fri Dec 07 10:11:13 IST 2012	Received communication message 
Fri Dec 07 10:11:13 IST 2012	From player: 337
Fri Dec 07 10:11:13 IST 2012	To player: 210
Fri Dec 07 10:11:13 IST 2012	Message type: basicproposal
Fri Dec 07 10:11:13 IST 2012	Chips to send by proposer: { chips  'grey78':1 }
Fri Dec 07 10:11:13 IST 2012	Chips to send by responder: { chips  'CTGreen':1 }
Fri Dec 07 10:11:21 IST 2012	Received communication message 
Fri Dec 07 10:11:21 IST 2012	From player: 210
Fri Dec 07 10:11:21 IST 2012	To player: 337
Fri Dec 07 10:11:21 IST 2012	Message type: basicproposaldiscussion
Fri Dec 07 10:11:21 IST 2012	Player 210 accepted offer
Fri Dec 07 10:11:21 IST 2012	Prop accepted, set counter offers count to: 0
Fri Dec 07 10:11:21 IST 2012	Prop accepted, get counter offers returned: 0
Fri Dec 07 10:11:21 IST 2012	A Phase Ended: Communication Phase
Fri Dec 07 10:11:21 IST 2012	Protocol: A New Phase Began: Exchange Phase
Fri Dec 07 10:11:21 IST 2012	Protocol: Exchange phase, Round: 8
Fri Dec 07 10:11:21 IST 2012	In begin exch.phase, get counter offers returned: 0
Fri Dec 07 10:11:50 IST 2012	A Phase Ended: Exchange Phase
Fri Dec 07 10:11:50 IST 2012	Proposer 337 sent: { chips  'CTRed':0 'CTPurple':0 'CTGreen':0 'grey78':0 }
Fri Dec 07 10:11:50 IST 2012	Responder 210 sent: { chips  'CTRed':0 'CTPurple':0 'CTGreen':1 'grey78':0 }
Fri Dec 07 10:11:50 IST 2012	Protocol: A New Phase Began: Movement Phase
Fri Dec 07 10:11:50 IST 2012	Protocol: Movement phase, Round: 8
Fri Dec 07 10:11:50 IST 2012	Player 210 moved to (R:4,C:1)
Fri Dec 07 10:11:50 IST 2012	Player 337 moved to (R:4,C:3)
Fri Dec 07 10:12:10 IST 2012	A Phase Ended: Movement Phase
Fri Dec 07 10:12:10 IST 2012	Swaping roles:
Fri Dec 07 10:12:10 IST 2012	Proposer is: 210
Fri Dec 07 10:12:10 IST 2012	Responder is: 337
Fri Dec 07 10:12:10 IST 2012	Protocol: A New Phase Began: Feedback Phase
Fri Dec 07 10:12:10 IST 2012	Protocol: Feedback phase, Round: 8
Fri Dec 07 10:12:10 IST 2012	Number of consecutive no movements for player 337 is 0
Fri Dec 07 10:12:10 IST 2012	Number of consecutive no movements for player 210 is 0
Fri Dec 07 10:12:15 IST 2012	A Phase Ended: Feedback Phase
Fri Dec 07 10:12:15 IST 2012	Protocol: A New Phase Began: Communication Phase
Fri Dec 07 10:12:15 IST 2012	Protocol: Communication phase, Round: 9
Fri Dec 07 10:12:28 IST 2012	Received communication message 
Fri Dec 07 10:12:28 IST 2012	From player: 210
Fri Dec 07 10:12:28 IST 2012	To player: 337
Fri Dec 07 10:12:28 IST 2012	Message type: basicproposal
Fri Dec 07 10:12:28 IST 2012	Chips to send by proposer: { chips  'CTRed':0 'CTPurple':0 'CTGreen':1 'grey78':0 }
Fri Dec 07 10:12:28 IST 2012	Chips to send by responder: { chips  'CTRed':0 'CTPurple':0 'CTGreen':0 'grey78':1 }
Fri Dec 07 10:13:28 IST 2012	Received communication message 
Fri Dec 07 10:13:28 IST 2012	From player: 337
Fri Dec 07 10:13:28 IST 2012	To player: 210
Fri Dec 07 10:13:28 IST 2012	Message type: basicproposaldiscussion
Fri Dec 07 10:13:28 IST 2012	Player 337 rejected offer
Fri Dec 07 10:13:28 IST 2012	Swaping roles:
Fri Dec 07 10:13:28 IST 2012	Proposer is: 337
Fri Dec 07 10:13:28 IST 2012	Responder is: 210
Fri Dec 07 10:13:28 IST 2012	Prop rejected, set counter offers count to: 1
Fri Dec 07 10:13:28 IST 2012	Prop rejected, get counter offers returned: 1
Fri Dec 07 10:13:32 IST 2012	Slept 4 seconds
Fri Dec 07 10:13:32 IST 2012	Sent role changed msgs
Fri Dec 07 10:14:32 IST 2012	Received communication message 
Fri Dec 07 10:14:32 IST 2012	From player: 337
Fri Dec 07 10:14:32 IST 2012	To player: 210
Fri Dec 07 10:14:32 IST 2012	Message type: basicproposal
Fri Dec 07 10:14:32 IST 2012	Chips to send by proposer: { chips  'CTRed':0 'CTPurple':0 'CTGreen':0 'grey78':1 }
Fri Dec 07 10:14:32 IST 2012	Chips to send by responder: { chips  'CTRed':0 'CTPurple':0 'CTGreen':1 'grey78':0 }
Fri Dec 07 10:14:43 IST 2012	Received communication message 
Fri Dec 07 10:14:43 IST 2012	From player: 210
Fri Dec 07 10:14:43 IST 2012	To player: 337
Fri Dec 07 10:14:43 IST 2012	Message type: basicproposaldiscussion
Fri Dec 07 10:14:43 IST 2012	Player 210 accepted offer
Fri Dec 07 10:14:43 IST 2012	Prop accepted, set counter offers count to: 0
Fri Dec 07 10:14:43 IST 2012	Prop accepted, get counter offers returned: 0
Fri Dec 07 10:14:43 IST 2012	A Phase Ended: Communication Phase
Fri Dec 07 10:14:43 IST 2012	Protocol: A New Phase Began: Exchange Phase
Fri Dec 07 10:14:43 IST 2012	Protocol: Exchange phase, Round: 9
Fri Dec 07 10:14:43 IST 2012	In begin exch.phase, get counter offers returned: 0
Fri Dec 07 10:15:12 IST 2012	A Phase Ended: Exchange Phase
Fri Dec 07 10:15:12 IST 2012	Proposer 337 sent: { chips  'CTRed':0 'CTPurple':0 'CTGreen':0 'grey78':0 }
Fri Dec 07 10:15:12 IST 2012	Responder 210 sent: { chips  }
Fri Dec 07 10:15:12 IST 2012	Protocol: A New Phase Began: Movement Phase
Fri Dec 07 10:15:12 IST 2012	Protocol: Movement phase, Round: 9
Fri Dec 07 10:15:32 IST 2012	A Phase Ended: Movement Phase
Fri Dec 07 10:15:32 IST 2012	Protocol: A New Phase Began: Feedback Phase
Fri Dec 07 10:15:32 IST 2012	Protocol: Feedback phase, Round: 9
Fri Dec 07 10:15:32 IST 2012	Number of consecutive no movements for player 337 is 1
Fri Dec 07 10:15:32 IST 2012	Number of consecutive no movements for player 210 is 1
Fri Dec 07 10:15:37 IST 2012	A Phase Ended: Feedback Phase
Fri Dec 07 10:15:37 IST 2012	Protocol: A New Phase Began: Communication Phase
Fri Dec 07 10:15:37 IST 2012	Protocol: Communication phase, Round: 10
Fri Dec 07 10:16:37 IST 2012	Received communication message 
Fri Dec 07 10:16:37 IST 2012	From player: 337
Fri Dec 07 10:16:37 IST 2012	To player: 210
Fri Dec 07 10:16:37 IST 2012	Message type: basicproposal
Fri Dec 07 10:16:37 IST 2012	Chips to send by proposer: { chips  'grey78':1 }
Fri Dec 07 10:16:37 IST 2012	Chips to send by responder: { chips  'CTGreen':1 }
Fri Dec 07 10:16:49 IST 2012	Received communication message 
Fri Dec 07 10:16:49 IST 2012	From player: 210
Fri Dec 07 10:16:49 IST 2012	To player: 337
Fri Dec 07 10:16:49 IST 2012	Message type: basicproposaldiscussion
Fri Dec 07 10:16:49 IST 2012	Player 210 accepted offer
Fri Dec 07 10:16:49 IST 2012	Prop accepted, set counter offers count to: 0
Fri Dec 07 10:16:49 IST 2012	Prop accepted, get counter offers returned: 0
Fri Dec 07 10:16:49 IST 2012	A Phase Ended: Communication Phase
Fri Dec 07 10:16:49 IST 2012	Protocol: A New Phase Began: Exchange Phase
Fri Dec 07 10:16:49 IST 2012	Protocol: Exchange phase, Round: 10
Fri Dec 07 10:16:49 IST 2012	In begin exch.phase, get counter offers returned: 0
Fri Dec 07 10:17:18 IST 2012	A Phase Ended: Exchange Phase
Fri Dec 07 10:17:18 IST 2012	Proposer 337 sent: { chips  'CTRed':0 'CTPurple':0 'CTGreen':0 'grey78':0 }
Fri Dec 07 10:17:18 IST 2012	Responder 210 sent: { chips  'CTRed':0 'CTPurple':0 'CTGreen':1 'grey78':0 }
Fri Dec 07 10:17:18 IST 2012	Protocol: A New Phase Began: Movement Phase
Fri Dec 07 10:17:18 IST 2012	Protocol: Movement phase, Round: 10
Fri Dec 07 10:17:37 IST 2012	A Phase Ended: Movement Phase
Fri Dec 07 10:17:37 IST 2012	Swaping roles:
Fri Dec 07 10:17:37 IST 2012	Proposer is: 210
Fri Dec 07 10:17:37 IST 2012	Responder is: 337
Fri Dec 07 10:17:37 IST 2012	Protocol: A New Phase Began: Feedback Phase
Fri Dec 07 10:17:37 IST 2012	Protocol: Feedback phase, Round: 10
Fri Dec 07 10:17:37 IST 2012	Number of consecutive no movements for player 337 is 2
Fri Dec 07 10:17:37 IST 2012	Number of consecutive no movements for player 210 is 2
Fri Dec 07 10:17:43 IST 2012	A Phase Ended: Feedback Phase
Fri Dec 07 10:17:43 IST 2012	Protocol: A New Phase Began: Communication Phase
Fri Dec 07 10:17:43 IST 2012	Protocol: Communication phase, Round: 11
Fri Dec 07 10:18:02 IST 2012	Received communication message 
Fri Dec 07 10:18:02 IST 2012	From player: 210
Fri Dec 07 10:18:02 IST 2012	To player: 337
Fri Dec 07 10:18:02 IST 2012	Message type: basicproposal
Fri Dec 07 10:18:02 IST 2012	Chips to send by proposer: { chips  'CTRed':0 'CTPurple':0 'CTGreen':1 'grey78':0 }
Fri Dec 07 10:18:02 IST 2012	Chips to send by responder: { chips  'CTRed':0 'CTPurple':0 'CTGreen':0 'grey78':1 }
Fri Dec 07 10:18:50 IST 2012	Received communication message 
Fri Dec 07 10:18:50 IST 2012	From player: 337
Fri Dec 07 10:18:50 IST 2012	To player: 210
Fri Dec 07 10:18:50 IST 2012	Message type: basicproposaldiscussion
Fri Dec 07 10:18:50 IST 2012	Player 337 rejected offer
Fri Dec 07 10:18:50 IST 2012	Swaping roles:
Fri Dec 07 10:18:50 IST 2012	Proposer is: 337
Fri Dec 07 10:18:50 IST 2012	Responder is: 210
Fri Dec 07 10:18:50 IST 2012	Prop rejected, set counter offers count to: 1
Fri Dec 07 10:18:50 IST 2012	Prop rejected, get counter offers returned: 1
Fri Dec 07 10:18:54 IST 2012	Slept 4 seconds
Fri Dec 07 10:18:54 IST 2012	Sent role changed msgs
Fri Dec 07 10:19:54 IST 2012	Received communication message 
Fri Dec 07 10:19:54 IST 2012	From player: 337
Fri Dec 07 10:19:54 IST 2012	To player: 210
Fri Dec 07 10:19:54 IST 2012	Message type: basicproposal
Fri Dec 07 10:19:54 IST 2012	Chips to send by proposer: { chips  'CTRed':0 'CTPurple':0 'CTGreen':0 'grey78':1 }
Fri Dec 07 10:19:54 IST 2012	Chips to send by responder: { chips  'CTRed':0 'CTPurple':0 'CTGreen':1 'grey78':0 }
Fri Dec 07 10:20:07 IST 2012	Received communication message 
Fri Dec 07 10:20:07 IST 2012	From player: 210
Fri Dec 07 10:20:07 IST 2012	To player: 337
Fri Dec 07 10:20:07 IST 2012	Message type: basicproposaldiscussion
Fri Dec 07 10:20:07 IST 2012	Player 210 accepted offer
Fri Dec 07 10:20:07 IST 2012	Prop accepted, set counter offers count to: 0
Fri Dec 07 10:20:07 IST 2012	Prop accepted, get counter offers returned: 0
Fri Dec 07 10:20:07 IST 2012	A Phase Ended: Communication Phase
Fri Dec 07 10:20:07 IST 2012	Protocol: A New Phase Began: Exchange Phase
Fri Dec 07 10:20:07 IST 2012	Protocol: Exchange phase, Round: 11
Fri Dec 07 10:20:07 IST 2012	In begin exch.phase, get counter offers returned: 0
Fri Dec 07 10:20:36 IST 2012	A Phase Ended: Exchange Phase
Fri Dec 07 10:20:36 IST 2012	Proposer 337 sent: { chips  'CTRed':0 'CTPurple':0 'CTGreen':0 'grey78':0 }
Fri Dec 07 10:20:36 IST 2012	Responder 210 sent: { chips  'CTRed':0 'CTPurple':0 'CTGreen':1 'grey78':0 }
Fri Dec 07 10:20:36 IST 2012	Protocol: A New Phase Began: Movement Phase
Fri Dec 07 10:20:36 IST 2012	Protocol: Movement phase, Round: 11
Fri Dec 07 10:20:36 IST 2012	Player 210 moved to (R:3,C:1)
Fri Dec 07 10:20:36 IST 2012	Player 337 moved to (R:3,C:3)
Fri Dec 07 10:20:55 IST 2012	A Phase Ended: Movement Phase
Fri Dec 07 10:20:55 IST 2012	Protocol: A New Phase Began: Feedback Phase
Fri Dec 07 10:20:55 IST 2012	Protocol: Feedback phase, Round: 11
Fri Dec 07 10:20:55 IST 2012	Number of consecutive no movements for player 337 is 0
Fri Dec 07 10:20:55 IST 2012	Number of consecutive no movements for player 210 is 0
Fri Dec 07 10:21:00 IST 2012	A Phase Ended: Feedback Phase
Fri Dec 07 10:21:00 IST 2012	Protocol: A New Phase Began: Communication Phase
Fri Dec 07 10:21:00 IST 2012	Protocol: Communication phase, Round: 12
Fri Dec 07 10:22:00 IST 2012	Received communication message 
Fri Dec 07 10:22:00 IST 2012	From player: 337
Fri Dec 07 10:22:00 IST 2012	To player: 210
Fri Dec 07 10:22:00 IST 2012	Message type: basicproposal
Fri Dec 07 10:22:00 IST 2012	Chips to send by proposer: { chips  'grey78':1 }
Fri Dec 07 10:22:00 IST 2012	Chips to send by responder: { chips  'CTGreen':1 }
Fri Dec 07 10:22:06 IST 2012	Received communication message 
Fri Dec 07 10:22:06 IST 2012	From player: 210
Fri Dec 07 10:22:06 IST 2012	To player: 337
Fri Dec 07 10:22:06 IST 2012	Message type: basicproposaldiscussion
Fri Dec 07 10:22:06 IST 2012	Player 210 rejected offer
Fri Dec 07 10:22:06 IST 2012	Swaping roles:
Fri Dec 07 10:22:06 IST 2012	Proposer is: 210
Fri Dec 07 10:22:06 IST 2012	Responder is: 337
Fri Dec 07 10:22:06 IST 2012	Prop rejected, set counter offers count to: 1
Fri Dec 07 10:22:06 IST 2012	Prop rejected, get counter offers returned: 1
Fri Dec 07 10:22:10 IST 2012	Slept 4 seconds
Fri Dec 07 10:22:10 IST 2012	Sent role changed msgs
Fri Dec 07 10:22:29 IST 2012	Received communication message 
Fri Dec 07 10:22:29 IST 2012	From player: 210
Fri Dec 07 10:22:29 IST 2012	To player: 337
Fri Dec 07 10:22:29 IST 2012	Message type: basicproposal
Fri Dec 07 10:22:29 IST 2012	Chips to send by proposer: { chips  'CTRed':0 'CTPurple':0 'CTGreen':2 'grey78':0 }
Fri Dec 07 10:22:29 IST 2012	Chips to send by responder: { chips  'CTRed':0 'CTPurple':0 'CTGreen':0 'grey78':1 }
Fri Dec 07 10:23:08 IST 2012	Received communication message 
Fri Dec 07 10:23:08 IST 2012	From player: 337
Fri Dec 07 10:23:08 IST 2012	To player: 210
Fri Dec 07 10:23:08 IST 2012	Message type: basicproposaldiscussion
Fri Dec 07 10:23:08 IST 2012	Player 337 rejected offer
Fri Dec 07 10:23:08 IST 2012	Set counter offers count to: 0
Fri Dec 07 10:23:08 IST 2012	A Phase Ended: Communication Phase
Fri Dec 07 10:23:08 IST 2012	Protocol: A New Phase Began: Exchange Phase
Fri Dec 07 10:23:08 IST 2012	Protocol: Exchange phase, Round: 12
Fri Dec 07 10:23:08 IST 2012	In begin exch.phase, get counter offers returned: 0
Fri Dec 07 10:23:48 IST 2012	A Phase Ended: Exchange Phase
Fri Dec 07 10:23:48 IST 2012	Responder 337 sent: { chips  }
Fri Dec 07 10:23:48 IST 2012	Protocol: A New Phase Began: Movement Phase
Fri Dec 07 10:23:48 IST 2012	Protocol: Movement phase, Round: 12
Fri Dec 07 10:24:08 IST 2012	A Phase Ended: Movement Phase
Fri Dec 07 10:24:08 IST 2012	Protocol: A New Phase Began: Feedback Phase
Fri Dec 07 10:24:08 IST 2012	Protocol: Feedback phase, Round: 12
Fri Dec 07 10:24:08 IST 2012	Number of consecutive no movements for player 337 is 1
Fri Dec 07 10:24:08 IST 2012	Number of consecutive no movements for player 210 is 1
Fri Dec 07 10:24:13 IST 2012	A Phase Ended: Feedback Phase
Fri Dec 07 10:24:13 IST 2012	Protocol: A New Phase Began: Communication Phase
Fri Dec 07 10:24:13 IST 2012	Protocol: Communication phase, Round: 13
Fri Dec 07 10:24:32 IST 2012	Received communication message 
Fri Dec 07 10:24:32 IST 2012	From player: 210
Fri Dec 07 10:24:32 IST 2012	To player: 337
Fri Dec 07 10:24:32 IST 2012	Message type: basicproposal
Fri Dec 07 10:24:32 IST 2012	Chips to send by proposer: { chips  'CTRed':0 'CTPurple':0 'CTGreen':2 'grey78':0 }
Fri Dec 07 10:24:32 IST 2012	Chips to send by responder: { chips  'CTRed':0 'CTPurple':0 'CTGreen':0 'grey78':1 }
Fri Dec 07 10:25:05 IST 2012	Received communication message 
Fri Dec 07 10:25:05 IST 2012	From player: 337
Fri Dec 07 10:25:05 IST 2012	To player: 210
Fri Dec 07 10:25:05 IST 2012	Message type: basicproposaldiscussion
Fri Dec 07 10:25:05 IST 2012	Player 337 rejected offer
Fri Dec 07 10:25:05 IST 2012	Swaping roles:
Fri Dec 07 10:25:05 IST 2012	Proposer is: 337
Fri Dec 07 10:25:05 IST 2012	Responder is: 210
Fri Dec 07 10:25:05 IST 2012	Prop rejected, set counter offers count to: 1
Fri Dec 07 10:25:05 IST 2012	Prop rejected, get counter offers returned: 1
Fri Dec 07 10:25:09 IST 2012	Slept 4 seconds
Fri Dec 07 10:25:09 IST 2012	Sent role changed msgs
Fri Dec 07 10:26:09 IST 2012	Received communication message 
Fri Dec 07 10:26:09 IST 2012	From player: 337
Fri Dec 07 10:26:09 IST 2012	To player: 210
Fri Dec 07 10:26:09 IST 2012	Message type: basicproposal
Fri Dec 07 10:26:09 IST 2012	Chips to send by proposer: { chips  'CTRed':0 'CTPurple':0 'CTGreen':0 'grey78':1 }
Fri Dec 07 10:26:09 IST 2012	Chips to send by responder: { chips  'CTRed':0 'CTPurple':0 'CTGreen':1 'grey78':0 }
Fri Dec 07 10:26:16 IST 2012	Received communication message 
Fri Dec 07 10:26:16 IST 2012	From player: 210
Fri Dec 07 10:26:16 IST 2012	To player: 337
Fri Dec 07 10:26:16 IST 2012	Message type: basicproposaldiscussion
Fri Dec 07 10:26:16 IST 2012	Player 210 accepted offer
Fri Dec 07 10:26:16 IST 2012	Prop accepted, set counter offers count to: 0
Fri Dec 07 10:26:16 IST 2012	Prop accepted, get counter offers returned: 0
Fri Dec 07 10:26:16 IST 2012	A Phase Ended: Communication Phase
Fri Dec 07 10:26:16 IST 2012	Protocol: A New Phase Began: Exchange Phase
Fri Dec 07 10:26:16 IST 2012	Protocol: Exchange phase, Round: 13
Fri Dec 07 10:26:16 IST 2012	In begin exch.phase, get counter offers returned: 0
Fri Dec 07 10:26:38 IST 2012	A Phase Ended: Exchange Phase
Fri Dec 07 10:26:38 IST 2012	Proposer 337 sent: { chips  'CTRed':0 'CTPurple':0 'CTGreen':0 'grey78':0 }
Fri Dec 07 10:26:38 IST 2012	Responder 210 sent: { chips  }
Fri Dec 07 10:26:38 IST 2012	Protocol: A New Phase Began: Movement Phase
Fri Dec 07 10:26:38 IST 2012	Protocol: Movement phase, Round: 13
Fri Dec 07 10:26:58 IST 2012	A Phase Ended: Movement Phase
Fri Dec 07 10:26:58 IST 2012	Protocol: A New Phase Began: Feedback Phase
Fri Dec 07 10:26:58 IST 2012	Protocol: Feedback phase, Round: 13
Fri Dec 07 10:26:58 IST 2012	Number of consecutive no movements for player 337 is 2
Fri Dec 07 10:26:58 IST 2012	Number of consecutive no movements for player 210 is 2
Fri Dec 07 10:27:03 IST 2012	A Phase Ended: Feedback Phase
Fri Dec 07 10:27:03 IST 2012	Protocol: A New Phase Began: Communication Phase
Fri Dec 07 10:27:03 IST 2012	Protocol: Communication phase, Round: 14
Fri Dec 07 10:28:03 IST 2012	Received communication message 
Fri Dec 07 10:28:03 IST 2012	From player: 337
Fri Dec 07 10:28:03 IST 2012	To player: 210
Fri Dec 07 10:28:03 IST 2012	Message type: basicproposal
Fri Dec 07 10:28:03 IST 2012	Chips to send by proposer: { chips  'grey78':1 }
Fri Dec 07 10:28:03 IST 2012	Chips to send by responder: { chips  'CTGreen':1 }
Fri Dec 07 10:28:13 IST 2012	Received communication message 
Fri Dec 07 10:28:13 IST 2012	From player: 210
Fri Dec 07 10:28:13 IST 2012	To player: 337
Fri Dec 07 10:28:13 IST 2012	Message type: basicproposaldiscussion
Fri Dec 07 10:28:13 IST 2012	Player 210 accepted offer
Fri Dec 07 10:28:13 IST 2012	Prop accepted, set counter offers count to: 0
Fri Dec 07 10:28:13 IST 2012	Prop accepted, get counter offers returned: 0
Fri Dec 07 10:28:13 IST 2012	A Phase Ended: Communication Phase
Fri Dec 07 10:28:13 IST 2012	Protocol: A New Phase Began: Exchange Phase
Fri Dec 07 10:28:13 IST 2012	Protocol: Exchange phase, Round: 14
Fri Dec 07 10:28:13 IST 2012	In begin exch.phase, get counter offers returned: 0
Fri Dec 07 10:28:30 IST 2012	A Phase Ended: Exchange Phase
Fri Dec 07 10:28:30 IST 2012	Proposer 337 sent: { chips  'CTRed':0 'CTPurple':0 'CTGreen':0 'grey78':0 }
Fri Dec 07 10:28:30 IST 2012	Responder 210 sent: { chips  'CTRed':0 'CTPurple':0 'CTGreen':1 'grey78':0 }
Fri Dec 07 10:28:30 IST 2012	Protocol: A New Phase Began: Movement Phase
Fri Dec 07 10:28:30 IST 2012	Protocol: Movement phase, Round: 14
Fri Dec 07 10:28:30 IST 2012	Player 210 moved to (R:2,C:1)
Fri Dec 07 10:28:30 IST 2012	Player 337 moved to (R:2,C:3)
Fri Dec 07 10:28:50 IST 2012	A Phase Ended: Movement Phase
Fri Dec 07 10:28:50 IST 2012	Swaping roles:
Fri Dec 07 10:28:50 IST 2012	Proposer is: 210
Fri Dec 07 10:28:50 IST 2012	Responder is: 337
Fri Dec 07 10:28:50 IST 2012	Protocol: A New Phase Began: Feedback Phase
Fri Dec 07 10:28:50 IST 2012	Protocol: Feedback phase, Round: 14
Fri Dec 07 10:28:50 IST 2012	Number of consecutive no movements for player 337 is 0
Fri Dec 07 10:28:50 IST 2012	Number of consecutive no movements for player 210 is 0
Fri Dec 07 10:28:55 IST 2012	A Phase Ended: Feedback Phase
Fri Dec 07 10:28:55 IST 2012	Protocol: A New Phase Began: Communication Phase
Fri Dec 07 10:28:55 IST 2012	Protocol: Communication phase, Round: 15
Fri Dec 07 10:29:13 IST 2012	Received communication message 
Fri Dec 07 10:29:13 IST 2012	From player: 210
Fri Dec 07 10:29:13 IST 2012	To player: 337
Fri Dec 07 10:29:13 IST 2012	Message type: basicproposal
Fri Dec 07 10:29:13 IST 2012	Chips to send by proposer: { chips  'CTRed':0 'CTPurple':0 'CTGreen':1 'grey78':0 }
Fri Dec 07 10:29:13 IST 2012	Chips to send by responder: { chips  'CTRed':0 'CTPurple':0 'CTGreen':0 'grey78':1 }
Fri Dec 07 10:29:32 IST 2012	Received communication message 
Fri Dec 07 10:29:32 IST 2012	From player: 337
Fri Dec 07 10:29:32 IST 2012	To player: 210
Fri Dec 07 10:29:32 IST 2012	Message type: basicproposaldiscussion
Fri Dec 07 10:29:32 IST 2012	Player 337 accepted offer
Fri Dec 07 10:29:32 IST 2012	Prop accepted, set counter offers count to: 0
Fri Dec 07 10:29:32 IST 2012	Prop accepted, get counter offers returned: 0
Fri Dec 07 10:29:32 IST 2012	A Phase Ended: Communication Phase
Fri Dec 07 10:29:32 IST 2012	Protocol: A New Phase Began: Exchange Phase
Fri Dec 07 10:29:32 IST 2012	Protocol: Exchange phase, Round: 15
Fri Dec 07 10:29:32 IST 2012	In begin exch.phase, get counter offers returned: 0
Fri Dec 07 10:29:45 IST 2012	A Phase Ended: Exchange Phase
Fri Dec 07 10:29:45 IST 2012	Proposer 210 sent: { chips  'CTRed':0 'CTPurple':0 'CTGreen':1 'grey78':0 }
Fri Dec 07 10:29:45 IST 2012	Responder 337 sent: { chips  'CTRed':0 'CTPurple':0 'CTGreen':0 'grey78':0 }
Fri Dec 07 10:29:45 IST 2012	Protocol: A New Phase Began: Movement Phase
Fri Dec 07 10:29:45 IST 2012	Protocol: Movement phase, Round: 15
Fri Dec 07 10:30:05 IST 2012	A Phase Ended: Movement Phase
Fri Dec 07 10:30:05 IST 2012	Swaping roles:
Fri Dec 07 10:30:05 IST 2012	Proposer is: 337
Fri Dec 07 10:30:05 IST 2012	Responder is: 210
Fri Dec 07 10:30:05 IST 2012	Protocol: A New Phase Began: Feedback Phase
Fri Dec 07 10:30:05 IST 2012	Protocol: Feedback phase, Round: 15
Fri Dec 07 10:30:05 IST 2012	Number of consecutive no movements for player 337 is 1
Fri Dec 07 10:30:05 IST 2012	Number of consecutive no movements for player 210 is 1
Fri Dec 07 10:30:10 IST 2012	A Phase Ended: Feedback Phase
Fri Dec 07 10:30:10 IST 2012	Protocol: A New Phase Began: Communication Phase
Fri Dec 07 10:30:10 IST 2012	Protocol: Communication phase, Round: 16
Fri Dec 07 10:30:53 IST 2012	Received communication message 
Fri Dec 07 10:30:53 IST 2012	From player: 337
Fri Dec 07 10:30:53 IST 2012	To player: 210
Fri Dec 07 10:30:53 IST 2012	Message type: basicproposal
Fri Dec 07 10:30:53 IST 2012	Chips to send by proposer: { chips  'grey78':1 }
Fri Dec 07 10:30:53 IST 2012	Chips to send by responder: { chips  'CTGreen':1 }
Fri Dec 07 10:31:00 IST 2012	Received communication message 
Fri Dec 07 10:31:00 IST 2012	From player: 210
Fri Dec 07 10:31:00 IST 2012	To player: 337
Fri Dec 07 10:31:00 IST 2012	Message type: basicproposaldiscussion
Fri Dec 07 10:31:00 IST 2012	Player 210 rejected offer
Fri Dec 07 10:31:00 IST 2012	Swaping roles:
Fri Dec 07 10:31:00 IST 2012	Proposer is: 210
Fri Dec 07 10:31:00 IST 2012	Responder is: 337
Fri Dec 07 10:31:00 IST 2012	Prop rejected, set counter offers count to: 1
Fri Dec 07 10:31:00 IST 2012	Prop rejected, get counter offers returned: 1
Fri Dec 07 10:31:04 IST 2012	Slept 4 seconds
Fri Dec 07 10:31:04 IST 2012	Sent role changed msgs
Fri Dec 07 10:31:17 IST 2012	Received communication message 
Fri Dec 07 10:31:17 IST 2012	From player: 210
Fri Dec 07 10:31:17 IST 2012	To player: 337
Fri Dec 07 10:31:17 IST 2012	Message type: basicproposal
Fri Dec 07 10:31:17 IST 2012	Chips to send by proposer: { chips  'CTRed':0 'CTPurple':0 'CTGreen':1 'grey78':0 }
Fri Dec 07 10:31:17 IST 2012	Chips to send by responder: { chips  'CTRed':0 'CTPurple':0 'CTGreen':0 'grey78':1 }
Fri Dec 07 10:31:28 IST 2012	Received communication message 
Fri Dec 07 10:31:28 IST 2012	From player: 337
Fri Dec 07 10:31:28 IST 2012	To player: 210
Fri Dec 07 10:31:28 IST 2012	Message type: basicproposaldiscussion
Fri Dec 07 10:31:28 IST 2012	Player 337 accepted offer
Fri Dec 07 10:31:28 IST 2012	Prop accepted, set counter offers count to: 0
Fri Dec 07 10:31:28 IST 2012	Prop accepted, get counter offers returned: 0
Fri Dec 07 10:31:28 IST 2012	A Phase Ended: Communication Phase
Fri Dec 07 10:31:28 IST 2012	Protocol: A New Phase Began: Exchange Phase
Fri Dec 07 10:31:28 IST 2012	Protocol: Exchange phase, Round: 16
Fri Dec 07 10:31:28 IST 2012	In begin exch.phase, get counter offers returned: 0
Fri Dec 07 10:31:37 IST 2012	A Phase Ended: Exchange Phase
Fri Dec 07 10:31:37 IST 2012	Proposer 210 sent: { chips  }
Fri Dec 07 10:31:37 IST 2012	Responder 337 sent: { chips  'CTRed':0 'CTPurple':0 'CTGreen':0 'grey78':0 }
Fri Dec 07 10:31:37 IST 2012	Protocol: A New Phase Began: Movement Phase
Fri Dec 07 10:31:37 IST 2012	Protocol: Movement phase, Round: 16
Fri Dec 07 10:31:56 IST 2012	A Phase Ended: Movement Phase
Fri Dec 07 10:31:56 IST 2012	Protocol: A New Phase Began: Feedback Phase
Fri Dec 07 10:31:56 IST 2012	Protocol: Feedback phase, Round: 16
Fri Dec 07 10:31:56 IST 2012	Number of consecutive no movements for player 337 is 2
Fri Dec 07 10:31:56 IST 2012	Number of consecutive no movements for player 210 is 2
Fri Dec 07 10:32:01 IST 2012	A Phase Ended: Feedback Phase
Fri Dec 07 10:32:01 IST 2012	Protocol: A New Phase Began: Communication Phase
Fri Dec 07 10:32:01 IST 2012	Protocol: Communication phase, Round: 17
Fri Dec 07 10:32:20 IST 2012	Received communication message 
Fri Dec 07 10:32:20 IST 2012	From player: 210
Fri Dec 07 10:32:20 IST 2012	To player: 337
Fri Dec 07 10:32:20 IST 2012	Message type: basicproposal
Fri Dec 07 10:32:20 IST 2012	Chips to send by proposer: { chips  'CTRed':0 'CTPurple':0 'CTGreen':4 'grey78':0 }
Fri Dec 07 10:32:20 IST 2012	Chips to send by responder: { chips  'CTRed':0 'CTPurple':0 'CTGreen':0 'grey78':1 }
Fri Dec 07 10:32:27 IST 2012	Received communication message 
Fri Dec 07 10:32:27 IST 2012	From player: 337
Fri Dec 07 10:32:27 IST 2012	To player: 210
Fri Dec 07 10:32:27 IST 2012	Message type: basicproposaldiscussion
Fri Dec 07 10:32:27 IST 2012	Player 337 rejected offer
Fri Dec 07 10:32:27 IST 2012	Swaping roles:
Fri Dec 07 10:32:27 IST 2012	Proposer is: 337
Fri Dec 07 10:32:27 IST 2012	Responder is: 210
Fri Dec 07 10:32:27 IST 2012	Prop rejected, set counter offers count to: 1
Fri Dec 07 10:32:27 IST 2012	Prop rejected, get counter offers returned: 1
Fri Dec 07 10:32:31 IST 2012	Slept 4 seconds
Fri Dec 07 10:32:31 IST 2012	Sent role changed msgs
Fri Dec 07 10:32:47 IST 2012	Received communication message 
Fri Dec 07 10:32:47 IST 2012	From player: 337
Fri Dec 07 10:32:47 IST 2012	To player: 210
Fri Dec 07 10:32:47 IST 2012	Message type: basicproposal
Fri Dec 07 10:32:47 IST 2012	Chips to send by proposer: { chips  'CTRed':0 'CTPurple':0 'CTGreen':0 'grey78':1 }
Fri Dec 07 10:32:47 IST 2012	Chips to send by responder: { chips  'CTRed':0 'CTPurple':0 'CTGreen':1 'grey78':0 }
Fri Dec 07 10:32:57 IST 2012	Received communication message 
Fri Dec 07 10:32:57 IST 2012	From player: 210
Fri Dec 07 10:32:57 IST 2012	To player: 337
Fri Dec 07 10:32:57 IST 2012	Message type: basicproposaldiscussion
Fri Dec 07 10:32:57 IST 2012	Player 210 accepted offer
Fri Dec 07 10:32:57 IST 2012	Prop accepted, set counter offers count to: 0
Fri Dec 07 10:32:57 IST 2012	Prop accepted, get counter offers returned: 0
Fri Dec 07 10:32:57 IST 2012	A Phase Ended: Communication Phase
Fri Dec 07 10:32:57 IST 2012	Protocol: A New Phase Began: Exchange Phase
Fri Dec 07 10:32:57 IST 2012	Protocol: Exchange phase, Round: 17
Fri Dec 07 10:32:57 IST 2012	In begin exch.phase, get counter offers returned: 0
Fri Dec 07 10:33:02 IST 2012	A Phase Ended: Exchange Phase
Fri Dec 07 10:33:02 IST 2012	Proposer 337 sent: { chips  'CTRed':0 'CTPurple':0 'CTGreen':0 'grey78':0 }
Fri Dec 07 10:33:02 IST 2012	Responder 210 sent: { chips  'CTRed':0 'CTPurple':0 'CTGreen':1 'grey78':0 }
Fri Dec 07 10:33:02 IST 2012	Protocol: A New Phase Began: Movement Phase
Fri Dec 07 10:33:02 IST 2012	Protocol: Movement phase, Round: 17
Fri Dec 07 10:33:02 IST 2012	Player 337 moved to (R:1,C:3)
Fri Dec 07 10:33:23 IST 2012	A Phase Ended: Movement Phase
Fri Dec 07 10:33:23 IST 2012	Protocol: A New Phase Began: Feedback Phase
Fri Dec 07 10:33:23 IST 2012	Protocol: Feedback phase, Round: 17
Fri Dec 07 10:33:23 IST 2012	Number of consecutive no movements for player 337 is 0
Fri Dec 07 10:33:23 IST 2012	Number of consecutive no movements for player 210 is 3
Fri Dec 07 10:33:23 IST 2012	Ending game, all players move as much as they can towards goal
Fri Dec 07 10:33:23 IST 2012	Player: 210 ,role: Responder score is: 20
Fri Dec 07 10:33:23 IST 2012	Player: 337 ,role: Proposer score is: 225
