Fri Dec 07 11:30:44 IST 2012	This is the CT debug logger; svn version 638; sep 27 09
Fri Dec 07 11:30:44 IST 2012	Fri Dec 07 11:30:44 IST 2012
Fri Dec 07 11:30:44 IST 2012	A new Alternative Offers game has began
Fri Dec 07 11:30:44 IST 2012	ID Number: 44732
Fri Dec 07 11:30:44 IST 2012	Creating board
Fri Dec 07 11:30:44 IST 2012	<colors>
Fri Dec 07 11:30:44 IST 2012	{ GamePalette  'CTRed':0 'CTPurple':1 'CTGreen':2 'grey78':3 }
Fri Dec 07 11:30:44 IST 2012	<rows>
Fri Dec 07 11:30:44 IST 2012	7
Fri Dec 07 11:30:44 IST 2012	<columns>
Fri Dec 07 11:30:44 IST 2012	5
Fri Dec 07 11:30:44 IST 2012	<squaresColors>
Fri Dec 07 11:30:44 IST 2012	CTPurple CTRed CTRed CTGreen CTPurple 
Fri Dec 07 11:30:44 IST 2012	CTPurple grey78 CTPurple grey78 CTPurple 
Fri Dec 07 11:30:44 IST 2012	CTPurple CTRed CTPurple CTGreen CTPurple 
Fri Dec 07 11:30:44 IST 2012	CTPurple grey78 CTPurple grey78 CTPurple 
Fri Dec 07 11:30:44 IST 2012	CTPurple CTRed CTPurple CTGreen CTPurple 
Fri Dec 07 11:30:44 IST 2012	CTPurple grey78 CTPurple grey78 CTPurple 
Fri Dec 07 11:30:44 IST 2012	CTPurple CTRed CTPurple CTGreen CTPurple 
Fri Dec 07 11:30:44 IST 2012	</squareColors>
Fri Dec 07 11:30:44 IST 2012	<goalPosition>
Fri Dec 07 11:30:44 IST 2012	Goal position: (R:0,C:2)
Fri Dec 07 11:30:44 IST 2012	<numberOfPlayers>
Fri Dec 07 11:30:44 IST 2012	2
Fri Dec 07 11:30:44 IST 2012	<firstPlayerChips>
Fri Dec 07 11:30:44 IST 2012	Setting chips for player: 337 id:0
Fri Dec 07 11:30:44 IST 2012	{ chips  'CTRed':1 'CTGreen':13 'CTPurple':0 'grey78':10 }
Fri Dec 07 11:30:44 IST 2012	Player position: (R:6,C:4)
Fri Dec 07 11:30:44 IST 2012	Setting chips for player: 210 id:1
Fri Dec 07 11:30:44 IST 2012	{ chips  'CTRed':5 'CTGreen':19 'CTPurple':0 'grey78':0 }
Fri Dec 07 11:30:44 IST 2012	Player position: (R:6,C:0)
Fri Dec 07 11:30:44 IST 2012	Protocol: A New Phase Began: Strategy Prep Phase
Fri Dec 07 11:30:44 IST 2012	Protocol: Strategy Preparation phase, Round: 0
Fri Dec 07 11:30:44 IST 2012	Maximum number of rounds with no consecutive movement is 3
Fri Dec 07 11:30:44 IST 2012	In begin comm. phase, set counter offers count to: 0
Fri Dec 07 11:30:44 IST 2012	In begin comm. phase, get counter offers returned: 0
Fri Dec 07 11:31:04 IST 2012	A Phase Ended: Strategy Prep Phase
Fri Dec 07 11:31:04 IST 2012	Protocol: A New Phase Began: Communication Phase
Fri Dec 07 11:31:04 IST 2012	Protocol: Communication phase, Round: 0
Fri Dec 07 11:32:04 IST 2012	Received communication message 
Fri Dec 07 11:32:04 IST 2012	From player: 337
Fri Dec 07 11:32:04 IST 2012	To player: 210
Fri Dec 07 11:32:04 IST 2012	Message type: basicproposal
Fri Dec 07 11:32:04 IST 2012	Chips to send by proposer: { chips  'grey78':3 }
Fri Dec 07 11:32:04 IST 2012	Chips to send by responder: { chips  'CTGreen':2 }
Fri Dec 07 11:32:16 IST 2012	Received communication message 
Fri Dec 07 11:32:16 IST 2012	From player: 210
Fri Dec 07 11:32:16 IST 2012	To player: 337
Fri Dec 07 11:32:16 IST 2012	Message type: basicproposaldiscussion
Fri Dec 07 11:32:16 IST 2012	Player 210 accepted offer
Fri Dec 07 11:32:16 IST 2012	Prop accepted, set counter offers count to: 0
Fri Dec 07 11:32:16 IST 2012	Prop accepted, get counter offers returned: 0
Fri Dec 07 11:32:16 IST 2012	A Phase Ended: Communication Phase
Fri Dec 07 11:32:16 IST 2012	Protocol: A New Phase Began: Exchange Phase
Fri Dec 07 11:32:16 IST 2012	Protocol: Exchange phase, Round: 0
Fri Dec 07 11:32:16 IST 2012	In begin exch.phase, get counter offers returned: 0
Fri Dec 07 11:32:45 IST 2012	A Phase Ended: Exchange Phase
Fri Dec 07 11:32:45 IST 2012	Proposer 337 sent: { chips  'CTRed':0 'CTPurple':0 'CTGreen':0 'grey78':1 }
Fri Dec 07 11:32:45 IST 2012	Responder 210 sent: { chips  'CTRed':0 'CTPurple':0 'CTGreen':1 'grey78':0 }
Fri Dec 07 11:32:45 IST 2012	Protocol: A New Phase Began: Movement Phase
Fri Dec 07 11:32:45 IST 2012	Protocol: Movement phase, Round: 0
Fri Dec 07 11:33:05 IST 2012	A Phase Ended: Movement Phase
Fri Dec 07 11:33:05 IST 2012	Swaping roles:
Fri Dec 07 11:33:05 IST 2012	Proposer is: 210
Fri Dec 07 11:33:05 IST 2012	Responder is: 337
Fri Dec 07 11:33:05 IST 2012	Protocol: A New Phase Began: Feedback Phase
Fri Dec 07 11:33:05 IST 2012	Protocol: Feedback phase, Round: 0
Fri Dec 07 11:33:05 IST 2012	Number of consecutive no movements for player 337 is 1
Fri Dec 07 11:33:05 IST 2012	Number of consecutive no movements for player 210 is 1
Fri Dec 07 11:33:10 IST 2012	A Phase Ended: Feedback Phase
Fri Dec 07 11:33:10 IST 2012	Protocol: A New Phase Began: Communication Phase
Fri Dec 07 11:33:10 IST 2012	Protocol: Communication phase, Round: 1
Fri Dec 07 11:33:23 IST 2012	Received communication message 
Fri Dec 07 11:33:23 IST 2012	From player: 210
Fri Dec 07 11:33:23 IST 2012	To player: 337
Fri Dec 07 11:33:23 IST 2012	Message type: basicproposal
Fri Dec 07 11:33:23 IST 2012	Chips to send by proposer: { chips  'CTRed':0 'CTPurple':0 'CTGreen':1 'grey78':0 }
Fri Dec 07 11:33:23 IST 2012	Chips to send by responder: { chips  'CTRed':0 'CTPurple':0 'CTGreen':0 'grey78':1 }
Fri Dec 07 11:34:23 IST 2012	Received communication message 
Fri Dec 07 11:34:23 IST 2012	From player: 337
Fri Dec 07 11:34:23 IST 2012	To player: 210
Fri Dec 07 11:34:23 IST 2012	Message type: basicproposaldiscussion
Fri Dec 07 11:34:23 IST 2012	Player 337 rejected offer
Fri Dec 07 11:34:23 IST 2012	Swaping roles:
Fri Dec 07 11:34:23 IST 2012	Proposer is: 337
Fri Dec 07 11:34:23 IST 2012	Responder is: 210
Fri Dec 07 11:34:23 IST 2012	Prop rejected, set counter offers count to: 1
Fri Dec 07 11:34:23 IST 2012	Prop rejected, get counter offers returned: 1
Fri Dec 07 11:34:27 IST 2012	Slept 4 seconds
Fri Dec 07 11:34:27 IST 2012	Sent role changed msgs
Fri Dec 07 11:35:27 IST 2012	Received communication message 
Fri Dec 07 11:35:27 IST 2012	From player: 337
Fri Dec 07 11:35:27 IST 2012	To player: 210
Fri Dec 07 11:35:27 IST 2012	Message type: basicproposal
Fri Dec 07 11:35:27 IST 2012	Chips to send by proposer: { chips  'CTRed':0 'CTPurple':0 'CTGreen':0 'grey78':2 }
Fri Dec 07 11:35:27 IST 2012	Chips to send by responder: { chips  'CTRed':0 'CTPurple':0 'CTGreen':1 'grey78':0 }
Fri Dec 07 11:35:34 IST 2012	Received communication message 
Fri Dec 07 11:35:34 IST 2012	From player: 210
Fri Dec 07 11:35:34 IST 2012	To player: 337
Fri Dec 07 11:35:34 IST 2012	Message type: basicproposaldiscussion
Fri Dec 07 11:35:34 IST 2012	Player 210 rejected offer
Fri Dec 07 11:35:34 IST 2012	Set counter offers count to: 0
Fri Dec 07 11:35:34 IST 2012	A Phase Ended: Communication Phase
Fri Dec 07 11:35:34 IST 2012	Protocol: A New Phase Began: Exchange Phase
Fri Dec 07 11:35:34 IST 2012	Protocol: Exchange phase, Round: 1
Fri Dec 07 11:35:34 IST 2012	In begin exch.phase, get counter offers returned: 0
Fri Dec 07 11:36:13 IST 2012	A Phase Ended: Exchange Phase
Fri Dec 07 11:36:13 IST 2012	Proposer 337 sent: { chips  }
Fri Dec 07 11:36:13 IST 2012	Protocol: A New Phase Began: Movement Phase
Fri Dec 07 11:36:13 IST 2012	Protocol: Movement phase, Round: 1
Fri Dec 07 11:36:33 IST 2012	A Phase Ended: Movement Phase
Fri Dec 07 11:36:33 IST 2012	Protocol: A New Phase Began: Feedback Phase
Fri Dec 07 11:36:33 IST 2012	Protocol: Feedback phase, Round: 1
Fri Dec 07 11:36:33 IST 2012	Number of consecutive no movements for player 337 is 2
Fri Dec 07 11:36:33 IST 2012	Number of consecutive no movements for player 210 is 2
Fri Dec 07 11:36:38 IST 2012	A Phase Ended: Feedback Phase
Fri Dec 07 11:36:38 IST 2012	Protocol: A New Phase Began: Communication Phase
Fri Dec 07 11:36:38 IST 2012	Protocol: Communication phase, Round: 2
Fri Dec 07 11:37:38 IST 2012	Received communication message 
Fri Dec 07 11:37:38 IST 2012	From player: 337
Fri Dec 07 11:37:38 IST 2012	To player: 210
Fri Dec 07 11:37:38 IST 2012	Message type: basicproposal
Fri Dec 07 11:37:38 IST 2012	Chips to send by proposer: { chips  'grey78':2 }
Fri Dec 07 11:37:38 IST 2012	Chips to send by responder: { chips  'CTGreen':1 }
Fri Dec 07 11:37:47 IST 2012	Received communication message 
Fri Dec 07 11:37:47 IST 2012	From player: 210
Fri Dec 07 11:37:47 IST 2012	To player: 337
Fri Dec 07 11:37:47 IST 2012	Message type: basicproposaldiscussion
Fri Dec 07 11:37:47 IST 2012	Player 210 rejected offer
Fri Dec 07 11:37:47 IST 2012	Swaping roles:
Fri Dec 07 11:37:47 IST 2012	Proposer is: 210
Fri Dec 07 11:37:47 IST 2012	Responder is: 337
Fri Dec 07 11:37:47 IST 2012	Prop rejected, set counter offers count to: 1
Fri Dec 07 11:37:47 IST 2012	Prop rejected, get counter offers returned: 1
Fri Dec 07 11:37:51 IST 2012	Slept 4 seconds
Fri Dec 07 11:37:51 IST 2012	Sent role changed msgs
Fri Dec 07 11:38:12 IST 2012	Received communication message 
Fri Dec 07 11:38:12 IST 2012	From player: 210
Fri Dec 07 11:38:12 IST 2012	To player: 337
Fri Dec 07 11:38:12 IST 2012	Message type: basicproposal
Fri Dec 07 11:38:12 IST 2012	Chips to send by proposer: { chips  'CTRed':0 'CTPurple':0 'CTGreen':1 'grey78':0 }
Fri Dec 07 11:38:12 IST 2012	Chips to send by responder: { chips  'CTRed':0 'CTPurple':0 'CTGreen':0 'grey78':1 }
Fri Dec 07 11:39:12 IST 2012	Received communication message 
Fri Dec 07 11:39:12 IST 2012	From player: 337
Fri Dec 07 11:39:12 IST 2012	To player: 210
Fri Dec 07 11:39:12 IST 2012	Message type: basicproposaldiscussion
Fri Dec 07 11:39:12 IST 2012	Player 337 rejected offer
Fri Dec 07 11:39:12 IST 2012	Set counter offers count to: 0
Fri Dec 07 11:39:12 IST 2012	A Phase Ended: Communication Phase
Fri Dec 07 11:39:12 IST 2012	Protocol: A New Phase Began: Exchange Phase
Fri Dec 07 11:39:12 IST 2012	Protocol: Exchange phase, Round: 2
Fri Dec 07 11:39:12 IST 2012	In begin exch.phase, get counter offers returned: 0
Fri Dec 07 11:39:51 IST 2012	A Phase Ended: Exchange Phase
Fri Dec 07 11:39:51 IST 2012	Responder 337 sent: { chips  }
Fri Dec 07 11:39:51 IST 2012	Protocol: A New Phase Began: Movement Phase
Fri Dec 07 11:39:51 IST 2012	Protocol: Movement phase, Round: 2
Fri Dec 07 11:39:51 IST 2012	Player 337 moved to (R:6,C:3)
Fri Dec 07 11:39:51 IST 2012	Player 210 moved to (R:6,C:1)
Fri Dec 07 11:40:11 IST 2012	A Phase Ended: Movement Phase
Fri Dec 07 11:40:11 IST 2012	Protocol: A New Phase Began: Feedback Phase
Fri Dec 07 11:40:11 IST 2012	Protocol: Feedback phase, Round: 2
Fri Dec 07 11:40:11 IST 2012	Number of consecutive no movements for player 337 is 0
Fri Dec 07 11:40:11 IST 2012	Number of consecutive no movements for player 210 is 0
Fri Dec 07 11:40:16 IST 2012	A Phase Ended: Feedback Phase
Fri Dec 07 11:40:16 IST 2012	Protocol: A New Phase Began: Communication Phase
Fri Dec 07 11:40:16 IST 2012	Protocol: Communication phase, Round: 3
Fri Dec 07 11:40:37 IST 2012	Received communication message 
Fri Dec 07 11:40:37 IST 2012	From player: 210
Fri Dec 07 11:40:37 IST 2012	To player: 337
Fri Dec 07 11:40:37 IST 2012	Message type: basicproposal
Fri Dec 07 11:40:37 IST 2012	Chips to send by proposer: { chips  'CTRed':0 'CTPurple':0 'CTGreen':1 'grey78':0 }
Fri Dec 07 11:40:37 IST 2012	Chips to send by responder: { chips  'CTRed':0 'CTPurple':0 'CTGreen':0 'grey78':1 }
Fri Dec 07 11:41:37 IST 2012	Received communication message 
Fri Dec 07 11:41:37 IST 2012	From player: 337
Fri Dec 07 11:41:37 IST 2012	To player: 210
Fri Dec 07 11:41:37 IST 2012	Message type: basicproposaldiscussion
Fri Dec 07 11:41:37 IST 2012	Player 337 rejected offer
Fri Dec 07 11:41:37 IST 2012	Swaping roles:
Fri Dec 07 11:41:37 IST 2012	Proposer is: 337
Fri Dec 07 11:41:37 IST 2012	Responder is: 210
Fri Dec 07 11:41:37 IST 2012	Prop rejected, set counter offers count to: 1
Fri Dec 07 11:41:37 IST 2012	Prop rejected, get counter offers returned: 1
Fri Dec 07 11:41:41 IST 2012	Slept 4 seconds
Fri Dec 07 11:41:41 IST 2012	Sent role changed msgs
Fri Dec 07 11:42:41 IST 2012	Received communication message 
Fri Dec 07 11:42:41 IST 2012	From player: 337
Fri Dec 07 11:42:41 IST 2012	To player: 210
Fri Dec 07 11:42:41 IST 2012	Message type: basicproposal
Fri Dec 07 11:42:41 IST 2012	Chips to send by proposer: { chips  'CTRed':0 'CTPurple':0 'CTGreen':0 'grey78':2 }
Fri Dec 07 11:42:41 IST 2012	Chips to send by responder: { chips  'CTRed':0 'CTPurple':0 'CTGreen':1 'grey78':0 }
Fri Dec 07 11:42:51 IST 2012	Received communication message 
Fri Dec 07 11:42:51 IST 2012	From player: 210
Fri Dec 07 11:42:51 IST 2012	To player: 337
Fri Dec 07 11:42:51 IST 2012	Message type: basicproposaldiscussion
Fri Dec 07 11:42:51 IST 2012	Player 210 rejected offer
Fri Dec 07 11:42:51 IST 2012	Set counter offers count to: 0
Fri Dec 07 11:42:51 IST 2012	A Phase Ended: Communication Phase
Fri Dec 07 11:42:51 IST 2012	Protocol: A New Phase Began: Exchange Phase
Fri Dec 07 11:42:51 IST 2012	Protocol: Exchange phase, Round: 3
Fri Dec 07 11:42:51 IST 2012	In begin exch.phase, get counter offers returned: 0
Fri Dec 07 11:43:30 IST 2012	A Phase Ended: Exchange Phase
Fri Dec 07 11:43:30 IST 2012	Proposer 337 sent: { chips  }
Fri Dec 07 11:43:30 IST 2012	Protocol: A New Phase Began: Movement Phase
Fri Dec 07 11:43:30 IST 2012	Protocol: Movement phase, Round: 3
Fri Dec 07 11:43:50 IST 2012	A Phase Ended: Movement Phase
Fri Dec 07 11:43:50 IST 2012	Protocol: A New Phase Began: Feedback Phase
Fri Dec 07 11:43:50 IST 2012	Protocol: Feedback phase, Round: 3
Fri Dec 07 11:43:50 IST 2012	Number of consecutive no movements for player 337 is 1
Fri Dec 07 11:43:50 IST 2012	Number of consecutive no movements for player 210 is 1
Fri Dec 07 11:43:55 IST 2012	A Phase Ended: Feedback Phase
Fri Dec 07 11:43:55 IST 2012	Protocol: A New Phase Began: Communication Phase
Fri Dec 07 11:43:55 IST 2012	Protocol: Communication phase, Round: 4
Fri Dec 07 11:44:55 IST 2012	Received communication message 
Fri Dec 07 11:44:55 IST 2012	From player: 337
Fri Dec 07 11:44:55 IST 2012	To player: 210
Fri Dec 07 11:44:55 IST 2012	Message type: basicproposal
Fri Dec 07 11:44:55 IST 2012	Chips to send by proposer: { chips  'grey78':2 }
Fri Dec 07 11:44:55 IST 2012	Chips to send by responder: { chips  'CTGreen':1 }
Fri Dec 07 11:45:03 IST 2012	Received communication message 
Fri Dec 07 11:45:03 IST 2012	From player: 210
Fri Dec 07 11:45:03 IST 2012	To player: 337
Fri Dec 07 11:45:03 IST 2012	Message type: basicproposaldiscussion
Fri Dec 07 11:45:03 IST 2012	Player 210 rejected offer
Fri Dec 07 11:45:03 IST 2012	Swaping roles:
Fri Dec 07 11:45:03 IST 2012	Proposer is: 210
Fri Dec 07 11:45:03 IST 2012	Responder is: 337
Fri Dec 07 11:45:03 IST 2012	Prop rejected, set counter offers count to: 1
Fri Dec 07 11:45:03 IST 2012	Prop rejected, get counter offers returned: 1
Fri Dec 07 11:45:07 IST 2012	Slept 4 seconds
Fri Dec 07 11:45:07 IST 2012	Sent role changed msgs
Fri Dec 07 11:45:24 IST 2012	Received communication message 
Fri Dec 07 11:45:24 IST 2012	From player: 210
Fri Dec 07 11:45:24 IST 2012	To player: 337
Fri Dec 07 11:45:24 IST 2012	Message type: basicproposal
Fri Dec 07 11:45:24 IST 2012	Chips to send by proposer: { chips  'CTRed':0 'CTPurple':0 'CTGreen':1 'grey78':0 }
Fri Dec 07 11:45:24 IST 2012	Chips to send by responder: { chips  'CTRed':0 'CTPurple':0 'CTGreen':0 'grey78':1 }
Fri Dec 07 11:46:23 IST 2012	Received communication message 
Fri Dec 07 11:46:23 IST 2012	From player: 337
Fri Dec 07 11:46:23 IST 2012	To player: 210
Fri Dec 07 11:46:23 IST 2012	Message type: basicproposaldiscussion
Fri Dec 07 11:46:23 IST 2012	Player 337 rejected offer
Fri Dec 07 11:46:23 IST 2012	Set counter offers count to: 0
Fri Dec 07 11:46:23 IST 2012	A Phase Ended: Communication Phase
Fri Dec 07 11:46:23 IST 2012	Protocol: A New Phase Began: Exchange Phase
Fri Dec 07 11:46:23 IST 2012	Protocol: Exchange phase, Round: 4
Fri Dec 07 11:46:23 IST 2012	In begin exch.phase, get counter offers returned: 0
Fri Dec 07 11:47:03 IST 2012	A Phase Ended: Exchange Phase
Fri Dec 07 11:47:03 IST 2012	Responder 337 sent: { chips  }
Fri Dec 07 11:47:03 IST 2012	Protocol: A New Phase Began: Movement Phase
Fri Dec 07 11:47:03 IST 2012	Protocol: Movement phase, Round: 4
Fri Dec 07 11:47:23 IST 2012	A Phase Ended: Movement Phase
Fri Dec 07 11:47:23 IST 2012	Protocol: A New Phase Began: Feedback Phase
Fri Dec 07 11:47:23 IST 2012	Protocol: Feedback phase, Round: 4
Fri Dec 07 11:47:23 IST 2012	Number of consecutive no movements for player 337 is 2
Fri Dec 07 11:47:23 IST 2012	Number of consecutive no movements for player 210 is 2
Fri Dec 07 11:47:28 IST 2012	A Phase Ended: Feedback Phase
Fri Dec 07 11:47:28 IST 2012	Protocol: A New Phase Began: Communication Phase
Fri Dec 07 11:47:28 IST 2012	Protocol: Communication phase, Round: 5
Fri Dec 07 11:47:48 IST 2012	Received communication message 
Fri Dec 07 11:47:48 IST 2012	From player: 210
Fri Dec 07 11:47:48 IST 2012	To player: 337
Fri Dec 07 11:47:48 IST 2012	Message type: basicproposal
Fri Dec 07 11:47:48 IST 2012	Chips to send by proposer: { chips  'CTRed':0 'CTPurple':0 'CTGreen':1 'grey78':0 }
Fri Dec 07 11:47:48 IST 2012	Chips to send by responder: { chips  'CTRed':0 'CTPurple':0 'CTGreen':0 'grey78':1 }
Fri Dec 07 11:48:36 IST 2012	Received communication message 
Fri Dec 07 11:48:36 IST 2012	From player: 337
Fri Dec 07 11:48:36 IST 2012	To player: 210
Fri Dec 07 11:48:36 IST 2012	Message type: basicproposaldiscussion
Fri Dec 07 11:48:36 IST 2012	Player 337 rejected offer
Fri Dec 07 11:48:36 IST 2012	Swaping roles:
Fri Dec 07 11:48:36 IST 2012	Proposer is: 337
Fri Dec 07 11:48:36 IST 2012	Responder is: 210
Fri Dec 07 11:48:36 IST 2012	Prop rejected, set counter offers count to: 1
Fri Dec 07 11:48:36 IST 2012	Prop rejected, get counter offers returned: 1
Fri Dec 07 11:48:40 IST 2012	Slept 4 seconds
Fri Dec 07 11:48:40 IST 2012	Sent role changed msgs
Fri Dec 07 11:49:40 IST 2012	Received communication message 
Fri Dec 07 11:49:40 IST 2012	From player: 337
Fri Dec 07 11:49:40 IST 2012	To player: 210
Fri Dec 07 11:49:40 IST 2012	Message type: basicproposal
Fri Dec 07 11:49:40 IST 2012	Chips to send by proposer: { chips  'CTRed':0 'CTPurple':0 'CTGreen':0 'grey78':2 }
Fri Dec 07 11:49:40 IST 2012	Chips to send by responder: { chips  'CTRed':0 'CTPurple':0 'CTGreen':1 'grey78':0 }
Fri Dec 07 11:49:46 IST 2012	Received communication message 
Fri Dec 07 11:49:46 IST 2012	From player: 210
Fri Dec 07 11:49:46 IST 2012	To player: 337
Fri Dec 07 11:49:46 IST 2012	Message type: basicproposaldiscussion
Fri Dec 07 11:49:46 IST 2012	Player 210 rejected offer
Fri Dec 07 11:49:46 IST 2012	Set counter offers count to: 0
Fri Dec 07 11:49:46 IST 2012	A Phase Ended: Communication Phase
Fri Dec 07 11:49:46 IST 2012	Protocol: A New Phase Began: Exchange Phase
Fri Dec 07 11:49:46 IST 2012	Protocol: Exchange phase, Round: 5
Fri Dec 07 11:49:46 IST 2012	In begin exch.phase, get counter offers returned: 0
Fri Dec 07 11:50:26 IST 2012	A Phase Ended: Exchange Phase
Fri Dec 07 11:50:26 IST 2012	Proposer 337 sent: { chips  }
Fri Dec 07 11:50:26 IST 2012	Protocol: A New Phase Began: Movement Phase
Fri Dec 07 11:50:26 IST 2012	Protocol: Movement phase, Round: 5
Fri Dec 07 11:50:27 IST 2012	Player 210 moved to (R:5,C:1)
Fri Dec 07 11:50:27 IST 2012	Player 337 moved to (R:5,C:3)
Fri Dec 07 11:50:47 IST 2012	A Phase Ended: Movement Phase
Fri Dec 07 11:50:47 IST 2012	Protocol: A New Phase Began: Feedback Phase
Fri Dec 07 11:50:47 IST 2012	Protocol: Feedback phase, Round: 5
Fri Dec 07 11:50:47 IST 2012	Number of consecutive no movements for player 337 is 0
Fri Dec 07 11:50:47 IST 2012	Number of consecutive no movements for player 210 is 0
Fri Dec 07 11:50:52 IST 2012	A Phase Ended: Feedback Phase
Fri Dec 07 11:50:52 IST 2012	Protocol: A New Phase Began: Communication Phase
Fri Dec 07 11:50:52 IST 2012	Protocol: Communication phase, Round: 6
Fri Dec 07 11:51:52 IST 2012	Received communication message 
Fri Dec 07 11:51:52 IST 2012	From player: 337
Fri Dec 07 11:51:52 IST 2012	To player: 210
Fri Dec 07 11:51:52 IST 2012	Message type: basicproposal
Fri Dec 07 11:51:52 IST 2012	Chips to send by proposer: { chips  'grey78':2 }
Fri Dec 07 11:51:52 IST 2012	Chips to send by responder: { chips  'CTGreen':1 }
Fri Dec 07 11:52:00 IST 2012	Received communication message 
Fri Dec 07 11:52:00 IST 2012	From player: 210
Fri Dec 07 11:52:00 IST 2012	To player: 337
Fri Dec 07 11:52:00 IST 2012	Message type: basicproposaldiscussion
Fri Dec 07 11:52:00 IST 2012	Player 210 rejected offer
Fri Dec 07 11:52:00 IST 2012	Swaping roles:
Fri Dec 07 11:52:00 IST 2012	Proposer is: 210
Fri Dec 07 11:52:00 IST 2012	Responder is: 337
Fri Dec 07 11:52:00 IST 2012	Prop rejected, set counter offers count to: 1
Fri Dec 07 11:52:00 IST 2012	Prop rejected, get counter offers returned: 1
Fri Dec 07 11:52:04 IST 2012	Slept 4 seconds
Fri Dec 07 11:52:04 IST 2012	Sent role changed msgs
Fri Dec 07 11:52:18 IST 2012	Received communication message 
Fri Dec 07 11:52:18 IST 2012	From player: 210
Fri Dec 07 11:52:18 IST 2012	To player: 337
Fri Dec 07 11:52:18 IST 2012	Message type: basicproposal
Fri Dec 07 11:52:18 IST 2012	Chips to send by proposer: { chips  'CTRed':0 'CTPurple':0 'CTGreen':1 'grey78':0 }
Fri Dec 07 11:52:18 IST 2012	Chips to send by responder: { chips  'CTRed':0 'CTPurple':0 'CTGreen':0 'grey78':1 }
Fri Dec 07 11:52:56 IST 2012	Received communication message 
Fri Dec 07 11:52:56 IST 2012	From player: 337
Fri Dec 07 11:52:56 IST 2012	To player: 210
Fri Dec 07 11:52:56 IST 2012	Message type: basicproposaldiscussion
Fri Dec 07 11:52:56 IST 2012	Player 337 rejected offer
Fri Dec 07 11:52:56 IST 2012	Set counter offers count to: 0
Fri Dec 07 11:52:56 IST 2012	A Phase Ended: Communication Phase
Fri Dec 07 11:52:56 IST 2012	Protocol: A New Phase Began: Exchange Phase
Fri Dec 07 11:52:56 IST 2012	Protocol: Exchange phase, Round: 6
Fri Dec 07 11:52:56 IST 2012	In begin exch.phase, get counter offers returned: 0
Fri Dec 07 11:53:35 IST 2012	A Phase Ended: Exchange Phase
Fri Dec 07 11:53:35 IST 2012	Responder 337 sent: { chips  }
Fri Dec 07 11:53:35 IST 2012	Protocol: A New Phase Began: Movement Phase
Fri Dec 07 11:53:35 IST 2012	Protocol: Movement phase, Round: 6
Fri Dec 07 11:53:55 IST 2012	A Phase Ended: Movement Phase
Fri Dec 07 11:53:55 IST 2012	Protocol: A New Phase Began: Feedback Phase
Fri Dec 07 11:53:55 IST 2012	Protocol: Feedback phase, Round: 6
Fri Dec 07 11:53:55 IST 2012	Number of consecutive no movements for player 337 is 1
Fri Dec 07 11:53:55 IST 2012	Number of consecutive no movements for player 210 is 1
Fri Dec 07 11:54:00 IST 2012	A Phase Ended: Feedback Phase
Fri Dec 07 11:54:00 IST 2012	Protocol: A New Phase Began: Communication Phase
Fri Dec 07 11:54:00 IST 2012	Protocol: Communication phase, Round: 7
Fri Dec 07 11:54:19 IST 2012	Received communication message 
Fri Dec 07 11:54:19 IST 2012	From player: 210
Fri Dec 07 11:54:19 IST 2012	To player: 337
Fri Dec 07 11:54:19 IST 2012	Message type: basicproposal
Fri Dec 07 11:54:19 IST 2012	Chips to send by proposer: { chips  'CTRed':0 'CTPurple':0 'CTGreen':1 'grey78':0 }
Fri Dec 07 11:54:19 IST 2012	Chips to send by responder: { chips  'CTRed':0 'CTPurple':0 'CTGreen':0 'grey78':1 }
Fri Dec 07 11:54:52 IST 2012	Received communication message 
Fri Dec 07 11:54:52 IST 2012	From player: 337
Fri Dec 07 11:54:52 IST 2012	To player: 210
Fri Dec 07 11:54:52 IST 2012	Message type: basicproposaldiscussion
Fri Dec 07 11:54:52 IST 2012	Player 337 rejected offer
Fri Dec 07 11:54:52 IST 2012	Swaping roles:
Fri Dec 07 11:54:52 IST 2012	Proposer is: 337
Fri Dec 07 11:54:52 IST 2012	Responder is: 210
Fri Dec 07 11:54:52 IST 2012	Prop rejected, set counter offers count to: 1
Fri Dec 07 11:54:52 IST 2012	Prop rejected, get counter offers returned: 1
Fri Dec 07 11:54:56 IST 2012	Slept 4 seconds
Fri Dec 07 11:54:56 IST 2012	Sent role changed msgs
Fri Dec 07 11:55:56 IST 2012	Received communication message 
Fri Dec 07 11:55:56 IST 2012	From player: 337
Fri Dec 07 11:55:56 IST 2012	To player: 210
Fri Dec 07 11:55:56 IST 2012	Message type: basicproposal
Fri Dec 07 11:55:56 IST 2012	Chips to send by proposer: { chips  'CTRed':0 'CTPurple':0 'CTGreen':0 'grey78':2 }
Fri Dec 07 11:55:56 IST 2012	Chips to send by responder: { chips  'CTRed':0 'CTPurple':0 'CTGreen':1 'grey78':0 }
Fri Dec 07 11:56:05 IST 2012	Received communication message 
Fri Dec 07 11:56:05 IST 2012	From player: 210
Fri Dec 07 11:56:05 IST 2012	To player: 337
Fri Dec 07 11:56:05 IST 2012	Message type: basicproposaldiscussion
Fri Dec 07 11:56:05 IST 2012	Player 210 rejected offer
Fri Dec 07 11:56:05 IST 2012	Set counter offers count to: 0
Fri Dec 07 11:56:05 IST 2012	A Phase Ended: Communication Phase
Fri Dec 07 11:56:05 IST 2012	Protocol: A New Phase Began: Exchange Phase
Fri Dec 07 11:56:05 IST 2012	Protocol: Exchange phase, Round: 7
Fri Dec 07 11:56:05 IST 2012	In begin exch.phase, get counter offers returned: 0
Fri Dec 07 11:56:45 IST 2012	A Phase Ended: Exchange Phase
Fri Dec 07 11:56:45 IST 2012	Proposer 337 sent: { chips  }
Fri Dec 07 11:56:45 IST 2012	Protocol: A New Phase Began: Movement Phase
Fri Dec 07 11:56:45 IST 2012	Protocol: Movement phase, Round: 7
Fri Dec 07 11:57:05 IST 2012	A Phase Ended: Movement Phase
Fri Dec 07 11:57:05 IST 2012	Protocol: A New Phase Began: Feedback Phase
Fri Dec 07 11:57:05 IST 2012	Protocol: Feedback phase, Round: 7
Fri Dec 07 11:57:05 IST 2012	Number of consecutive no movements for player 337 is 2
Fri Dec 07 11:57:05 IST 2012	Number of consecutive no movements for player 210 is 2
Fri Dec 07 11:57:10 IST 2012	A Phase Ended: Feedback Phase
Fri Dec 07 11:57:10 IST 2012	Protocol: A New Phase Began: Communication Phase
Fri Dec 07 11:57:10 IST 2012	Protocol: Communication phase, Round: 8
Fri Dec 07 11:58:10 IST 2012	Received communication message 
Fri Dec 07 11:58:10 IST 2012	From player: 337
Fri Dec 07 11:58:10 IST 2012	To player: 210
Fri Dec 07 11:58:10 IST 2012	Message type: basicproposal
Fri Dec 07 11:58:10 IST 2012	Chips to send by proposer: { chips  'grey78':2 }
Fri Dec 07 11:58:10 IST 2012	Chips to send by responder: { chips  'CTGreen':1 }
Fri Dec 07 11:58:17 IST 2012	Received communication message 
Fri Dec 07 11:58:17 IST 2012	From player: 210
Fri Dec 07 11:58:17 IST 2012	To player: 337
Fri Dec 07 11:58:17 IST 2012	Message type: basicproposaldiscussion
Fri Dec 07 11:58:17 IST 2012	Player 210 rejected offer
Fri Dec 07 11:58:17 IST 2012	Swaping roles:
Fri Dec 07 11:58:17 IST 2012	Proposer is: 210
Fri Dec 07 11:58:17 IST 2012	Responder is: 337
Fri Dec 07 11:58:17 IST 2012	Prop rejected, set counter offers count to: 1
Fri Dec 07 11:58:17 IST 2012	Prop rejected, get counter offers returned: 1
Fri Dec 07 11:58:21 IST 2012	Slept 4 seconds
Fri Dec 07 11:58:21 IST 2012	Sent role changed msgs
Fri Dec 07 11:58:34 IST 2012	Received communication message 
Fri Dec 07 11:58:34 IST 2012	From player: 210
Fri Dec 07 11:58:34 IST 2012	To player: 337
Fri Dec 07 11:58:34 IST 2012	Message type: basicproposal
Fri Dec 07 11:58:34 IST 2012	Chips to send by proposer: { chips  'CTRed':0 'CTPurple':0 'CTGreen':1 'grey78':0 }
Fri Dec 07 11:58:34 IST 2012	Chips to send by responder: { chips  'CTRed':0 'CTPurple':0 'CTGreen':0 'grey78':1 }
Fri Dec 07 11:58:58 IST 2012	Received communication message 
Fri Dec 07 11:58:58 IST 2012	From player: 337
Fri Dec 07 11:58:58 IST 2012	To player: 210
Fri Dec 07 11:58:58 IST 2012	Message type: basicproposaldiscussion
Fri Dec 07 11:58:58 IST 2012	Player 337 rejected offer
Fri Dec 07 11:58:58 IST 2012	Set counter offers count to: 0
Fri Dec 07 11:58:58 IST 2012	A Phase Ended: Communication Phase
Fri Dec 07 11:58:58 IST 2012	Protocol: A New Phase Began: Exchange Phase
Fri Dec 07 11:58:58 IST 2012	Protocol: Exchange phase, Round: 8
Fri Dec 07 11:58:58 IST 2012	In begin exch.phase, get counter offers returned: 0
Fri Dec 07 11:59:38 IST 2012	A Phase Ended: Exchange Phase
Fri Dec 07 11:59:38 IST 2012	Responder 337 sent: { chips  }
Fri Dec 07 11:59:38 IST 2012	Protocol: A New Phase Began: Movement Phase
Fri Dec 07 11:59:38 IST 2012	Protocol: Movement phase, Round: 8
Fri Dec 07 11:59:38 IST 2012	Player 337 moved to (R:4,C:3)
Fri Dec 07 11:59:38 IST 2012	Player 210 moved to (R:4,C:1)
Fri Dec 07 11:59:58 IST 2012	A Phase Ended: Movement Phase
Fri Dec 07 11:59:58 IST 2012	Protocol: A New Phase Began: Feedback Phase
Fri Dec 07 11:59:58 IST 2012	Protocol: Feedback phase, Round: 8
Fri Dec 07 11:59:58 IST 2012	Number of consecutive no movements for player 337 is 0
Fri Dec 07 11:59:58 IST 2012	Number of consecutive no movements for player 210 is 0
Fri Dec 07 12:00:03 IST 2012	A Phase Ended: Feedback Phase
Fri Dec 07 12:00:03 IST 2012	Protocol: A New Phase Began: Communication Phase
Fri Dec 07 12:00:03 IST 2012	Protocol: Communication phase, Round: 9
Fri Dec 07 12:00:22 IST 2012	Received communication message 
Fri Dec 07 12:00:22 IST 2012	From player: 210
Fri Dec 07 12:00:22 IST 2012	To player: 337
Fri Dec 07 12:00:22 IST 2012	Message type: basicproposal
Fri Dec 07 12:00:22 IST 2012	Chips to send by proposer: { chips  'CTRed':0 'CTPurple':0 'CTGreen':1 'grey78':0 }
Fri Dec 07 12:00:22 IST 2012	Chips to send by responder: { chips  'CTRed':0 'CTPurple':0 'CTGreen':0 'grey78':1 }
Fri Dec 07 12:00:42 IST 2012	Received communication message 
Fri Dec 07 12:00:42 IST 2012	From player: 337
Fri Dec 07 12:00:42 IST 2012	To player: 210
Fri Dec 07 12:00:42 IST 2012	Message type: basicproposaldiscussion
Fri Dec 07 12:00:42 IST 2012	Player 337 rejected offer
Fri Dec 07 12:00:42 IST 2012	Swaping roles:
Fri Dec 07 12:00:42 IST 2012	Proposer is: 337
Fri Dec 07 12:00:42 IST 2012	Responder is: 210
Fri Dec 07 12:00:42 IST 2012	Prop rejected, set counter offers count to: 1
Fri Dec 07 12:00:42 IST 2012	Prop rejected, get counter offers returned: 1
Fri Dec 07 12:00:46 IST 2012	Slept 4 seconds
Fri Dec 07 12:00:46 IST 2012	Sent role changed msgs
Fri Dec 07 12:01:43 IST 2012	Received communication message 
Fri Dec 07 12:01:43 IST 2012	From player: 337
Fri Dec 07 12:01:43 IST 2012	To player: 210
Fri Dec 07 12:01:43 IST 2012	Message type: basicproposal
Fri Dec 07 12:01:43 IST 2012	Chips to send by proposer: { chips  'CTRed':0 'CTPurple':0 'CTGreen':0 'grey78':2 }
Fri Dec 07 12:01:43 IST 2012	Chips to send by responder: { chips  'CTRed':0 'CTPurple':0 'CTGreen':1 'grey78':0 }
Fri Dec 07 12:01:49 IST 2012	Received communication message 
Fri Dec 07 12:01:49 IST 2012	From player: 210
Fri Dec 07 12:01:49 IST 2012	To player: 337
Fri Dec 07 12:01:49 IST 2012	Message type: basicproposaldiscussion
Fri Dec 07 12:01:49 IST 2012	Player 210 rejected offer
Fri Dec 07 12:01:49 IST 2012	Set counter offers count to: 0
Fri Dec 07 12:01:49 IST 2012	A Phase Ended: Communication Phase
Fri Dec 07 12:01:49 IST 2012	Protocol: A New Phase Began: Exchange Phase
Fri Dec 07 12:01:49 IST 2012	Protocol: Exchange phase, Round: 9
Fri Dec 07 12:01:49 IST 2012	In begin exch.phase, get counter offers returned: 0
Fri Dec 07 12:02:29 IST 2012	A Phase Ended: Exchange Phase
Fri Dec 07 12:02:29 IST 2012	Proposer 337 sent: { chips  }
Fri Dec 07 12:02:29 IST 2012	Protocol: A New Phase Began: Movement Phase
Fri Dec 07 12:02:29 IST 2012	Protocol: Movement phase, Round: 9
Fri Dec 07 12:02:50 IST 2012	A Phase Ended: Movement Phase
Fri Dec 07 12:02:50 IST 2012	Protocol: A New Phase Began: Feedback Phase
Fri Dec 07 12:02:50 IST 2012	Protocol: Feedback phase, Round: 9
Fri Dec 07 12:02:50 IST 2012	Number of consecutive no movements for player 337 is 1
Fri Dec 07 12:02:50 IST 2012	Number of consecutive no movements for player 210 is 1
Fri Dec 07 12:02:55 IST 2012	A Phase Ended: Feedback Phase
Fri Dec 07 12:02:55 IST 2012	Protocol: A New Phase Began: Communication Phase
Fri Dec 07 12:02:55 IST 2012	Protocol: Communication phase, Round: 10
Fri Dec 07 12:03:40 IST 2012	Received communication message 
Fri Dec 07 12:03:40 IST 2012	From player: 337
Fri Dec 07 12:03:40 IST 2012	To player: 210
Fri Dec 07 12:03:40 IST 2012	Message type: basicproposal
Fri Dec 07 12:03:40 IST 2012	Chips to send by proposer: { chips  'grey78':2 }
Fri Dec 07 12:03:40 IST 2012	Chips to send by responder: { chips  'CTGreen':1 }
Fri Dec 07 12:03:49 IST 2012	Received communication message 
Fri Dec 07 12:03:49 IST 2012	From player: 210
Fri Dec 07 12:03:49 IST 2012	To player: 337
Fri Dec 07 12:03:49 IST 2012	Message type: basicproposaldiscussion
Fri Dec 07 12:03:49 IST 2012	Player 210 rejected offer
Fri Dec 07 12:03:49 IST 2012	Swaping roles:
Fri Dec 07 12:03:49 IST 2012	Proposer is: 210
Fri Dec 07 12:03:49 IST 2012	Responder is: 337
Fri Dec 07 12:03:49 IST 2012	Prop rejected, set counter offers count to: 1
Fri Dec 07 12:03:49 IST 2012	Prop rejected, get counter offers returned: 1
Fri Dec 07 12:03:53 IST 2012	Slept 4 seconds
Fri Dec 07 12:03:53 IST 2012	Sent role changed msgs
Fri Dec 07 12:04:07 IST 2012	Received communication message 
Fri Dec 07 12:04:07 IST 2012	From player: 210
Fri Dec 07 12:04:07 IST 2012	To player: 337
Fri Dec 07 12:04:07 IST 2012	Message type: basicproposal
Fri Dec 07 12:04:07 IST 2012	Chips to send by proposer: { chips  'CTRed':0 'CTPurple':0 'CTGreen':1 'grey78':0 }
Fri Dec 07 12:04:07 IST 2012	Chips to send by responder: { chips  'CTRed':0 'CTPurple':0 'CTGreen':0 'grey78':1 }
Fri Dec 07 12:04:18 IST 2012	Received communication message 
Fri Dec 07 12:04:18 IST 2012	From player: 337
Fri Dec 07 12:04:18 IST 2012	To player: 210
Fri Dec 07 12:04:18 IST 2012	Message type: basicproposaldiscussion
Fri Dec 07 12:04:18 IST 2012	Player 337 accepted offer
Fri Dec 07 12:04:18 IST 2012	Prop accepted, set counter offers count to: 0
Fri Dec 07 12:04:18 IST 2012	Prop accepted, get counter offers returned: 0
Fri Dec 07 12:04:18 IST 2012	A Phase Ended: Communication Phase
Fri Dec 07 12:04:18 IST 2012	Protocol: A New Phase Began: Exchange Phase
Fri Dec 07 12:04:18 IST 2012	Protocol: Exchange phase, Round: 10
Fri Dec 07 12:04:18 IST 2012	In begin exch.phase, get counter offers returned: 0
Fri Dec 07 12:04:47 IST 2012	A Phase Ended: Exchange Phase
Fri Dec 07 12:04:47 IST 2012	Proposer 210 sent: { chips  'CTRed':0 'CTPurple':0 'CTGreen':1 'grey78':0 }
Fri Dec 07 12:04:47 IST 2012	Responder 337 sent: { chips  'CTRed':0 'CTPurple':0 'CTGreen':0 'grey78':1 }
Fri Dec 07 12:04:47 IST 2012	Protocol: A New Phase Began: Movement Phase
Fri Dec 07 12:04:47 IST 2012	Protocol: Movement phase, Round: 10
Fri Dec 07 12:05:07 IST 2012	A Phase Ended: Movement Phase
Fri Dec 07 12:05:07 IST 2012	Protocol: A New Phase Began: Feedback Phase
Fri Dec 07 12:05:07 IST 2012	Protocol: Feedback phase, Round: 10
Fri Dec 07 12:05:07 IST 2012	Number of consecutive no movements for player 337 is 2
Fri Dec 07 12:05:07 IST 2012	Number of consecutive no movements for player 210 is 2
Fri Dec 07 12:05:12 IST 2012	A Phase Ended: Feedback Phase
Fri Dec 07 12:05:12 IST 2012	Protocol: A New Phase Began: Communication Phase
Fri Dec 07 12:05:12 IST 2012	Protocol: Communication phase, Round: 11
Fri Dec 07 12:05:31 IST 2012	Received communication message 
Fri Dec 07 12:05:31 IST 2012	From player: 210
Fri Dec 07 12:05:31 IST 2012	To player: 337
Fri Dec 07 12:05:31 IST 2012	Message type: basicproposal
Fri Dec 07 12:05:31 IST 2012	Chips to send by proposer: { chips  'CTRed':0 'CTPurple':0 'CTGreen':1 'grey78':0 }
Fri Dec 07 12:05:31 IST 2012	Chips to send by responder: { chips  'CTRed':0 'CTPurple':0 'CTGreen':0 'grey78':1 }
Fri Dec 07 12:05:59 IST 2012	Received communication message 
Fri Dec 07 12:05:59 IST 2012	From player: 337
Fri Dec 07 12:05:59 IST 2012	To player: 210
Fri Dec 07 12:05:59 IST 2012	Message type: basicproposaldiscussion
Fri Dec 07 12:05:59 IST 2012	Player 337 accepted offer
Fri Dec 07 12:05:59 IST 2012	Prop accepted, set counter offers count to: 0
Fri Dec 07 12:05:59 IST 2012	Prop accepted, get counter offers returned: 0
Fri Dec 07 12:05:59 IST 2012	A Phase Ended: Communication Phase
Fri Dec 07 12:05:59 IST 2012	Protocol: A New Phase Began: Exchange Phase
Fri Dec 07 12:05:59 IST 2012	Protocol: Exchange phase, Round: 11
Fri Dec 07 12:05:59 IST 2012	In begin exch.phase, get counter offers returned: 0
Fri Dec 07 12:06:23 IST 2012	A Phase Ended: Exchange Phase
Fri Dec 07 12:06:23 IST 2012	Proposer 210 sent: { chips  }
Fri Dec 07 12:06:23 IST 2012	Responder 337 sent: { chips  'CTRed':0 'CTPurple':0 'CTGreen':0 'grey78':0 }
Fri Dec 07 12:06:23 IST 2012	Protocol: A New Phase Began: Movement Phase
Fri Dec 07 12:06:23 IST 2012	Protocol: Movement phase, Round: 11
Fri Dec 07 12:06:23 IST 2012	Player 210 moved to (R:3,C:1)
Fri Dec 07 12:06:23 IST 2012	Player 337 moved to (R:3,C:3)
Fri Dec 07 12:06:43 IST 2012	A Phase Ended: Movement Phase
Fri Dec 07 12:06:43 IST 2012	Swaping roles:
Fri Dec 07 12:06:43 IST 2012	Proposer is: 337
Fri Dec 07 12:06:43 IST 2012	Responder is: 210
Fri Dec 07 12:06:43 IST 2012	Protocol: A New Phase Began: Feedback Phase
Fri Dec 07 12:06:43 IST 2012	Protocol: Feedback phase, Round: 11
Fri Dec 07 12:06:43 IST 2012	Number of consecutive no movements for player 337 is 0
Fri Dec 07 12:06:43 IST 2012	Number of consecutive no movements for player 210 is 0
Fri Dec 07 12:06:48 IST 2012	A Phase Ended: Feedback Phase
Fri Dec 07 12:06:48 IST 2012	Protocol: A New Phase Began: Communication Phase
Fri Dec 07 12:06:48 IST 2012	Protocol: Communication phase, Round: 12
Fri Dec 07 12:07:48 IST 2012	Received communication message 
Fri Dec 07 12:07:48 IST 2012	From player: 337
Fri Dec 07 12:07:48 IST 2012	To player: 210
Fri Dec 07 12:07:48 IST 2012	Message type: basicproposal
Fri Dec 07 12:07:48 IST 2012	Chips to send by proposer: { chips  'grey78':1 }
Fri Dec 07 12:07:48 IST 2012	Chips to send by responder: { chips  'CTGreen':3 }
Fri Dec 07 12:07:54 IST 2012	Received communication message 
Fri Dec 07 12:07:54 IST 2012	From player: 210
Fri Dec 07 12:07:54 IST 2012	To player: 337
Fri Dec 07 12:07:54 IST 2012	Message type: basicproposaldiscussion
Fri Dec 07 12:07:54 IST 2012	Player 210 accepted offer
Fri Dec 07 12:07:54 IST 2012	Prop accepted, set counter offers count to: 0
Fri Dec 07 12:07:54 IST 2012	Prop accepted, get counter offers returned: 0
Fri Dec 07 12:07:54 IST 2012	A Phase Ended: Communication Phase
Fri Dec 07 12:07:54 IST 2012	Protocol: A New Phase Began: Exchange Phase
Fri Dec 07 12:07:54 IST 2012	Protocol: Exchange phase, Round: 12
Fri Dec 07 12:07:54 IST 2012	In begin exch.phase, get counter offers returned: 0
Fri Dec 07 12:08:14 IST 2012	A Phase Ended: Exchange Phase
Fri Dec 07 12:08:14 IST 2012	Proposer 337 sent: { chips  'CTRed':0 'CTPurple':0 'CTGreen':0 'grey78':1 }
Fri Dec 07 12:08:14 IST 2012	Responder 210 sent: { chips  'CTRed':0 'CTPurple':0 'CTGreen':3 'grey78':0 }
Fri Dec 07 12:08:14 IST 2012	Protocol: A New Phase Began: Movement Phase
Fri Dec 07 12:08:14 IST 2012	Protocol: Movement phase, Round: 12
Fri Dec 07 12:08:14 IST 2012	Player 210 moved to (R:2,C:1)
Fri Dec 07 12:08:34 IST 2012	A Phase Ended: Movement Phase
Fri Dec 07 12:08:34 IST 2012	Swaping roles:
Fri Dec 07 12:08:34 IST 2012	Proposer is: 210
Fri Dec 07 12:08:34 IST 2012	Responder is: 337
Fri Dec 07 12:08:34 IST 2012	Protocol: A New Phase Began: Feedback Phase
Fri Dec 07 12:08:34 IST 2012	Protocol: Feedback phase, Round: 12
Fri Dec 07 12:08:34 IST 2012	Number of consecutive no movements for player 337 is 1
Fri Dec 07 12:08:34 IST 2012	Number of consecutive no movements for player 210 is 0
Fri Dec 07 12:08:34 IST 2012	All players have all needed chips to get to goal, end the game
Fri Dec 07 12:08:34 IST 2012	Player: 210 ,role: Proposer score is: 170
Fri Dec 07 12:08:34 IST 2012	Player: 337 ,role: Responder score is: 190
