Sat Dec 08 05:38:02 IST 2012	This is the CT debug logger; svn version 638; sep 27 09
Sat Dec 08 05:38:02 IST 2012	Sat Dec 08 05:38:02 IST 2012
Sat Dec 08 05:38:02 IST 2012	A new Alternative Offers game has began
Sat Dec 08 05:38:02 IST 2012	ID Number: 42695
Sat Dec 08 05:38:02 IST 2012	Creating board
Sat Dec 08 05:38:02 IST 2012	<colors>
Sat Dec 08 05:38:02 IST 2012	{ GamePalette  'CTRed':0 'CTPurple':1 'CTGreen':2 'grey78':3 }
Sat Dec 08 05:38:02 IST 2012	<rows>
Sat Dec 08 05:38:02 IST 2012	7
Sat Dec 08 05:38:02 IST 2012	<columns>
Sat Dec 08 05:38:02 IST 2012	5
Sat Dec 08 05:38:02 IST 2012	<squaresColors>
Sat Dec 08 05:38:02 IST 2012	CTPurple CTRed CTRed CTGreen CTPurple 
Sat Dec 08 05:38:02 IST 2012	CTPurple grey78 CTPurple grey78 CTPurple 
Sat Dec 08 05:38:02 IST 2012	CTPurple CTRed CTPurple CTGreen CTPurple 
Sat Dec 08 05:38:02 IST 2012	CTPurple grey78 CTPurple grey78 CTPurple 
Sat Dec 08 05:38:02 IST 2012	CTPurple CTRed CTPurple CTGreen CTPurple 
Sat Dec 08 05:38:02 IST 2012	CTPurple grey78 CTPurple grey78 CTPurple 
Sat Dec 08 05:38:02 IST 2012	CTPurple CTRed CTPurple CTGreen CTPurple 
Sat Dec 08 05:38:02 IST 2012	</squareColors>
Sat Dec 08 05:38:02 IST 2012	<goalPosition>
Sat Dec 08 05:38:02 IST 2012	Goal position: (R:0,C:2)
Sat Dec 08 05:38:02 IST 2012	<numberOfPlayers>
Sat Dec 08 05:38:02 IST 2012	2
Sat Dec 08 05:38:02 IST 2012	<firstPlayerChips>
Sat Dec 08 05:38:02 IST 2012	Setting chips for player: 337 id:0
Sat Dec 08 05:38:02 IST 2012	{ chips  'CTRed':1 'CTGreen':13 'CTPurple':0 'grey78':10 }
Sat Dec 08 05:38:02 IST 2012	Player position: (R:6,C:4)
Sat Dec 08 05:38:02 IST 2012	Setting chips for player: 210 id:1
Sat Dec 08 05:38:02 IST 2012	{ chips  'CTRed':5 'CTGreen':19 'CTPurple':0 'grey78':0 }
Sat Dec 08 05:38:02 IST 2012	Player position: (R:6,C:0)
Sat Dec 08 05:38:02 IST 2012	Protocol: A New Phase Began: Strategy Prep Phase
Sat Dec 08 05:38:02 IST 2012	Protocol: Strategy Preparation phase, Round: 0
Sat Dec 08 05:38:02 IST 2012	Maximum number of rounds with no consecutive movement is 3
Sat Dec 08 05:38:02 IST 2012	In begin comm. phase, set counter offers count to: 0
Sat Dec 08 05:38:02 IST 2012	In begin comm. phase, get counter offers returned: 0
Sat Dec 08 05:38:23 IST 2012	A Phase Ended: Strategy Prep Phase
Sat Dec 08 05:38:23 IST 2012	Protocol: A New Phase Began: Communication Phase
Sat Dec 08 05:38:23 IST 2012	Protocol: Communication phase, Round: 0
Sat Dec 08 05:39:23 IST 2012	Received communication message 
Sat Dec 08 05:39:23 IST 2012	From player: 337
Sat Dec 08 05:39:23 IST 2012	To player: 210
Sat Dec 08 05:39:23 IST 2012	Message type: basicproposal
Sat Dec 08 05:39:23 IST 2012	Chips to send by proposer: { chips  'grey78':3 }
Sat Dec 08 05:39:23 IST 2012	Chips to send by responder: { chips  'CTGreen':2 }
Sat Dec 08 05:39:32 IST 2012	Received communication message 
Sat Dec 08 05:39:32 IST 2012	From player: 210
Sat Dec 08 05:39:32 IST 2012	To player: 337
Sat Dec 08 05:39:32 IST 2012	Message type: basicproposaldiscussion
Sat Dec 08 05:39:32 IST 2012	Player 210 accepted offer
Sat Dec 08 05:39:32 IST 2012	Prop accepted, set counter offers count to: 0
Sat Dec 08 05:39:32 IST 2012	Prop accepted, get counter offers returned: 0
Sat Dec 08 05:39:32 IST 2012	A Phase Ended: Communication Phase
Sat Dec 08 05:39:32 IST 2012	Protocol: A New Phase Began: Exchange Phase
Sat Dec 08 05:39:32 IST 2012	Protocol: Exchange phase, Round: 0
Sat Dec 08 05:39:32 IST 2012	In begin exch.phase, get counter offers returned: 0
Sat Dec 08 05:40:01 IST 2012	A Phase Ended: Exchange Phase
Sat Dec 08 05:40:01 IST 2012	Proposer 337 sent: { chips  'CTRed':0 'CTPurple':0 'CTGreen':0 'grey78':1 }
Sat Dec 08 05:40:01 IST 2012	Responder 210 sent: { chips  'CTRed':0 'CTPurple':0 'CTGreen':1 'grey78':0 }
Sat Dec 08 05:40:01 IST 2012	Protocol: A New Phase Began: Movement Phase
Sat Dec 08 05:40:01 IST 2012	Protocol: Movement phase, Round: 0
Sat Dec 08 05:40:21 IST 2012	A Phase Ended: Movement Phase
Sat Dec 08 05:40:21 IST 2012	Swaping roles:
Sat Dec 08 05:40:21 IST 2012	Proposer is: 210
Sat Dec 08 05:40:21 IST 2012	Responder is: 337
Sat Dec 08 05:40:21 IST 2012	Protocol: A New Phase Began: Feedback Phase
Sat Dec 08 05:40:21 IST 2012	Protocol: Feedback phase, Round: 0
Sat Dec 08 05:40:21 IST 2012	Number of consecutive no movements for player 337 is 1
Sat Dec 08 05:40:21 IST 2012	Number of consecutive no movements for player 210 is 1
Sat Dec 08 05:40:26 IST 2012	A Phase Ended: Feedback Phase
Sat Dec 08 05:40:26 IST 2012	Protocol: A New Phase Began: Communication Phase
Sat Dec 08 05:40:26 IST 2012	Protocol: Communication phase, Round: 1
Sat Dec 08 05:40:42 IST 2012	Received communication message 
Sat Dec 08 05:40:42 IST 2012	From player: 210
Sat Dec 08 05:40:42 IST 2012	To player: 337
Sat Dec 08 05:40:42 IST 2012	Message type: basicproposal
Sat Dec 08 05:40:42 IST 2012	Chips to send by proposer: { chips  'CTRed':0 'CTPurple':0 'CTGreen':1 'grey78':0 }
Sat Dec 08 05:40:42 IST 2012	Chips to send by responder: { chips  'CTRed':0 'CTPurple':0 'CTGreen':0 'grey78':1 }
Sat Dec 08 05:41:42 IST 2012	Received communication message 
Sat Dec 08 05:41:42 IST 2012	From player: 337
Sat Dec 08 05:41:42 IST 2012	To player: 210
Sat Dec 08 05:41:42 IST 2012	Message type: basicproposaldiscussion
Sat Dec 08 05:41:42 IST 2012	Player 337 rejected offer
Sat Dec 08 05:41:42 IST 2012	Swaping roles:
Sat Dec 08 05:41:42 IST 2012	Proposer is: 337
Sat Dec 08 05:41:42 IST 2012	Responder is: 210
Sat Dec 08 05:41:42 IST 2012	Prop rejected, set counter offers count to: 1
Sat Dec 08 05:41:42 IST 2012	Prop rejected, get counter offers returned: 1
Sat Dec 08 05:41:46 IST 2012	Slept 4 seconds
Sat Dec 08 05:41:46 IST 2012	Sent role changed msgs
Sat Dec 08 05:42:46 IST 2012	Received communication message 
Sat Dec 08 05:42:46 IST 2012	From player: 337
Sat Dec 08 05:42:46 IST 2012	To player: 210
Sat Dec 08 05:42:46 IST 2012	Message type: basicproposal
Sat Dec 08 05:42:46 IST 2012	Chips to send by proposer: { chips  'CTRed':0 'CTPurple':0 'CTGreen':0 'grey78':2 }
Sat Dec 08 05:42:46 IST 2012	Chips to send by responder: { chips  'CTRed':0 'CTPurple':0 'CTGreen':2 'grey78':0 }
Sat Dec 08 05:42:57 IST 2012	Received communication message 
Sat Dec 08 05:42:57 IST 2012	From player: 210
Sat Dec 08 05:42:57 IST 2012	To player: 337
Sat Dec 08 05:42:57 IST 2012	Message type: basicproposaldiscussion
Sat Dec 08 05:42:57 IST 2012	Player 210 accepted offer
Sat Dec 08 05:42:57 IST 2012	Prop accepted, set counter offers count to: 0
Sat Dec 08 05:42:57 IST 2012	Prop accepted, get counter offers returned: 0
Sat Dec 08 05:42:57 IST 2012	A Phase Ended: Communication Phase
Sat Dec 08 05:42:57 IST 2012	Protocol: A New Phase Began: Exchange Phase
Sat Dec 08 05:42:57 IST 2012	Protocol: Exchange phase, Round: 1
Sat Dec 08 05:42:57 IST 2012	In begin exch.phase, get counter offers returned: 0
Sat Dec 08 05:43:26 IST 2012	A Phase Ended: Exchange Phase
Sat Dec 08 05:43:26 IST 2012	Proposer 337 sent: { chips  'CTRed':0 'CTPurple':0 'CTGreen':0 'grey78':0 }
Sat Dec 08 05:43:26 IST 2012	Responder 210 sent: { chips  'CTRed':0 'CTPurple':0 'CTGreen':1 'grey78':0 }
Sat Dec 08 05:43:26 IST 2012	Protocol: A New Phase Began: Movement Phase
Sat Dec 08 05:43:26 IST 2012	Protocol: Movement phase, Round: 1
Sat Dec 08 05:43:46 IST 2012	A Phase Ended: Movement Phase
Sat Dec 08 05:43:46 IST 2012	Protocol: A New Phase Began: Feedback Phase
Sat Dec 08 05:43:46 IST 2012	Protocol: Feedback phase, Round: 1
Sat Dec 08 05:43:46 IST 2012	Number of consecutive no movements for player 337 is 2
Sat Dec 08 05:43:46 IST 2012	Number of consecutive no movements for player 210 is 2
Sat Dec 08 05:43:51 IST 2012	A Phase Ended: Feedback Phase
Sat Dec 08 05:43:51 IST 2012	Protocol: A New Phase Began: Communication Phase
Sat Dec 08 05:43:51 IST 2012	Protocol: Communication phase, Round: 2
Sat Dec 08 05:44:51 IST 2012	Received communication message 
Sat Dec 08 05:44:51 IST 2012	From player: 337
Sat Dec 08 05:44:51 IST 2012	To player: 210
Sat Dec 08 05:44:51 IST 2012	Message type: basicproposal
Sat Dec 08 05:44:51 IST 2012	Chips to send by proposer: { chips  'grey78':2 }
Sat Dec 08 05:44:51 IST 2012	Chips to send by responder: { chips  'CTGreen':1 }
Sat Dec 08 05:44:59 IST 2012	Received communication message 
Sat Dec 08 05:44:59 IST 2012	From player: 210
Sat Dec 08 05:44:59 IST 2012	To player: 337
Sat Dec 08 05:44:59 IST 2012	Message type: basicproposaldiscussion
Sat Dec 08 05:44:59 IST 2012	Player 210 rejected offer
Sat Dec 08 05:44:59 IST 2012	Swaping roles:
Sat Dec 08 05:44:59 IST 2012	Proposer is: 210
Sat Dec 08 05:44:59 IST 2012	Responder is: 337
Sat Dec 08 05:44:59 IST 2012	Prop rejected, set counter offers count to: 1
Sat Dec 08 05:44:59 IST 2012	Prop rejected, get counter offers returned: 1
Sat Dec 08 05:45:03 IST 2012	Slept 4 seconds
Sat Dec 08 05:45:03 IST 2012	Sent role changed msgs
Sat Dec 08 05:45:24 IST 2012	Received communication message 
Sat Dec 08 05:45:24 IST 2012	From player: 210
Sat Dec 08 05:45:24 IST 2012	To player: 337
Sat Dec 08 05:45:24 IST 2012	Message type: basicproposal
Sat Dec 08 05:45:24 IST 2012	Chips to send by proposer: { chips  'CTRed':0 'CTPurple':0 'CTGreen':1 'grey78':0 }
Sat Dec 08 05:45:24 IST 2012	Chips to send by responder: { chips  'CTRed':0 'CTPurple':0 'CTGreen':0 'grey78':1 }
Sat Dec 08 05:46:24 IST 2012	Received communication message 
Sat Dec 08 05:46:24 IST 2012	From player: 337
Sat Dec 08 05:46:24 IST 2012	To player: 210
Sat Dec 08 05:46:24 IST 2012	Message type: basicproposaldiscussion
Sat Dec 08 05:46:24 IST 2012	Player 337 rejected offer
Sat Dec 08 05:46:24 IST 2012	Set counter offers count to: 0
Sat Dec 08 05:46:24 IST 2012	A Phase Ended: Communication Phase
Sat Dec 08 05:46:24 IST 2012	Protocol: A New Phase Began: Exchange Phase
Sat Dec 08 05:46:24 IST 2012	Protocol: Exchange phase, Round: 2
Sat Dec 08 05:46:24 IST 2012	In begin exch.phase, get counter offers returned: 0
Sat Dec 08 05:47:04 IST 2012	A Phase Ended: Exchange Phase
Sat Dec 08 05:47:04 IST 2012	Responder 337 sent: { chips  }
Sat Dec 08 05:47:04 IST 2012	Protocol: A New Phase Began: Movement Phase
Sat Dec 08 05:47:04 IST 2012	Protocol: Movement phase, Round: 2
Sat Dec 08 05:47:04 IST 2012	Player 337 moved to (R:6,C:3)
Sat Dec 08 05:47:04 IST 2012	Player 210 moved to (R:6,C:1)
Sat Dec 08 05:47:24 IST 2012	A Phase Ended: Movement Phase
Sat Dec 08 05:47:24 IST 2012	Protocol: A New Phase Began: Feedback Phase
Sat Dec 08 05:47:24 IST 2012	Protocol: Feedback phase, Round: 2
Sat Dec 08 05:47:24 IST 2012	Number of consecutive no movements for player 337 is 0
Sat Dec 08 05:47:24 IST 2012	Number of consecutive no movements for player 210 is 0
Sat Dec 08 05:47:29 IST 2012	A Phase Ended: Feedback Phase
Sat Dec 08 05:47:29 IST 2012	Protocol: A New Phase Began: Communication Phase
Sat Dec 08 05:47:29 IST 2012	Protocol: Communication phase, Round: 3
Sat Dec 08 05:47:44 IST 2012	Received communication message 
Sat Dec 08 05:47:44 IST 2012	From player: 210
Sat Dec 08 05:47:44 IST 2012	To player: 337
Sat Dec 08 05:47:44 IST 2012	Message type: basicproposal
Sat Dec 08 05:47:44 IST 2012	Chips to send by proposer: { chips  'CTRed':0 'CTPurple':0 'CTGreen':1 'grey78':0 }
Sat Dec 08 05:47:44 IST 2012	Chips to send by responder: { chips  'CTRed':0 'CTPurple':0 'CTGreen':0 'grey78':1 }
Sat Dec 08 05:48:42 IST 2012	Received communication message 
Sat Dec 08 05:48:42 IST 2012	From player: 337
Sat Dec 08 05:48:42 IST 2012	To player: 210
Sat Dec 08 05:48:42 IST 2012	Message type: basicproposaldiscussion
Sat Dec 08 05:48:42 IST 2012	Player 337 rejected offer
Sat Dec 08 05:48:42 IST 2012	Swaping roles:
Sat Dec 08 05:48:42 IST 2012	Proposer is: 337
Sat Dec 08 05:48:42 IST 2012	Responder is: 210
Sat Dec 08 05:48:43 IST 2012	Prop rejected, set counter offers count to: 1
Sat Dec 08 05:48:43 IST 2012	Prop rejected, get counter offers returned: 1
Sat Dec 08 05:48:47 IST 2012	Slept 4 seconds
Sat Dec 08 05:48:47 IST 2012	Sent role changed msgs
Sat Dec 08 05:49:47 IST 2012	Received communication message 
Sat Dec 08 05:49:47 IST 2012	From player: 337
Sat Dec 08 05:49:47 IST 2012	To player: 210
Sat Dec 08 05:49:47 IST 2012	Message type: basicproposal
Sat Dec 08 05:49:47 IST 2012	Chips to send by proposer: { chips  'CTRed':0 'CTPurple':0 'CTGreen':0 'grey78':2 }
Sat Dec 08 05:49:47 IST 2012	Chips to send by responder: { chips  'CTRed':0 'CTPurple':0 'CTGreen':1 'grey78':0 }
Sat Dec 08 05:50:01 IST 2012	Received communication message 
Sat Dec 08 05:50:01 IST 2012	From player: 210
Sat Dec 08 05:50:01 IST 2012	To player: 337
Sat Dec 08 05:50:01 IST 2012	Message type: basicproposaldiscussion
Sat Dec 08 05:50:01 IST 2012	Player 210 rejected offer
Sat Dec 08 05:50:01 IST 2012	Set counter offers count to: 0
Sat Dec 08 05:50:01 IST 2012	A Phase Ended: Communication Phase
Sat Dec 08 05:50:01 IST 2012	Protocol: A New Phase Began: Exchange Phase
Sat Dec 08 05:50:01 IST 2012	Protocol: Exchange phase, Round: 3
Sat Dec 08 05:50:01 IST 2012	In begin exch.phase, get counter offers returned: 0
Sat Dec 08 05:50:41 IST 2012	A Phase Ended: Exchange Phase
Sat Dec 08 05:50:41 IST 2012	Proposer 337 sent: { chips  }
Sat Dec 08 05:50:41 IST 2012	Protocol: A New Phase Began: Movement Phase
Sat Dec 08 05:50:41 IST 2012	Protocol: Movement phase, Round: 3
Sat Dec 08 05:51:01 IST 2012	A Phase Ended: Movement Phase
Sat Dec 08 05:51:01 IST 2012	Protocol: A New Phase Began: Feedback Phase
Sat Dec 08 05:51:01 IST 2012	Protocol: Feedback phase, Round: 3
Sat Dec 08 05:51:01 IST 2012	Number of consecutive no movements for player 337 is 1
Sat Dec 08 05:51:01 IST 2012	Number of consecutive no movements for player 210 is 1
Sat Dec 08 05:51:06 IST 2012	A Phase Ended: Feedback Phase
Sat Dec 08 05:51:06 IST 2012	Protocol: A New Phase Began: Communication Phase
Sat Dec 08 05:51:06 IST 2012	Protocol: Communication phase, Round: 4
Sat Dec 08 05:52:06 IST 2012	Received communication message 
Sat Dec 08 05:52:06 IST 2012	From player: 337
Sat Dec 08 05:52:06 IST 2012	To player: 210
Sat Dec 08 05:52:06 IST 2012	Message type: basicproposal
Sat Dec 08 05:52:06 IST 2012	Chips to send by proposer: { chips  'grey78':2 }
Sat Dec 08 05:52:06 IST 2012	Chips to send by responder: { chips  'CTGreen':1 }
Sat Dec 08 05:52:14 IST 2012	Received communication message 
Sat Dec 08 05:52:14 IST 2012	From player: 210
Sat Dec 08 05:52:14 IST 2012	To player: 337
Sat Dec 08 05:52:14 IST 2012	Message type: basicproposaldiscussion
Sat Dec 08 05:52:14 IST 2012	Player 210 rejected offer
Sat Dec 08 05:52:14 IST 2012	Swaping roles:
Sat Dec 08 05:52:14 IST 2012	Proposer is: 210
Sat Dec 08 05:52:14 IST 2012	Responder is: 337
Sat Dec 08 05:52:14 IST 2012	Prop rejected, set counter offers count to: 1
Sat Dec 08 05:52:14 IST 2012	Prop rejected, get counter offers returned: 1
Sat Dec 08 05:52:18 IST 2012	Slept 4 seconds
Sat Dec 08 05:52:18 IST 2012	Sent role changed msgs
Sat Dec 08 05:52:36 IST 2012	Received communication message 
Sat Dec 08 05:52:36 IST 2012	From player: 210
Sat Dec 08 05:52:36 IST 2012	To player: 337
Sat Dec 08 05:52:36 IST 2012	Message type: basicproposal
Sat Dec 08 05:52:36 IST 2012	Chips to send by proposer: { chips  'CTRed':0 'CTPurple':0 'CTGreen':1 'grey78':0 }
Sat Dec 08 05:52:36 IST 2012	Chips to send by responder: { chips  'CTRed':0 'CTPurple':0 'CTGreen':0 'grey78':1 }
Sat Dec 08 05:53:26 IST 2012	Received communication message 
Sat Dec 08 05:53:26 IST 2012	From player: 337
Sat Dec 08 05:53:26 IST 2012	To player: 210
Sat Dec 08 05:53:26 IST 2012	Message type: basicproposaldiscussion
Sat Dec 08 05:53:26 IST 2012	Player 337 rejected offer
Sat Dec 08 05:53:26 IST 2012	Set counter offers count to: 0
Sat Dec 08 05:53:26 IST 2012	A Phase Ended: Communication Phase
Sat Dec 08 05:53:26 IST 2012	Protocol: A New Phase Began: Exchange Phase
Sat Dec 08 05:53:26 IST 2012	Protocol: Exchange phase, Round: 4
Sat Dec 08 05:53:26 IST 2012	In begin exch.phase, get counter offers returned: 0
Sat Dec 08 05:54:06 IST 2012	A Phase Ended: Exchange Phase
Sat Dec 08 05:54:06 IST 2012	Responder 337 sent: { chips  }
Sat Dec 08 05:54:06 IST 2012	Protocol: A New Phase Began: Movement Phase
Sat Dec 08 05:54:06 IST 2012	Protocol: Movement phase, Round: 4
Sat Dec 08 05:54:26 IST 2012	A Phase Ended: Movement Phase
Sat Dec 08 05:54:26 IST 2012	Protocol: A New Phase Began: Feedback Phase
Sat Dec 08 05:54:26 IST 2012	Protocol: Feedback phase, Round: 4
Sat Dec 08 05:54:26 IST 2012	Number of consecutive no movements for player 337 is 2
Sat Dec 08 05:54:26 IST 2012	Number of consecutive no movements for player 210 is 2
Sat Dec 08 05:54:31 IST 2012	A Phase Ended: Feedback Phase
Sat Dec 08 05:54:31 IST 2012	Protocol: A New Phase Began: Communication Phase
Sat Dec 08 05:54:31 IST 2012	Protocol: Communication phase, Round: 5
Sat Dec 08 05:54:45 IST 2012	Received communication message 
Sat Dec 08 05:54:45 IST 2012	From player: 210
Sat Dec 08 05:54:45 IST 2012	To player: 337
Sat Dec 08 05:54:45 IST 2012	Message type: basicproposal
Sat Dec 08 05:54:45 IST 2012	Chips to send by proposer: { chips  'CTRed':0 'CTPurple':0 'CTGreen':1 'grey78':0 }
Sat Dec 08 05:54:45 IST 2012	Chips to send by responder: { chips  'CTRed':0 'CTPurple':0 'CTGreen':0 'grey78':1 }
Sat Dec 08 05:55:32 IST 2012	Received communication message 
Sat Dec 08 05:55:32 IST 2012	From player: 337
Sat Dec 08 05:55:32 IST 2012	To player: 210
Sat Dec 08 05:55:32 IST 2012	Message type: basicproposaldiscussion
Sat Dec 08 05:55:32 IST 2012	Player 337 rejected offer
Sat Dec 08 05:55:32 IST 2012	Swaping roles:
Sat Dec 08 05:55:32 IST 2012	Proposer is: 337
Sat Dec 08 05:55:32 IST 2012	Responder is: 210
Sat Dec 08 05:55:32 IST 2012	Prop rejected, set counter offers count to: 1
Sat Dec 08 05:55:32 IST 2012	Prop rejected, get counter offers returned: 1
Sat Dec 08 05:55:36 IST 2012	Slept 4 seconds
Sat Dec 08 05:55:36 IST 2012	Sent role changed msgs
Sat Dec 08 05:56:36 IST 2012	Received communication message 
Sat Dec 08 05:56:36 IST 2012	From player: 337
Sat Dec 08 05:56:36 IST 2012	To player: 210
Sat Dec 08 05:56:36 IST 2012	Message type: basicproposal
Sat Dec 08 05:56:36 IST 2012	Chips to send by proposer: { chips  'CTRed':0 'CTPurple':0 'CTGreen':0 'grey78':2 }
Sat Dec 08 05:56:36 IST 2012	Chips to send by responder: { chips  'CTRed':0 'CTPurple':0 'CTGreen':1 'grey78':0 }
Sat Dec 08 05:56:48 IST 2012	Received communication message 
Sat Dec 08 05:56:48 IST 2012	From player: 210
Sat Dec 08 05:56:48 IST 2012	To player: 337
Sat Dec 08 05:56:48 IST 2012	Message type: basicproposaldiscussion
Sat Dec 08 05:56:48 IST 2012	Player 210 rejected offer
Sat Dec 08 05:56:48 IST 2012	Set counter offers count to: 0
Sat Dec 08 05:56:48 IST 2012	A Phase Ended: Communication Phase
Sat Dec 08 05:56:48 IST 2012	Protocol: A New Phase Began: Exchange Phase
Sat Dec 08 05:56:48 IST 2012	Protocol: Exchange phase, Round: 5
Sat Dec 08 05:56:48 IST 2012	In begin exch.phase, get counter offers returned: 0
Sat Dec 08 05:57:27 IST 2012	A Phase Ended: Exchange Phase
Sat Dec 08 05:57:27 IST 2012	Proposer 337 sent: { chips  }
Sat Dec 08 05:57:27 IST 2012	Protocol: A New Phase Began: Movement Phase
Sat Dec 08 05:57:27 IST 2012	Protocol: Movement phase, Round: 5
Sat Dec 08 05:57:27 IST 2012	Player 337 moved to (R:5,C:3)
Sat Dec 08 05:57:27 IST 2012	Player 210 moved to (R:5,C:1)
Sat Dec 08 05:57:48 IST 2012	A Phase Ended: Movement Phase
Sat Dec 08 05:57:48 IST 2012	Protocol: A New Phase Began: Feedback Phase
Sat Dec 08 05:57:48 IST 2012	Protocol: Feedback phase, Round: 5
Sat Dec 08 05:57:48 IST 2012	Number of consecutive no movements for player 337 is 0
Sat Dec 08 05:57:48 IST 2012	Number of consecutive no movements for player 210 is 0
Sat Dec 08 05:57:53 IST 2012	A Phase Ended: Feedback Phase
Sat Dec 08 05:57:53 IST 2012	Protocol: A New Phase Began: Communication Phase
Sat Dec 08 05:57:53 IST 2012	Protocol: Communication phase, Round: 6
Sat Dec 08 05:58:53 IST 2012	Received communication message 
Sat Dec 08 05:58:53 IST 2012	From player: 337
Sat Dec 08 05:58:53 IST 2012	To player: 210
Sat Dec 08 05:58:53 IST 2012	Message type: basicproposal
Sat Dec 08 05:58:53 IST 2012	Chips to send by proposer: { chips  'grey78':2 }
Sat Dec 08 05:58:53 IST 2012	Chips to send by responder: { chips  'CTGreen':1 }
Sat Dec 08 05:59:02 IST 2012	Received communication message 
Sat Dec 08 05:59:02 IST 2012	From player: 210
Sat Dec 08 05:59:02 IST 2012	To player: 337
Sat Dec 08 05:59:02 IST 2012	Message type: basicproposaldiscussion
Sat Dec 08 05:59:02 IST 2012	Player 210 rejected offer
Sat Dec 08 05:59:02 IST 2012	Swaping roles:
Sat Dec 08 05:59:02 IST 2012	Proposer is: 210
Sat Dec 08 05:59:02 IST 2012	Responder is: 337
Sat Dec 08 05:59:02 IST 2012	Prop rejected, set counter offers count to: 1
Sat Dec 08 05:59:02 IST 2012	Prop rejected, get counter offers returned: 1
Sat Dec 08 05:59:06 IST 2012	Slept 4 seconds
Sat Dec 08 05:59:06 IST 2012	Sent role changed msgs
Sat Dec 08 05:59:26 IST 2012	Received communication message 
Sat Dec 08 05:59:26 IST 2012	From player: 210
Sat Dec 08 05:59:26 IST 2012	To player: 337
Sat Dec 08 05:59:26 IST 2012	Message type: basicproposal
Sat Dec 08 05:59:26 IST 2012	Chips to send by proposer: { chips  'CTRed':0 'CTPurple':0 'CTGreen':1 'grey78':0 }
Sat Dec 08 05:59:26 IST 2012	Chips to send by responder: { chips  'CTRed':0 'CTPurple':0 'CTGreen':0 'grey78':1 }
Sat Dec 08 06:00:04 IST 2012	Received communication message 
Sat Dec 08 06:00:04 IST 2012	From player: 337
Sat Dec 08 06:00:04 IST 2012	To player: 210
Sat Dec 08 06:00:04 IST 2012	Message type: basicproposaldiscussion
Sat Dec 08 06:00:04 IST 2012	Player 337 rejected offer
Sat Dec 08 06:00:04 IST 2012	Set counter offers count to: 0
Sat Dec 08 06:00:04 IST 2012	A Phase Ended: Communication Phase
Sat Dec 08 06:00:04 IST 2012	Protocol: A New Phase Began: Exchange Phase
Sat Dec 08 06:00:04 IST 2012	Protocol: Exchange phase, Round: 6
Sat Dec 08 06:00:04 IST 2012	In begin exch.phase, get counter offers returned: 0
Sat Dec 08 06:00:44 IST 2012	A Phase Ended: Exchange Phase
Sat Dec 08 06:00:44 IST 2012	Responder 337 sent: { chips  }
Sat Dec 08 06:00:44 IST 2012	Protocol: A New Phase Began: Movement Phase
Sat Dec 08 06:00:44 IST 2012	Protocol: Movement phase, Round: 6
Sat Dec 08 06:01:04 IST 2012	A Phase Ended: Movement Phase
Sat Dec 08 06:01:04 IST 2012	Protocol: A New Phase Began: Feedback Phase
Sat Dec 08 06:01:04 IST 2012	Protocol: Feedback phase, Round: 6
Sat Dec 08 06:01:04 IST 2012	Number of consecutive no movements for player 337 is 1
Sat Dec 08 06:01:04 IST 2012	Number of consecutive no movements for player 210 is 1
Sat Dec 08 06:01:10 IST 2012	A Phase Ended: Feedback Phase
Sat Dec 08 06:01:10 IST 2012	Protocol: A New Phase Began: Communication Phase
Sat Dec 08 06:01:10 IST 2012	Protocol: Communication phase, Round: 7
Sat Dec 08 06:01:23 IST 2012	Received communication message 
Sat Dec 08 06:01:23 IST 2012	From player: 210
Sat Dec 08 06:01:23 IST 2012	To player: 337
Sat Dec 08 06:01:23 IST 2012	Message type: basicproposal
Sat Dec 08 06:01:23 IST 2012	Chips to send by proposer: { chips  'CTRed':0 'CTPurple':0 'CTGreen':1 'grey78':0 }
Sat Dec 08 06:01:23 IST 2012	Chips to send by responder: { chips  'CTRed':0 'CTPurple':0 'CTGreen':0 'grey78':1 }
Sat Dec 08 06:01:56 IST 2012	Received communication message 
Sat Dec 08 06:01:56 IST 2012	From player: 337
Sat Dec 08 06:01:56 IST 2012	To player: 210
Sat Dec 08 06:01:56 IST 2012	Message type: basicproposaldiscussion
Sat Dec 08 06:01:56 IST 2012	Player 337 rejected offer
Sat Dec 08 06:01:56 IST 2012	Swaping roles:
Sat Dec 08 06:01:56 IST 2012	Proposer is: 337
Sat Dec 08 06:01:56 IST 2012	Responder is: 210
Sat Dec 08 06:01:56 IST 2012	Prop rejected, set counter offers count to: 1
Sat Dec 08 06:01:56 IST 2012	Prop rejected, get counter offers returned: 1
Sat Dec 08 06:02:00 IST 2012	Slept 4 seconds
Sat Dec 08 06:02:00 IST 2012	Sent role changed msgs
Sat Dec 08 06:03:00 IST 2012	Received communication message 
Sat Dec 08 06:03:00 IST 2012	From player: 337
Sat Dec 08 06:03:00 IST 2012	To player: 210
Sat Dec 08 06:03:00 IST 2012	Message type: basicproposal
Sat Dec 08 06:03:00 IST 2012	Chips to send by proposer: { chips  'CTRed':0 'CTPurple':0 'CTGreen':0 'grey78':2 }
Sat Dec 08 06:03:00 IST 2012	Chips to send by responder: { chips  'CTRed':0 'CTPurple':0 'CTGreen':1 'grey78':0 }
Sat Dec 08 06:03:14 IST 2012	Received communication message 
Sat Dec 08 06:03:14 IST 2012	From player: 210
Sat Dec 08 06:03:14 IST 2012	To player: 337
Sat Dec 08 06:03:14 IST 2012	Message type: basicproposaldiscussion
Sat Dec 08 06:03:14 IST 2012	Player 210 rejected offer
Sat Dec 08 06:03:14 IST 2012	Set counter offers count to: 0
Sat Dec 08 06:03:14 IST 2012	A Phase Ended: Communication Phase
Sat Dec 08 06:03:14 IST 2012	Protocol: A New Phase Began: Exchange Phase
Sat Dec 08 06:03:14 IST 2012	Protocol: Exchange phase, Round: 7
Sat Dec 08 06:03:14 IST 2012	In begin exch.phase, get counter offers returned: 0
Sat Dec 08 06:03:54 IST 2012	A Phase Ended: Exchange Phase
Sat Dec 08 06:03:54 IST 2012	Proposer 337 sent: { chips  }
Sat Dec 08 06:03:54 IST 2012	Protocol: A New Phase Began: Movement Phase
Sat Dec 08 06:03:54 IST 2012	Protocol: Movement phase, Round: 7
Sat Dec 08 06:04:14 IST 2012	A Phase Ended: Movement Phase
Sat Dec 08 06:04:14 IST 2012	Protocol: A New Phase Began: Feedback Phase
Sat Dec 08 06:04:14 IST 2012	Protocol: Feedback phase, Round: 7
Sat Dec 08 06:04:14 IST 2012	Number of consecutive no movements for player 337 is 2
Sat Dec 08 06:04:14 IST 2012	Number of consecutive no movements for player 210 is 2
Sat Dec 08 06:04:19 IST 2012	A Phase Ended: Feedback Phase
Sat Dec 08 06:04:19 IST 2012	Protocol: A New Phase Began: Communication Phase
Sat Dec 08 06:04:19 IST 2012	Protocol: Communication phase, Round: 8
Sat Dec 08 06:05:19 IST 2012	Received communication message 
Sat Dec 08 06:05:19 IST 2012	From player: 337
Sat Dec 08 06:05:19 IST 2012	To player: 210
Sat Dec 08 06:05:19 IST 2012	Message type: basicproposal
Sat Dec 08 06:05:19 IST 2012	Chips to send by proposer: { chips  'grey78':2 }
Sat Dec 08 06:05:19 IST 2012	Chips to send by responder: { chips  'CTGreen':1 }
Sat Dec 08 06:05:27 IST 2012	Received communication message 
Sat Dec 08 06:05:27 IST 2012	From player: 210
Sat Dec 08 06:05:27 IST 2012	To player: 337
Sat Dec 08 06:05:27 IST 2012	Message type: basicproposaldiscussion
Sat Dec 08 06:05:27 IST 2012	Player 210 rejected offer
Sat Dec 08 06:05:27 IST 2012	Swaping roles:
Sat Dec 08 06:05:27 IST 2012	Proposer is: 210
Sat Dec 08 06:05:27 IST 2012	Responder is: 337
Sat Dec 08 06:05:27 IST 2012	Prop rejected, set counter offers count to: 1
Sat Dec 08 06:05:27 IST 2012	Prop rejected, get counter offers returned: 1
Sat Dec 08 06:05:31 IST 2012	Slept 4 seconds
Sat Dec 08 06:05:31 IST 2012	Sent role changed msgs
Sat Dec 08 06:05:45 IST 2012	Received communication message 
Sat Dec 08 06:05:45 IST 2012	From player: 210
Sat Dec 08 06:05:45 IST 2012	To player: 337
Sat Dec 08 06:05:45 IST 2012	Message type: basicproposal
Sat Dec 08 06:05:45 IST 2012	Chips to send by proposer: { chips  'CTRed':0 'CTPurple':0 'CTGreen':1 'grey78':0 }
Sat Dec 08 06:05:45 IST 2012	Chips to send by responder: { chips  'CTRed':0 'CTPurple':0 'CTGreen':0 'grey78':1 }
Sat Dec 08 06:06:09 IST 2012	Received communication message 
Sat Dec 08 06:06:09 IST 2012	From player: 337
Sat Dec 08 06:06:09 IST 2012	To player: 210
Sat Dec 08 06:06:09 IST 2012	Message type: basicproposaldiscussion
Sat Dec 08 06:06:09 IST 2012	Player 337 rejected offer
Sat Dec 08 06:06:09 IST 2012	Set counter offers count to: 0
Sat Dec 08 06:06:09 IST 2012	A Phase Ended: Communication Phase
Sat Dec 08 06:06:09 IST 2012	Protocol: A New Phase Began: Exchange Phase
Sat Dec 08 06:06:09 IST 2012	Protocol: Exchange phase, Round: 8
Sat Dec 08 06:06:09 IST 2012	In begin exch.phase, get counter offers returned: 0
Sat Dec 08 06:06:49 IST 2012	A Phase Ended: Exchange Phase
Sat Dec 08 06:06:49 IST 2012	Responder 337 sent: { chips  }
Sat Dec 08 06:06:49 IST 2012	Protocol: A New Phase Began: Movement Phase
Sat Dec 08 06:06:49 IST 2012	Protocol: Movement phase, Round: 8
Sat Dec 08 06:06:49 IST 2012	Player 337 moved to (R:4,C:3)
Sat Dec 08 06:06:49 IST 2012	Player 210 moved to (R:4,C:1)
Sat Dec 08 06:07:10 IST 2012	A Phase Ended: Movement Phase
Sat Dec 08 06:07:10 IST 2012	Protocol: A New Phase Began: Feedback Phase
Sat Dec 08 06:07:10 IST 2012	Protocol: Feedback phase, Round: 8
Sat Dec 08 06:07:10 IST 2012	Number of consecutive no movements for player 337 is 0
Sat Dec 08 06:07:10 IST 2012	Number of consecutive no movements for player 210 is 0
Sat Dec 08 06:07:15 IST 2012	A Phase Ended: Feedback Phase
Sat Dec 08 06:07:15 IST 2012	Protocol: A New Phase Began: Communication Phase
Sat Dec 08 06:07:15 IST 2012	Protocol: Communication phase, Round: 9
Sat Dec 08 06:07:28 IST 2012	Received communication message 
Sat Dec 08 06:07:28 IST 2012	From player: 210
Sat Dec 08 06:07:28 IST 2012	To player: 337
Sat Dec 08 06:07:28 IST 2012	Message type: basicproposal
Sat Dec 08 06:07:28 IST 2012	Chips to send by proposer: { chips  'CTRed':0 'CTPurple':0 'CTGreen':1 'grey78':0 }
Sat Dec 08 06:07:28 IST 2012	Chips to send by responder: { chips  'CTRed':0 'CTPurple':0 'CTGreen':0 'grey78':1 }
Sat Dec 08 06:07:48 IST 2012	Received communication message 
Sat Dec 08 06:07:48 IST 2012	From player: 337
Sat Dec 08 06:07:48 IST 2012	To player: 210
Sat Dec 08 06:07:48 IST 2012	Message type: basicproposaldiscussion
Sat Dec 08 06:07:48 IST 2012	Player 337 rejected offer
Sat Dec 08 06:07:48 IST 2012	Swaping roles:
Sat Dec 08 06:07:48 IST 2012	Proposer is: 337
Sat Dec 08 06:07:48 IST 2012	Responder is: 210
Sat Dec 08 06:07:48 IST 2012	Prop rejected, set counter offers count to: 1
Sat Dec 08 06:07:48 IST 2012	Prop rejected, get counter offers returned: 1
Sat Dec 08 06:07:52 IST 2012	Slept 4 seconds
Sat Dec 08 06:07:52 IST 2012	Sent role changed msgs
Sat Dec 08 06:08:49 IST 2012	Received communication message 
Sat Dec 08 06:08:49 IST 2012	From player: 337
Sat Dec 08 06:08:49 IST 2012	To player: 210
Sat Dec 08 06:08:49 IST 2012	Message type: basicproposal
Sat Dec 08 06:08:49 IST 2012	Chips to send by proposer: { chips  'CTRed':0 'CTPurple':0 'CTGreen':0 'grey78':2 }
Sat Dec 08 06:08:49 IST 2012	Chips to send by responder: { chips  'CTRed':0 'CTPurple':0 'CTGreen':1 'grey78':0 }
Sat Dec 08 06:09:00 IST 2012	Received communication message 
Sat Dec 08 06:09:00 IST 2012	From player: 210
Sat Dec 08 06:09:00 IST 2012	To player: 337
Sat Dec 08 06:09:00 IST 2012	Message type: basicproposaldiscussion
Sat Dec 08 06:09:00 IST 2012	Player 210 rejected offer
Sat Dec 08 06:09:00 IST 2012	Set counter offers count to: 0
Sat Dec 08 06:09:00 IST 2012	A Phase Ended: Communication Phase
Sat Dec 08 06:09:00 IST 2012	Protocol: A New Phase Began: Exchange Phase
Sat Dec 08 06:09:00 IST 2012	Protocol: Exchange phase, Round: 9
Sat Dec 08 06:09:00 IST 2012	In begin exch.phase, get counter offers returned: 0
Sat Dec 08 06:09:41 IST 2012	A Phase Ended: Exchange Phase
Sat Dec 08 06:09:41 IST 2012	Proposer 337 sent: { chips  }
Sat Dec 08 06:09:41 IST 2012	Protocol: A New Phase Began: Movement Phase
Sat Dec 08 06:09:41 IST 2012	Protocol: Movement phase, Round: 9
Sat Dec 08 06:10:01 IST 2012	A Phase Ended: Movement Phase
Sat Dec 08 06:10:01 IST 2012	Protocol: A New Phase Began: Feedback Phase
Sat Dec 08 06:10:01 IST 2012	Protocol: Feedback phase, Round: 9
Sat Dec 08 06:10:01 IST 2012	Number of consecutive no movements for player 337 is 1
Sat Dec 08 06:10:01 IST 2012	Number of consecutive no movements for player 210 is 1
Sat Dec 08 06:10:06 IST 2012	A Phase Ended: Feedback Phase
Sat Dec 08 06:10:06 IST 2012	Protocol: A New Phase Began: Communication Phase
Sat Dec 08 06:10:06 IST 2012	Protocol: Communication phase, Round: 10
Sat Dec 08 06:10:52 IST 2012	Received communication message 
Sat Dec 08 06:10:52 IST 2012	From player: 337
Sat Dec 08 06:10:52 IST 2012	To player: 210
Sat Dec 08 06:10:52 IST 2012	Message type: basicproposal
Sat Dec 08 06:10:52 IST 2012	Chips to send by proposer: { chips  'grey78':2 }
Sat Dec 08 06:10:52 IST 2012	Chips to send by responder: { chips  'CTGreen':1 }
Sat Dec 08 06:10:59 IST 2012	Received communication message 
Sat Dec 08 06:10:59 IST 2012	From player: 210
Sat Dec 08 06:10:59 IST 2012	To player: 337
Sat Dec 08 06:10:59 IST 2012	Message type: basicproposaldiscussion
Sat Dec 08 06:10:59 IST 2012	Player 210 rejected offer
Sat Dec 08 06:10:59 IST 2012	Swaping roles:
Sat Dec 08 06:10:59 IST 2012	Proposer is: 210
Sat Dec 08 06:10:59 IST 2012	Responder is: 337
Sat Dec 08 06:10:59 IST 2012	Prop rejected, set counter offers count to: 1
Sat Dec 08 06:10:59 IST 2012	Prop rejected, get counter offers returned: 1
Sat Dec 08 06:11:03 IST 2012	Slept 4 seconds
Sat Dec 08 06:11:03 IST 2012	Sent role changed msgs
Sat Dec 08 06:11:21 IST 2012	Received communication message 
Sat Dec 08 06:11:21 IST 2012	From player: 210
Sat Dec 08 06:11:21 IST 2012	To player: 337
Sat Dec 08 06:11:21 IST 2012	Message type: basicproposal
Sat Dec 08 06:11:21 IST 2012	Chips to send by proposer: { chips  'CTRed':0 'CTPurple':0 'CTGreen':1 'grey78':0 }
Sat Dec 08 06:11:21 IST 2012	Chips to send by responder: { chips  'CTRed':0 'CTPurple':0 'CTGreen':0 'grey78':1 }
Sat Dec 08 06:11:32 IST 2012	Received communication message 
Sat Dec 08 06:11:32 IST 2012	From player: 337
Sat Dec 08 06:11:32 IST 2012	To player: 210
Sat Dec 08 06:11:32 IST 2012	Message type: basicproposaldiscussion
Sat Dec 08 06:11:32 IST 2012	Player 337 accepted offer
Sat Dec 08 06:11:32 IST 2012	Prop accepted, set counter offers count to: 0
Sat Dec 08 06:11:32 IST 2012	Prop accepted, get counter offers returned: 0
Sat Dec 08 06:11:32 IST 2012	A Phase Ended: Communication Phase
Sat Dec 08 06:11:32 IST 2012	Protocol: A New Phase Began: Exchange Phase
Sat Dec 08 06:11:32 IST 2012	Protocol: Exchange phase, Round: 10
Sat Dec 08 06:11:32 IST 2012	In begin exch.phase, get counter offers returned: 0
Sat Dec 08 06:11:59 IST 2012	A Phase Ended: Exchange Phase
Sat Dec 08 06:11:59 IST 2012	Proposer 210 sent: { chips  'CTRed':0 'CTPurple':0 'CTGreen':1 'grey78':0 }
Sat Dec 08 06:11:59 IST 2012	Responder 337 sent: { chips  'CTRed':0 'CTPurple':0 'CTGreen':0 'grey78':1 }
Sat Dec 08 06:11:59 IST 2012	Protocol: A New Phase Began: Movement Phase
Sat Dec 08 06:11:59 IST 2012	Protocol: Movement phase, Round: 10
Sat Dec 08 06:12:19 IST 2012	A Phase Ended: Movement Phase
Sat Dec 08 06:12:19 IST 2012	Protocol: A New Phase Began: Feedback Phase
Sat Dec 08 06:12:19 IST 2012	Protocol: Feedback phase, Round: 10
Sat Dec 08 06:12:19 IST 2012	Number of consecutive no movements for player 337 is 2
Sat Dec 08 06:12:19 IST 2012	Number of consecutive no movements for player 210 is 2
Sat Dec 08 06:12:24 IST 2012	A Phase Ended: Feedback Phase
Sat Dec 08 06:12:24 IST 2012	Protocol: A New Phase Began: Communication Phase
Sat Dec 08 06:12:24 IST 2012	Protocol: Communication phase, Round: 11
Sat Dec 08 06:12:38 IST 2012	Received communication message 
Sat Dec 08 06:12:38 IST 2012	From player: 210
Sat Dec 08 06:12:38 IST 2012	To player: 337
Sat Dec 08 06:12:38 IST 2012	Message type: basicproposal
Sat Dec 08 06:12:38 IST 2012	Chips to send by proposer: { chips  'CTRed':0 'CTPurple':0 'CTGreen':1 'grey78':0 }
Sat Dec 08 06:12:38 IST 2012	Chips to send by responder: { chips  'CTRed':0 'CTPurple':0 'CTGreen':0 'grey78':1 }
Sat Dec 08 06:13:04 IST 2012	Received communication message 
Sat Dec 08 06:13:04 IST 2012	From player: 337
Sat Dec 08 06:13:04 IST 2012	To player: 210
Sat Dec 08 06:13:04 IST 2012	Message type: basicproposaldiscussion
Sat Dec 08 06:13:04 IST 2012	Player 337 accepted offer
Sat Dec 08 06:13:04 IST 2012	Prop accepted, set counter offers count to: 0
Sat Dec 08 06:13:04 IST 2012	Prop accepted, get counter offers returned: 0
Sat Dec 08 06:13:04 IST 2012	A Phase Ended: Communication Phase
Sat Dec 08 06:13:04 IST 2012	Protocol: A New Phase Began: Exchange Phase
Sat Dec 08 06:13:04 IST 2012	Protocol: Exchange phase, Round: 11
Sat Dec 08 06:13:04 IST 2012	In begin exch.phase, get counter offers returned: 0
Sat Dec 08 06:13:30 IST 2012	A Phase Ended: Exchange Phase
Sat Dec 08 06:13:30 IST 2012	Proposer 210 sent: { chips  }
Sat Dec 08 06:13:30 IST 2012	Responder 337 sent: { chips  'CTRed':0 'CTPurple':0 'CTGreen':0 'grey78':0 }
Sat Dec 08 06:13:30 IST 2012	Protocol: A New Phase Began: Movement Phase
Sat Dec 08 06:13:30 IST 2012	Protocol: Movement phase, Round: 11
Sat Dec 08 06:13:30 IST 2012	Player 210 moved to (R:3,C:1)
Sat Dec 08 06:13:30 IST 2012	Player 337 moved to (R:3,C:3)
Sat Dec 08 06:13:49 IST 2012	A Phase Ended: Movement Phase
Sat Dec 08 06:13:49 IST 2012	Swaping roles:
Sat Dec 08 06:13:49 IST 2012	Proposer is: 337
Sat Dec 08 06:13:49 IST 2012	Responder is: 210
Sat Dec 08 06:13:49 IST 2012	Protocol: A New Phase Began: Feedback Phase
Sat Dec 08 06:13:49 IST 2012	Protocol: Feedback phase, Round: 11
Sat Dec 08 06:13:49 IST 2012	Number of consecutive no movements for player 337 is 0
Sat Dec 08 06:13:49 IST 2012	Number of consecutive no movements for player 210 is 0
Sat Dec 08 06:13:54 IST 2012	A Phase Ended: Feedback Phase
Sat Dec 08 06:13:54 IST 2012	Protocol: A New Phase Began: Communication Phase
Sat Dec 08 06:13:54 IST 2012	Protocol: Communication phase, Round: 12
Sat Dec 08 06:14:54 IST 2012	Received communication message 
Sat Dec 08 06:14:54 IST 2012	From player: 337
Sat Dec 08 06:14:54 IST 2012	To player: 210
Sat Dec 08 06:14:54 IST 2012	Message type: basicproposal
Sat Dec 08 06:14:54 IST 2012	Chips to send by proposer: { chips  'grey78':1 }
Sat Dec 08 06:14:54 IST 2012	Chips to send by responder: { chips  'CTGreen':1 }
Sat Dec 08 06:15:01 IST 2012	Received communication message 
Sat Dec 08 06:15:01 IST 2012	From player: 210
Sat Dec 08 06:15:01 IST 2012	To player: 337
Sat Dec 08 06:15:01 IST 2012	Message type: basicproposaldiscussion
Sat Dec 08 06:15:01 IST 2012	Player 210 accepted offer
Sat Dec 08 06:15:01 IST 2012	Prop accepted, set counter offers count to: 0
Sat Dec 08 06:15:01 IST 2012	Prop accepted, get counter offers returned: 0
Sat Dec 08 06:15:01 IST 2012	A Phase Ended: Communication Phase
Sat Dec 08 06:15:01 IST 2012	Protocol: A New Phase Began: Exchange Phase
Sat Dec 08 06:15:01 IST 2012	Protocol: Exchange phase, Round: 12
Sat Dec 08 06:15:01 IST 2012	In begin exch.phase, get counter offers returned: 0
Sat Dec 08 06:15:28 IST 2012	A Phase Ended: Exchange Phase
Sat Dec 08 06:15:28 IST 2012	Proposer 337 sent: { chips  'CTRed':0 'CTPurple':0 'CTGreen':0 'grey78':0 }
Sat Dec 08 06:15:28 IST 2012	Responder 210 sent: { chips  'CTRed':0 'CTPurple':0 'CTGreen':1 'grey78':0 }
Sat Dec 08 06:15:28 IST 2012	Protocol: A New Phase Began: Movement Phase
Sat Dec 08 06:15:28 IST 2012	Protocol: Movement phase, Round: 12
Sat Dec 08 06:15:48 IST 2012	A Phase Ended: Movement Phase
Sat Dec 08 06:15:48 IST 2012	Swaping roles:
Sat Dec 08 06:15:48 IST 2012	Proposer is: 210
Sat Dec 08 06:15:48 IST 2012	Responder is: 337
Sat Dec 08 06:15:48 IST 2012	Protocol: A New Phase Began: Feedback Phase
Sat Dec 08 06:15:48 IST 2012	Protocol: Feedback phase, Round: 12
Sat Dec 08 06:15:48 IST 2012	Number of consecutive no movements for player 337 is 1
Sat Dec 08 06:15:48 IST 2012	Number of consecutive no movements for player 210 is 1
Sat Dec 08 06:15:53 IST 2012	A Phase Ended: Feedback Phase
Sat Dec 08 06:15:53 IST 2012	Protocol: A New Phase Began: Communication Phase
Sat Dec 08 06:15:53 IST 2012	Protocol: Communication phase, Round: 13
Sat Dec 08 06:16:11 IST 2012	Received communication message 
Sat Dec 08 06:16:11 IST 2012	From player: 210
Sat Dec 08 06:16:11 IST 2012	To player: 337
Sat Dec 08 06:16:11 IST 2012	Message type: basicproposal
Sat Dec 08 06:16:11 IST 2012	Chips to send by proposer: { chips  'CTRed':0 'CTPurple':0 'CTGreen':1 'grey78':0 }
Sat Dec 08 06:16:11 IST 2012	Chips to send by responder: { chips  'CTRed':0 'CTPurple':0 'CTGreen':0 'grey78':1 }
Sat Dec 08 06:16:43 IST 2012	Received communication message 
Sat Dec 08 06:16:43 IST 2012	From player: 337
Sat Dec 08 06:16:43 IST 2012	To player: 210
Sat Dec 08 06:16:43 IST 2012	Message type: basicproposaldiscussion
Sat Dec 08 06:16:43 IST 2012	Player 337 accepted offer
Sat Dec 08 06:16:43 IST 2012	Prop accepted, set counter offers count to: 0
Sat Dec 08 06:16:43 IST 2012	Prop accepted, get counter offers returned: 0
Sat Dec 08 06:16:43 IST 2012	A Phase Ended: Communication Phase
Sat Dec 08 06:16:43 IST 2012	Protocol: A New Phase Began: Exchange Phase
Sat Dec 08 06:16:43 IST 2012	Protocol: Exchange phase, Round: 13
Sat Dec 08 06:16:43 IST 2012	In begin exch.phase, get counter offers returned: 0
Sat Dec 08 06:17:05 IST 2012	A Phase Ended: Exchange Phase
Sat Dec 08 06:17:05 IST 2012	Proposer 210 sent: { chips  }
Sat Dec 08 06:17:05 IST 2012	Responder 337 sent: { chips  'CTRed':0 'CTPurple':0 'CTGreen':0 'grey78':0 }
Sat Dec 08 06:17:05 IST 2012	Protocol: A New Phase Began: Movement Phase
Sat Dec 08 06:17:05 IST 2012	Protocol: Movement phase, Round: 13
Sat Dec 08 06:17:25 IST 2012	A Phase Ended: Movement Phase
Sat Dec 08 06:17:25 IST 2012	Swaping roles:
Sat Dec 08 06:17:25 IST 2012	Proposer is: 337
Sat Dec 08 06:17:25 IST 2012	Responder is: 210
Sat Dec 08 06:17:25 IST 2012	Protocol: A New Phase Began: Feedback Phase
Sat Dec 08 06:17:25 IST 2012	Protocol: Feedback phase, Round: 13
Sat Dec 08 06:17:25 IST 2012	Number of consecutive no movements for player 337 is 2
Sat Dec 08 06:17:25 IST 2012	Number of consecutive no movements for player 210 is 2
Sat Dec 08 06:17:30 IST 2012	A Phase Ended: Feedback Phase
Sat Dec 08 06:17:30 IST 2012	Protocol: A New Phase Began: Communication Phase
Sat Dec 08 06:17:30 IST 2012	Protocol: Communication phase, Round: 14
Sat Dec 08 06:18:30 IST 2012	Received communication message 
Sat Dec 08 06:18:30 IST 2012	From player: 337
Sat Dec 08 06:18:30 IST 2012	To player: 210
Sat Dec 08 06:18:30 IST 2012	Message type: basicproposal
Sat Dec 08 06:18:30 IST 2012	Chips to send by proposer: { chips  'grey78':1 }
Sat Dec 08 06:18:30 IST 2012	Chips to send by responder: { chips  'CTGreen':1 }
Sat Dec 08 06:18:36 IST 2012	Received communication message 
Sat Dec 08 06:18:36 IST 2012	From player: 210
Sat Dec 08 06:18:36 IST 2012	To player: 337
Sat Dec 08 06:18:36 IST 2012	Message type: basicproposaldiscussion
Sat Dec 08 06:18:36 IST 2012	Player 210 accepted offer
Sat Dec 08 06:18:36 IST 2012	Prop accepted, set counter offers count to: 0
Sat Dec 08 06:18:36 IST 2012	Prop accepted, get counter offers returned: 0
Sat Dec 08 06:18:36 IST 2012	A Phase Ended: Communication Phase
Sat Dec 08 06:18:36 IST 2012	Protocol: A New Phase Began: Exchange Phase
Sat Dec 08 06:18:36 IST 2012	Protocol: Exchange phase, Round: 14
Sat Dec 08 06:18:36 IST 2012	In begin exch.phase, get counter offers returned: 0
Sat Dec 08 06:18:53 IST 2012	A Phase Ended: Exchange Phase
Sat Dec 08 06:18:53 IST 2012	Proposer 337 sent: { chips  'CTRed':0 'CTPurple':0 'CTGreen':0 'grey78':0 }
Sat Dec 08 06:18:53 IST 2012	Responder 210 sent: { chips  'CTRed':0 'CTPurple':0 'CTGreen':1 'grey78':0 }
Sat Dec 08 06:18:53 IST 2012	Protocol: A New Phase Began: Movement Phase
Sat Dec 08 06:18:53 IST 2012	Protocol: Movement phase, Round: 14
Sat Dec 08 06:18:53 IST 2012	Player 210 moved to (R:2,C:1)
Sat Dec 08 06:18:53 IST 2012	Player 337 moved to (R:2,C:3)
Sat Dec 08 06:19:14 IST 2012	A Phase Ended: Movement Phase
Sat Dec 08 06:19:14 IST 2012	Swaping roles:
Sat Dec 08 06:19:14 IST 2012	Proposer is: 210
Sat Dec 08 06:19:14 IST 2012	Responder is: 337
Sat Dec 08 06:19:14 IST 2012	Protocol: A New Phase Began: Feedback Phase
Sat Dec 08 06:19:14 IST 2012	Protocol: Feedback phase, Round: 14
Sat Dec 08 06:19:14 IST 2012	Number of consecutive no movements for player 337 is 0
Sat Dec 08 06:19:14 IST 2012	Number of consecutive no movements for player 210 is 0
Sat Dec 08 06:19:19 IST 2012	A Phase Ended: Feedback Phase
Sat Dec 08 06:19:19 IST 2012	Protocol: A New Phase Began: Communication Phase
Sat Dec 08 06:19:19 IST 2012	Protocol: Communication phase, Round: 15
Sat Dec 08 06:19:31 IST 2012	Received communication message 
Sat Dec 08 06:19:31 IST 2012	From player: 210
Sat Dec 08 06:19:31 IST 2012	To player: 337
Sat Dec 08 06:19:31 IST 2012	Message type: basicproposal
Sat Dec 08 06:19:31 IST 2012	Chips to send by proposer: { chips  'CTRed':0 'CTPurple':0 'CTGreen':1 'grey78':0 }
Sat Dec 08 06:19:31 IST 2012	Chips to send by responder: { chips  'CTRed':0 'CTPurple':0 'CTGreen':0 'grey78':1 }
Sat Dec 08 06:19:50 IST 2012	Received communication message 
Sat Dec 08 06:19:50 IST 2012	From player: 337
Sat Dec 08 06:19:50 IST 2012	To player: 210
Sat Dec 08 06:19:50 IST 2012	Message type: basicproposaldiscussion
Sat Dec 08 06:19:50 IST 2012	Player 337 accepted offer
Sat Dec 08 06:19:50 IST 2012	Prop accepted, set counter offers count to: 0
Sat Dec 08 06:19:50 IST 2012	Prop accepted, get counter offers returned: 0
Sat Dec 08 06:19:50 IST 2012	A Phase Ended: Communication Phase
Sat Dec 08 06:19:50 IST 2012	Protocol: A New Phase Began: Exchange Phase
Sat Dec 08 06:19:50 IST 2012	Protocol: Exchange phase, Round: 15
Sat Dec 08 06:19:50 IST 2012	In begin exch.phase, get counter offers returned: 0
Sat Dec 08 06:20:03 IST 2012	A Phase Ended: Exchange Phase
Sat Dec 08 06:20:03 IST 2012	Proposer 210 sent: { chips  'CTRed':0 'CTPurple':0 'CTGreen':1 'grey78':0 }
Sat Dec 08 06:20:03 IST 2012	Responder 337 sent: { chips  'CTRed':0 'CTPurple':0 'CTGreen':0 'grey78':0 }
Sat Dec 08 06:20:03 IST 2012	Protocol: A New Phase Began: Movement Phase
Sat Dec 08 06:20:03 IST 2012	Protocol: Movement phase, Round: 15
Sat Dec 08 06:20:23 IST 2012	A Phase Ended: Movement Phase
Sat Dec 08 06:20:23 IST 2012	Swaping roles:
Sat Dec 08 06:20:23 IST 2012	Proposer is: 337
Sat Dec 08 06:20:23 IST 2012	Responder is: 210
Sat Dec 08 06:20:23 IST 2012	Protocol: A New Phase Began: Feedback Phase
Sat Dec 08 06:20:23 IST 2012	Protocol: Feedback phase, Round: 15
Sat Dec 08 06:20:23 IST 2012	Number of consecutive no movements for player 337 is 1
Sat Dec 08 06:20:23 IST 2012	Number of consecutive no movements for player 210 is 1
Sat Dec 08 06:20:28 IST 2012	A Phase Ended: Feedback Phase
Sat Dec 08 06:20:28 IST 2012	Protocol: A New Phase Began: Communication Phase
Sat Dec 08 06:20:28 IST 2012	Protocol: Communication phase, Round: 16
Sat Dec 08 06:21:09 IST 2012	Received communication message 
Sat Dec 08 06:21:09 IST 2012	From player: 337
Sat Dec 08 06:21:09 IST 2012	To player: 210
Sat Dec 08 06:21:09 IST 2012	Message type: basicproposal
Sat Dec 08 06:21:09 IST 2012	Chips to send by proposer: { chips  'grey78':1 }
Sat Dec 08 06:21:09 IST 2012	Chips to send by responder: { chips  'CTGreen':1 }
Sat Dec 08 06:21:15 IST 2012	Received communication message 
Sat Dec 08 06:21:15 IST 2012	From player: 210
Sat Dec 08 06:21:15 IST 2012	To player: 337
Sat Dec 08 06:21:15 IST 2012	Message type: basicproposaldiscussion
Sat Dec 08 06:21:15 IST 2012	Player 210 rejected offer
Sat Dec 08 06:21:15 IST 2012	Swaping roles:
Sat Dec 08 06:21:15 IST 2012	Proposer is: 210
Sat Dec 08 06:21:15 IST 2012	Responder is: 337
Sat Dec 08 06:21:15 IST 2012	Prop rejected, set counter offers count to: 1
Sat Dec 08 06:21:15 IST 2012	Prop rejected, get counter offers returned: 1
Sat Dec 08 06:21:19 IST 2012	Slept 4 seconds
Sat Dec 08 06:21:19 IST 2012	Sent role changed msgs
Sat Dec 08 06:21:39 IST 2012	Received communication message 
Sat Dec 08 06:21:39 IST 2012	From player: 210
Sat Dec 08 06:21:39 IST 2012	To player: 337
Sat Dec 08 06:21:39 IST 2012	Message type: basicproposal
Sat Dec 08 06:21:39 IST 2012	Chips to send by proposer: { chips  'CTRed':0 'CTPurple':0 'CTGreen':1 'grey78':0 }
Sat Dec 08 06:21:39 IST 2012	Chips to send by responder: { chips  'CTRed':0 'CTPurple':0 'CTGreen':0 'grey78':1 }
Sat Dec 08 06:21:50 IST 2012	Received communication message 
Sat Dec 08 06:21:50 IST 2012	From player: 337
Sat Dec 08 06:21:50 IST 2012	To player: 210
Sat Dec 08 06:21:50 IST 2012	Message type: basicproposaldiscussion
Sat Dec 08 06:21:50 IST 2012	Player 337 accepted offer
Sat Dec 08 06:21:50 IST 2012	Prop accepted, set counter offers count to: 0
Sat Dec 08 06:21:50 IST 2012	Prop accepted, get counter offers returned: 0
Sat Dec 08 06:21:50 IST 2012	A Phase Ended: Communication Phase
Sat Dec 08 06:21:50 IST 2012	Protocol: A New Phase Began: Exchange Phase
Sat Dec 08 06:21:50 IST 2012	Protocol: Exchange phase, Round: 16
Sat Dec 08 06:21:50 IST 2012	In begin exch.phase, get counter offers returned: 0
Sat Dec 08 06:21:59 IST 2012	A Phase Ended: Exchange Phase
Sat Dec 08 06:21:59 IST 2012	Proposer 210 sent: { chips  }
Sat Dec 08 06:21:59 IST 2012	Responder 337 sent: { chips  'CTRed':0 'CTPurple':0 'CTGreen':0 'grey78':0 }
Sat Dec 08 06:21:59 IST 2012	Protocol: A New Phase Began: Movement Phase
Sat Dec 08 06:21:59 IST 2012	Protocol: Movement phase, Round: 16
Sat Dec 08 06:22:18 IST 2012	A Phase Ended: Movement Phase
Sat Dec 08 06:22:18 IST 2012	Protocol: A New Phase Began: Feedback Phase
Sat Dec 08 06:22:18 IST 2012	Protocol: Feedback phase, Round: 16
Sat Dec 08 06:22:18 IST 2012	Number of consecutive no movements for player 337 is 2
Sat Dec 08 06:22:18 IST 2012	Number of consecutive no movements for player 210 is 2
Sat Dec 08 06:22:23 IST 2012	A Phase Ended: Feedback Phase
Sat Dec 08 06:22:23 IST 2012	Protocol: A New Phase Began: Communication Phase
Sat Dec 08 06:22:23 IST 2012	Protocol: Communication phase, Round: 17
Sat Dec 08 06:22:37 IST 2012	Received communication message 
Sat Dec 08 06:22:37 IST 2012	From player: 210
Sat Dec 08 06:22:37 IST 2012	To player: 337
Sat Dec 08 06:22:37 IST 2012	Message type: basicproposal
Sat Dec 08 06:22:37 IST 2012	Chips to send by proposer: { chips  'CTRed':0 'CTPurple':0 'CTGreen':4 'grey78':0 }
Sat Dec 08 06:22:37 IST 2012	Chips to send by responder: { chips  'CTRed':0 'CTPurple':0 'CTGreen':0 'grey78':1 }
Sat Dec 08 06:22:44 IST 2012	Received communication message 
Sat Dec 08 06:22:44 IST 2012	From player: 337
Sat Dec 08 06:22:44 IST 2012	To player: 210
Sat Dec 08 06:22:44 IST 2012	Message type: basicproposaldiscussion
Sat Dec 08 06:22:44 IST 2012	Player 337 rejected offer
Sat Dec 08 06:22:44 IST 2012	Swaping roles:
Sat Dec 08 06:22:44 IST 2012	Proposer is: 337
Sat Dec 08 06:22:44 IST 2012	Responder is: 210
Sat Dec 08 06:22:44 IST 2012	Prop rejected, set counter offers count to: 1
Sat Dec 08 06:22:44 IST 2012	Prop rejected, get counter offers returned: 1
Sat Dec 08 06:22:48 IST 2012	Slept 4 seconds
Sat Dec 08 06:22:48 IST 2012	Sent role changed msgs
Sat Dec 08 06:23:05 IST 2012	Received communication message 
Sat Dec 08 06:23:05 IST 2012	From player: 337
Sat Dec 08 06:23:05 IST 2012	To player: 210
Sat Dec 08 06:23:05 IST 2012	Message type: basicproposal
Sat Dec 08 06:23:05 IST 2012	Chips to send by proposer: { chips  'CTRed':0 'CTPurple':0 'CTGreen':0 'grey78':1 }
Sat Dec 08 06:23:05 IST 2012	Chips to send by responder: { chips  'CTRed':0 'CTPurple':0 'CTGreen':1 'grey78':0 }
Sat Dec 08 06:23:12 IST 2012	Received communication message 
Sat Dec 08 06:23:12 IST 2012	From player: 210
Sat Dec 08 06:23:12 IST 2012	To player: 337
Sat Dec 08 06:23:12 IST 2012	Message type: basicproposaldiscussion
Sat Dec 08 06:23:12 IST 2012	Player 210 accepted offer
Sat Dec 08 06:23:12 IST 2012	Prop accepted, set counter offers count to: 0
Sat Dec 08 06:23:12 IST 2012	Prop accepted, get counter offers returned: 0
Sat Dec 08 06:23:12 IST 2012	A Phase Ended: Communication Phase
Sat Dec 08 06:23:12 IST 2012	Protocol: A New Phase Began: Exchange Phase
Sat Dec 08 06:23:12 IST 2012	Protocol: Exchange phase, Round: 17
Sat Dec 08 06:23:12 IST 2012	In begin exch.phase, get counter offers returned: 0
Sat Dec 08 06:23:18 IST 2012	A Phase Ended: Exchange Phase
Sat Dec 08 06:23:18 IST 2012	Proposer 337 sent: { chips  'CTRed':0 'CTPurple':0 'CTGreen':0 'grey78':0 }
Sat Dec 08 06:23:18 IST 2012	Responder 210 sent: { chips  'CTRed':0 'CTPurple':0 'CTGreen':1 'grey78':0 }
Sat Dec 08 06:23:18 IST 2012	Protocol: A New Phase Began: Movement Phase
Sat Dec 08 06:23:18 IST 2012	Protocol: Movement phase, Round: 17
Sat Dec 08 06:23:18 IST 2012	Player 337 moved to (R:1,C:3)
Sat Dec 08 06:23:37 IST 2012	A Phase Ended: Movement Phase
Sat Dec 08 06:23:37 IST 2012	Protocol: A New Phase Began: Feedback Phase
Sat Dec 08 06:23:37 IST 2012	Protocol: Feedback phase, Round: 17
Sat Dec 08 06:23:37 IST 2012	Number of consecutive no movements for player 337 is 0
Sat Dec 08 06:23:37 IST 2012	Number of consecutive no movements for player 210 is 3
Sat Dec 08 06:23:37 IST 2012	Ending game, all players move as much as they can towards goal
Sat Dec 08 06:23:37 IST 2012	Player: 337 ,role: Proposer score is: 205
Sat Dec 08 06:23:37 IST 2012	Player: 210 ,role: Responder score is: 40
