Fri Dec 07 17:56:23 IST 2012	This is the CT debug logger; svn version 638; sep 27 09
Fri Dec 07 17:56:23 IST 2012	Fri Dec 07 17:56:23 IST 2012
Fri Dec 07 17:56:23 IST 2012	A new Alternative Offers game has began
Fri Dec 07 17:56:23 IST 2012	ID Number: 43982
Fri Dec 07 17:56:23 IST 2012	Creating board
Fri Dec 07 17:56:23 IST 2012	<colors>
Fri Dec 07 17:56:23 IST 2012	{ GamePalette  'CTRed':0 'CTPurple':1 'CTGreen':2 'grey78':3 }
Fri Dec 07 17:56:23 IST 2012	<rows>
Fri Dec 07 17:56:23 IST 2012	7
Fri Dec 07 17:56:23 IST 2012	<columns>
Fri Dec 07 17:56:23 IST 2012	5
Fri Dec 07 17:56:23 IST 2012	<squaresColors>
Fri Dec 07 17:56:24 IST 2012	CTPurple CTRed CTRed CTGreen CTPurple 
Fri Dec 07 17:56:24 IST 2012	CTPurple grey78 CTPurple grey78 CTPurple 
Fri Dec 07 17:56:24 IST 2012	CTPurple CTRed CTPurple CTGreen CTPurple 
Fri Dec 07 17:56:24 IST 2012	CTPurple grey78 CTPurple grey78 CTPurple 
Fri Dec 07 17:56:24 IST 2012	CTPurple CTRed CTPurple CTGreen CTPurple 
Fri Dec 07 17:56:24 IST 2012	CTPurple grey78 CTPurple grey78 CTPurple 
Fri Dec 07 17:56:24 IST 2012	CTPurple CTRed CTPurple CTGreen CTPurple 
Fri Dec 07 17:56:24 IST 2012	</squareColors>
Fri Dec 07 17:56:24 IST 2012	<goalPosition>
Fri Dec 07 17:56:24 IST 2012	Goal position: (R:0,C:2)
Fri Dec 07 17:56:24 IST 2012	<numberOfPlayers>
Fri Dec 07 17:56:24 IST 2012	2
Fri Dec 07 17:56:24 IST 2012	<firstPlayerChips>
Fri Dec 07 17:56:24 IST 2012	Setting chips for player: 337 id:0
Fri Dec 07 17:56:24 IST 2012	{ chips  'CTRed':1 'CTGreen':13 'CTPurple':0 'grey78':10 }
Fri Dec 07 17:56:24 IST 2012	Player position: (R:6,C:4)
Fri Dec 07 17:56:24 IST 2012	Setting chips for player: 210 id:1
Fri Dec 07 17:56:24 IST 2012	{ chips  'CTRed':5 'CTGreen':19 'CTPurple':0 'grey78':0 }
Fri Dec 07 17:56:24 IST 2012	Player position: (R:6,C:0)
Fri Dec 07 17:56:24 IST 2012	Protocol: A New Phase Began: Strategy Prep Phase
Fri Dec 07 17:56:24 IST 2012	Protocol: Strategy Preparation phase, Round: 0
Fri Dec 07 17:56:24 IST 2012	Maximum number of rounds with no consecutive movement is 3
Fri Dec 07 17:56:24 IST 2012	In begin comm. phase, set counter offers count to: 0
Fri Dec 07 17:56:24 IST 2012	In begin comm. phase, get counter offers returned: 0
Fri Dec 07 17:56:44 IST 2012	A Phase Ended: Strategy Prep Phase
Fri Dec 07 17:56:44 IST 2012	Protocol: A New Phase Began: Communication Phase
Fri Dec 07 17:56:44 IST 2012	Protocol: Communication phase, Round: 0
Fri Dec 07 17:57:44 IST 2012	Received communication message 
Fri Dec 07 17:57:44 IST 2012	From player: 337
Fri Dec 07 17:57:44 IST 2012	To player: 210
Fri Dec 07 17:57:44 IST 2012	Message type: basicproposal
Fri Dec 07 17:57:44 IST 2012	Chips to send by proposer: { chips  'grey78':3 }
Fri Dec 07 17:57:44 IST 2012	Chips to send by responder: { chips  'CTGreen':2 }
Fri Dec 07 17:57:58 IST 2012	Received communication message 
Fri Dec 07 17:57:58 IST 2012	From player: 210
Fri Dec 07 17:57:58 IST 2012	To player: 337
Fri Dec 07 17:57:58 IST 2012	Message type: basicproposaldiscussion
Fri Dec 07 17:57:58 IST 2012	Player 210 accepted offer
Fri Dec 07 17:57:58 IST 2012	Prop accepted, set counter offers count to: 0
Fri Dec 07 17:57:58 IST 2012	Prop accepted, get counter offers returned: 0
Fri Dec 07 17:57:58 IST 2012	A Phase Ended: Communication Phase
Fri Dec 07 17:57:58 IST 2012	Protocol: A New Phase Began: Exchange Phase
Fri Dec 07 17:57:58 IST 2012	Protocol: Exchange phase, Round: 0
Fri Dec 07 17:57:58 IST 2012	In begin exch.phase, get counter offers returned: 0
Fri Dec 07 17:58:27 IST 2012	A Phase Ended: Exchange Phase
Fri Dec 07 17:58:27 IST 2012	Proposer 337 sent: { chips  'CTRed':0 'CTPurple':0 'CTGreen':0 'grey78':1 }
Fri Dec 07 17:58:27 IST 2012	Responder 210 sent: { chips  'CTRed':0 'CTPurple':0 'CTGreen':1 'grey78':0 }
Fri Dec 07 17:58:27 IST 2012	Protocol: A New Phase Began: Movement Phase
Fri Dec 07 17:58:27 IST 2012	Protocol: Movement phase, Round: 0
Fri Dec 07 17:58:47 IST 2012	A Phase Ended: Movement Phase
Fri Dec 07 17:58:47 IST 2012	Swaping roles:
Fri Dec 07 17:58:47 IST 2012	Proposer is: 210
Fri Dec 07 17:58:47 IST 2012	Responder is: 337
Fri Dec 07 17:58:47 IST 2012	Protocol: A New Phase Began: Feedback Phase
Fri Dec 07 17:58:47 IST 2012	Protocol: Feedback phase, Round: 0
Fri Dec 07 17:58:47 IST 2012	Number of consecutive no movements for player 337 is 1
Fri Dec 07 17:58:47 IST 2012	Number of consecutive no movements for player 210 is 1
Fri Dec 07 17:58:52 IST 2012	A Phase Ended: Feedback Phase
Fri Dec 07 17:58:52 IST 2012	Protocol: A New Phase Began: Communication Phase
Fri Dec 07 17:58:52 IST 2012	Protocol: Communication phase, Round: 1
Fri Dec 07 17:59:05 IST 2012	Received communication message 
Fri Dec 07 17:59:05 IST 2012	From player: 210
Fri Dec 07 17:59:05 IST 2012	To player: 337
Fri Dec 07 17:59:05 IST 2012	Message type: basicproposal
Fri Dec 07 17:59:05 IST 2012	Chips to send by proposer: { chips  'CTRed':0 'CTPurple':0 'CTGreen':1 'grey78':0 }
Fri Dec 07 17:59:05 IST 2012	Chips to send by responder: { chips  'CTRed':0 'CTPurple':0 'CTGreen':0 'grey78':1 }
Fri Dec 07 18:00:05 IST 2012	Received communication message 
Fri Dec 07 18:00:05 IST 2012	From player: 337
Fri Dec 07 18:00:05 IST 2012	To player: 210
Fri Dec 07 18:00:05 IST 2012	Message type: basicproposaldiscussion
Fri Dec 07 18:00:05 IST 2012	Player 337 accepted offer
Fri Dec 07 18:00:05 IST 2012	Prop accepted, set counter offers count to: 0
Fri Dec 07 18:00:05 IST 2012	Prop accepted, get counter offers returned: 0
Fri Dec 07 18:00:05 IST 2012	A Phase Ended: Communication Phase
Fri Dec 07 18:00:05 IST 2012	Protocol: A New Phase Began: Exchange Phase
Fri Dec 07 18:00:05 IST 2012	Protocol: Exchange phase, Round: 1
Fri Dec 07 18:00:05 IST 2012	In begin exch.phase, get counter offers returned: 0
Fri Dec 07 18:00:34 IST 2012	A Phase Ended: Exchange Phase
Fri Dec 07 18:00:34 IST 2012	Proposer 210 sent: { chips  'CTRed':0 'CTPurple':0 'CTGreen':1 'grey78':0 }
Fri Dec 07 18:00:34 IST 2012	Responder 337 sent: { chips  'CTRed':0 'CTPurple':0 'CTGreen':0 'grey78':0 }
Fri Dec 07 18:00:34 IST 2012	Protocol: A New Phase Began: Movement Phase
Fri Dec 07 18:00:34 IST 2012	Protocol: Movement phase, Round: 1
Fri Dec 07 18:00:53 IST 2012	A Phase Ended: Movement Phase
Fri Dec 07 18:00:53 IST 2012	Swaping roles:
Fri Dec 07 18:00:53 IST 2012	Proposer is: 337
Fri Dec 07 18:00:53 IST 2012	Responder is: 210
Fri Dec 07 18:00:53 IST 2012	Protocol: A New Phase Began: Feedback Phase
Fri Dec 07 18:00:53 IST 2012	Protocol: Feedback phase, Round: 1
Fri Dec 07 18:00:53 IST 2012	Number of consecutive no movements for player 337 is 2
Fri Dec 07 18:00:53 IST 2012	Number of consecutive no movements for player 210 is 2
Fri Dec 07 18:00:58 IST 2012	A Phase Ended: Feedback Phase
Fri Dec 07 18:00:58 IST 2012	Protocol: A New Phase Began: Communication Phase
Fri Dec 07 18:00:58 IST 2012	Protocol: Communication phase, Round: 2
Fri Dec 07 18:01:58 IST 2012	Received communication message 
Fri Dec 07 18:01:58 IST 2012	From player: 337
Fri Dec 07 18:01:58 IST 2012	To player: 210
Fri Dec 07 18:01:58 IST 2012	Message type: basicproposal
Fri Dec 07 18:01:58 IST 2012	Chips to send by proposer: { chips  'grey78':2 }
Fri Dec 07 18:01:58 IST 2012	Chips to send by responder: { chips  'CTGreen':1 }
Fri Dec 07 18:02:08 IST 2012	Received communication message 
Fri Dec 07 18:02:08 IST 2012	From player: 210
Fri Dec 07 18:02:08 IST 2012	To player: 337
Fri Dec 07 18:02:08 IST 2012	Message type: basicproposaldiscussion
Fri Dec 07 18:02:08 IST 2012	Player 210 accepted offer
Fri Dec 07 18:02:08 IST 2012	Prop accepted, set counter offers count to: 0
Fri Dec 07 18:02:08 IST 2012	Prop accepted, get counter offers returned: 0
Fri Dec 07 18:02:08 IST 2012	A Phase Ended: Communication Phase
Fri Dec 07 18:02:08 IST 2012	Protocol: A New Phase Began: Exchange Phase
Fri Dec 07 18:02:08 IST 2012	Protocol: Exchange phase, Round: 2
Fri Dec 07 18:02:08 IST 2012	In begin exch.phase, get counter offers returned: 0
Fri Dec 07 18:02:37 IST 2012	A Phase Ended: Exchange Phase
Fri Dec 07 18:02:37 IST 2012	Proposer 337 sent: { chips  'CTRed':0 'CTPurple':0 'CTGreen':0 'grey78':0 }
Fri Dec 07 18:02:37 IST 2012	Responder 210 sent: { chips  }
Fri Dec 07 18:02:37 IST 2012	Protocol: A New Phase Began: Movement Phase
Fri Dec 07 18:02:37 IST 2012	Protocol: Movement phase, Round: 2
Fri Dec 07 18:02:38 IST 2012	Player 337 moved to (R:6,C:3)
Fri Dec 07 18:02:38 IST 2012	Player 210 moved to (R:6,C:1)
Fri Dec 07 18:02:57 IST 2012	A Phase Ended: Movement Phase
Fri Dec 07 18:02:57 IST 2012	Swaping roles:
Fri Dec 07 18:02:57 IST 2012	Proposer is: 210
Fri Dec 07 18:02:57 IST 2012	Responder is: 337
Fri Dec 07 18:02:57 IST 2012	Protocol: A New Phase Began: Feedback Phase
Fri Dec 07 18:02:57 IST 2012	Protocol: Feedback phase, Round: 2
Fri Dec 07 18:02:57 IST 2012	Number of consecutive no movements for player 337 is 0
Fri Dec 07 18:02:57 IST 2012	Number of consecutive no movements for player 210 is 0
Fri Dec 07 18:03:02 IST 2012	A Phase Ended: Feedback Phase
Fri Dec 07 18:03:02 IST 2012	Protocol: A New Phase Began: Communication Phase
Fri Dec 07 18:03:02 IST 2012	Protocol: Communication phase, Round: 3
Fri Dec 07 18:03:15 IST 2012	Received communication message 
Fri Dec 07 18:03:15 IST 2012	From player: 210
Fri Dec 07 18:03:15 IST 2012	To player: 337
Fri Dec 07 18:03:15 IST 2012	Message type: basicproposal
Fri Dec 07 18:03:15 IST 2012	Chips to send by proposer: { chips  'CTRed':0 'CTPurple':0 'CTGreen':1 'grey78':0 }
Fri Dec 07 18:03:15 IST 2012	Chips to send by responder: { chips  'CTRed':0 'CTPurple':0 'CTGreen':0 'grey78':1 }
Fri Dec 07 18:04:13 IST 2012	Received communication message 
Fri Dec 07 18:04:13 IST 2012	From player: 337
Fri Dec 07 18:04:13 IST 2012	To player: 210
Fri Dec 07 18:04:13 IST 2012	Message type: basicproposaldiscussion
Fri Dec 07 18:04:13 IST 2012	Player 337 accepted offer
Fri Dec 07 18:04:13 IST 2012	Prop accepted, set counter offers count to: 0
Fri Dec 07 18:04:13 IST 2012	Prop accepted, get counter offers returned: 0
Fri Dec 07 18:04:13 IST 2012	A Phase Ended: Communication Phase
Fri Dec 07 18:04:13 IST 2012	Protocol: A New Phase Began: Exchange Phase
Fri Dec 07 18:04:13 IST 2012	Protocol: Exchange phase, Round: 3
Fri Dec 07 18:04:13 IST 2012	In begin exch.phase, get counter offers returned: 0
Fri Dec 07 18:04:42 IST 2012	A Phase Ended: Exchange Phase
Fri Dec 07 18:04:42 IST 2012	Proposer 210 sent: { chips  'CTRed':0 'CTPurple':0 'CTGreen':1 'grey78':0 }
Fri Dec 07 18:04:42 IST 2012	Responder 337 sent: { chips  'CTRed':0 'CTPurple':0 'CTGreen':0 'grey78':0 }
Fri Dec 07 18:04:42 IST 2012	Protocol: A New Phase Began: Movement Phase
Fri Dec 07 18:04:42 IST 2012	Protocol: Movement phase, Round: 3
Fri Dec 07 18:05:02 IST 2012	A Phase Ended: Movement Phase
Fri Dec 07 18:05:02 IST 2012	Swaping roles:
Fri Dec 07 18:05:02 IST 2012	Proposer is: 337
Fri Dec 07 18:05:02 IST 2012	Responder is: 210
Fri Dec 07 18:05:02 IST 2012	Protocol: A New Phase Began: Feedback Phase
Fri Dec 07 18:05:02 IST 2012	Protocol: Feedback phase, Round: 3
Fri Dec 07 18:05:02 IST 2012	Number of consecutive no movements for player 337 is 1
Fri Dec 07 18:05:02 IST 2012	Number of consecutive no movements for player 210 is 1
Fri Dec 07 18:05:07 IST 2012	A Phase Ended: Feedback Phase
Fri Dec 07 18:05:07 IST 2012	Protocol: A New Phase Began: Communication Phase
Fri Dec 07 18:05:07 IST 2012	Protocol: Communication phase, Round: 4
Fri Dec 07 18:06:07 IST 2012	Received communication message 
Fri Dec 07 18:06:07 IST 2012	From player: 337
Fri Dec 07 18:06:07 IST 2012	To player: 210
Fri Dec 07 18:06:07 IST 2012	Message type: basicproposal
Fri Dec 07 18:06:07 IST 2012	Chips to send by proposer: { chips  'grey78':2 }
Fri Dec 07 18:06:07 IST 2012	Chips to send by responder: { chips  'CTGreen':1 }
Fri Dec 07 18:06:14 IST 2012	Received communication message 
Fri Dec 07 18:06:14 IST 2012	From player: 210
Fri Dec 07 18:06:14 IST 2012	To player: 337
Fri Dec 07 18:06:14 IST 2012	Message type: basicproposaldiscussion
Fri Dec 07 18:06:14 IST 2012	Player 210 accepted offer
Fri Dec 07 18:06:14 IST 2012	Prop accepted, set counter offers count to: 0
Fri Dec 07 18:06:14 IST 2012	Prop accepted, get counter offers returned: 0
Fri Dec 07 18:06:14 IST 2012	A Phase Ended: Communication Phase
Fri Dec 07 18:06:14 IST 2012	Protocol: A New Phase Began: Exchange Phase
Fri Dec 07 18:06:14 IST 2012	Protocol: Exchange phase, Round: 4
Fri Dec 07 18:06:14 IST 2012	In begin exch.phase, get counter offers returned: 0
Fri Dec 07 18:06:43 IST 2012	A Phase Ended: Exchange Phase
Fri Dec 07 18:06:43 IST 2012	Proposer 337 sent: { chips  'CTRed':0 'CTPurple':0 'CTGreen':0 'grey78':0 }
Fri Dec 07 18:06:43 IST 2012	Responder 210 sent: { chips  }
Fri Dec 07 18:06:43 IST 2012	Protocol: A New Phase Began: Movement Phase
Fri Dec 07 18:06:43 IST 2012	Protocol: Movement phase, Round: 4
Fri Dec 07 18:07:02 IST 2012	A Phase Ended: Movement Phase
Fri Dec 07 18:07:02 IST 2012	Swaping roles:
Fri Dec 07 18:07:02 IST 2012	Proposer is: 210
Fri Dec 07 18:07:02 IST 2012	Responder is: 337
Fri Dec 07 18:07:02 IST 2012	Protocol: A New Phase Began: Feedback Phase
Fri Dec 07 18:07:02 IST 2012	Protocol: Feedback phase, Round: 4
Fri Dec 07 18:07:02 IST 2012	Number of consecutive no movements for player 337 is 2
Fri Dec 07 18:07:02 IST 2012	Number of consecutive no movements for player 210 is 2
Fri Dec 07 18:07:07 IST 2012	A Phase Ended: Feedback Phase
Fri Dec 07 18:07:07 IST 2012	Protocol: A New Phase Began: Communication Phase
Fri Dec 07 18:07:07 IST 2012	Protocol: Communication phase, Round: 5
Fri Dec 07 18:07:24 IST 2012	Received communication message 
Fri Dec 07 18:07:24 IST 2012	From player: 210
Fri Dec 07 18:07:24 IST 2012	To player: 337
Fri Dec 07 18:07:24 IST 2012	Message type: basicproposal
Fri Dec 07 18:07:24 IST 2012	Chips to send by proposer: { chips  'CTRed':0 'CTPurple':0 'CTGreen':1 'grey78':0 }
Fri Dec 07 18:07:24 IST 2012	Chips to send by responder: { chips  'CTRed':0 'CTPurple':0 'CTGreen':0 'grey78':1 }
Fri Dec 07 18:08:10 IST 2012	Received communication message 
Fri Dec 07 18:08:10 IST 2012	From player: 337
Fri Dec 07 18:08:10 IST 2012	To player: 210
Fri Dec 07 18:08:10 IST 2012	Message type: basicproposaldiscussion
Fri Dec 07 18:08:10 IST 2012	Player 337 accepted offer
Fri Dec 07 18:08:10 IST 2012	Prop accepted, set counter offers count to: 0
Fri Dec 07 18:08:10 IST 2012	Prop accepted, get counter offers returned: 0
Fri Dec 07 18:08:10 IST 2012	A Phase Ended: Communication Phase
Fri Dec 07 18:08:10 IST 2012	Protocol: A New Phase Began: Exchange Phase
Fri Dec 07 18:08:10 IST 2012	Protocol: Exchange phase, Round: 5
Fri Dec 07 18:08:10 IST 2012	In begin exch.phase, get counter offers returned: 0
Fri Dec 07 18:08:39 IST 2012	A Phase Ended: Exchange Phase
Fri Dec 07 18:08:39 IST 2012	Proposer 210 sent: { chips  'CTRed':0 'CTPurple':0 'CTGreen':1 'grey78':0 }
Fri Dec 07 18:08:39 IST 2012	Responder 337 sent: { chips  'CTRed':0 'CTPurple':0 'CTGreen':0 'grey78':1 }
Fri Dec 07 18:08:39 IST 2012	Protocol: A New Phase Began: Movement Phase
Fri Dec 07 18:08:39 IST 2012	Protocol: Movement phase, Round: 5
Fri Dec 07 18:08:39 IST 2012	Player 337 moved to (R:5,C:3)
Fri Dec 07 18:08:39 IST 2012	Player 210 moved to (R:5,C:1)
Fri Dec 07 18:08:59 IST 2012	A Phase Ended: Movement Phase
Fri Dec 07 18:08:59 IST 2012	Swaping roles:
Fri Dec 07 18:08:59 IST 2012	Proposer is: 337
Fri Dec 07 18:08:59 IST 2012	Responder is: 210
Fri Dec 07 18:08:59 IST 2012	Protocol: A New Phase Began: Feedback Phase
Fri Dec 07 18:08:59 IST 2012	Protocol: Feedback phase, Round: 5
Fri Dec 07 18:08:59 IST 2012	Number of consecutive no movements for player 337 is 0
Fri Dec 07 18:08:59 IST 2012	Number of consecutive no movements for player 210 is 0
Fri Dec 07 18:09:04 IST 2012	A Phase Ended: Feedback Phase
Fri Dec 07 18:09:04 IST 2012	Protocol: A New Phase Began: Communication Phase
Fri Dec 07 18:09:04 IST 2012	Protocol: Communication phase, Round: 6
Fri Dec 07 18:09:33 IST 2012	Received communication message 
Fri Dec 07 18:09:33 IST 2012	From player: 337
Fri Dec 07 18:09:33 IST 2012	To player: 210
Fri Dec 07 18:09:33 IST 2012	Message type: basicproposal
Fri Dec 07 18:09:33 IST 2012	Chips to send by proposer: { chips  'grey78':1 }
Fri Dec 07 18:09:33 IST 2012	Chips to send by responder: { chips  'CTGreen':3 }
Fri Dec 07 18:09:47 IST 2012	Received communication message 
Fri Dec 07 18:09:47 IST 2012	From player: 210
Fri Dec 07 18:09:47 IST 2012	To player: 337
Fri Dec 07 18:09:47 IST 2012	Message type: basicproposaldiscussion
Fri Dec 07 18:09:47 IST 2012	Player 210 accepted offer
Fri Dec 07 18:09:47 IST 2012	Prop accepted, set counter offers count to: 0
Fri Dec 07 18:09:47 IST 2012	Prop accepted, get counter offers returned: 0
Fri Dec 07 18:09:47 IST 2012	A Phase Ended: Communication Phase
Fri Dec 07 18:09:47 IST 2012	Protocol: A New Phase Began: Exchange Phase
Fri Dec 07 18:09:47 IST 2012	Protocol: Exchange phase, Round: 6
Fri Dec 07 18:09:47 IST 2012	In begin exch.phase, get counter offers returned: 0
Fri Dec 07 18:10:16 IST 2012	A Phase Ended: Exchange Phase
Fri Dec 07 18:10:16 IST 2012	Proposer 337 sent: { chips  'CTRed':0 'CTPurple':0 'CTGreen':0 'grey78':0 }
Fri Dec 07 18:10:16 IST 2012	Responder 210 sent: { chips  }
Fri Dec 07 18:10:16 IST 2012	Protocol: A New Phase Began: Movement Phase
Fri Dec 07 18:10:16 IST 2012	Protocol: Movement phase, Round: 6
Fri Dec 07 18:10:35 IST 2012	A Phase Ended: Movement Phase
Fri Dec 07 18:10:35 IST 2012	Swaping roles:
Fri Dec 07 18:10:35 IST 2012	Proposer is: 210
Fri Dec 07 18:10:35 IST 2012	Responder is: 337
Fri Dec 07 18:10:35 IST 2012	Protocol: A New Phase Began: Feedback Phase
Fri Dec 07 18:10:35 IST 2012	Protocol: Feedback phase, Round: 6
Fri Dec 07 18:10:35 IST 2012	Number of consecutive no movements for player 337 is 1
Fri Dec 07 18:10:35 IST 2012	Number of consecutive no movements for player 210 is 1
Fri Dec 07 18:10:40 IST 2012	A Phase Ended: Feedback Phase
Fri Dec 07 18:10:40 IST 2012	Protocol: A New Phase Began: Communication Phase
Fri Dec 07 18:10:40 IST 2012	Protocol: Communication phase, Round: 7
Fri Dec 07 18:10:56 IST 2012	Received communication message 
Fri Dec 07 18:10:56 IST 2012	From player: 210
Fri Dec 07 18:10:56 IST 2012	To player: 337
Fri Dec 07 18:10:56 IST 2012	Message type: basicproposal
Fri Dec 07 18:10:56 IST 2012	Chips to send by proposer: { chips  'CTRed':0 'CTPurple':0 'CTGreen':4 'grey78':0 }
Fri Dec 07 18:10:56 IST 2012	Chips to send by responder: { chips  'CTRed':0 'CTPurple':0 'CTGreen':0 'grey78':1 }
Fri Dec 07 18:11:57 IST 2012	Received communication message 
Fri Dec 07 18:11:57 IST 2012	From player: 337
Fri Dec 07 18:11:57 IST 2012	To player: 210
Fri Dec 07 18:11:57 IST 2012	Message type: basicproposaldiscussion
Fri Dec 07 18:11:57 IST 2012	Player 337 rejected offer
Fri Dec 07 18:11:57 IST 2012	Swaping roles:
Fri Dec 07 18:11:57 IST 2012	Proposer is: 337
Fri Dec 07 18:11:57 IST 2012	Responder is: 210
Fri Dec 07 18:11:57 IST 2012	Prop rejected, set counter offers count to: 1
Fri Dec 07 18:11:57 IST 2012	Prop rejected, get counter offers returned: 1
Fri Dec 07 18:12:01 IST 2012	Slept 4 seconds
Fri Dec 07 18:12:01 IST 2012	Sent role changed msgs
Fri Dec 07 18:13:01 IST 2012	Received communication message 
Fri Dec 07 18:13:01 IST 2012	From player: 337
Fri Dec 07 18:13:01 IST 2012	To player: 210
Fri Dec 07 18:13:01 IST 2012	Message type: basicproposal
Fri Dec 07 18:13:01 IST 2012	Chips to send by proposer: { chips  'CTRed':0 'CTPurple':0 'CTGreen':0 'grey78':1 }
Fri Dec 07 18:13:01 IST 2012	Chips to send by responder: { chips  'CTRed':0 'CTPurple':0 'CTGreen':1 'grey78':0 }
Fri Dec 07 18:13:14 IST 2012	Received communication message 
Fri Dec 07 18:13:14 IST 2012	From player: 210
Fri Dec 07 18:13:14 IST 2012	To player: 337
Fri Dec 07 18:13:14 IST 2012	Message type: basicproposaldiscussion
Fri Dec 07 18:13:14 IST 2012	Player 210 accepted offer
Fri Dec 07 18:13:14 IST 2012	Prop accepted, set counter offers count to: 0
Fri Dec 07 18:13:14 IST 2012	Prop accepted, get counter offers returned: 0
Fri Dec 07 18:13:14 IST 2012	A Phase Ended: Communication Phase
Fri Dec 07 18:13:14 IST 2012	Protocol: A New Phase Began: Exchange Phase
Fri Dec 07 18:13:14 IST 2012	Protocol: Exchange phase, Round: 7
Fri Dec 07 18:13:14 IST 2012	In begin exch.phase, get counter offers returned: 0
Fri Dec 07 18:13:43 IST 2012	A Phase Ended: Exchange Phase
Fri Dec 07 18:13:43 IST 2012	Proposer 337 sent: { chips  'CTRed':0 'CTPurple':0 'CTGreen':0 'grey78':0 }
Fri Dec 07 18:13:43 IST 2012	Responder 210 sent: { chips  'CTRed':0 'CTPurple':0 'CTGreen':1 'grey78':0 }
Fri Dec 07 18:13:43 IST 2012	Protocol: A New Phase Began: Movement Phase
Fri Dec 07 18:13:43 IST 2012	Protocol: Movement phase, Round: 7
Fri Dec 07 18:14:02 IST 2012	A Phase Ended: Movement Phase
Fri Dec 07 18:14:02 IST 2012	Protocol: A New Phase Began: Feedback Phase
Fri Dec 07 18:14:02 IST 2012	Protocol: Feedback phase, Round: 7
Fri Dec 07 18:14:02 IST 2012	Number of consecutive no movements for player 337 is 2
Fri Dec 07 18:14:02 IST 2012	Number of consecutive no movements for player 210 is 2
Fri Dec 07 18:14:07 IST 2012	A Phase Ended: Feedback Phase
Fri Dec 07 18:14:07 IST 2012	Protocol: A New Phase Began: Communication Phase
Fri Dec 07 18:14:07 IST 2012	Protocol: Communication phase, Round: 8
Fri Dec 07 18:15:07 IST 2012	Received communication message 
Fri Dec 07 18:15:07 IST 2012	From player: 337
Fri Dec 07 18:15:07 IST 2012	To player: 210
Fri Dec 07 18:15:07 IST 2012	Message type: basicproposal
Fri Dec 07 18:15:07 IST 2012	Chips to send by proposer: { chips  'grey78':1 }
Fri Dec 07 18:15:07 IST 2012	Chips to send by responder: { chips  'CTGreen':1 }
Fri Dec 07 18:15:19 IST 2012	Received communication message 
Fri Dec 07 18:15:19 IST 2012	From player: 210
Fri Dec 07 18:15:19 IST 2012	To player: 337
Fri Dec 07 18:15:19 IST 2012	Message type: basicproposaldiscussion
Fri Dec 07 18:15:19 IST 2012	Player 210 accepted offer
Fri Dec 07 18:15:19 IST 2012	Prop accepted, set counter offers count to: 0
Fri Dec 07 18:15:19 IST 2012	Prop accepted, get counter offers returned: 0
Fri Dec 07 18:15:19 IST 2012	A Phase Ended: Communication Phase
Fri Dec 07 18:15:19 IST 2012	Protocol: A New Phase Began: Exchange Phase
Fri Dec 07 18:15:19 IST 2012	Protocol: Exchange phase, Round: 8
Fri Dec 07 18:15:19 IST 2012	In begin exch.phase, get counter offers returned: 0
Fri Dec 07 18:15:48 IST 2012	A Phase Ended: Exchange Phase
Fri Dec 07 18:15:48 IST 2012	Proposer 337 sent: { chips  'CTRed':0 'CTPurple':0 'CTGreen':0 'grey78':0 }
Fri Dec 07 18:15:48 IST 2012	Responder 210 sent: { chips  'CTRed':0 'CTPurple':0 'CTGreen':1 'grey78':0 }
Fri Dec 07 18:15:48 IST 2012	Protocol: A New Phase Began: Movement Phase
Fri Dec 07 18:15:48 IST 2012	Protocol: Movement phase, Round: 8
Fri Dec 07 18:15:48 IST 2012	Player 210 moved to (R:4,C:1)
Fri Dec 07 18:15:48 IST 2012	Player 337 moved to (R:4,C:3)
Fri Dec 07 18:16:08 IST 2012	A Phase Ended: Movement Phase
Fri Dec 07 18:16:08 IST 2012	Swaping roles:
Fri Dec 07 18:16:08 IST 2012	Proposer is: 210
Fri Dec 07 18:16:08 IST 2012	Responder is: 337
Fri Dec 07 18:16:08 IST 2012	Protocol: A New Phase Began: Feedback Phase
Fri Dec 07 18:16:08 IST 2012	Protocol: Feedback phase, Round: 8
Fri Dec 07 18:16:08 IST 2012	Number of consecutive no movements for player 337 is 0
Fri Dec 07 18:16:08 IST 2012	Number of consecutive no movements for player 210 is 0
Fri Dec 07 18:16:13 IST 2012	A Phase Ended: Feedback Phase
Fri Dec 07 18:16:13 IST 2012	Protocol: A New Phase Began: Communication Phase
Fri Dec 07 18:16:13 IST 2012	Protocol: Communication phase, Round: 9
Fri Dec 07 18:16:28 IST 2012	Received communication message 
Fri Dec 07 18:16:28 IST 2012	From player: 210
Fri Dec 07 18:16:28 IST 2012	To player: 337
Fri Dec 07 18:16:28 IST 2012	Message type: basicproposal
Fri Dec 07 18:16:28 IST 2012	Chips to send by proposer: { chips  'CTRed':0 'CTPurple':0 'CTGreen':2 'grey78':0 }
Fri Dec 07 18:16:28 IST 2012	Chips to send by responder: { chips  'CTRed':0 'CTPurple':0 'CTGreen':0 'grey78':1 }
Fri Dec 07 18:17:28 IST 2012	Received communication message 
Fri Dec 07 18:17:28 IST 2012	From player: 337
Fri Dec 07 18:17:28 IST 2012	To player: 210
Fri Dec 07 18:17:28 IST 2012	Message type: basicproposaldiscussion
Fri Dec 07 18:17:28 IST 2012	Player 337 rejected offer
Fri Dec 07 18:17:28 IST 2012	Swaping roles:
Fri Dec 07 18:17:28 IST 2012	Proposer is: 337
Fri Dec 07 18:17:28 IST 2012	Responder is: 210
Fri Dec 07 18:17:28 IST 2012	Prop rejected, set counter offers count to: 1
Fri Dec 07 18:17:28 IST 2012	Prop rejected, get counter offers returned: 1
Fri Dec 07 18:17:32 IST 2012	Slept 4 seconds
Fri Dec 07 18:17:32 IST 2012	Sent role changed msgs
Fri Dec 07 18:18:32 IST 2012	Received communication message 
Fri Dec 07 18:18:32 IST 2012	From player: 337
Fri Dec 07 18:18:32 IST 2012	To player: 210
Fri Dec 07 18:18:32 IST 2012	Message type: basicproposal
Fri Dec 07 18:18:32 IST 2012	Chips to send by proposer: { chips  'CTRed':0 'CTPurple':0 'CTGreen':0 'grey78':1 }
Fri Dec 07 18:18:32 IST 2012	Chips to send by responder: { chips  'CTRed':0 'CTPurple':0 'CTGreen':1 'grey78':0 }
Fri Dec 07 18:18:43 IST 2012	Received communication message 
Fri Dec 07 18:18:43 IST 2012	From player: 210
Fri Dec 07 18:18:43 IST 2012	To player: 337
Fri Dec 07 18:18:43 IST 2012	Message type: basicproposaldiscussion
Fri Dec 07 18:18:43 IST 2012	Player 210 accepted offer
Fri Dec 07 18:18:43 IST 2012	Prop accepted, set counter offers count to: 0
Fri Dec 07 18:18:43 IST 2012	Prop accepted, get counter offers returned: 0
Fri Dec 07 18:18:43 IST 2012	A Phase Ended: Communication Phase
Fri Dec 07 18:18:43 IST 2012	Protocol: A New Phase Began: Exchange Phase
Fri Dec 07 18:18:43 IST 2012	Protocol: Exchange phase, Round: 9
Fri Dec 07 18:18:43 IST 2012	In begin exch.phase, get counter offers returned: 0
Fri Dec 07 18:19:12 IST 2012	A Phase Ended: Exchange Phase
Fri Dec 07 18:19:12 IST 2012	Proposer 337 sent: { chips  'CTRed':0 'CTPurple':0 'CTGreen':0 'grey78':0 }
Fri Dec 07 18:19:12 IST 2012	Responder 210 sent: { chips  }
Fri Dec 07 18:19:12 IST 2012	Protocol: A New Phase Began: Movement Phase
Fri Dec 07 18:19:12 IST 2012	Protocol: Movement phase, Round: 9
Fri Dec 07 18:19:32 IST 2012	A Phase Ended: Movement Phase
Fri Dec 07 18:19:32 IST 2012	Protocol: A New Phase Began: Feedback Phase
Fri Dec 07 18:19:32 IST 2012	Protocol: Feedback phase, Round: 9
Fri Dec 07 18:19:32 IST 2012	Number of consecutive no movements for player 337 is 1
Fri Dec 07 18:19:32 IST 2012	Number of consecutive no movements for player 210 is 1
Fri Dec 07 18:19:37 IST 2012	A Phase Ended: Feedback Phase
Fri Dec 07 18:19:37 IST 2012	Protocol: A New Phase Began: Communication Phase
Fri Dec 07 18:19:37 IST 2012	Protocol: Communication phase, Round: 10
Fri Dec 07 18:20:37 IST 2012	Received communication message 
Fri Dec 07 18:20:37 IST 2012	From player: 337
Fri Dec 07 18:20:37 IST 2012	To player: 210
Fri Dec 07 18:20:37 IST 2012	Message type: basicproposal
Fri Dec 07 18:20:37 IST 2012	Chips to send by proposer: { chips  'grey78':1 }
Fri Dec 07 18:20:37 IST 2012	Chips to send by responder: { chips  'CTGreen':1 }
Fri Dec 07 18:20:50 IST 2012	Received communication message 
Fri Dec 07 18:20:50 IST 2012	From player: 210
Fri Dec 07 18:20:50 IST 2012	To player: 337
Fri Dec 07 18:20:50 IST 2012	Message type: basicproposaldiscussion
Fri Dec 07 18:20:50 IST 2012	Player 210 accepted offer
Fri Dec 07 18:20:50 IST 2012	Prop accepted, set counter offers count to: 0
Fri Dec 07 18:20:50 IST 2012	Prop accepted, get counter offers returned: 0
Fri Dec 07 18:20:50 IST 2012	A Phase Ended: Communication Phase
Fri Dec 07 18:20:50 IST 2012	Protocol: A New Phase Began: Exchange Phase
Fri Dec 07 18:20:50 IST 2012	Protocol: Exchange phase, Round: 10
Fri Dec 07 18:20:50 IST 2012	In begin exch.phase, get counter offers returned: 0
Fri Dec 07 18:21:19 IST 2012	A Phase Ended: Exchange Phase
Fri Dec 07 18:21:19 IST 2012	Proposer 337 sent: { chips  'CTRed':0 'CTPurple':0 'CTGreen':0 'grey78':0 }
Fri Dec 07 18:21:19 IST 2012	Responder 210 sent: { chips  'CTRed':0 'CTPurple':0 'CTGreen':1 'grey78':0 }
Fri Dec 07 18:21:19 IST 2012	Protocol: A New Phase Began: Movement Phase
Fri Dec 07 18:21:19 IST 2012	Protocol: Movement phase, Round: 10
Fri Dec 07 18:21:39 IST 2012	A Phase Ended: Movement Phase
Fri Dec 07 18:21:39 IST 2012	Swaping roles:
Fri Dec 07 18:21:39 IST 2012	Proposer is: 210
Fri Dec 07 18:21:39 IST 2012	Responder is: 337
Fri Dec 07 18:21:39 IST 2012	Protocol: A New Phase Began: Feedback Phase
Fri Dec 07 18:21:39 IST 2012	Protocol: Feedback phase, Round: 10
Fri Dec 07 18:21:39 IST 2012	Number of consecutive no movements for player 337 is 2
Fri Dec 07 18:21:39 IST 2012	Number of consecutive no movements for player 210 is 2
Fri Dec 07 18:21:44 IST 2012	A Phase Ended: Feedback Phase
Fri Dec 07 18:21:44 IST 2012	Protocol: A New Phase Began: Communication Phase
Fri Dec 07 18:21:44 IST 2012	Protocol: Communication phase, Round: 11
Fri Dec 07 18:22:02 IST 2012	Received communication message 
Fri Dec 07 18:22:02 IST 2012	From player: 210
Fri Dec 07 18:22:02 IST 2012	To player: 337
Fri Dec 07 18:22:02 IST 2012	Message type: basicproposal
Fri Dec 07 18:22:02 IST 2012	Chips to send by proposer: { chips  'CTRed':0 'CTPurple':0 'CTGreen':1 'grey78':0 }
Fri Dec 07 18:22:02 IST 2012	Chips to send by responder: { chips  'CTRed':0 'CTPurple':0 'CTGreen':0 'grey78':1 }
Fri Dec 07 18:22:50 IST 2012	Received communication message 
Fri Dec 07 18:22:50 IST 2012	From player: 337
Fri Dec 07 18:22:50 IST 2012	To player: 210
Fri Dec 07 18:22:50 IST 2012	Message type: basicproposaldiscussion
Fri Dec 07 18:22:50 IST 2012	Player 337 rejected offer
Fri Dec 07 18:22:50 IST 2012	Swaping roles:
Fri Dec 07 18:22:50 IST 2012	Proposer is: 337
Fri Dec 07 18:22:50 IST 2012	Responder is: 210
Fri Dec 07 18:22:50 IST 2012	Prop rejected, set counter offers count to: 1
Fri Dec 07 18:22:50 IST 2012	Prop rejected, get counter offers returned: 1
Fri Dec 07 18:22:54 IST 2012	Slept 4 seconds
Fri Dec 07 18:22:54 IST 2012	Sent role changed msgs
Fri Dec 07 18:23:54 IST 2012	Received communication message 
Fri Dec 07 18:23:54 IST 2012	From player: 337
Fri Dec 07 18:23:54 IST 2012	To player: 210
Fri Dec 07 18:23:54 IST 2012	Message type: basicproposal
Fri Dec 07 18:23:54 IST 2012	Chips to send by proposer: { chips  'CTRed':0 'CTPurple':0 'CTGreen':0 'grey78':1 }
Fri Dec 07 18:23:54 IST 2012	Chips to send by responder: { chips  'CTRed':0 'CTPurple':0 'CTGreen':1 'grey78':0 }
Fri Dec 07 18:24:03 IST 2012	Received communication message 
Fri Dec 07 18:24:03 IST 2012	From player: 210
Fri Dec 07 18:24:03 IST 2012	To player: 337
Fri Dec 07 18:24:03 IST 2012	Message type: basicproposaldiscussion
Fri Dec 07 18:24:03 IST 2012	Player 210 accepted offer
Fri Dec 07 18:24:03 IST 2012	Prop accepted, set counter offers count to: 0
Fri Dec 07 18:24:03 IST 2012	Prop accepted, get counter offers returned: 0
Fri Dec 07 18:24:03 IST 2012	A Phase Ended: Communication Phase
Fri Dec 07 18:24:03 IST 2012	Protocol: A New Phase Began: Exchange Phase
Fri Dec 07 18:24:03 IST 2012	Protocol: Exchange phase, Round: 11
Fri Dec 07 18:24:03 IST 2012	In begin exch.phase, get counter offers returned: 0
Fri Dec 07 18:24:32 IST 2012	A Phase Ended: Exchange Phase
Fri Dec 07 18:24:32 IST 2012	Proposer 337 sent: { chips  'CTRed':0 'CTPurple':0 'CTGreen':0 'grey78':0 }
Fri Dec 07 18:24:32 IST 2012	Responder 210 sent: { chips  'CTRed':0 'CTPurple':0 'CTGreen':1 'grey78':0 }
Fri Dec 07 18:24:32 IST 2012	Protocol: A New Phase Began: Movement Phase
Fri Dec 07 18:24:32 IST 2012	Protocol: Movement phase, Round: 11
Fri Dec 07 18:24:32 IST 2012	Player 210 moved to (R:3,C:1)
Fri Dec 07 18:24:32 IST 2012	Player 337 moved to (R:3,C:3)
Fri Dec 07 18:24:51 IST 2012	A Phase Ended: Movement Phase
Fri Dec 07 18:24:51 IST 2012	Protocol: A New Phase Began: Feedback Phase
Fri Dec 07 18:24:51 IST 2012	Protocol: Feedback phase, Round: 11
Fri Dec 07 18:24:51 IST 2012	Number of consecutive no movements for player 337 is 0
Fri Dec 07 18:24:51 IST 2012	Number of consecutive no movements for player 210 is 0
Fri Dec 07 18:24:56 IST 2012	A Phase Ended: Feedback Phase
Fri Dec 07 18:24:56 IST 2012	Protocol: A New Phase Began: Communication Phase
Fri Dec 07 18:24:56 IST 2012	Protocol: Communication phase, Round: 12
Fri Dec 07 18:25:56 IST 2012	Received communication message 
Fri Dec 07 18:25:56 IST 2012	From player: 337
Fri Dec 07 18:25:56 IST 2012	To player: 210
Fri Dec 07 18:25:56 IST 2012	Message type: basicproposal
Fri Dec 07 18:25:56 IST 2012	Chips to send by proposer: { chips  'grey78':1 }
Fri Dec 07 18:25:56 IST 2012	Chips to send by responder: { chips  'CTGreen':1 }
Fri Dec 07 18:26:05 IST 2012	Received communication message 
Fri Dec 07 18:26:05 IST 2012	From player: 210
Fri Dec 07 18:26:05 IST 2012	To player: 337
Fri Dec 07 18:26:05 IST 2012	Message type: basicproposaldiscussion
Fri Dec 07 18:26:05 IST 2012	Player 210 rejected offer
Fri Dec 07 18:26:05 IST 2012	Swaping roles:
Fri Dec 07 18:26:05 IST 2012	Proposer is: 210
Fri Dec 07 18:26:05 IST 2012	Responder is: 337
Fri Dec 07 18:26:05 IST 2012	Prop rejected, set counter offers count to: 1
Fri Dec 07 18:26:05 IST 2012	Prop rejected, get counter offers returned: 1
Fri Dec 07 18:26:09 IST 2012	Slept 4 seconds
Fri Dec 07 18:26:09 IST 2012	Sent role changed msgs
Fri Dec 07 18:26:26 IST 2012	Received communication message 
Fri Dec 07 18:26:26 IST 2012	From player: 210
Fri Dec 07 18:26:26 IST 2012	To player: 337
Fri Dec 07 18:26:26 IST 2012	Message type: basicproposal
Fri Dec 07 18:26:26 IST 2012	Chips to send by proposer: { chips  'CTRed':0 'CTPurple':0 'CTGreen':1 'grey78':0 }
Fri Dec 07 18:26:26 IST 2012	Chips to send by responder: { chips  'CTRed':0 'CTPurple':0 'CTGreen':0 'grey78':1 }
Fri Dec 07 18:27:05 IST 2012	Received communication message 
Fri Dec 07 18:27:05 IST 2012	From player: 337
Fri Dec 07 18:27:05 IST 2012	To player: 210
Fri Dec 07 18:27:05 IST 2012	Message type: basicproposaldiscussion
Fri Dec 07 18:27:05 IST 2012	Player 337 accepted offer
Fri Dec 07 18:27:05 IST 2012	Prop accepted, set counter offers count to: 0
Fri Dec 07 18:27:05 IST 2012	Prop accepted, get counter offers returned: 0
Fri Dec 07 18:27:05 IST 2012	A Phase Ended: Communication Phase
Fri Dec 07 18:27:05 IST 2012	Protocol: A New Phase Began: Exchange Phase
Fri Dec 07 18:27:05 IST 2012	Protocol: Exchange phase, Round: 12
Fri Dec 07 18:27:05 IST 2012	In begin exch.phase, get counter offers returned: 0
Fri Dec 07 18:27:34 IST 2012	A Phase Ended: Exchange Phase
Fri Dec 07 18:27:34 IST 2012	Proposer 210 sent: { chips  }
Fri Dec 07 18:27:34 IST 2012	Responder 337 sent: { chips  'CTRed':0 'CTPurple':0 'CTGreen':0 'grey78':0 }
Fri Dec 07 18:27:34 IST 2012	Protocol: A New Phase Began: Movement Phase
Fri Dec 07 18:27:34 IST 2012	Protocol: Movement phase, Round: 12
Fri Dec 07 18:27:54 IST 2012	A Phase Ended: Movement Phase
Fri Dec 07 18:27:54 IST 2012	Protocol: A New Phase Began: Feedback Phase
Fri Dec 07 18:27:54 IST 2012	Protocol: Feedback phase, Round: 12
Fri Dec 07 18:27:54 IST 2012	Number of consecutive no movements for player 337 is 1
Fri Dec 07 18:27:54 IST 2012	Number of consecutive no movements for player 210 is 1
Fri Dec 07 18:27:59 IST 2012	A Phase Ended: Feedback Phase
Fri Dec 07 18:27:59 IST 2012	Protocol: A New Phase Began: Communication Phase
Fri Dec 07 18:27:59 IST 2012	Protocol: Communication phase, Round: 13
Fri Dec 07 18:28:11 IST 2012	Received communication message 
Fri Dec 07 18:28:11 IST 2012	From player: 210
Fri Dec 07 18:28:11 IST 2012	To player: 337
Fri Dec 07 18:28:11 IST 2012	Message type: basicproposal
Fri Dec 07 18:28:11 IST 2012	Chips to send by proposer: { chips  'CTRed':0 'CTPurple':0 'CTGreen':1 'grey78':0 }
Fri Dec 07 18:28:11 IST 2012	Chips to send by responder: { chips  'CTRed':0 'CTPurple':0 'CTGreen':0 'grey78':1 }
Fri Dec 07 18:28:45 IST 2012	Received communication message 
Fri Dec 07 18:28:45 IST 2012	From player: 337
Fri Dec 07 18:28:45 IST 2012	To player: 210
Fri Dec 07 18:28:45 IST 2012	Message type: basicproposaldiscussion
Fri Dec 07 18:28:45 IST 2012	Player 337 accepted offer
Fri Dec 07 18:28:45 IST 2012	Prop accepted, set counter offers count to: 0
Fri Dec 07 18:28:45 IST 2012	Prop accepted, get counter offers returned: 0
Fri Dec 07 18:28:45 IST 2012	A Phase Ended: Communication Phase
Fri Dec 07 18:28:45 IST 2012	Protocol: A New Phase Began: Exchange Phase
Fri Dec 07 18:28:45 IST 2012	Protocol: Exchange phase, Round: 13
Fri Dec 07 18:28:45 IST 2012	In begin exch.phase, get counter offers returned: 0
Fri Dec 07 18:29:07 IST 2012	A Phase Ended: Exchange Phase
Fri Dec 07 18:29:07 IST 2012	Proposer 210 sent: { chips  'CTRed':0 'CTPurple':0 'CTGreen':1 'grey78':0 }
Fri Dec 07 18:29:07 IST 2012	Responder 337 sent: { chips  'CTRed':0 'CTPurple':0 'CTGreen':0 'grey78':0 }
Fri Dec 07 18:29:07 IST 2012	Protocol: A New Phase Began: Movement Phase
Fri Dec 07 18:29:07 IST 2012	Protocol: Movement phase, Round: 13
Fri Dec 07 18:29:26 IST 2012	A Phase Ended: Movement Phase
Fri Dec 07 18:29:26 IST 2012	Swaping roles:
Fri Dec 07 18:29:26 IST 2012	Proposer is: 337
Fri Dec 07 18:29:26 IST 2012	Responder is: 210
Fri Dec 07 18:29:26 IST 2012	Protocol: A New Phase Began: Feedback Phase
Fri Dec 07 18:29:26 IST 2012	Protocol: Feedback phase, Round: 13
Fri Dec 07 18:29:26 IST 2012	Number of consecutive no movements for player 337 is 2
Fri Dec 07 18:29:26 IST 2012	Number of consecutive no movements for player 210 is 2
Fri Dec 07 18:29:31 IST 2012	A Phase Ended: Feedback Phase
Fri Dec 07 18:29:31 IST 2012	Protocol: A New Phase Began: Communication Phase
Fri Dec 07 18:29:31 IST 2012	Protocol: Communication phase, Round: 14
Fri Dec 07 18:30:31 IST 2012	Received communication message 
Fri Dec 07 18:30:31 IST 2012	From player: 337
Fri Dec 07 18:30:31 IST 2012	To player: 210
Fri Dec 07 18:30:31 IST 2012	Message type: basicproposal
Fri Dec 07 18:30:31 IST 2012	Chips to send by proposer: { chips  'grey78':1 }
Fri Dec 07 18:30:31 IST 2012	Chips to send by responder: { chips  'CTGreen':1 }
Fri Dec 07 18:30:37 IST 2012	Received communication message 
Fri Dec 07 18:30:37 IST 2012	From player: 210
Fri Dec 07 18:30:37 IST 2012	To player: 337
Fri Dec 07 18:30:37 IST 2012	Message type: basicproposaldiscussion
Fri Dec 07 18:30:37 IST 2012	Player 210 accepted offer
Fri Dec 07 18:30:37 IST 2012	Prop accepted, set counter offers count to: 0
Fri Dec 07 18:30:37 IST 2012	Prop accepted, get counter offers returned: 0
Fri Dec 07 18:30:37 IST 2012	A Phase Ended: Communication Phase
Fri Dec 07 18:30:37 IST 2012	Protocol: A New Phase Began: Exchange Phase
Fri Dec 07 18:30:37 IST 2012	Protocol: Exchange phase, Round: 14
Fri Dec 07 18:30:37 IST 2012	In begin exch.phase, get counter offers returned: 0
Fri Dec 07 18:30:54 IST 2012	A Phase Ended: Exchange Phase
Fri Dec 07 18:30:54 IST 2012	Proposer 337 sent: { chips  'CTRed':0 'CTPurple':0 'CTGreen':0 'grey78':0 }
Fri Dec 07 18:30:54 IST 2012	Responder 210 sent: { chips  'CTRed':0 'CTPurple':0 'CTGreen':1 'grey78':0 }
Fri Dec 07 18:30:54 IST 2012	Protocol: A New Phase Began: Movement Phase
Fri Dec 07 18:30:54 IST 2012	Protocol: Movement phase, Round: 14
Fri Dec 07 18:30:54 IST 2012	Player 210 moved to (R:2,C:1)
Fri Dec 07 18:30:54 IST 2012	Player 337 moved to (R:2,C:3)
Fri Dec 07 18:31:14 IST 2012	A Phase Ended: Movement Phase
Fri Dec 07 18:31:14 IST 2012	Swaping roles:
Fri Dec 07 18:31:14 IST 2012	Proposer is: 210
Fri Dec 07 18:31:14 IST 2012	Responder is: 337
Fri Dec 07 18:31:14 IST 2012	Protocol: A New Phase Began: Feedback Phase
Fri Dec 07 18:31:14 IST 2012	Protocol: Feedback phase, Round: 14
Fri Dec 07 18:31:14 IST 2012	Number of consecutive no movements for player 337 is 0
Fri Dec 07 18:31:14 IST 2012	Number of consecutive no movements for player 210 is 0
Fri Dec 07 18:31:20 IST 2012	A Phase Ended: Feedback Phase
Fri Dec 07 18:31:20 IST 2012	Protocol: A New Phase Began: Communication Phase
Fri Dec 07 18:31:20 IST 2012	Protocol: Communication phase, Round: 15
Fri Dec 07 18:31:35 IST 2012	Received communication message 
Fri Dec 07 18:31:35 IST 2012	From player: 210
Fri Dec 07 18:31:35 IST 2012	To player: 337
Fri Dec 07 18:31:35 IST 2012	Message type: basicproposal
Fri Dec 07 18:31:35 IST 2012	Chips to send by proposer: { chips  'CTRed':0 'CTPurple':0 'CTGreen':1 'grey78':0 }
Fri Dec 07 18:31:35 IST 2012	Chips to send by responder: { chips  'CTRed':0 'CTPurple':0 'CTGreen':0 'grey78':1 }
Fri Dec 07 18:31:54 IST 2012	Received communication message 
Fri Dec 07 18:31:54 IST 2012	From player: 337
Fri Dec 07 18:31:54 IST 2012	To player: 210
Fri Dec 07 18:31:54 IST 2012	Message type: basicproposaldiscussion
Fri Dec 07 18:31:54 IST 2012	Player 337 accepted offer
Fri Dec 07 18:31:54 IST 2012	Prop accepted, set counter offers count to: 0
Fri Dec 07 18:31:54 IST 2012	Prop accepted, get counter offers returned: 0
Fri Dec 07 18:31:54 IST 2012	A Phase Ended: Communication Phase
Fri Dec 07 18:31:54 IST 2012	Protocol: A New Phase Began: Exchange Phase
Fri Dec 07 18:31:54 IST 2012	Protocol: Exchange phase, Round: 15
Fri Dec 07 18:31:54 IST 2012	In begin exch.phase, get counter offers returned: 0
Fri Dec 07 18:32:08 IST 2012	A Phase Ended: Exchange Phase
Fri Dec 07 18:32:08 IST 2012	Proposer 210 sent: { chips  }
Fri Dec 07 18:32:08 IST 2012	Responder 337 sent: { chips  'CTRed':0 'CTPurple':0 'CTGreen':0 'grey78':0 }
Fri Dec 07 18:32:08 IST 2012	Protocol: A New Phase Began: Movement Phase
Fri Dec 07 18:32:08 IST 2012	Protocol: Movement phase, Round: 15
Fri Dec 07 18:32:28 IST 2012	A Phase Ended: Movement Phase
Fri Dec 07 18:32:28 IST 2012	Swaping roles:
Fri Dec 07 18:32:28 IST 2012	Proposer is: 337
Fri Dec 07 18:32:28 IST 2012	Responder is: 210
Fri Dec 07 18:32:28 IST 2012	Protocol: A New Phase Began: Feedback Phase
Fri Dec 07 18:32:28 IST 2012	Protocol: Feedback phase, Round: 15
Fri Dec 07 18:32:28 IST 2012	Number of consecutive no movements for player 337 is 1
Fri Dec 07 18:32:28 IST 2012	Number of consecutive no movements for player 210 is 1
Fri Dec 07 18:32:33 IST 2012	A Phase Ended: Feedback Phase
Fri Dec 07 18:32:33 IST 2012	Protocol: A New Phase Began: Communication Phase
Fri Dec 07 18:32:33 IST 2012	Protocol: Communication phase, Round: 16
Fri Dec 07 18:33:16 IST 2012	Received communication message 
Fri Dec 07 18:33:16 IST 2012	From player: 337
Fri Dec 07 18:33:16 IST 2012	To player: 210
Fri Dec 07 18:33:16 IST 2012	Message type: basicproposal
Fri Dec 07 18:33:16 IST 2012	Chips to send by proposer: { chips  'grey78':1 }
Fri Dec 07 18:33:16 IST 2012	Chips to send by responder: { chips  'CTGreen':1 }
Fri Dec 07 18:33:24 IST 2012	Received communication message 
Fri Dec 07 18:33:24 IST 2012	From player: 210
Fri Dec 07 18:33:24 IST 2012	To player: 337
Fri Dec 07 18:33:24 IST 2012	Message type: basicproposaldiscussion
Fri Dec 07 18:33:24 IST 2012	Player 210 accepted offer
Fri Dec 07 18:33:24 IST 2012	Prop accepted, set counter offers count to: 0
Fri Dec 07 18:33:24 IST 2012	Prop accepted, get counter offers returned: 0
Fri Dec 07 18:33:24 IST 2012	A Phase Ended: Communication Phase
Fri Dec 07 18:33:24 IST 2012	Protocol: A New Phase Began: Exchange Phase
Fri Dec 07 18:33:24 IST 2012	Protocol: Exchange phase, Round: 16
Fri Dec 07 18:33:24 IST 2012	In begin exch.phase, get counter offers returned: 0
Fri Dec 07 18:33:33 IST 2012	A Phase Ended: Exchange Phase
Fri Dec 07 18:33:33 IST 2012	Proposer 337 sent: { chips  'CTRed':0 'CTPurple':0 'CTGreen':0 'grey78':0 }
Fri Dec 07 18:33:33 IST 2012	Responder 210 sent: { chips  'CTRed':0 'CTPurple':0 'CTGreen':1 'grey78':0 }
Fri Dec 07 18:33:33 IST 2012	Protocol: A New Phase Began: Movement Phase
Fri Dec 07 18:33:33 IST 2012	Protocol: Movement phase, Round: 16
Fri Dec 07 18:33:53 IST 2012	A Phase Ended: Movement Phase
Fri Dec 07 18:33:53 IST 2012	Swaping roles:
Fri Dec 07 18:33:53 IST 2012	Proposer is: 210
Fri Dec 07 18:33:53 IST 2012	Responder is: 337
Fri Dec 07 18:33:53 IST 2012	Protocol: A New Phase Began: Feedback Phase
Fri Dec 07 18:33:53 IST 2012	Protocol: Feedback phase, Round: 16
Fri Dec 07 18:33:53 IST 2012	Number of consecutive no movements for player 337 is 2
Fri Dec 07 18:33:53 IST 2012	Number of consecutive no movements for player 210 is 2
Fri Dec 07 18:33:58 IST 2012	A Phase Ended: Feedback Phase
Fri Dec 07 18:33:58 IST 2012	Protocol: A New Phase Began: Communication Phase
Fri Dec 07 18:33:58 IST 2012	Protocol: Communication phase, Round: 17
Fri Dec 07 18:34:18 IST 2012	Received communication message 
Fri Dec 07 18:34:18 IST 2012	From player: 210
Fri Dec 07 18:34:18 IST 2012	To player: 337
Fri Dec 07 18:34:18 IST 2012	Message type: basicproposal
Fri Dec 07 18:34:18 IST 2012	Chips to send by proposer: { chips  'CTRed':0 'CTPurple':0 'CTGreen':4 'grey78':0 }
Fri Dec 07 18:34:18 IST 2012	Chips to send by responder: { chips  'CTRed':0 'CTPurple':0 'CTGreen':0 'grey78':1 }
Fri Dec 07 18:34:24 IST 2012	Received communication message 
Fri Dec 07 18:34:24 IST 2012	From player: 337
Fri Dec 07 18:34:24 IST 2012	To player: 210
Fri Dec 07 18:34:24 IST 2012	Message type: basicproposaldiscussion
Fri Dec 07 18:34:24 IST 2012	Player 337 rejected offer
Fri Dec 07 18:34:24 IST 2012	Swaping roles:
Fri Dec 07 18:34:24 IST 2012	Proposer is: 337
Fri Dec 07 18:34:24 IST 2012	Responder is: 210
Fri Dec 07 18:34:24 IST 2012	Prop rejected, set counter offers count to: 1
Fri Dec 07 18:34:24 IST 2012	Prop rejected, get counter offers returned: 1
Fri Dec 07 18:34:28 IST 2012	Slept 4 seconds
Fri Dec 07 18:34:28 IST 2012	Sent role changed msgs
Fri Dec 07 18:34:44 IST 2012	Received communication message 
Fri Dec 07 18:34:44 IST 2012	From player: 337
Fri Dec 07 18:34:44 IST 2012	To player: 210
Fri Dec 07 18:34:44 IST 2012	Message type: basicproposal
Fri Dec 07 18:34:44 IST 2012	Chips to send by proposer: { chips  'CTRed':0 'CTPurple':0 'CTGreen':0 'grey78':1 }
Fri Dec 07 18:34:44 IST 2012	Chips to send by responder: { chips  'CTRed':0 'CTPurple':0 'CTGreen':1 'grey78':0 }
Fri Dec 07 18:34:50 IST 2012	Received communication message 
Fri Dec 07 18:34:50 IST 2012	From player: 210
Fri Dec 07 18:34:50 IST 2012	To player: 337
Fri Dec 07 18:34:50 IST 2012	Message type: basicproposaldiscussion
Fri Dec 07 18:34:50 IST 2012	Player 210 accepted offer
Fri Dec 07 18:34:50 IST 2012	Prop accepted, set counter offers count to: 0
Fri Dec 07 18:34:50 IST 2012	Prop accepted, get counter offers returned: 0
Fri Dec 07 18:34:50 IST 2012	A Phase Ended: Communication Phase
Fri Dec 07 18:34:50 IST 2012	Protocol: A New Phase Began: Exchange Phase
Fri Dec 07 18:34:50 IST 2012	Protocol: Exchange phase, Round: 17
Fri Dec 07 18:34:50 IST 2012	In begin exch.phase, get counter offers returned: 0
Fri Dec 07 18:34:56 IST 2012	A Phase Ended: Exchange Phase
Fri Dec 07 18:34:56 IST 2012	Proposer 337 sent: { chips  'CTRed':0 'CTPurple':0 'CTGreen':0 'grey78':0 }
Fri Dec 07 18:34:56 IST 2012	Responder 210 sent: { chips  'CTRed':0 'CTPurple':0 'CTGreen':1 'grey78':0 }
Fri Dec 07 18:34:56 IST 2012	Protocol: A New Phase Began: Movement Phase
Fri Dec 07 18:34:56 IST 2012	Protocol: Movement phase, Round: 17
Fri Dec 07 18:34:56 IST 2012	Player 337 moved to (R:1,C:3)
Fri Dec 07 18:35:16 IST 2012	A Phase Ended: Movement Phase
Fri Dec 07 18:35:16 IST 2012	Protocol: A New Phase Began: Feedback Phase
Fri Dec 07 18:35:16 IST 2012	Protocol: Feedback phase, Round: 17
Fri Dec 07 18:35:16 IST 2012	Number of consecutive no movements for player 337 is 0
Fri Dec 07 18:35:16 IST 2012	Number of consecutive no movements for player 210 is 3
Fri Dec 07 18:35:16 IST 2012	Ending game, all players move as much as they can towards goal
Fri Dec 07 18:35:16 IST 2012	Player: 210 ,role: Responder score is: 15
Fri Dec 07 18:35:16 IST 2012	Player: 337 ,role: Proposer score is: 230
