Fri Dec 07 04:36:43 IST 2012	This is the CT debug logger; svn version 638; sep 27 09
Fri Dec 07 04:36:43 IST 2012	Fri Dec 07 04:36:43 IST 2012
Fri Dec 07 04:36:43 IST 2012	A new Alternative Offers game has began
Fri Dec 07 04:36:43 IST 2012	ID Number: 43440
Fri Dec 07 04:36:43 IST 2012	Creating board
Fri Dec 07 04:36:43 IST 2012	<colors>
Fri Dec 07 04:36:43 IST 2012	{ GamePalette  'CTRed':0 'CTPurple':1 'CTGreen':2 'grey78':3 }
Fri Dec 07 04:36:43 IST 2012	<rows>
Fri Dec 07 04:36:43 IST 2012	7
Fri Dec 07 04:36:43 IST 2012	<columns>
Fri Dec 07 04:36:43 IST 2012	5
Fri Dec 07 04:36:43 IST 2012	<squaresColors>
Fri Dec 07 04:36:43 IST 2012	CTPurple CTRed CTRed CTGreen CTPurple 
Fri Dec 07 04:36:43 IST 2012	CTPurple grey78 CTPurple grey78 CTPurple 
Fri Dec 07 04:36:43 IST 2012	CTPurple CTRed CTPurple CTGreen CTPurple 
Fri Dec 07 04:36:43 IST 2012	CTPurple grey78 CTPurple grey78 CTPurple 
Fri Dec 07 04:36:43 IST 2012	CTPurple CTRed CTPurple CTGreen CTPurple 
Fri Dec 07 04:36:43 IST 2012	CTPurple grey78 CTPurple grey78 CTPurple 
Fri Dec 07 04:36:43 IST 2012	CTPurple CTRed CTPurple CTGreen CTPurple 
Fri Dec 07 04:36:43 IST 2012	</squareColors>
Fri Dec 07 04:36:43 IST 2012	<goalPosition>
Fri Dec 07 04:36:43 IST 2012	Goal position: (R:0,C:2)
Fri Dec 07 04:36:43 IST 2012	<numberOfPlayers>
Fri Dec 07 04:36:43 IST 2012	2
Fri Dec 07 04:36:43 IST 2012	<firstPlayerChips>
Fri Dec 07 04:36:43 IST 2012	Setting chips for player: 337 id:0
Fri Dec 07 04:36:43 IST 2012	{ chips  'CTRed':1 'CTGreen':13 'CTPurple':0 'grey78':10 }
Fri Dec 07 04:36:43 IST 2012	Player position: (R:6,C:4)
Fri Dec 07 04:36:43 IST 2012	Setting chips for player: 210 id:1
Fri Dec 07 04:36:43 IST 2012	{ chips  'CTRed':5 'CTGreen':19 'CTPurple':0 'grey78':0 }
Fri Dec 07 04:36:43 IST 2012	Player position: (R:6,C:0)
Fri Dec 07 04:36:43 IST 2012	Protocol: A New Phase Began: Strategy Prep Phase
Fri Dec 07 04:36:43 IST 2012	Protocol: Strategy Preparation phase, Round: 0
Fri Dec 07 04:36:43 IST 2012	Maximum number of rounds with no consecutive movement is 3
Fri Dec 07 04:36:43 IST 2012	In begin comm. phase, set counter offers count to: 0
Fri Dec 07 04:36:43 IST 2012	In begin comm. phase, get counter offers returned: 0
Fri Dec 07 04:37:03 IST 2012	A Phase Ended: Strategy Prep Phase
Fri Dec 07 04:37:03 IST 2012	Protocol: A New Phase Began: Communication Phase
Fri Dec 07 04:37:03 IST 2012	Protocol: Communication phase, Round: 0
Fri Dec 07 04:38:03 IST 2012	Received communication message 
Fri Dec 07 04:38:03 IST 2012	From player: 337
Fri Dec 07 04:38:03 IST 2012	To player: 210
Fri Dec 07 04:38:03 IST 2012	Message type: basicproposal
Fri Dec 07 04:38:03 IST 2012	Chips to send by proposer: { chips  'grey78':3 }
Fri Dec 07 04:38:03 IST 2012	Chips to send by responder: { chips  'CTGreen':2 }
Fri Dec 07 04:38:17 IST 2012	Received communication message 
Fri Dec 07 04:38:17 IST 2012	From player: 210
Fri Dec 07 04:38:17 IST 2012	To player: 337
Fri Dec 07 04:38:17 IST 2012	Message type: basicproposaldiscussion
Fri Dec 07 04:38:17 IST 2012	Player 210 accepted offer
Fri Dec 07 04:38:17 IST 2012	Prop accepted, set counter offers count to: 0
Fri Dec 07 04:38:17 IST 2012	Prop accepted, get counter offers returned: 0
Fri Dec 07 04:38:17 IST 2012	A Phase Ended: Communication Phase
Fri Dec 07 04:38:17 IST 2012	Protocol: A New Phase Began: Exchange Phase
Fri Dec 07 04:38:17 IST 2012	Protocol: Exchange phase, Round: 0
Fri Dec 07 04:38:17 IST 2012	In begin exch.phase, get counter offers returned: 0
Fri Dec 07 04:38:46 IST 2012	A Phase Ended: Exchange Phase
Fri Dec 07 04:38:46 IST 2012	Proposer 337 sent: { chips  'CTRed':0 'CTPurple':0 'CTGreen':0 'grey78':1 }
Fri Dec 07 04:38:46 IST 2012	Responder 210 sent: { chips  'CTRed':0 'CTPurple':0 'CTGreen':1 'grey78':0 }
Fri Dec 07 04:38:46 IST 2012	Protocol: A New Phase Began: Movement Phase
Fri Dec 07 04:38:46 IST 2012	Protocol: Movement phase, Round: 0
Fri Dec 07 04:39:05 IST 2012	A Phase Ended: Movement Phase
Fri Dec 07 04:39:05 IST 2012	Swaping roles:
Fri Dec 07 04:39:05 IST 2012	Proposer is: 210
Fri Dec 07 04:39:05 IST 2012	Responder is: 337
Fri Dec 07 04:39:05 IST 2012	Protocol: A New Phase Began: Feedback Phase
Fri Dec 07 04:39:05 IST 2012	Protocol: Feedback phase, Round: 0
Fri Dec 07 04:39:05 IST 2012	Number of consecutive no movements for player 337 is 1
Fri Dec 07 04:39:05 IST 2012	Number of consecutive no movements for player 210 is 1
Fri Dec 07 04:39:10 IST 2012	A Phase Ended: Feedback Phase
Fri Dec 07 04:39:10 IST 2012	Protocol: A New Phase Began: Communication Phase
Fri Dec 07 04:39:10 IST 2012	Protocol: Communication phase, Round: 1
Fri Dec 07 04:39:30 IST 2012	Received communication message 
Fri Dec 07 04:39:30 IST 2012	From player: 210
Fri Dec 07 04:39:30 IST 2012	To player: 337
Fri Dec 07 04:39:30 IST 2012	Message type: basicproposal
Fri Dec 07 04:39:30 IST 2012	Chips to send by proposer: { chips  'CTRed':0 'CTPurple':0 'CTGreen':1 'grey78':0 }
Fri Dec 07 04:39:30 IST 2012	Chips to send by responder: { chips  'CTRed':0 'CTPurple':0 'CTGreen':0 'grey78':1 }
Fri Dec 07 04:40:30 IST 2012	Received communication message 
Fri Dec 07 04:40:30 IST 2012	From player: 337
Fri Dec 07 04:40:30 IST 2012	To player: 210
Fri Dec 07 04:40:30 IST 2012	Message type: basicproposaldiscussion
Fri Dec 07 04:40:30 IST 2012	Player 337 accepted offer
Fri Dec 07 04:40:30 IST 2012	Prop accepted, set counter offers count to: 0
Fri Dec 07 04:40:30 IST 2012	Prop accepted, get counter offers returned: 0
Fri Dec 07 04:40:30 IST 2012	A Phase Ended: Communication Phase
Fri Dec 07 04:40:30 IST 2012	Protocol: A New Phase Began: Exchange Phase
Fri Dec 07 04:40:30 IST 2012	Protocol: Exchange phase, Round: 1
Fri Dec 07 04:40:30 IST 2012	In begin exch.phase, get counter offers returned: 0
Fri Dec 07 04:40:59 IST 2012	A Phase Ended: Exchange Phase
Fri Dec 07 04:40:59 IST 2012	Proposer 210 sent: { chips  'CTRed':0 'CTPurple':0 'CTGreen':1 'grey78':0 }
Fri Dec 07 04:40:59 IST 2012	Responder 337 sent: { chips  'CTRed':0 'CTPurple':0 'CTGreen':0 'grey78':0 }
Fri Dec 07 04:40:59 IST 2012	Protocol: A New Phase Began: Movement Phase
Fri Dec 07 04:40:59 IST 2012	Protocol: Movement phase, Round: 1
Fri Dec 07 04:41:18 IST 2012	A Phase Ended: Movement Phase
Fri Dec 07 04:41:18 IST 2012	Swaping roles:
Fri Dec 07 04:41:18 IST 2012	Proposer is: 337
Fri Dec 07 04:41:18 IST 2012	Responder is: 210
Fri Dec 07 04:41:18 IST 2012	Protocol: A New Phase Began: Feedback Phase
Fri Dec 07 04:41:18 IST 2012	Protocol: Feedback phase, Round: 1
Fri Dec 07 04:41:18 IST 2012	Number of consecutive no movements for player 337 is 2
Fri Dec 07 04:41:18 IST 2012	Number of consecutive no movements for player 210 is 2
Fri Dec 07 04:41:23 IST 2012	A Phase Ended: Feedback Phase
Fri Dec 07 04:41:23 IST 2012	Protocol: A New Phase Began: Communication Phase
Fri Dec 07 04:41:23 IST 2012	Protocol: Communication phase, Round: 2
Fri Dec 07 04:42:23 IST 2012	Received communication message 
Fri Dec 07 04:42:23 IST 2012	From player: 337
Fri Dec 07 04:42:23 IST 2012	To player: 210
Fri Dec 07 04:42:23 IST 2012	Message type: basicproposal
Fri Dec 07 04:42:23 IST 2012	Chips to send by proposer: { chips  'grey78':2 }
Fri Dec 07 04:42:23 IST 2012	Chips to send by responder: { chips  'CTGreen':1 }
Fri Dec 07 04:42:34 IST 2012	Received communication message 
Fri Dec 07 04:42:34 IST 2012	From player: 210
Fri Dec 07 04:42:34 IST 2012	To player: 337
Fri Dec 07 04:42:34 IST 2012	Message type: basicproposaldiscussion
Fri Dec 07 04:42:34 IST 2012	Player 210 accepted offer
Fri Dec 07 04:42:34 IST 2012	Prop accepted, set counter offers count to: 0
Fri Dec 07 04:42:34 IST 2012	Prop accepted, get counter offers returned: 0
Fri Dec 07 04:42:34 IST 2012	A Phase Ended: Communication Phase
Fri Dec 07 04:42:34 IST 2012	Protocol: A New Phase Began: Exchange Phase
Fri Dec 07 04:42:34 IST 2012	Protocol: Exchange phase, Round: 2
Fri Dec 07 04:42:34 IST 2012	In begin exch.phase, get counter offers returned: 0
Fri Dec 07 04:43:03 IST 2012	A Phase Ended: Exchange Phase
Fri Dec 07 04:43:03 IST 2012	Proposer 337 sent: { chips  'CTRed':0 'CTPurple':0 'CTGreen':0 'grey78':0 }
Fri Dec 07 04:43:03 IST 2012	Responder 210 sent: { chips  }
Fri Dec 07 04:43:03 IST 2012	Protocol: A New Phase Began: Movement Phase
Fri Dec 07 04:43:03 IST 2012	Protocol: Movement phase, Round: 2
Fri Dec 07 04:43:03 IST 2012	Player 337 moved to (R:6,C:3)
Fri Dec 07 04:43:03 IST 2012	Player 210 moved to (R:6,C:1)
Fri Dec 07 04:43:23 IST 2012	A Phase Ended: Movement Phase
Fri Dec 07 04:43:23 IST 2012	Swaping roles:
Fri Dec 07 04:43:23 IST 2012	Proposer is: 210
Fri Dec 07 04:43:23 IST 2012	Responder is: 337
Fri Dec 07 04:43:23 IST 2012	Protocol: A New Phase Began: Feedback Phase
Fri Dec 07 04:43:23 IST 2012	Protocol: Feedback phase, Round: 2
Fri Dec 07 04:43:23 IST 2012	Number of consecutive no movements for player 337 is 0
Fri Dec 07 04:43:23 IST 2012	Number of consecutive no movements for player 210 is 0
Fri Dec 07 04:43:28 IST 2012	A Phase Ended: Feedback Phase
Fri Dec 07 04:43:28 IST 2012	Protocol: A New Phase Began: Communication Phase
Fri Dec 07 04:43:28 IST 2012	Protocol: Communication phase, Round: 3
Fri Dec 07 04:43:48 IST 2012	Received communication message 
Fri Dec 07 04:43:48 IST 2012	From player: 210
Fri Dec 07 04:43:48 IST 2012	To player: 337
Fri Dec 07 04:43:48 IST 2012	Message type: basicproposal
Fri Dec 07 04:43:48 IST 2012	Chips to send by proposer: { chips  'CTRed':0 'CTPurple':0 'CTGreen':1 'grey78':0 }
Fri Dec 07 04:43:48 IST 2012	Chips to send by responder: { chips  'CTRed':0 'CTPurple':0 'CTGreen':0 'grey78':1 }
Fri Dec 07 04:44:47 IST 2012	Received communication message 
Fri Dec 07 04:44:47 IST 2012	From player: 337
Fri Dec 07 04:44:47 IST 2012	To player: 210
Fri Dec 07 04:44:47 IST 2012	Message type: basicproposaldiscussion
Fri Dec 07 04:44:47 IST 2012	Player 337 accepted offer
Fri Dec 07 04:44:47 IST 2012	Prop accepted, set counter offers count to: 0
Fri Dec 07 04:44:47 IST 2012	Prop accepted, get counter offers returned: 0
Fri Dec 07 04:44:47 IST 2012	A Phase Ended: Communication Phase
Fri Dec 07 04:44:47 IST 2012	Protocol: A New Phase Began: Exchange Phase
Fri Dec 07 04:44:47 IST 2012	Protocol: Exchange phase, Round: 3
Fri Dec 07 04:44:47 IST 2012	In begin exch.phase, get counter offers returned: 0
Fri Dec 07 04:45:16 IST 2012	A Phase Ended: Exchange Phase
Fri Dec 07 04:45:16 IST 2012	Proposer 210 sent: { chips  'CTRed':0 'CTPurple':0 'CTGreen':1 'grey78':0 }
Fri Dec 07 04:45:16 IST 2012	Responder 337 sent: { chips  'CTRed':0 'CTPurple':0 'CTGreen':0 'grey78':0 }
Fri Dec 07 04:45:16 IST 2012	Protocol: A New Phase Began: Movement Phase
Fri Dec 07 04:45:16 IST 2012	Protocol: Movement phase, Round: 3
Fri Dec 07 04:45:36 IST 2012	A Phase Ended: Movement Phase
Fri Dec 07 04:45:36 IST 2012	Swaping roles:
Fri Dec 07 04:45:36 IST 2012	Proposer is: 337
Fri Dec 07 04:45:36 IST 2012	Responder is: 210
Fri Dec 07 04:45:36 IST 2012	Protocol: A New Phase Began: Feedback Phase
Fri Dec 07 04:45:36 IST 2012	Protocol: Feedback phase, Round: 3
Fri Dec 07 04:45:36 IST 2012	Number of consecutive no movements for player 337 is 1
Fri Dec 07 04:45:36 IST 2012	Number of consecutive no movements for player 210 is 1
Fri Dec 07 04:45:41 IST 2012	A Phase Ended: Feedback Phase
Fri Dec 07 04:45:41 IST 2012	Protocol: A New Phase Began: Communication Phase
Fri Dec 07 04:45:41 IST 2012	Protocol: Communication phase, Round: 4
Fri Dec 07 04:46:41 IST 2012	Received communication message 
Fri Dec 07 04:46:41 IST 2012	From player: 337
Fri Dec 07 04:46:41 IST 2012	To player: 210
Fri Dec 07 04:46:41 IST 2012	Message type: basicproposal
Fri Dec 07 04:46:41 IST 2012	Chips to send by proposer: { chips  'grey78':2 }
Fri Dec 07 04:46:41 IST 2012	Chips to send by responder: { chips  'CTGreen':1 }
Fri Dec 07 04:46:53 IST 2012	Received communication message 
Fri Dec 07 04:46:53 IST 2012	From player: 210
Fri Dec 07 04:46:53 IST 2012	To player: 337
Fri Dec 07 04:46:53 IST 2012	Message type: basicproposaldiscussion
Fri Dec 07 04:46:53 IST 2012	Player 210 accepted offer
Fri Dec 07 04:46:53 IST 2012	Prop accepted, set counter offers count to: 0
Fri Dec 07 04:46:53 IST 2012	Prop accepted, get counter offers returned: 0
Fri Dec 07 04:46:53 IST 2012	A Phase Ended: Communication Phase
Fri Dec 07 04:46:53 IST 2012	Protocol: A New Phase Began: Exchange Phase
Fri Dec 07 04:46:53 IST 2012	Protocol: Exchange phase, Round: 4
Fri Dec 07 04:46:53 IST 2012	In begin exch.phase, get counter offers returned: 0
Fri Dec 07 04:47:22 IST 2012	A Phase Ended: Exchange Phase
Fri Dec 07 04:47:22 IST 2012	Proposer 337 sent: { chips  'CTRed':0 'CTPurple':0 'CTGreen':0 'grey78':0 }
Fri Dec 07 04:47:22 IST 2012	Responder 210 sent: { chips  }
Fri Dec 07 04:47:22 IST 2012	Protocol: A New Phase Began: Movement Phase
Fri Dec 07 04:47:22 IST 2012	Protocol: Movement phase, Round: 4
Fri Dec 07 04:47:41 IST 2012	A Phase Ended: Movement Phase
Fri Dec 07 04:47:41 IST 2012	Swaping roles:
Fri Dec 07 04:47:41 IST 2012	Proposer is: 210
Fri Dec 07 04:47:41 IST 2012	Responder is: 337
Fri Dec 07 04:47:41 IST 2012	Protocol: A New Phase Began: Feedback Phase
Fri Dec 07 04:47:41 IST 2012	Protocol: Feedback phase, Round: 4
Fri Dec 07 04:47:41 IST 2012	Number of consecutive no movements for player 337 is 2
Fri Dec 07 04:47:41 IST 2012	Number of consecutive no movements for player 210 is 2
Fri Dec 07 04:47:46 IST 2012	A Phase Ended: Feedback Phase
Fri Dec 07 04:47:46 IST 2012	Protocol: A New Phase Began: Communication Phase
Fri Dec 07 04:47:46 IST 2012	Protocol: Communication phase, Round: 5
Fri Dec 07 04:48:06 IST 2012	Received communication message 
Fri Dec 07 04:48:06 IST 2012	From player: 210
Fri Dec 07 04:48:06 IST 2012	To player: 337
Fri Dec 07 04:48:06 IST 2012	Message type: basicproposal
Fri Dec 07 04:48:06 IST 2012	Chips to send by proposer: { chips  'CTRed':0 'CTPurple':0 'CTGreen':1 'grey78':0 }
Fri Dec 07 04:48:06 IST 2012	Chips to send by responder: { chips  'CTRed':0 'CTPurple':0 'CTGreen':0 'grey78':1 }
Fri Dec 07 04:48:53 IST 2012	Received communication message 
Fri Dec 07 04:48:53 IST 2012	From player: 337
Fri Dec 07 04:48:53 IST 2012	To player: 210
Fri Dec 07 04:48:53 IST 2012	Message type: basicproposaldiscussion
Fri Dec 07 04:48:53 IST 2012	Player 337 accepted offer
Fri Dec 07 04:48:53 IST 2012	Prop accepted, set counter offers count to: 0
Fri Dec 07 04:48:53 IST 2012	Prop accepted, get counter offers returned: 0
Fri Dec 07 04:48:53 IST 2012	A Phase Ended: Communication Phase
Fri Dec 07 04:48:53 IST 2012	Protocol: A New Phase Began: Exchange Phase
Fri Dec 07 04:48:53 IST 2012	Protocol: Exchange phase, Round: 5
Fri Dec 07 04:48:53 IST 2012	In begin exch.phase, get counter offers returned: 0
Fri Dec 07 04:49:22 IST 2012	A Phase Ended: Exchange Phase
Fri Dec 07 04:49:22 IST 2012	Proposer 210 sent: { chips  'CTRed':0 'CTPurple':0 'CTGreen':1 'grey78':0 }
Fri Dec 07 04:49:22 IST 2012	Responder 337 sent: { chips  'CTRed':0 'CTPurple':0 'CTGreen':0 'grey78':1 }
Fri Dec 07 04:49:22 IST 2012	Protocol: A New Phase Began: Movement Phase
Fri Dec 07 04:49:22 IST 2012	Protocol: Movement phase, Round: 5
Fri Dec 07 04:49:22 IST 2012	Player 210 moved to (R:5,C:1)
Fri Dec 07 04:49:22 IST 2012	Player 337 moved to (R:5,C:3)
Fri Dec 07 04:49:42 IST 2012	A Phase Ended: Movement Phase
Fri Dec 07 04:49:42 IST 2012	Swaping roles:
Fri Dec 07 04:49:42 IST 2012	Proposer is: 337
Fri Dec 07 04:49:42 IST 2012	Responder is: 210
Fri Dec 07 04:49:42 IST 2012	Protocol: A New Phase Began: Feedback Phase
Fri Dec 07 04:49:42 IST 2012	Protocol: Feedback phase, Round: 5
Fri Dec 07 04:49:42 IST 2012	Number of consecutive no movements for player 337 is 0
Fri Dec 07 04:49:42 IST 2012	Number of consecutive no movements for player 210 is 0
Fri Dec 07 04:49:47 IST 2012	A Phase Ended: Feedback Phase
Fri Dec 07 04:49:47 IST 2012	Protocol: A New Phase Began: Communication Phase
Fri Dec 07 04:49:47 IST 2012	Protocol: Communication phase, Round: 6
Fri Dec 07 04:50:16 IST 2012	Received communication message 
Fri Dec 07 04:50:16 IST 2012	From player: 337
Fri Dec 07 04:50:16 IST 2012	To player: 210
Fri Dec 07 04:50:16 IST 2012	Message type: basicproposal
Fri Dec 07 04:50:16 IST 2012	Chips to send by proposer: { chips  'grey78':1 }
Fri Dec 07 04:50:16 IST 2012	Chips to send by responder: { chips  'CTGreen':3 }
Fri Dec 07 04:50:25 IST 2012	Received communication message 
Fri Dec 07 04:50:25 IST 2012	From player: 210
Fri Dec 07 04:50:25 IST 2012	To player: 337
Fri Dec 07 04:50:25 IST 2012	Message type: basicproposaldiscussion
Fri Dec 07 04:50:25 IST 2012	Player 210 rejected offer
Fri Dec 07 04:50:25 IST 2012	Swaping roles:
Fri Dec 07 04:50:25 IST 2012	Proposer is: 210
Fri Dec 07 04:50:25 IST 2012	Responder is: 337
Fri Dec 07 04:50:25 IST 2012	Prop rejected, set counter offers count to: 1
Fri Dec 07 04:50:25 IST 2012	Prop rejected, get counter offers returned: 1
Fri Dec 07 04:50:29 IST 2012	Slept 4 seconds
Fri Dec 07 04:50:29 IST 2012	Sent role changed msgs
Fri Dec 07 04:50:46 IST 2012	Received communication message 
Fri Dec 07 04:50:46 IST 2012	From player: 210
Fri Dec 07 04:50:46 IST 2012	To player: 337
Fri Dec 07 04:50:46 IST 2012	Message type: basicproposal
Fri Dec 07 04:50:46 IST 2012	Chips to send by proposer: { chips  'CTRed':0 'CTPurple':0 'CTGreen':1 'grey78':0 }
Fri Dec 07 04:50:46 IST 2012	Chips to send by responder: { chips  'CTRed':0 'CTPurple':0 'CTGreen':0 'grey78':1 }
Fri Dec 07 04:50:54 IST 2012	Received communication message 
Fri Dec 07 04:50:54 IST 2012	From player: 337
Fri Dec 07 04:50:54 IST 2012	To player: 210
Fri Dec 07 04:50:54 IST 2012	Message type: basicproposaldiscussion
Fri Dec 07 04:50:54 IST 2012	Player 337 accepted offer
Fri Dec 07 04:50:54 IST 2012	Prop accepted, set counter offers count to: 0
Fri Dec 07 04:50:54 IST 2012	Prop accepted, get counter offers returned: 0
Fri Dec 07 04:50:54 IST 2012	A Phase Ended: Communication Phase
Fri Dec 07 04:50:54 IST 2012	Protocol: A New Phase Began: Exchange Phase
Fri Dec 07 04:50:54 IST 2012	Protocol: Exchange phase, Round: 6
Fri Dec 07 04:50:54 IST 2012	In begin exch.phase, get counter offers returned: 0
Fri Dec 07 04:51:23 IST 2012	A Phase Ended: Exchange Phase
Fri Dec 07 04:51:23 IST 2012	Proposer 210 sent: { chips  }
Fri Dec 07 04:51:23 IST 2012	Responder 337 sent: { chips  'CTRed':0 'CTPurple':0 'CTGreen':0 'grey78':0 }
Fri Dec 07 04:51:23 IST 2012	Protocol: A New Phase Began: Movement Phase
Fri Dec 07 04:51:23 IST 2012	Protocol: Movement phase, Round: 6
Fri Dec 07 04:51:43 IST 2012	A Phase Ended: Movement Phase
Fri Dec 07 04:51:43 IST 2012	Protocol: A New Phase Began: Feedback Phase
Fri Dec 07 04:51:43 IST 2012	Protocol: Feedback phase, Round: 6
Fri Dec 07 04:51:43 IST 2012	Number of consecutive no movements for player 337 is 1
Fri Dec 07 04:51:43 IST 2012	Number of consecutive no movements for player 210 is 1
Fri Dec 07 04:51:48 IST 2012	A Phase Ended: Feedback Phase
Fri Dec 07 04:51:48 IST 2012	Protocol: A New Phase Began: Communication Phase
Fri Dec 07 04:51:48 IST 2012	Protocol: Communication phase, Round: 7
Fri Dec 07 04:52:04 IST 2012	Received communication message 
Fri Dec 07 04:52:04 IST 2012	From player: 210
Fri Dec 07 04:52:04 IST 2012	To player: 337
Fri Dec 07 04:52:04 IST 2012	Message type: basicproposal
Fri Dec 07 04:52:04 IST 2012	Chips to send by proposer: { chips  'CTRed':0 'CTPurple':0 'CTGreen':1 'grey78':0 }
Fri Dec 07 04:52:04 IST 2012	Chips to send by responder: { chips  'CTRed':0 'CTPurple':0 'CTGreen':0 'grey78':1 }
Fri Dec 07 04:53:04 IST 2012	Received communication message 
Fri Dec 07 04:53:04 IST 2012	From player: 337
Fri Dec 07 04:53:04 IST 2012	To player: 210
Fri Dec 07 04:53:04 IST 2012	Message type: basicproposaldiscussion
Fri Dec 07 04:53:04 IST 2012	Player 337 accepted offer
Fri Dec 07 04:53:04 IST 2012	Prop accepted, set counter offers count to: 0
Fri Dec 07 04:53:04 IST 2012	Prop accepted, get counter offers returned: 0
Fri Dec 07 04:53:04 IST 2012	A Phase Ended: Communication Phase
Fri Dec 07 04:53:04 IST 2012	Protocol: A New Phase Began: Exchange Phase
Fri Dec 07 04:53:04 IST 2012	Protocol: Exchange phase, Round: 7
Fri Dec 07 04:53:04 IST 2012	In begin exch.phase, get counter offers returned: 0
Fri Dec 07 04:53:33 IST 2012	A Phase Ended: Exchange Phase
Fri Dec 07 04:53:33 IST 2012	Proposer 210 sent: { chips  'CTRed':0 'CTPurple':0 'CTGreen':1 'grey78':0 }
Fri Dec 07 04:53:33 IST 2012	Responder 337 sent: { chips  'CTRed':0 'CTPurple':0 'CTGreen':0 'grey78':0 }
Fri Dec 07 04:53:33 IST 2012	Protocol: A New Phase Began: Movement Phase
Fri Dec 07 04:53:33 IST 2012	Protocol: Movement phase, Round: 7
Fri Dec 07 04:53:52 IST 2012	A Phase Ended: Movement Phase
Fri Dec 07 04:53:52 IST 2012	Swaping roles:
Fri Dec 07 04:53:52 IST 2012	Proposer is: 337
Fri Dec 07 04:53:52 IST 2012	Responder is: 210
Fri Dec 07 04:53:52 IST 2012	Protocol: A New Phase Began: Feedback Phase
Fri Dec 07 04:53:52 IST 2012	Protocol: Feedback phase, Round: 7
Fri Dec 07 04:53:52 IST 2012	Number of consecutive no movements for player 337 is 2
Fri Dec 07 04:53:52 IST 2012	Number of consecutive no movements for player 210 is 2
Fri Dec 07 04:53:57 IST 2012	A Phase Ended: Feedback Phase
Fri Dec 07 04:53:57 IST 2012	Protocol: A New Phase Began: Communication Phase
Fri Dec 07 04:53:57 IST 2012	Protocol: Communication phase, Round: 8
Fri Dec 07 04:54:57 IST 2012	Received communication message 
Fri Dec 07 04:54:57 IST 2012	From player: 337
Fri Dec 07 04:54:57 IST 2012	To player: 210
Fri Dec 07 04:54:57 IST 2012	Message type: basicproposal
Fri Dec 07 04:54:57 IST 2012	Chips to send by proposer: { chips  'grey78':1 }
Fri Dec 07 04:54:57 IST 2012	Chips to send by responder: { chips  'CTGreen':1 }
Fri Dec 07 04:55:11 IST 2012	Received communication message 
Fri Dec 07 04:55:11 IST 2012	From player: 210
Fri Dec 07 04:55:11 IST 2012	To player: 337
Fri Dec 07 04:55:11 IST 2012	Message type: basicproposaldiscussion
Fri Dec 07 04:55:11 IST 2012	Player 210 rejected offer
Fri Dec 07 04:55:11 IST 2012	Swaping roles:
Fri Dec 07 04:55:11 IST 2012	Proposer is: 210
Fri Dec 07 04:55:11 IST 2012	Responder is: 337
Fri Dec 07 04:55:11 IST 2012	Prop rejected, set counter offers count to: 1
Fri Dec 07 04:55:11 IST 2012	Prop rejected, get counter offers returned: 1
Fri Dec 07 04:55:15 IST 2012	Slept 4 seconds
Fri Dec 07 04:55:15 IST 2012	Sent role changed msgs
Fri Dec 07 04:55:32 IST 2012	Received communication message 
Fri Dec 07 04:55:32 IST 2012	From player: 210
Fri Dec 07 04:55:32 IST 2012	To player: 337
Fri Dec 07 04:55:32 IST 2012	Message type: basicproposal
Fri Dec 07 04:55:32 IST 2012	Chips to send by proposer: { chips  'CTRed':0 'CTPurple':0 'CTGreen':1 'grey78':0 }
Fri Dec 07 04:55:32 IST 2012	Chips to send by responder: { chips  'CTRed':0 'CTPurple':0 'CTGreen':0 'grey78':1 }
Fri Dec 07 04:56:32 IST 2012	Received communication message 
Fri Dec 07 04:56:32 IST 2012	From player: 337
Fri Dec 07 04:56:32 IST 2012	To player: 210
Fri Dec 07 04:56:32 IST 2012	Message type: basicproposaldiscussion
Fri Dec 07 04:56:32 IST 2012	Player 337 rejected offer
Fri Dec 07 04:56:32 IST 2012	Set counter offers count to: 0
Fri Dec 07 04:56:32 IST 2012	A Phase Ended: Communication Phase
Fri Dec 07 04:56:32 IST 2012	Protocol: A New Phase Began: Exchange Phase
Fri Dec 07 04:56:32 IST 2012	Protocol: Exchange phase, Round: 8
Fri Dec 07 04:56:32 IST 2012	In begin exch.phase, get counter offers returned: 0
Fri Dec 07 04:57:11 IST 2012	A Phase Ended: Exchange Phase
Fri Dec 07 04:57:11 IST 2012	Responder 337 sent: { chips  }
Fri Dec 07 04:57:11 IST 2012	Protocol: A New Phase Began: Movement Phase
Fri Dec 07 04:57:11 IST 2012	Protocol: Movement phase, Round: 8
Fri Dec 07 04:57:11 IST 2012	Player 337 moved to (R:4,C:3)
Fri Dec 07 04:57:11 IST 2012	Player 210 moved to (R:4,C:1)
Fri Dec 07 04:57:31 IST 2012	A Phase Ended: Movement Phase
Fri Dec 07 04:57:31 IST 2012	Protocol: A New Phase Began: Feedback Phase
Fri Dec 07 04:57:31 IST 2012	Protocol: Feedback phase, Round: 8
Fri Dec 07 04:57:31 IST 2012	Number of consecutive no movements for player 337 is 0
Fri Dec 07 04:57:31 IST 2012	Number of consecutive no movements for player 210 is 0
Fri Dec 07 04:57:36 IST 2012	A Phase Ended: Feedback Phase
Fri Dec 07 04:57:36 IST 2012	Protocol: A New Phase Began: Communication Phase
Fri Dec 07 04:57:36 IST 2012	Protocol: Communication phase, Round: 9
Fri Dec 07 04:57:56 IST 2012	Received communication message 
Fri Dec 07 04:57:56 IST 2012	From player: 210
Fri Dec 07 04:57:56 IST 2012	To player: 337
Fri Dec 07 04:57:56 IST 2012	Message type: basicproposal
Fri Dec 07 04:57:56 IST 2012	Chips to send by proposer: { chips  'CTRed':0 'CTPurple':0 'CTGreen':1 'grey78':0 }
Fri Dec 07 04:57:56 IST 2012	Chips to send by responder: { chips  'CTRed':0 'CTPurple':0 'CTGreen':0 'grey78':1 }
Fri Dec 07 04:58:56 IST 2012	Received communication message 
Fri Dec 07 04:58:56 IST 2012	From player: 337
Fri Dec 07 04:58:56 IST 2012	To player: 210
Fri Dec 07 04:58:56 IST 2012	Message type: basicproposaldiscussion
Fri Dec 07 04:58:56 IST 2012	Player 337 rejected offer
Fri Dec 07 04:58:56 IST 2012	Swaping roles:
Fri Dec 07 04:58:56 IST 2012	Proposer is: 337
Fri Dec 07 04:58:56 IST 2012	Responder is: 210
Fri Dec 07 04:58:56 IST 2012	Prop rejected, set counter offers count to: 1
Fri Dec 07 04:58:56 IST 2012	Prop rejected, get counter offers returned: 1
Fri Dec 07 04:59:00 IST 2012	Slept 4 seconds
Fri Dec 07 04:59:00 IST 2012	Sent role changed msgs
Fri Dec 07 05:00:00 IST 2012	Received communication message 
Fri Dec 07 05:00:00 IST 2012	From player: 337
Fri Dec 07 05:00:00 IST 2012	To player: 210
Fri Dec 07 05:00:00 IST 2012	Message type: basicproposal
Fri Dec 07 05:00:00 IST 2012	Chips to send by proposer: { chips  'CTRed':0 'CTPurple':0 'CTGreen':0 'grey78':1 }
Fri Dec 07 05:00:00 IST 2012	Chips to send by responder: { chips  'CTRed':0 'CTPurple':0 'CTGreen':1 'grey78':0 }
Fri Dec 07 05:00:08 IST 2012	Received communication message 
Fri Dec 07 05:00:08 IST 2012	From player: 210
Fri Dec 07 05:00:08 IST 2012	To player: 337
Fri Dec 07 05:00:08 IST 2012	Message type: basicproposaldiscussion
Fri Dec 07 05:00:08 IST 2012	Player 210 rejected offer
Fri Dec 07 05:00:08 IST 2012	Set counter offers count to: 0
Fri Dec 07 05:00:08 IST 2012	A Phase Ended: Communication Phase
Fri Dec 07 05:00:08 IST 2012	Protocol: A New Phase Began: Exchange Phase
Fri Dec 07 05:00:08 IST 2012	Protocol: Exchange phase, Round: 9
Fri Dec 07 05:00:08 IST 2012	In begin exch.phase, get counter offers returned: 0
Fri Dec 07 05:00:47 IST 2012	A Phase Ended: Exchange Phase
Fri Dec 07 05:00:47 IST 2012	Proposer 337 sent: { chips  }
Fri Dec 07 05:00:47 IST 2012	Protocol: A New Phase Began: Movement Phase
Fri Dec 07 05:00:47 IST 2012	Protocol: Movement phase, Round: 9
Fri Dec 07 05:01:07 IST 2012	A Phase Ended: Movement Phase
Fri Dec 07 05:01:07 IST 2012	Protocol: A New Phase Began: Feedback Phase
Fri Dec 07 05:01:07 IST 2012	Protocol: Feedback phase, Round: 9
Fri Dec 07 05:01:07 IST 2012	Number of consecutive no movements for player 337 is 1
Fri Dec 07 05:01:07 IST 2012	Number of consecutive no movements for player 210 is 1
Fri Dec 07 05:01:12 IST 2012	A Phase Ended: Feedback Phase
Fri Dec 07 05:01:12 IST 2012	Protocol: A New Phase Began: Communication Phase
Fri Dec 07 05:01:12 IST 2012	Protocol: Communication phase, Round: 10
Fri Dec 07 05:02:12 IST 2012	Received communication message 
Fri Dec 07 05:02:12 IST 2012	From player: 337
Fri Dec 07 05:02:12 IST 2012	To player: 210
Fri Dec 07 05:02:12 IST 2012	Message type: basicproposal
Fri Dec 07 05:02:12 IST 2012	Chips to send by proposer: { chips  'grey78':1 }
Fri Dec 07 05:02:12 IST 2012	Chips to send by responder: { chips  'CTGreen':1 }
Fri Dec 07 05:02:21 IST 2012	Received communication message 
Fri Dec 07 05:02:21 IST 2012	From player: 210
Fri Dec 07 05:02:21 IST 2012	To player: 337
Fri Dec 07 05:02:21 IST 2012	Message type: basicproposaldiscussion
Fri Dec 07 05:02:21 IST 2012	Player 210 accepted offer
Fri Dec 07 05:02:21 IST 2012	Prop accepted, set counter offers count to: 0
Fri Dec 07 05:02:21 IST 2012	Prop accepted, get counter offers returned: 0
Fri Dec 07 05:02:21 IST 2012	A Phase Ended: Communication Phase
Fri Dec 07 05:02:21 IST 2012	Protocol: A New Phase Began: Exchange Phase
Fri Dec 07 05:02:21 IST 2012	Protocol: Exchange phase, Round: 10
Fri Dec 07 05:02:21 IST 2012	In begin exch.phase, get counter offers returned: 0
Fri Dec 07 05:02:50 IST 2012	A Phase Ended: Exchange Phase
Fri Dec 07 05:02:50 IST 2012	Proposer 337 sent: { chips  'CTRed':0 'CTPurple':0 'CTGreen':0 'grey78':0 }
Fri Dec 07 05:02:50 IST 2012	Responder 210 sent: { chips  }
Fri Dec 07 05:02:50 IST 2012	Protocol: A New Phase Began: Movement Phase
Fri Dec 07 05:02:50 IST 2012	Protocol: Movement phase, Round: 10
Fri Dec 07 05:03:09 IST 2012	A Phase Ended: Movement Phase
Fri Dec 07 05:03:09 IST 2012	Swaping roles:
Fri Dec 07 05:03:09 IST 2012	Proposer is: 210
Fri Dec 07 05:03:09 IST 2012	Responder is: 337
Fri Dec 07 05:03:09 IST 2012	Protocol: A New Phase Began: Feedback Phase
Fri Dec 07 05:03:09 IST 2012	Protocol: Feedback phase, Round: 10
Fri Dec 07 05:03:09 IST 2012	Number of consecutive no movements for player 337 is 2
Fri Dec 07 05:03:09 IST 2012	Number of consecutive no movements for player 210 is 2
Fri Dec 07 05:03:14 IST 2012	A Phase Ended: Feedback Phase
Fri Dec 07 05:03:14 IST 2012	Protocol: A New Phase Began: Communication Phase
Fri Dec 07 05:03:14 IST 2012	Protocol: Communication phase, Round: 11
Fri Dec 07 05:03:29 IST 2012	Received communication message 
Fri Dec 07 05:03:29 IST 2012	From player: 210
Fri Dec 07 05:03:29 IST 2012	To player: 337
Fri Dec 07 05:03:29 IST 2012	Message type: basicproposal
Fri Dec 07 05:03:29 IST 2012	Chips to send by proposer: { chips  'CTRed':0 'CTPurple':0 'CTGreen':1 'grey78':0 }
Fri Dec 07 05:03:29 IST 2012	Chips to send by responder: { chips  'CTRed':0 'CTPurple':0 'CTGreen':0 'grey78':1 }
Fri Dec 07 05:04:18 IST 2012	Received communication message 
Fri Dec 07 05:04:18 IST 2012	From player: 337
Fri Dec 07 05:04:18 IST 2012	To player: 210
Fri Dec 07 05:04:18 IST 2012	Message type: basicproposaldiscussion
Fri Dec 07 05:04:18 IST 2012	Player 337 rejected offer
Fri Dec 07 05:04:18 IST 2012	Swaping roles:
Fri Dec 07 05:04:18 IST 2012	Proposer is: 337
Fri Dec 07 05:04:18 IST 2012	Responder is: 210
Fri Dec 07 05:04:18 IST 2012	Prop rejected, set counter offers count to: 1
Fri Dec 07 05:04:18 IST 2012	Prop rejected, get counter offers returned: 1
Fri Dec 07 05:04:22 IST 2012	Slept 4 seconds
Fri Dec 07 05:04:22 IST 2012	Sent role changed msgs
Fri Dec 07 05:05:22 IST 2012	Received communication message 
Fri Dec 07 05:05:22 IST 2012	From player: 337
Fri Dec 07 05:05:22 IST 2012	To player: 210
Fri Dec 07 05:05:22 IST 2012	Message type: basicproposal
Fri Dec 07 05:05:22 IST 2012	Chips to send by proposer: { chips  'CTRed':0 'CTPurple':0 'CTGreen':0 'grey78':1 }
Fri Dec 07 05:05:22 IST 2012	Chips to send by responder: { chips  'CTRed':0 'CTPurple':0 'CTGreen':1 'grey78':0 }
Fri Dec 07 05:05:35 IST 2012	Received communication message 
Fri Dec 07 05:05:35 IST 2012	From player: 210
Fri Dec 07 05:05:35 IST 2012	To player: 337
Fri Dec 07 05:05:35 IST 2012	Message type: basicproposaldiscussion
Fri Dec 07 05:05:35 IST 2012	Player 210 accepted offer
Fri Dec 07 05:05:35 IST 2012	Prop accepted, set counter offers count to: 0
Fri Dec 07 05:05:35 IST 2012	Prop accepted, get counter offers returned: 0
Fri Dec 07 05:05:35 IST 2012	A Phase Ended: Communication Phase
Fri Dec 07 05:05:35 IST 2012	Protocol: A New Phase Began: Exchange Phase
Fri Dec 07 05:05:35 IST 2012	Protocol: Exchange phase, Round: 11
Fri Dec 07 05:05:35 IST 2012	In begin exch.phase, get counter offers returned: 0
Fri Dec 07 05:06:04 IST 2012	A Phase Ended: Exchange Phase
Fri Dec 07 05:06:04 IST 2012	Proposer 337 sent: { chips  'CTRed':0 'CTPurple':0 'CTGreen':0 'grey78':0 }
Fri Dec 07 05:06:04 IST 2012	Responder 210 sent: { chips  'CTRed':0 'CTPurple':0 'CTGreen':1 'grey78':0 }
Fri Dec 07 05:06:04 IST 2012	Protocol: A New Phase Began: Movement Phase
Fri Dec 07 05:06:04 IST 2012	Protocol: Movement phase, Round: 11
Fri Dec 07 05:06:04 IST 2012	Player 210 moved to (R:3,C:1)
Fri Dec 07 05:06:04 IST 2012	Player 337 moved to (R:3,C:3)
Fri Dec 07 05:06:23 IST 2012	A Phase Ended: Movement Phase
Fri Dec 07 05:06:23 IST 2012	Protocol: A New Phase Began: Feedback Phase
Fri Dec 07 05:06:23 IST 2012	Protocol: Feedback phase, Round: 11
Fri Dec 07 05:06:23 IST 2012	Number of consecutive no movements for player 337 is 0
Fri Dec 07 05:06:23 IST 2012	Number of consecutive no movements for player 210 is 0
Fri Dec 07 05:06:28 IST 2012	A Phase Ended: Feedback Phase
Fri Dec 07 05:06:28 IST 2012	Protocol: A New Phase Began: Communication Phase
Fri Dec 07 05:06:28 IST 2012	Protocol: Communication phase, Round: 12
Fri Dec 07 05:07:28 IST 2012	Received communication message 
Fri Dec 07 05:07:28 IST 2012	From player: 337
Fri Dec 07 05:07:28 IST 2012	To player: 210
Fri Dec 07 05:07:28 IST 2012	Message type: basicproposal
Fri Dec 07 05:07:28 IST 2012	Chips to send by proposer: { chips  'grey78':1 }
Fri Dec 07 05:07:28 IST 2012	Chips to send by responder: { chips  'CTGreen':1 }
Fri Dec 07 05:07:40 IST 2012	Received communication message 
Fri Dec 07 05:07:40 IST 2012	From player: 210
Fri Dec 07 05:07:40 IST 2012	To player: 337
Fri Dec 07 05:07:40 IST 2012	Message type: basicproposaldiscussion
Fri Dec 07 05:07:40 IST 2012	Player 210 accepted offer
Fri Dec 07 05:07:40 IST 2012	Prop accepted, set counter offers count to: 0
Fri Dec 07 05:07:40 IST 2012	Prop accepted, get counter offers returned: 0
Fri Dec 07 05:07:40 IST 2012	A Phase Ended: Communication Phase
Fri Dec 07 05:07:40 IST 2012	Protocol: A New Phase Began: Exchange Phase
Fri Dec 07 05:07:40 IST 2012	Protocol: Exchange phase, Round: 12
Fri Dec 07 05:07:40 IST 2012	In begin exch.phase, get counter offers returned: 0
Fri Dec 07 05:08:06 IST 2012	A Phase Ended: Exchange Phase
Fri Dec 07 05:08:06 IST 2012	Proposer 337 sent: { chips  'CTRed':0 'CTPurple':0 'CTGreen':0 'grey78':0 }
Fri Dec 07 05:08:06 IST 2012	Responder 210 sent: { chips  'CTRed':0 'CTPurple':0 'CTGreen':1 'grey78':0 }
Fri Dec 07 05:08:06 IST 2012	Protocol: A New Phase Began: Movement Phase
Fri Dec 07 05:08:06 IST 2012	Protocol: Movement phase, Round: 12
Fri Dec 07 05:08:26 IST 2012	A Phase Ended: Movement Phase
Fri Dec 07 05:08:26 IST 2012	Swaping roles:
Fri Dec 07 05:08:26 IST 2012	Proposer is: 210
Fri Dec 07 05:08:26 IST 2012	Responder is: 337
Fri Dec 07 05:08:26 IST 2012	Protocol: A New Phase Began: Feedback Phase
Fri Dec 07 05:08:26 IST 2012	Protocol: Feedback phase, Round: 12
Fri Dec 07 05:08:26 IST 2012	Number of consecutive no movements for player 337 is 1
Fri Dec 07 05:08:26 IST 2012	Number of consecutive no movements for player 210 is 1
Fri Dec 07 05:08:31 IST 2012	A Phase Ended: Feedback Phase
Fri Dec 07 05:08:31 IST 2012	Protocol: A New Phase Began: Communication Phase
Fri Dec 07 05:08:31 IST 2012	Protocol: Communication phase, Round: 13
Fri Dec 07 05:08:44 IST 2012	Received communication message 
Fri Dec 07 05:08:44 IST 2012	From player: 210
Fri Dec 07 05:08:44 IST 2012	To player: 337
Fri Dec 07 05:08:44 IST 2012	Message type: basicproposal
Fri Dec 07 05:08:44 IST 2012	Chips to send by proposer: { chips  'CTRed':0 'CTPurple':0 'CTGreen':2 'grey78':0 }
Fri Dec 07 05:08:44 IST 2012	Chips to send by responder: { chips  'CTRed':0 'CTPurple':0 'CTGreen':0 'grey78':1 }
Fri Dec 07 05:09:19 IST 2012	Received communication message 
Fri Dec 07 05:09:19 IST 2012	From player: 337
Fri Dec 07 05:09:19 IST 2012	To player: 210
Fri Dec 07 05:09:19 IST 2012	Message type: basicproposaldiscussion
Fri Dec 07 05:09:19 IST 2012	Player 337 rejected offer
Fri Dec 07 05:09:19 IST 2012	Swaping roles:
Fri Dec 07 05:09:19 IST 2012	Proposer is: 337
Fri Dec 07 05:09:19 IST 2012	Responder is: 210
Fri Dec 07 05:09:19 IST 2012	Prop rejected, set counter offers count to: 1
Fri Dec 07 05:09:19 IST 2012	Prop rejected, get counter offers returned: 1
Fri Dec 07 05:09:23 IST 2012	Slept 4 seconds
Fri Dec 07 05:09:23 IST 2012	Sent role changed msgs
Fri Dec 07 05:10:23 IST 2012	Received communication message 
Fri Dec 07 05:10:23 IST 2012	From player: 337
Fri Dec 07 05:10:23 IST 2012	To player: 210
Fri Dec 07 05:10:23 IST 2012	Message type: basicproposal
Fri Dec 07 05:10:23 IST 2012	Chips to send by proposer: { chips  'CTRed':0 'CTPurple':0 'CTGreen':0 'grey78':1 }
Fri Dec 07 05:10:23 IST 2012	Chips to send by responder: { chips  'CTRed':0 'CTPurple':0 'CTGreen':1 'grey78':0 }
Fri Dec 07 05:10:35 IST 2012	Received communication message 
Fri Dec 07 05:10:35 IST 2012	From player: 210
Fri Dec 07 05:10:35 IST 2012	To player: 337
Fri Dec 07 05:10:35 IST 2012	Message type: basicproposaldiscussion
Fri Dec 07 05:10:35 IST 2012	Player 210 accepted offer
Fri Dec 07 05:10:35 IST 2012	Prop accepted, set counter offers count to: 0
Fri Dec 07 05:10:35 IST 2012	Prop accepted, get counter offers returned: 0
Fri Dec 07 05:10:35 IST 2012	A Phase Ended: Communication Phase
Fri Dec 07 05:10:35 IST 2012	Protocol: A New Phase Began: Exchange Phase
Fri Dec 07 05:10:35 IST 2012	Protocol: Exchange phase, Round: 13
Fri Dec 07 05:10:35 IST 2012	In begin exch.phase, get counter offers returned: 0
Fri Dec 07 05:10:58 IST 2012	A Phase Ended: Exchange Phase
Fri Dec 07 05:10:58 IST 2012	Proposer 337 sent: { chips  'CTRed':0 'CTPurple':0 'CTGreen':0 'grey78':0 }
Fri Dec 07 05:10:58 IST 2012	Responder 210 sent: { chips  }
Fri Dec 07 05:10:58 IST 2012	Protocol: A New Phase Began: Movement Phase
Fri Dec 07 05:10:58 IST 2012	Protocol: Movement phase, Round: 13
Fri Dec 07 05:11:17 IST 2012	A Phase Ended: Movement Phase
Fri Dec 07 05:11:17 IST 2012	Protocol: A New Phase Began: Feedback Phase
Fri Dec 07 05:11:17 IST 2012	Protocol: Feedback phase, Round: 13
Fri Dec 07 05:11:17 IST 2012	Number of consecutive no movements for player 337 is 2
Fri Dec 07 05:11:17 IST 2012	Number of consecutive no movements for player 210 is 2
Fri Dec 07 05:11:22 IST 2012	A Phase Ended: Feedback Phase
Fri Dec 07 05:11:22 IST 2012	Protocol: A New Phase Began: Communication Phase
Fri Dec 07 05:11:22 IST 2012	Protocol: Communication phase, Round: 14
Fri Dec 07 05:12:22 IST 2012	Received communication message 
Fri Dec 07 05:12:22 IST 2012	From player: 337
Fri Dec 07 05:12:22 IST 2012	To player: 210
Fri Dec 07 05:12:22 IST 2012	Message type: basicproposal
Fri Dec 07 05:12:22 IST 2012	Chips to send by proposer: { chips  'grey78':1 }
Fri Dec 07 05:12:22 IST 2012	Chips to send by responder: { chips  'CTGreen':1 }
Fri Dec 07 05:12:28 IST 2012	Received communication message 
Fri Dec 07 05:12:28 IST 2012	From player: 210
Fri Dec 07 05:12:28 IST 2012	To player: 337
Fri Dec 07 05:12:28 IST 2012	Message type: basicproposaldiscussion
Fri Dec 07 05:12:28 IST 2012	Player 210 accepted offer
Fri Dec 07 05:12:28 IST 2012	Prop accepted, set counter offers count to: 0
Fri Dec 07 05:12:28 IST 2012	Prop accepted, get counter offers returned: 0
Fri Dec 07 05:12:28 IST 2012	A Phase Ended: Communication Phase
Fri Dec 07 05:12:28 IST 2012	Protocol: A New Phase Began: Exchange Phase
Fri Dec 07 05:12:28 IST 2012	Protocol: Exchange phase, Round: 14
Fri Dec 07 05:12:28 IST 2012	In begin exch.phase, get counter offers returned: 0
Fri Dec 07 05:12:46 IST 2012	A Phase Ended: Exchange Phase
Fri Dec 07 05:12:46 IST 2012	Proposer 337 sent: { chips  'CTRed':0 'CTPurple':0 'CTGreen':0 'grey78':0 }
Fri Dec 07 05:12:46 IST 2012	Responder 210 sent: { chips  'CTRed':0 'CTPurple':0 'CTGreen':1 'grey78':0 }
Fri Dec 07 05:12:46 IST 2012	Protocol: A New Phase Began: Movement Phase
Fri Dec 07 05:12:46 IST 2012	Protocol: Movement phase, Round: 14
Fri Dec 07 05:12:46 IST 2012	Player 210 moved to (R:2,C:1)
Fri Dec 07 05:12:46 IST 2012	Player 337 moved to (R:2,C:3)
Fri Dec 07 05:13:06 IST 2012	A Phase Ended: Movement Phase
Fri Dec 07 05:13:06 IST 2012	Swaping roles:
Fri Dec 07 05:13:06 IST 2012	Proposer is: 210
Fri Dec 07 05:13:06 IST 2012	Responder is: 337
Fri Dec 07 05:13:06 IST 2012	Protocol: A New Phase Began: Feedback Phase
Fri Dec 07 05:13:06 IST 2012	Protocol: Feedback phase, Round: 14
Fri Dec 07 05:13:06 IST 2012	Number of consecutive no movements for player 337 is 0
Fri Dec 07 05:13:06 IST 2012	Number of consecutive no movements for player 210 is 0
Fri Dec 07 05:13:11 IST 2012	A Phase Ended: Feedback Phase
Fri Dec 07 05:13:11 IST 2012	Protocol: A New Phase Began: Communication Phase
Fri Dec 07 05:13:11 IST 2012	Protocol: Communication phase, Round: 15
Fri Dec 07 05:13:27 IST 2012	Received communication message 
Fri Dec 07 05:13:27 IST 2012	From player: 210
Fri Dec 07 05:13:27 IST 2012	To player: 337
Fri Dec 07 05:13:27 IST 2012	Message type: basicproposal
Fri Dec 07 05:13:27 IST 2012	Chips to send by proposer: { chips  'CTRed':0 'CTPurple':0 'CTGreen':2 'grey78':0 }
Fri Dec 07 05:13:27 IST 2012	Chips to send by responder: { chips  'CTRed':0 'CTPurple':0 'CTGreen':0 'grey78':1 }
Fri Dec 07 05:13:46 IST 2012	Received communication message 
Fri Dec 07 05:13:46 IST 2012	From player: 337
Fri Dec 07 05:13:46 IST 2012	To player: 210
Fri Dec 07 05:13:46 IST 2012	Message type: basicproposaldiscussion
Fri Dec 07 05:13:46 IST 2012	Player 337 rejected offer
Fri Dec 07 05:13:46 IST 2012	Swaping roles:
Fri Dec 07 05:13:46 IST 2012	Proposer is: 337
Fri Dec 07 05:13:46 IST 2012	Responder is: 210
Fri Dec 07 05:13:46 IST 2012	Prop rejected, set counter offers count to: 1
Fri Dec 07 05:13:46 IST 2012	Prop rejected, get counter offers returned: 1
Fri Dec 07 05:13:50 IST 2012	Slept 4 seconds
Fri Dec 07 05:13:50 IST 2012	Sent role changed msgs
Fri Dec 07 05:14:46 IST 2012	Received communication message 
Fri Dec 07 05:14:46 IST 2012	From player: 337
Fri Dec 07 05:14:46 IST 2012	To player: 210
Fri Dec 07 05:14:46 IST 2012	Message type: basicproposal
Fri Dec 07 05:14:46 IST 2012	Chips to send by proposer: { chips  'CTRed':0 'CTPurple':0 'CTGreen':0 'grey78':1 }
Fri Dec 07 05:14:46 IST 2012	Chips to send by responder: { chips  'CTRed':0 'CTPurple':0 'CTGreen':1 'grey78':0 }
Fri Dec 07 05:14:53 IST 2012	Received communication message 
Fri Dec 07 05:14:53 IST 2012	From player: 210
Fri Dec 07 05:14:53 IST 2012	To player: 337
Fri Dec 07 05:14:53 IST 2012	Message type: basicproposaldiscussion
Fri Dec 07 05:14:53 IST 2012	Player 210 accepted offer
Fri Dec 07 05:14:53 IST 2012	Prop accepted, set counter offers count to: 0
Fri Dec 07 05:14:53 IST 2012	Prop accepted, get counter offers returned: 0
Fri Dec 07 05:14:53 IST 2012	A Phase Ended: Communication Phase
Fri Dec 07 05:14:53 IST 2012	Protocol: A New Phase Began: Exchange Phase
Fri Dec 07 05:14:53 IST 2012	Protocol: Exchange phase, Round: 15
Fri Dec 07 05:14:53 IST 2012	In begin exch.phase, get counter offers returned: 0
Fri Dec 07 05:15:06 IST 2012	A Phase Ended: Exchange Phase
Fri Dec 07 05:15:06 IST 2012	Proposer 337 sent: { chips  'CTRed':0 'CTPurple':0 'CTGreen':0 'grey78':0 }
Fri Dec 07 05:15:06 IST 2012	Responder 210 sent: { chips  'CTRed':0 'CTPurple':0 'CTGreen':1 'grey78':0 }
Fri Dec 07 05:15:06 IST 2012	Protocol: A New Phase Began: Movement Phase
Fri Dec 07 05:15:06 IST 2012	Protocol: Movement phase, Round: 15
Fri Dec 07 05:15:25 IST 2012	A Phase Ended: Movement Phase
Fri Dec 07 05:15:25 IST 2012	Protocol: A New Phase Began: Feedback Phase
Fri Dec 07 05:15:25 IST 2012	Protocol: Feedback phase, Round: 15
Fri Dec 07 05:15:25 IST 2012	Number of consecutive no movements for player 337 is 1
Fri Dec 07 05:15:25 IST 2012	Number of consecutive no movements for player 210 is 1
Fri Dec 07 05:15:30 IST 2012	A Phase Ended: Feedback Phase
Fri Dec 07 05:15:30 IST 2012	Protocol: A New Phase Began: Communication Phase
Fri Dec 07 05:15:30 IST 2012	Protocol: Communication phase, Round: 16
Fri Dec 07 05:16:13 IST 2012	Received communication message 
Fri Dec 07 05:16:13 IST 2012	From player: 337
Fri Dec 07 05:16:13 IST 2012	To player: 210
Fri Dec 07 05:16:13 IST 2012	Message type: basicproposal
Fri Dec 07 05:16:13 IST 2012	Chips to send by proposer: { chips  'grey78':1 }
Fri Dec 07 05:16:13 IST 2012	Chips to send by responder: { chips  'CTGreen':1 }
Fri Dec 07 05:16:27 IST 2012	Received communication message 
Fri Dec 07 05:16:27 IST 2012	From player: 210
Fri Dec 07 05:16:27 IST 2012	To player: 337
Fri Dec 07 05:16:27 IST 2012	Message type: basicproposaldiscussion
Fri Dec 07 05:16:27 IST 2012	Player 210 accepted offer
Fri Dec 07 05:16:27 IST 2012	Prop accepted, set counter offers count to: 0
Fri Dec 07 05:16:27 IST 2012	Prop accepted, get counter offers returned: 0
Fri Dec 07 05:16:27 IST 2012	A Phase Ended: Communication Phase
Fri Dec 07 05:16:27 IST 2012	Protocol: A New Phase Began: Exchange Phase
Fri Dec 07 05:16:27 IST 2012	Protocol: Exchange phase, Round: 16
Fri Dec 07 05:16:27 IST 2012	In begin exch.phase, get counter offers returned: 0
Fri Dec 07 05:16:36 IST 2012	A Phase Ended: Exchange Phase
Fri Dec 07 05:16:36 IST 2012	Proposer 337 sent: { chips  'CTRed':0 'CTPurple':0 'CTGreen':0 'grey78':0 }
Fri Dec 07 05:16:36 IST 2012	Responder 210 sent: { chips  }
Fri Dec 07 05:16:36 IST 2012	Protocol: A New Phase Began: Movement Phase
Fri Dec 07 05:16:36 IST 2012	Protocol: Movement phase, Round: 16
Fri Dec 07 05:16:55 IST 2012	A Phase Ended: Movement Phase
Fri Dec 07 05:16:55 IST 2012	Swaping roles:
Fri Dec 07 05:16:55 IST 2012	Proposer is: 210
Fri Dec 07 05:16:55 IST 2012	Responder is: 337
Fri Dec 07 05:16:55 IST 2012	Protocol: A New Phase Began: Feedback Phase
Fri Dec 07 05:16:55 IST 2012	Protocol: Feedback phase, Round: 16
Fri Dec 07 05:16:55 IST 2012	Number of consecutive no movements for player 337 is 2
Fri Dec 07 05:16:55 IST 2012	Number of consecutive no movements for player 210 is 2
Fri Dec 07 05:17:00 IST 2012	A Phase Ended: Feedback Phase
Fri Dec 07 05:17:00 IST 2012	Protocol: A New Phase Began: Communication Phase
Fri Dec 07 05:17:00 IST 2012	Protocol: Communication phase, Round: 17
Fri Dec 07 05:17:16 IST 2012	Received communication message 
Fri Dec 07 05:17:16 IST 2012	From player: 210
Fri Dec 07 05:17:16 IST 2012	To player: 337
Fri Dec 07 05:17:16 IST 2012	Message type: basicproposal
Fri Dec 07 05:17:16 IST 2012	Chips to send by proposer: { chips  'CTRed':0 'CTPurple':0 'CTGreen':4 'grey78':0 }
Fri Dec 07 05:17:16 IST 2012	Chips to send by responder: { chips  'CTRed':0 'CTPurple':0 'CTGreen':0 'grey78':1 }
Fri Dec 07 05:17:22 IST 2012	Received communication message 
Fri Dec 07 05:17:22 IST 2012	From player: 337
Fri Dec 07 05:17:22 IST 2012	To player: 210
Fri Dec 07 05:17:22 IST 2012	Message type: basicproposaldiscussion
Fri Dec 07 05:17:22 IST 2012	Player 337 rejected offer
Fri Dec 07 05:17:22 IST 2012	Swaping roles:
Fri Dec 07 05:17:22 IST 2012	Proposer is: 337
Fri Dec 07 05:17:22 IST 2012	Responder is: 210
Fri Dec 07 05:17:22 IST 2012	Prop rejected, set counter offers count to: 1
Fri Dec 07 05:17:22 IST 2012	Prop rejected, get counter offers returned: 1
Fri Dec 07 05:17:26 IST 2012	Slept 4 seconds
Fri Dec 07 05:17:26 IST 2012	Sent role changed msgs
Fri Dec 07 05:17:44 IST 2012	Received communication message 
Fri Dec 07 05:17:44 IST 2012	From player: 337
Fri Dec 07 05:17:44 IST 2012	To player: 210
Fri Dec 07 05:17:44 IST 2012	Message type: basicproposal
Fri Dec 07 05:17:44 IST 2012	Chips to send by proposer: { chips  'CTRed':0 'CTPurple':0 'CTGreen':0 'grey78':1 }
Fri Dec 07 05:17:44 IST 2012	Chips to send by responder: { chips  'CTRed':0 'CTPurple':0 'CTGreen':1 'grey78':0 }
Fri Dec 07 05:17:50 IST 2012	Received communication message 
Fri Dec 07 05:17:50 IST 2012	From player: 210
Fri Dec 07 05:17:50 IST 2012	To player: 337
Fri Dec 07 05:17:50 IST 2012	Message type: basicproposaldiscussion
Fri Dec 07 05:17:50 IST 2012	Player 210 accepted offer
Fri Dec 07 05:17:50 IST 2012	Prop accepted, set counter offers count to: 0
Fri Dec 07 05:17:50 IST 2012	Prop accepted, get counter offers returned: 0
Fri Dec 07 05:17:50 IST 2012	A Phase Ended: Communication Phase
Fri Dec 07 05:17:50 IST 2012	Protocol: A New Phase Began: Exchange Phase
Fri Dec 07 05:17:50 IST 2012	Protocol: Exchange phase, Round: 17
Fri Dec 07 05:17:50 IST 2012	In begin exch.phase, get counter offers returned: 0
Fri Dec 07 05:17:55 IST 2012	A Phase Ended: Exchange Phase
Fri Dec 07 05:17:55 IST 2012	Proposer 337 sent: { chips  'CTRed':0 'CTPurple':0 'CTGreen':0 'grey78':0 }
Fri Dec 07 05:17:55 IST 2012	Responder 210 sent: { chips  'CTRed':0 'CTPurple':0 'CTGreen':1 'grey78':0 }
Fri Dec 07 05:17:55 IST 2012	Protocol: A New Phase Began: Movement Phase
Fri Dec 07 05:17:55 IST 2012	Protocol: Movement phase, Round: 17
Fri Dec 07 05:17:55 IST 2012	Player 337 moved to (R:1,C:3)
Fri Dec 07 05:18:15 IST 2012	A Phase Ended: Movement Phase
Fri Dec 07 05:18:15 IST 2012	Protocol: A New Phase Began: Feedback Phase
Fri Dec 07 05:18:15 IST 2012	Protocol: Feedback phase, Round: 17
Fri Dec 07 05:18:15 IST 2012	Number of consecutive no movements for player 337 is 0
Fri Dec 07 05:18:15 IST 2012	Number of consecutive no movements for player 210 is 3
Fri Dec 07 05:18:15 IST 2012	Ending game, all players move as much as they can towards goal
Fri Dec 07 05:18:15 IST 2012	Player: 337 ,role: Proposer score is: 220
Fri Dec 07 05:18:15 IST 2012	Player: 210 ,role: Responder score is: 25
