Thu Dec 06 18:11:16 IST 2012	This is the CT debug logger; svn version 638; sep 27 09
Thu Dec 06 18:11:16 IST 2012	Thu Dec 06 18:11:16 IST 2012
Thu Dec 06 18:11:16 IST 2012	A new Alternative Offers game has began
Thu Dec 06 18:11:16 IST 2012	ID Number: 46340
Thu Dec 06 18:11:16 IST 2012	Creating board
Thu Dec 06 18:11:16 IST 2012	<colors>
Thu Dec 06 18:11:16 IST 2012	{ GamePalette  'CTRed':0 'CTPurple':1 'CTGreen':2 'grey78':3 }
Thu Dec 06 18:11:16 IST 2012	<rows>
Thu Dec 06 18:11:16 IST 2012	7
Thu Dec 06 18:11:16 IST 2012	<columns>
Thu Dec 06 18:11:16 IST 2012	5
Thu Dec 06 18:11:16 IST 2012	<squaresColors>
Thu Dec 06 18:11:16 IST 2012	CTPurple CTRed CTRed CTGreen CTPurple 
Thu Dec 06 18:11:16 IST 2012	CTPurple grey78 CTPurple grey78 CTPurple 
Thu Dec 06 18:11:16 IST 2012	CTPurple CTRed CTPurple CTGreen CTPurple 
Thu Dec 06 18:11:16 IST 2012	CTPurple grey78 CTPurple grey78 CTPurple 
Thu Dec 06 18:11:16 IST 2012	CTPurple CTRed CTPurple CTGreen CTPurple 
Thu Dec 06 18:11:16 IST 2012	CTPurple grey78 CTPurple grey78 CTPurple 
Thu Dec 06 18:11:16 IST 2012	CTPurple CTRed CTPurple CTGreen CTPurple 
Thu Dec 06 18:11:16 IST 2012	</squareColors>
Thu Dec 06 18:11:16 IST 2012	<goalPosition>
Thu Dec 06 18:11:16 IST 2012	Goal position: (R:0,C:2)
Thu Dec 06 18:11:16 IST 2012	<numberOfPlayers>
Thu Dec 06 18:11:16 IST 2012	2
Thu Dec 06 18:11:16 IST 2012	<firstPlayerChips>
Thu Dec 06 18:11:16 IST 2012	Setting chips for player: 337 id:0
Thu Dec 06 18:11:16 IST 2012	{ chips  'CTRed':1 'CTGreen':13 'CTPurple':0 'grey78':10 }
Thu Dec 06 18:11:16 IST 2012	Player position: (R:6,C:4)
Thu Dec 06 18:11:16 IST 2012	Setting chips for player: 210 id:1
Thu Dec 06 18:11:16 IST 2012	{ chips  'CTRed':5 'CTGreen':19 'CTPurple':0 'grey78':0 }
Thu Dec 06 18:11:16 IST 2012	Player position: (R:6,C:0)
Thu Dec 06 18:11:16 IST 2012	Protocol: A New Phase Began: Strategy Prep Phase
Thu Dec 06 18:11:16 IST 2012	Protocol: Strategy Preparation phase, Round: 0
Thu Dec 06 18:11:16 IST 2012	Maximum number of rounds with no consecutive movement is 3
Thu Dec 06 18:11:16 IST 2012	In begin comm. phase, set counter offers count to: 0
Thu Dec 06 18:11:16 IST 2012	In begin comm. phase, get counter offers returned: 0
Thu Dec 06 18:11:36 IST 2012	A Phase Ended: Strategy Prep Phase
Thu Dec 06 18:11:36 IST 2012	Protocol: A New Phase Began: Communication Phase
Thu Dec 06 18:11:36 IST 2012	Protocol: Communication phase, Round: 0
Thu Dec 06 18:12:36 IST 2012	Received communication message 
Thu Dec 06 18:12:36 IST 2012	From player: 337
Thu Dec 06 18:12:36 IST 2012	To player: 210
Thu Dec 06 18:12:36 IST 2012	Message type: basicproposal
Thu Dec 06 18:12:36 IST 2012	Chips to send by proposer: { chips  'grey78':3 }
Thu Dec 06 18:12:36 IST 2012	Chips to send by responder: { chips  'CTGreen':2 }
Thu Dec 06 18:12:48 IST 2012	Received communication message 
Thu Dec 06 18:12:48 IST 2012	From player: 210
Thu Dec 06 18:12:48 IST 2012	To player: 337
Thu Dec 06 18:12:48 IST 2012	Message type: basicproposaldiscussion
Thu Dec 06 18:12:48 IST 2012	Player 210 accepted offer
Thu Dec 06 18:12:48 IST 2012	Prop accepted, set counter offers count to: 0
Thu Dec 06 18:12:48 IST 2012	Prop accepted, get counter offers returned: 0
Thu Dec 06 18:12:48 IST 2012	A Phase Ended: Communication Phase
Thu Dec 06 18:12:48 IST 2012	Protocol: A New Phase Began: Exchange Phase
Thu Dec 06 18:12:48 IST 2012	Protocol: Exchange phase, Round: 0
Thu Dec 06 18:12:48 IST 2012	In begin exch.phase, get counter offers returned: 0
Thu Dec 06 18:13:17 IST 2012	A Phase Ended: Exchange Phase
Thu Dec 06 18:13:17 IST 2012	Proposer 337 sent: { chips  'CTRed':0 'CTPurple':0 'CTGreen':0 'grey78':1 }
Thu Dec 06 18:13:17 IST 2012	Responder 210 sent: { chips  'CTRed':0 'CTPurple':0 'CTGreen':1 'grey78':0 }
Thu Dec 06 18:13:17 IST 2012	Protocol: A New Phase Began: Movement Phase
Thu Dec 06 18:13:17 IST 2012	Protocol: Movement phase, Round: 0
Thu Dec 06 18:13:37 IST 2012	A Phase Ended: Movement Phase
Thu Dec 06 18:13:37 IST 2012	Swaping roles:
Thu Dec 06 18:13:37 IST 2012	Proposer is: 210
Thu Dec 06 18:13:37 IST 2012	Responder is: 337
Thu Dec 06 18:13:37 IST 2012	Protocol: A New Phase Began: Feedback Phase
Thu Dec 06 18:13:37 IST 2012	Protocol: Feedback phase, Round: 0
Thu Dec 06 18:13:37 IST 2012	Number of consecutive no movements for player 337 is 1
Thu Dec 06 18:13:37 IST 2012	Number of consecutive no movements for player 210 is 1
Thu Dec 06 18:13:42 IST 2012	A Phase Ended: Feedback Phase
Thu Dec 06 18:13:42 IST 2012	Protocol: A New Phase Began: Communication Phase
Thu Dec 06 18:13:42 IST 2012	Protocol: Communication phase, Round: 1
Thu Dec 06 18:13:58 IST 2012	Received communication message 
Thu Dec 06 18:13:58 IST 2012	From player: 210
Thu Dec 06 18:13:58 IST 2012	To player: 337
Thu Dec 06 18:13:58 IST 2012	Message type: basicproposal
Thu Dec 06 18:13:58 IST 2012	Chips to send by proposer: { chips  'CTRed':0 'CTPurple':0 'CTGreen':1 'grey78':0 }
Thu Dec 06 18:13:58 IST 2012	Chips to send by responder: { chips  'CTRed':0 'CTPurple':0 'CTGreen':0 'grey78':1 }
Thu Dec 06 18:14:58 IST 2012	Received communication message 
Thu Dec 06 18:14:58 IST 2012	From player: 337
Thu Dec 06 18:14:58 IST 2012	To player: 210
Thu Dec 06 18:14:58 IST 2012	Message type: basicproposaldiscussion
Thu Dec 06 18:14:58 IST 2012	Player 337 rejected offer
Thu Dec 06 18:14:58 IST 2012	Swaping roles:
Thu Dec 06 18:14:58 IST 2012	Proposer is: 337
Thu Dec 06 18:14:58 IST 2012	Responder is: 210
Thu Dec 06 18:14:58 IST 2012	Prop rejected, set counter offers count to: 1
Thu Dec 06 18:14:58 IST 2012	Prop rejected, get counter offers returned: 1
Thu Dec 06 18:15:02 IST 2012	Slept 4 seconds
Thu Dec 06 18:15:02 IST 2012	Sent role changed msgs
Thu Dec 06 18:16:02 IST 2012	Received communication message 
Thu Dec 06 18:16:02 IST 2012	From player: 337
Thu Dec 06 18:16:02 IST 2012	To player: 210
Thu Dec 06 18:16:02 IST 2012	Message type: basicproposal
Thu Dec 06 18:16:02 IST 2012	Chips to send by proposer: { chips  'CTRed':0 'CTPurple':0 'CTGreen':0 'grey78':2 }
Thu Dec 06 18:16:02 IST 2012	Chips to send by responder: { chips  'CTRed':0 'CTPurple':0 'CTGreen':1 'grey78':0 }
Thu Dec 06 18:16:10 IST 2012	Received communication message 
Thu Dec 06 18:16:10 IST 2012	From player: 210
Thu Dec 06 18:16:10 IST 2012	To player: 337
Thu Dec 06 18:16:10 IST 2012	Message type: basicproposaldiscussion
Thu Dec 06 18:16:10 IST 2012	Player 210 rejected offer
Thu Dec 06 18:16:10 IST 2012	Set counter offers count to: 0
Thu Dec 06 18:16:10 IST 2012	A Phase Ended: Communication Phase
Thu Dec 06 18:16:10 IST 2012	Protocol: A New Phase Began: Exchange Phase
Thu Dec 06 18:16:10 IST 2012	Protocol: Exchange phase, Round: 1
Thu Dec 06 18:16:10 IST 2012	In begin exch.phase, get counter offers returned: 0
Thu Dec 06 18:16:50 IST 2012	A Phase Ended: Exchange Phase
Thu Dec 06 18:16:50 IST 2012	Proposer 337 sent: { chips  }
Thu Dec 06 18:16:50 IST 2012	Protocol: A New Phase Began: Movement Phase
Thu Dec 06 18:16:50 IST 2012	Protocol: Movement phase, Round: 1
Thu Dec 06 18:17:10 IST 2012	A Phase Ended: Movement Phase
Thu Dec 06 18:17:10 IST 2012	Protocol: A New Phase Began: Feedback Phase
Thu Dec 06 18:17:10 IST 2012	Protocol: Feedback phase, Round: 1
Thu Dec 06 18:17:10 IST 2012	Number of consecutive no movements for player 337 is 2
Thu Dec 06 18:17:10 IST 2012	Number of consecutive no movements for player 210 is 2
Thu Dec 06 18:17:15 IST 2012	A Phase Ended: Feedback Phase
Thu Dec 06 18:17:15 IST 2012	Protocol: A New Phase Began: Communication Phase
Thu Dec 06 18:17:15 IST 2012	Protocol: Communication phase, Round: 2
Thu Dec 06 18:18:15 IST 2012	Received communication message 
Thu Dec 06 18:18:15 IST 2012	From player: 337
Thu Dec 06 18:18:15 IST 2012	To player: 210
Thu Dec 06 18:18:15 IST 2012	Message type: basicproposal
Thu Dec 06 18:18:15 IST 2012	Chips to send by proposer: { chips  'grey78':2 }
Thu Dec 06 18:18:15 IST 2012	Chips to send by responder: { chips  'CTGreen':1 }
Thu Dec 06 18:18:23 IST 2012	Received communication message 
Thu Dec 06 18:18:23 IST 2012	From player: 210
Thu Dec 06 18:18:23 IST 2012	To player: 337
Thu Dec 06 18:18:23 IST 2012	Message type: basicproposaldiscussion
Thu Dec 06 18:18:23 IST 2012	Player 210 rejected offer
Thu Dec 06 18:18:23 IST 2012	Swaping roles:
Thu Dec 06 18:18:23 IST 2012	Proposer is: 210
Thu Dec 06 18:18:23 IST 2012	Responder is: 337
Thu Dec 06 18:18:23 IST 2012	Prop rejected, set counter offers count to: 1
Thu Dec 06 18:18:23 IST 2012	Prop rejected, get counter offers returned: 1
Thu Dec 06 18:18:27 IST 2012	Slept 4 seconds
Thu Dec 06 18:18:27 IST 2012	Sent role changed msgs
Thu Dec 06 18:18:43 IST 2012	Received communication message 
Thu Dec 06 18:18:43 IST 2012	From player: 210
Thu Dec 06 18:18:43 IST 2012	To player: 337
Thu Dec 06 18:18:43 IST 2012	Message type: basicproposal
Thu Dec 06 18:18:43 IST 2012	Chips to send by proposer: { chips  'CTRed':0 'CTPurple':0 'CTGreen':1 'grey78':0 }
Thu Dec 06 18:18:43 IST 2012	Chips to send by responder: { chips  'CTRed':0 'CTPurple':0 'CTGreen':0 'grey78':1 }
Thu Dec 06 18:19:43 IST 2012	Received communication message 
Thu Dec 06 18:19:43 IST 2012	From player: 337
Thu Dec 06 18:19:43 IST 2012	To player: 210
Thu Dec 06 18:19:43 IST 2012	Message type: basicproposaldiscussion
Thu Dec 06 18:19:43 IST 2012	Player 337 rejected offer
Thu Dec 06 18:19:43 IST 2012	Set counter offers count to: 0
Thu Dec 06 18:19:43 IST 2012	A Phase Ended: Communication Phase
Thu Dec 06 18:19:43 IST 2012	Protocol: A New Phase Began: Exchange Phase
Thu Dec 06 18:19:43 IST 2012	Protocol: Exchange phase, Round: 2
Thu Dec 06 18:19:43 IST 2012	In begin exch.phase, get counter offers returned: 0
Thu Dec 06 18:20:22 IST 2012	A Phase Ended: Exchange Phase
Thu Dec 06 18:20:22 IST 2012	Responder 337 sent: { chips  }
Thu Dec 06 18:20:22 IST 2012	Protocol: A New Phase Began: Movement Phase
Thu Dec 06 18:20:22 IST 2012	Protocol: Movement phase, Round: 2
Thu Dec 06 18:20:23 IST 2012	Player 337 moved to (R:6,C:3)
Thu Dec 06 18:20:23 IST 2012	Player 210 moved to (R:6,C:1)
Thu Dec 06 18:20:43 IST 2012	A Phase Ended: Movement Phase
Thu Dec 06 18:20:43 IST 2012	Protocol: A New Phase Began: Feedback Phase
Thu Dec 06 18:20:43 IST 2012	Protocol: Feedback phase, Round: 2
Thu Dec 06 18:20:43 IST 2012	Number of consecutive no movements for player 337 is 0
Thu Dec 06 18:20:43 IST 2012	Number of consecutive no movements for player 210 is 0
Thu Dec 06 18:20:48 IST 2012	A Phase Ended: Feedback Phase
Thu Dec 06 18:20:48 IST 2012	Protocol: A New Phase Began: Communication Phase
Thu Dec 06 18:20:48 IST 2012	Protocol: Communication phase, Round: 3
Thu Dec 06 18:21:08 IST 2012	Received communication message 
Thu Dec 06 18:21:08 IST 2012	From player: 210
Thu Dec 06 18:21:08 IST 2012	To player: 337
Thu Dec 06 18:21:08 IST 2012	Message type: basicproposal
Thu Dec 06 18:21:08 IST 2012	Chips to send by proposer: { chips  'CTRed':0 'CTPurple':0 'CTGreen':1 'grey78':0 }
Thu Dec 06 18:21:08 IST 2012	Chips to send by responder: { chips  'CTRed':0 'CTPurple':0 'CTGreen':0 'grey78':1 }
Thu Dec 06 18:22:06 IST 2012	Received communication message 
Thu Dec 06 18:22:06 IST 2012	From player: 337
Thu Dec 06 18:22:06 IST 2012	To player: 210
Thu Dec 06 18:22:06 IST 2012	Message type: basicproposaldiscussion
Thu Dec 06 18:22:06 IST 2012	Player 337 rejected offer
Thu Dec 06 18:22:06 IST 2012	Swaping roles:
Thu Dec 06 18:22:06 IST 2012	Proposer is: 337
Thu Dec 06 18:22:06 IST 2012	Responder is: 210
Thu Dec 06 18:22:06 IST 2012	Prop rejected, set counter offers count to: 1
Thu Dec 06 18:22:06 IST 2012	Prop rejected, get counter offers returned: 1
Thu Dec 06 18:22:10 IST 2012	Slept 4 seconds
Thu Dec 06 18:22:10 IST 2012	Sent role changed msgs
Thu Dec 06 18:23:10 IST 2012	Received communication message 
Thu Dec 06 18:23:10 IST 2012	From player: 337
Thu Dec 06 18:23:10 IST 2012	To player: 210
Thu Dec 06 18:23:10 IST 2012	Message type: basicproposal
Thu Dec 06 18:23:10 IST 2012	Chips to send by proposer: { chips  'CTRed':0 'CTPurple':0 'CTGreen':0 'grey78':2 }
Thu Dec 06 18:23:10 IST 2012	Chips to send by responder: { chips  'CTRed':0 'CTPurple':0 'CTGreen':1 'grey78':0 }
Thu Dec 06 18:23:16 IST 2012	Received communication message 
Thu Dec 06 18:23:16 IST 2012	From player: 210
Thu Dec 06 18:23:16 IST 2012	To player: 337
Thu Dec 06 18:23:16 IST 2012	Message type: basicproposaldiscussion
Thu Dec 06 18:23:16 IST 2012	Player 210 rejected offer
Thu Dec 06 18:23:16 IST 2012	Set counter offers count to: 0
Thu Dec 06 18:23:16 IST 2012	A Phase Ended: Communication Phase
Thu Dec 06 18:23:16 IST 2012	Protocol: A New Phase Began: Exchange Phase
Thu Dec 06 18:23:16 IST 2012	Protocol: Exchange phase, Round: 3
Thu Dec 06 18:23:16 IST 2012	In begin exch.phase, get counter offers returned: 0
Thu Dec 06 18:23:55 IST 2012	A Phase Ended: Exchange Phase
Thu Dec 06 18:23:55 IST 2012	Proposer 337 sent: { chips  }
Thu Dec 06 18:23:55 IST 2012	Protocol: A New Phase Began: Movement Phase
Thu Dec 06 18:23:55 IST 2012	Protocol: Movement phase, Round: 3
Thu Dec 06 18:24:16 IST 2012	A Phase Ended: Movement Phase
Thu Dec 06 18:24:16 IST 2012	Protocol: A New Phase Began: Feedback Phase
Thu Dec 06 18:24:16 IST 2012	Protocol: Feedback phase, Round: 3
Thu Dec 06 18:24:16 IST 2012	Number of consecutive no movements for player 337 is 1
Thu Dec 06 18:24:16 IST 2012	Number of consecutive no movements for player 210 is 1
Thu Dec 06 18:24:21 IST 2012	A Phase Ended: Feedback Phase
Thu Dec 06 18:24:21 IST 2012	Protocol: A New Phase Began: Communication Phase
Thu Dec 06 18:24:21 IST 2012	Protocol: Communication phase, Round: 4
Thu Dec 06 18:25:21 IST 2012	Received communication message 
Thu Dec 06 18:25:21 IST 2012	From player: 337
Thu Dec 06 18:25:21 IST 2012	To player: 210
Thu Dec 06 18:25:21 IST 2012	Message type: basicproposal
Thu Dec 06 18:25:21 IST 2012	Chips to send by proposer: { chips  'grey78':2 }
Thu Dec 06 18:25:21 IST 2012	Chips to send by responder: { chips  'CTGreen':1 }
Thu Dec 06 18:25:31 IST 2012	Received communication message 
Thu Dec 06 18:25:31 IST 2012	From player: 210
Thu Dec 06 18:25:31 IST 2012	To player: 337
Thu Dec 06 18:25:31 IST 2012	Message type: basicproposaldiscussion
Thu Dec 06 18:25:31 IST 2012	Player 210 rejected offer
Thu Dec 06 18:25:31 IST 2012	Swaping roles:
Thu Dec 06 18:25:31 IST 2012	Proposer is: 210
Thu Dec 06 18:25:31 IST 2012	Responder is: 337
Thu Dec 06 18:25:31 IST 2012	Prop rejected, set counter offers count to: 1
Thu Dec 06 18:25:31 IST 2012	Prop rejected, get counter offers returned: 1
Thu Dec 06 18:25:35 IST 2012	Slept 4 seconds
Thu Dec 06 18:25:35 IST 2012	Sent role changed msgs
Thu Dec 06 18:25:54 IST 2012	Received communication message 
Thu Dec 06 18:25:54 IST 2012	From player: 210
Thu Dec 06 18:25:54 IST 2012	To player: 337
Thu Dec 06 18:25:54 IST 2012	Message type: basicproposal
Thu Dec 06 18:25:54 IST 2012	Chips to send by proposer: { chips  'CTRed':0 'CTPurple':0 'CTGreen':1 'grey78':0 }
Thu Dec 06 18:25:54 IST 2012	Chips to send by responder: { chips  'CTRed':0 'CTPurple':0 'CTGreen':0 'grey78':1 }
Thu Dec 06 18:26:44 IST 2012	Received communication message 
Thu Dec 06 18:26:44 IST 2012	From player: 337
Thu Dec 06 18:26:44 IST 2012	To player: 210
Thu Dec 06 18:26:44 IST 2012	Message type: basicproposaldiscussion
Thu Dec 06 18:26:44 IST 2012	Player 337 rejected offer
Thu Dec 06 18:26:44 IST 2012	Set counter offers count to: 0
Thu Dec 06 18:26:44 IST 2012	A Phase Ended: Communication Phase
Thu Dec 06 18:26:44 IST 2012	Protocol: A New Phase Began: Exchange Phase
Thu Dec 06 18:26:44 IST 2012	Protocol: Exchange phase, Round: 4
Thu Dec 06 18:26:44 IST 2012	In begin exch.phase, get counter offers returned: 0
Thu Dec 06 18:27:23 IST 2012	A Phase Ended: Exchange Phase
Thu Dec 06 18:27:23 IST 2012	Responder 337 sent: { chips  }
Thu Dec 06 18:27:23 IST 2012	Protocol: A New Phase Began: Movement Phase
Thu Dec 06 18:27:23 IST 2012	Protocol: Movement phase, Round: 4
Thu Dec 06 18:27:44 IST 2012	A Phase Ended: Movement Phase
Thu Dec 06 18:27:44 IST 2012	Protocol: A New Phase Began: Feedback Phase
Thu Dec 06 18:27:44 IST 2012	Protocol: Feedback phase, Round: 4
Thu Dec 06 18:27:44 IST 2012	Number of consecutive no movements for player 337 is 2
Thu Dec 06 18:27:44 IST 2012	Number of consecutive no movements for player 210 is 2
Thu Dec 06 18:27:49 IST 2012	A Phase Ended: Feedback Phase
Thu Dec 06 18:27:49 IST 2012	Protocol: A New Phase Began: Communication Phase
Thu Dec 06 18:27:49 IST 2012	Protocol: Communication phase, Round: 5
Thu Dec 06 18:28:03 IST 2012	Received communication message 
Thu Dec 06 18:28:03 IST 2012	From player: 210
Thu Dec 06 18:28:03 IST 2012	To player: 337
Thu Dec 06 18:28:03 IST 2012	Message type: basicproposal
Thu Dec 06 18:28:03 IST 2012	Chips to send by proposer: { chips  'CTRed':0 'CTPurple':0 'CTGreen':1 'grey78':0 }
Thu Dec 06 18:28:03 IST 2012	Chips to send by responder: { chips  'CTRed':0 'CTPurple':0 'CTGreen':0 'grey78':1 }
Thu Dec 06 18:28:49 IST 2012	Received communication message 
Thu Dec 06 18:28:49 IST 2012	From player: 337
Thu Dec 06 18:28:49 IST 2012	To player: 210
Thu Dec 06 18:28:49 IST 2012	Message type: basicproposaldiscussion
Thu Dec 06 18:28:49 IST 2012	Player 337 rejected offer
Thu Dec 06 18:28:49 IST 2012	Swaping roles:
Thu Dec 06 18:28:49 IST 2012	Proposer is: 337
Thu Dec 06 18:28:49 IST 2012	Responder is: 210
Thu Dec 06 18:28:49 IST 2012	Prop rejected, set counter offers count to: 1
Thu Dec 06 18:28:49 IST 2012	Prop rejected, get counter offers returned: 1
Thu Dec 06 18:28:53 IST 2012	Slept 4 seconds
Thu Dec 06 18:28:53 IST 2012	Sent role changed msgs
Thu Dec 06 18:29:53 IST 2012	Received communication message 
Thu Dec 06 18:29:53 IST 2012	From player: 337
Thu Dec 06 18:29:53 IST 2012	To player: 210
Thu Dec 06 18:29:53 IST 2012	Message type: basicproposal
Thu Dec 06 18:29:53 IST 2012	Chips to send by proposer: { chips  'CTRed':0 'CTPurple':0 'CTGreen':0 'grey78':2 }
Thu Dec 06 18:29:53 IST 2012	Chips to send by responder: { chips  'CTRed':0 'CTPurple':0 'CTGreen':1 'grey78':0 }
Thu Dec 06 18:30:05 IST 2012	Received communication message 
Thu Dec 06 18:30:05 IST 2012	From player: 210
Thu Dec 06 18:30:05 IST 2012	To player: 337
Thu Dec 06 18:30:05 IST 2012	Message type: basicproposaldiscussion
Thu Dec 06 18:30:05 IST 2012	Player 210 rejected offer
Thu Dec 06 18:30:05 IST 2012	Set counter offers count to: 0
Thu Dec 06 18:30:05 IST 2012	A Phase Ended: Communication Phase
Thu Dec 06 18:30:05 IST 2012	Protocol: A New Phase Began: Exchange Phase
Thu Dec 06 18:30:05 IST 2012	Protocol: Exchange phase, Round: 5
Thu Dec 06 18:30:05 IST 2012	In begin exch.phase, get counter offers returned: 0
Thu Dec 06 18:30:45 IST 2012	A Phase Ended: Exchange Phase
Thu Dec 06 18:30:45 IST 2012	Proposer 337 sent: { chips  }
Thu Dec 06 18:30:45 IST 2012	Protocol: A New Phase Began: Movement Phase
Thu Dec 06 18:30:45 IST 2012	Protocol: Movement phase, Round: 5
Thu Dec 06 18:30:45 IST 2012	Player 337 moved to (R:5,C:3)
Thu Dec 06 18:30:45 IST 2012	Player 210 moved to (R:5,C:1)
Thu Dec 06 18:31:05 IST 2012	A Phase Ended: Movement Phase
Thu Dec 06 18:31:05 IST 2012	Protocol: A New Phase Began: Feedback Phase
Thu Dec 06 18:31:05 IST 2012	Protocol: Feedback phase, Round: 5
Thu Dec 06 18:31:05 IST 2012	Number of consecutive no movements for player 337 is 0
Thu Dec 06 18:31:05 IST 2012	Number of consecutive no movements for player 210 is 0
Thu Dec 06 18:31:10 IST 2012	A Phase Ended: Feedback Phase
Thu Dec 06 18:31:10 IST 2012	Protocol: A New Phase Began: Communication Phase
Thu Dec 06 18:31:10 IST 2012	Protocol: Communication phase, Round: 6
Thu Dec 06 18:32:10 IST 2012	Received communication message 
Thu Dec 06 18:32:10 IST 2012	From player: 337
Thu Dec 06 18:32:10 IST 2012	To player: 210
Thu Dec 06 18:32:10 IST 2012	Message type: basicproposal
Thu Dec 06 18:32:10 IST 2012	Chips to send by proposer: { chips  'grey78':2 }
Thu Dec 06 18:32:10 IST 2012	Chips to send by responder: { chips  'CTGreen':1 }
Thu Dec 06 18:32:18 IST 2012	Received communication message 
Thu Dec 06 18:32:18 IST 2012	From player: 210
Thu Dec 06 18:32:18 IST 2012	To player: 337
Thu Dec 06 18:32:18 IST 2012	Message type: basicproposaldiscussion
Thu Dec 06 18:32:18 IST 2012	Player 210 rejected offer
Thu Dec 06 18:32:18 IST 2012	Swaping roles:
Thu Dec 06 18:32:18 IST 2012	Proposer is: 210
Thu Dec 06 18:32:18 IST 2012	Responder is: 337
Thu Dec 06 18:32:18 IST 2012	Prop rejected, set counter offers count to: 1
Thu Dec 06 18:32:18 IST 2012	Prop rejected, get counter offers returned: 1
Thu Dec 06 18:32:22 IST 2012	Slept 4 seconds
Thu Dec 06 18:32:22 IST 2012	Sent role changed msgs
Thu Dec 06 18:32:38 IST 2012	Received communication message 
Thu Dec 06 18:32:38 IST 2012	From player: 210
Thu Dec 06 18:32:38 IST 2012	To player: 337
Thu Dec 06 18:32:38 IST 2012	Message type: basicproposal
Thu Dec 06 18:32:38 IST 2012	Chips to send by proposer: { chips  'CTRed':0 'CTPurple':0 'CTGreen':1 'grey78':0 }
Thu Dec 06 18:32:38 IST 2012	Chips to send by responder: { chips  'CTRed':0 'CTPurple':0 'CTGreen':0 'grey78':1 }
Thu Dec 06 18:33:15 IST 2012	Received communication message 
Thu Dec 06 18:33:15 IST 2012	From player: 337
Thu Dec 06 18:33:15 IST 2012	To player: 210
Thu Dec 06 18:33:15 IST 2012	Message type: basicproposaldiscussion
Thu Dec 06 18:33:15 IST 2012	Player 337 rejected offer
Thu Dec 06 18:33:15 IST 2012	Set counter offers count to: 0
Thu Dec 06 18:33:15 IST 2012	A Phase Ended: Communication Phase
Thu Dec 06 18:33:15 IST 2012	Protocol: A New Phase Began: Exchange Phase
Thu Dec 06 18:33:15 IST 2012	Protocol: Exchange phase, Round: 6
Thu Dec 06 18:33:15 IST 2012	In begin exch.phase, get counter offers returned: 0
Thu Dec 06 18:33:55 IST 2012	A Phase Ended: Exchange Phase
Thu Dec 06 18:33:55 IST 2012	Responder 337 sent: { chips  }
Thu Dec 06 18:33:55 IST 2012	Protocol: A New Phase Began: Movement Phase
Thu Dec 06 18:33:55 IST 2012	Protocol: Movement phase, Round: 6
Thu Dec 06 18:34:15 IST 2012	A Phase Ended: Movement Phase
Thu Dec 06 18:34:15 IST 2012	Protocol: A New Phase Began: Feedback Phase
Thu Dec 06 18:34:15 IST 2012	Protocol: Feedback phase, Round: 6
Thu Dec 06 18:34:15 IST 2012	Number of consecutive no movements for player 337 is 1
Thu Dec 06 18:34:15 IST 2012	Number of consecutive no movements for player 210 is 1
Thu Dec 06 18:34:20 IST 2012	A Phase Ended: Feedback Phase
Thu Dec 06 18:34:20 IST 2012	Protocol: A New Phase Began: Communication Phase
Thu Dec 06 18:34:20 IST 2012	Protocol: Communication phase, Round: 7
Thu Dec 06 18:34:33 IST 2012	Received communication message 
Thu Dec 06 18:34:33 IST 2012	From player: 210
Thu Dec 06 18:34:33 IST 2012	To player: 337
Thu Dec 06 18:34:33 IST 2012	Message type: basicproposal
Thu Dec 06 18:34:33 IST 2012	Chips to send by proposer: { chips  'CTRed':0 'CTPurple':0 'CTGreen':1 'grey78':0 }
Thu Dec 06 18:34:33 IST 2012	Chips to send by responder: { chips  'CTRed':0 'CTPurple':0 'CTGreen':0 'grey78':1 }
Thu Dec 06 18:35:06 IST 2012	Received communication message 
Thu Dec 06 18:35:06 IST 2012	From player: 337
Thu Dec 06 18:35:06 IST 2012	To player: 210
Thu Dec 06 18:35:06 IST 2012	Message type: basicproposaldiscussion
Thu Dec 06 18:35:06 IST 2012	Player 337 rejected offer
Thu Dec 06 18:35:06 IST 2012	Swaping roles:
Thu Dec 06 18:35:06 IST 2012	Proposer is: 337
Thu Dec 06 18:35:06 IST 2012	Responder is: 210
Thu Dec 06 18:35:06 IST 2012	Prop rejected, set counter offers count to: 1
Thu Dec 06 18:35:06 IST 2012	Prop rejected, get counter offers returned: 1
Thu Dec 06 18:35:10 IST 2012	Slept 4 seconds
Thu Dec 06 18:35:10 IST 2012	Sent role changed msgs
Thu Dec 06 18:36:10 IST 2012	Received communication message 
Thu Dec 06 18:36:10 IST 2012	From player: 337
Thu Dec 06 18:36:10 IST 2012	To player: 210
Thu Dec 06 18:36:10 IST 2012	Message type: basicproposal
Thu Dec 06 18:36:10 IST 2012	Chips to send by proposer: { chips  'CTRed':0 'CTPurple':0 'CTGreen':0 'grey78':2 }
Thu Dec 06 18:36:10 IST 2012	Chips to send by responder: { chips  'CTRed':0 'CTPurple':0 'CTGreen':1 'grey78':0 }
Thu Dec 06 18:36:16 IST 2012	Received communication message 
Thu Dec 06 18:36:16 IST 2012	From player: 210
Thu Dec 06 18:36:16 IST 2012	To player: 337
Thu Dec 06 18:36:16 IST 2012	Message type: basicproposaldiscussion
Thu Dec 06 18:36:16 IST 2012	Player 210 rejected offer
Thu Dec 06 18:36:16 IST 2012	Set counter offers count to: 0
Thu Dec 06 18:36:16 IST 2012	A Phase Ended: Communication Phase
Thu Dec 06 18:36:16 IST 2012	Protocol: A New Phase Began: Exchange Phase
Thu Dec 06 18:36:16 IST 2012	Protocol: Exchange phase, Round: 7
Thu Dec 06 18:36:16 IST 2012	In begin exch.phase, get counter offers returned: 0
Thu Dec 06 18:36:56 IST 2012	A Phase Ended: Exchange Phase
Thu Dec 06 18:36:56 IST 2012	Proposer 337 sent: { chips  }
Thu Dec 06 18:36:56 IST 2012	Protocol: A New Phase Began: Movement Phase
Thu Dec 06 18:36:56 IST 2012	Protocol: Movement phase, Round: 7
Thu Dec 06 18:37:16 IST 2012	A Phase Ended: Movement Phase
Thu Dec 06 18:37:16 IST 2012	Protocol: A New Phase Began: Feedback Phase
Thu Dec 06 18:37:16 IST 2012	Protocol: Feedback phase, Round: 7
Thu Dec 06 18:37:16 IST 2012	Number of consecutive no movements for player 337 is 2
Thu Dec 06 18:37:16 IST 2012	Number of consecutive no movements for player 210 is 2
Thu Dec 06 18:37:22 IST 2012	A Phase Ended: Feedback Phase
Thu Dec 06 18:37:22 IST 2012	Protocol: A New Phase Began: Communication Phase
Thu Dec 06 18:37:22 IST 2012	Protocol: Communication phase, Round: 8
Thu Dec 06 18:38:22 IST 2012	Received communication message 
Thu Dec 06 18:38:22 IST 2012	From player: 337
Thu Dec 06 18:38:22 IST 2012	To player: 210
Thu Dec 06 18:38:22 IST 2012	Message type: basicproposal
Thu Dec 06 18:38:22 IST 2012	Chips to send by proposer: { chips  'grey78':2 }
Thu Dec 06 18:38:22 IST 2012	Chips to send by responder: { chips  'CTGreen':1 }
Thu Dec 06 18:38:33 IST 2012	Received communication message 
Thu Dec 06 18:38:33 IST 2012	From player: 210
Thu Dec 06 18:38:33 IST 2012	To player: 337
Thu Dec 06 18:38:33 IST 2012	Message type: basicproposaldiscussion
Thu Dec 06 18:38:33 IST 2012	Player 210 rejected offer
Thu Dec 06 18:38:33 IST 2012	Swaping roles:
Thu Dec 06 18:38:33 IST 2012	Proposer is: 210
Thu Dec 06 18:38:33 IST 2012	Responder is: 337
Thu Dec 06 18:38:33 IST 2012	Prop rejected, set counter offers count to: 1
Thu Dec 06 18:38:33 IST 2012	Prop rejected, get counter offers returned: 1
Thu Dec 06 18:38:37 IST 2012	Slept 4 seconds
Thu Dec 06 18:38:37 IST 2012	Sent role changed msgs
Thu Dec 06 18:38:50 IST 2012	Received communication message 
Thu Dec 06 18:38:50 IST 2012	From player: 210
Thu Dec 06 18:38:50 IST 2012	To player: 337
Thu Dec 06 18:38:50 IST 2012	Message type: basicproposal
Thu Dec 06 18:38:50 IST 2012	Chips to send by proposer: { chips  'CTRed':0 'CTPurple':0 'CTGreen':1 'grey78':0 }
Thu Dec 06 18:38:50 IST 2012	Chips to send by responder: { chips  'CTRed':0 'CTPurple':0 'CTGreen':0 'grey78':1 }
Thu Dec 06 18:39:14 IST 2012	Received communication message 
Thu Dec 06 18:39:14 IST 2012	From player: 337
Thu Dec 06 18:39:14 IST 2012	To player: 210
Thu Dec 06 18:39:14 IST 2012	Message type: basicproposaldiscussion
Thu Dec 06 18:39:14 IST 2012	Player 337 rejected offer
Thu Dec 06 18:39:14 IST 2012	Set counter offers count to: 0
Thu Dec 06 18:39:14 IST 2012	A Phase Ended: Communication Phase
Thu Dec 06 18:39:14 IST 2012	Protocol: A New Phase Began: Exchange Phase
Thu Dec 06 18:39:14 IST 2012	Protocol: Exchange phase, Round: 8
Thu Dec 06 18:39:14 IST 2012	In begin exch.phase, get counter offers returned: 0
Thu Dec 06 18:39:55 IST 2012	A Phase Ended: Exchange Phase
Thu Dec 06 18:39:55 IST 2012	Responder 337 sent: { chips  }
Thu Dec 06 18:39:55 IST 2012	Protocol: A New Phase Began: Movement Phase
Thu Dec 06 18:39:55 IST 2012	Protocol: Movement phase, Round: 8
Thu Dec 06 18:39:55 IST 2012	Player 337 moved to (R:4,C:3)
Thu Dec 06 18:39:55 IST 2012	Player 210 moved to (R:4,C:1)
Thu Dec 06 18:40:15 IST 2012	A Phase Ended: Movement Phase
Thu Dec 06 18:40:15 IST 2012	Protocol: A New Phase Began: Feedback Phase
Thu Dec 06 18:40:15 IST 2012	Protocol: Feedback phase, Round: 8
Thu Dec 06 18:40:15 IST 2012	Number of consecutive no movements for player 337 is 0
Thu Dec 06 18:40:15 IST 2012	Number of consecutive no movements for player 210 is 0
Thu Dec 06 18:40:20 IST 2012	A Phase Ended: Feedback Phase
Thu Dec 06 18:40:20 IST 2012	Protocol: A New Phase Began: Communication Phase
Thu Dec 06 18:40:20 IST 2012	Protocol: Communication phase, Round: 9
Thu Dec 06 18:40:38 IST 2012	Received communication message 
Thu Dec 06 18:40:38 IST 2012	From player: 210
Thu Dec 06 18:40:38 IST 2012	To player: 337
Thu Dec 06 18:40:38 IST 2012	Message type: basicproposal
Thu Dec 06 18:40:38 IST 2012	Chips to send by proposer: { chips  'CTRed':0 'CTPurple':0 'CTGreen':1 'grey78':0 }
Thu Dec 06 18:40:38 IST 2012	Chips to send by responder: { chips  'CTRed':0 'CTPurple':0 'CTGreen':0 'grey78':1 }
Thu Dec 06 18:40:57 IST 2012	Received communication message 
Thu Dec 06 18:40:57 IST 2012	From player: 337
Thu Dec 06 18:40:57 IST 2012	To player: 210
Thu Dec 06 18:40:57 IST 2012	Message type: basicproposaldiscussion
Thu Dec 06 18:40:57 IST 2012	Player 337 rejected offer
Thu Dec 06 18:40:57 IST 2012	Swaping roles:
Thu Dec 06 18:40:57 IST 2012	Proposer is: 337
Thu Dec 06 18:40:57 IST 2012	Responder is: 210
Thu Dec 06 18:40:57 IST 2012	Prop rejected, set counter offers count to: 1
Thu Dec 06 18:40:57 IST 2012	Prop rejected, get counter offers returned: 1
Thu Dec 06 18:41:01 IST 2012	Slept 4 seconds
Thu Dec 06 18:41:01 IST 2012	Sent role changed msgs
Thu Dec 06 18:41:58 IST 2012	Received communication message 
Thu Dec 06 18:41:58 IST 2012	From player: 337
Thu Dec 06 18:41:58 IST 2012	To player: 210
Thu Dec 06 18:41:58 IST 2012	Message type: basicproposal
Thu Dec 06 18:41:58 IST 2012	Chips to send by proposer: { chips  'CTRed':0 'CTPurple':0 'CTGreen':0 'grey78':2 }
Thu Dec 06 18:41:58 IST 2012	Chips to send by responder: { chips  'CTRed':0 'CTPurple':0 'CTGreen':1 'grey78':0 }
Thu Dec 06 18:42:08 IST 2012	Received communication message 
Thu Dec 06 18:42:08 IST 2012	From player: 210
Thu Dec 06 18:42:08 IST 2012	To player: 337
Thu Dec 06 18:42:08 IST 2012	Message type: basicproposaldiscussion
Thu Dec 06 18:42:08 IST 2012	Player 210 rejected offer
Thu Dec 06 18:42:08 IST 2012	Set counter offers count to: 0
Thu Dec 06 18:42:08 IST 2012	A Phase Ended: Communication Phase
Thu Dec 06 18:42:08 IST 2012	Protocol: A New Phase Began: Exchange Phase
Thu Dec 06 18:42:08 IST 2012	Protocol: Exchange phase, Round: 9
Thu Dec 06 18:42:08 IST 2012	In begin exch.phase, get counter offers returned: 0
Thu Dec 06 18:42:48 IST 2012	A Phase Ended: Exchange Phase
Thu Dec 06 18:42:48 IST 2012	Proposer 337 sent: { chips  }
Thu Dec 06 18:42:48 IST 2012	Protocol: A New Phase Began: Movement Phase
Thu Dec 06 18:42:48 IST 2012	Protocol: Movement phase, Round: 9
Thu Dec 06 18:43:08 IST 2012	A Phase Ended: Movement Phase
Thu Dec 06 18:43:08 IST 2012	Protocol: A New Phase Began: Feedback Phase
Thu Dec 06 18:43:08 IST 2012	Protocol: Feedback phase, Round: 9
Thu Dec 06 18:43:08 IST 2012	Number of consecutive no movements for player 337 is 1
Thu Dec 06 18:43:08 IST 2012	Number of consecutive no movements for player 210 is 1
Thu Dec 06 18:43:13 IST 2012	A Phase Ended: Feedback Phase
Thu Dec 06 18:43:13 IST 2012	Protocol: A New Phase Began: Communication Phase
Thu Dec 06 18:43:13 IST 2012	Protocol: Communication phase, Round: 10
Thu Dec 06 18:43:59 IST 2012	Received communication message 
Thu Dec 06 18:43:59 IST 2012	From player: 337
Thu Dec 06 18:43:59 IST 2012	To player: 210
Thu Dec 06 18:43:59 IST 2012	Message type: basicproposal
Thu Dec 06 18:43:59 IST 2012	Chips to send by proposer: { chips  'grey78':2 }
Thu Dec 06 18:43:59 IST 2012	Chips to send by responder: { chips  'CTGreen':1 }
Thu Dec 06 18:44:13 IST 2012	Received communication message 
Thu Dec 06 18:44:13 IST 2012	From player: 210
Thu Dec 06 18:44:13 IST 2012	To player: 337
Thu Dec 06 18:44:13 IST 2012	Message type: basicproposaldiscussion
Thu Dec 06 18:44:13 IST 2012	Player 210 rejected offer
Thu Dec 06 18:44:13 IST 2012	Swaping roles:
Thu Dec 06 18:44:13 IST 2012	Proposer is: 210
Thu Dec 06 18:44:13 IST 2012	Responder is: 337
Thu Dec 06 18:44:13 IST 2012	Prop rejected, set counter offers count to: 1
Thu Dec 06 18:44:13 IST 2012	Prop rejected, get counter offers returned: 1
Thu Dec 06 18:44:17 IST 2012	Slept 4 seconds
Thu Dec 06 18:44:17 IST 2012	Sent role changed msgs
Thu Dec 06 18:44:34 IST 2012	Received communication message 
Thu Dec 06 18:44:34 IST 2012	From player: 210
Thu Dec 06 18:44:34 IST 2012	To player: 337
Thu Dec 06 18:44:34 IST 2012	Message type: basicproposal
Thu Dec 06 18:44:34 IST 2012	Chips to send by proposer: { chips  'CTRed':0 'CTPurple':0 'CTGreen':1 'grey78':0 }
Thu Dec 06 18:44:34 IST 2012	Chips to send by responder: { chips  'CTRed':0 'CTPurple':0 'CTGreen':0 'grey78':1 }
Thu Dec 06 18:44:45 IST 2012	Received communication message 
Thu Dec 06 18:44:45 IST 2012	From player: 337
Thu Dec 06 18:44:45 IST 2012	To player: 210
Thu Dec 06 18:44:45 IST 2012	Message type: basicproposaldiscussion
Thu Dec 06 18:44:45 IST 2012	Player 337 accepted offer
Thu Dec 06 18:44:45 IST 2012	Prop accepted, set counter offers count to: 0
Thu Dec 06 18:44:45 IST 2012	Prop accepted, get counter offers returned: 0
Thu Dec 06 18:44:45 IST 2012	A Phase Ended: Communication Phase
Thu Dec 06 18:44:45 IST 2012	Protocol: A New Phase Began: Exchange Phase
Thu Dec 06 18:44:45 IST 2012	Protocol: Exchange phase, Round: 10
Thu Dec 06 18:44:45 IST 2012	In begin exch.phase, get counter offers returned: 0
Thu Dec 06 18:45:09 IST 2012	A Phase Ended: Exchange Phase
Thu Dec 06 18:45:09 IST 2012	Proposer 210 sent: { chips  'CTRed':0 'CTPurple':0 'CTGreen':1 'grey78':0 }
Thu Dec 06 18:45:09 IST 2012	Responder 337 sent: { chips  'CTRed':0 'CTPurple':0 'CTGreen':0 'grey78':1 }
Thu Dec 06 18:45:09 IST 2012	Protocol: A New Phase Began: Movement Phase
Thu Dec 06 18:45:09 IST 2012	Protocol: Movement phase, Round: 10
Thu Dec 06 18:45:29 IST 2012	A Phase Ended: Movement Phase
Thu Dec 06 18:45:29 IST 2012	Protocol: A New Phase Began: Feedback Phase
Thu Dec 06 18:45:29 IST 2012	Protocol: Feedback phase, Round: 10
Thu Dec 06 18:45:29 IST 2012	Number of consecutive no movements for player 337 is 2
Thu Dec 06 18:45:29 IST 2012	Number of consecutive no movements for player 210 is 2
Thu Dec 06 18:45:34 IST 2012	A Phase Ended: Feedback Phase
Thu Dec 06 18:45:34 IST 2012	Protocol: A New Phase Began: Communication Phase
Thu Dec 06 18:45:34 IST 2012	Protocol: Communication phase, Round: 11
Thu Dec 06 18:45:53 IST 2012	Received communication message 
Thu Dec 06 18:45:53 IST 2012	From player: 210
Thu Dec 06 18:45:53 IST 2012	To player: 337
Thu Dec 06 18:45:53 IST 2012	Message type: basicproposal
Thu Dec 06 18:45:53 IST 2012	Chips to send by proposer: { chips  'CTRed':0 'CTPurple':0 'CTGreen':1 'grey78':0 }
Thu Dec 06 18:45:53 IST 2012	Chips to send by responder: { chips  'CTRed':0 'CTPurple':0 'CTGreen':0 'grey78':1 }
Thu Dec 06 18:46:07 IST 2012	Received communication message 
Thu Dec 06 18:46:07 IST 2012	From player: 337
Thu Dec 06 18:46:07 IST 2012	To player: 210
Thu Dec 06 18:46:07 IST 2012	Message type: basicproposaldiscussion
Thu Dec 06 18:46:07 IST 2012	Player 337 rejected offer
Thu Dec 06 18:46:07 IST 2012	Swaping roles:
Thu Dec 06 18:46:07 IST 2012	Proposer is: 337
Thu Dec 06 18:46:07 IST 2012	Responder is: 210
Thu Dec 06 18:46:07 IST 2012	Prop rejected, set counter offers count to: 1
Thu Dec 06 18:46:07 IST 2012	Prop rejected, get counter offers returned: 1
Thu Dec 06 18:46:11 IST 2012	Slept 4 seconds
Thu Dec 06 18:46:11 IST 2012	Sent role changed msgs
Thu Dec 06 18:46:51 IST 2012	Received communication message 
Thu Dec 06 18:46:51 IST 2012	From player: 337
Thu Dec 06 18:46:51 IST 2012	To player: 210
Thu Dec 06 18:46:51 IST 2012	Message type: basicproposal
Thu Dec 06 18:46:51 IST 2012	Chips to send by proposer: { chips  'CTRed':0 'CTPurple':0 'CTGreen':0 'grey78':1 }
Thu Dec 06 18:46:51 IST 2012	Chips to send by responder: { chips  'CTRed':0 'CTPurple':0 'CTGreen':3 'grey78':0 }
Thu Dec 06 18:47:01 IST 2012	Received communication message 
Thu Dec 06 18:47:01 IST 2012	From player: 210
Thu Dec 06 18:47:01 IST 2012	To player: 337
Thu Dec 06 18:47:01 IST 2012	Message type: basicproposaldiscussion
Thu Dec 06 18:47:01 IST 2012	Player 210 accepted offer
Thu Dec 06 18:47:01 IST 2012	Prop accepted, set counter offers count to: 0
Thu Dec 06 18:47:01 IST 2012	Prop accepted, get counter offers returned: 0
Thu Dec 06 18:47:01 IST 2012	A Phase Ended: Communication Phase
Thu Dec 06 18:47:01 IST 2012	Protocol: A New Phase Began: Exchange Phase
Thu Dec 06 18:47:01 IST 2012	Protocol: Exchange phase, Round: 11
Thu Dec 06 18:47:01 IST 2012	In begin exch.phase, get counter offers returned: 0
Thu Dec 06 18:47:25 IST 2012	A Phase Ended: Exchange Phase
Thu Dec 06 18:47:25 IST 2012	Proposer 337 sent: { chips  'CTRed':0 'CTPurple':0 'CTGreen':0 'grey78':0 }
Thu Dec 06 18:47:25 IST 2012	Responder 210 sent: { chips  }
Thu Dec 06 18:47:25 IST 2012	Protocol: A New Phase Began: Movement Phase
Thu Dec 06 18:47:25 IST 2012	Protocol: Movement phase, Round: 11
Thu Dec 06 18:47:25 IST 2012	Player 337 moved to (R:3,C:3)
Thu Dec 06 18:47:25 IST 2012	Player 210 moved to (R:3,C:1)
Thu Dec 06 18:47:44 IST 2012	A Phase Ended: Movement Phase
Thu Dec 06 18:47:44 IST 2012	Protocol: A New Phase Began: Feedback Phase
Thu Dec 06 18:47:44 IST 2012	Protocol: Feedback phase, Round: 11
Thu Dec 06 18:47:44 IST 2012	Number of consecutive no movements for player 337 is 0
Thu Dec 06 18:47:44 IST 2012	Number of consecutive no movements for player 210 is 0
Thu Dec 06 18:47:49 IST 2012	A Phase Ended: Feedback Phase
Thu Dec 06 18:47:49 IST 2012	Protocol: A New Phase Began: Communication Phase
Thu Dec 06 18:47:49 IST 2012	Protocol: Communication phase, Round: 12
Thu Dec 06 18:48:49 IST 2012	Received communication message 
Thu Dec 06 18:48:49 IST 2012	From player: 337
Thu Dec 06 18:48:49 IST 2012	To player: 210
Thu Dec 06 18:48:49 IST 2012	Message type: basicproposal
Thu Dec 06 18:48:49 IST 2012	Chips to send by proposer: { chips  'grey78':1 }
Thu Dec 06 18:48:49 IST 2012	Chips to send by responder: { chips  'CTGreen':3 }
Thu Dec 06 18:49:01 IST 2012	Received communication message 
Thu Dec 06 18:49:01 IST 2012	From player: 210
Thu Dec 06 18:49:01 IST 2012	To player: 337
Thu Dec 06 18:49:01 IST 2012	Message type: basicproposaldiscussion
Thu Dec 06 18:49:01 IST 2012	Player 210 accepted offer
Thu Dec 06 18:49:01 IST 2012	Prop accepted, set counter offers count to: 0
Thu Dec 06 18:49:01 IST 2012	Prop accepted, get counter offers returned: 0
Thu Dec 06 18:49:01 IST 2012	A Phase Ended: Communication Phase
Thu Dec 06 18:49:01 IST 2012	Protocol: A New Phase Began: Exchange Phase
Thu Dec 06 18:49:01 IST 2012	Protocol: Exchange phase, Round: 12
Thu Dec 06 18:49:01 IST 2012	In begin exch.phase, get counter offers returned: 0
Thu Dec 06 18:49:21 IST 2012	A Phase Ended: Exchange Phase
Thu Dec 06 18:49:21 IST 2012	Proposer 337 sent: { chips  'CTRed':0 'CTPurple':0 'CTGreen':0 'grey78':1 }
Thu Dec 06 18:49:21 IST 2012	Responder 210 sent: { chips  }
Thu Dec 06 18:49:21 IST 2012	Protocol: A New Phase Began: Movement Phase
Thu Dec 06 18:49:21 IST 2012	Protocol: Movement phase, Round: 12
Thu Dec 06 18:49:21 IST 2012	Player 210 moved to (R:2,C:1)
Thu Dec 06 18:49:41 IST 2012	A Phase Ended: Movement Phase
Thu Dec 06 18:49:41 IST 2012	Swaping roles:
Thu Dec 06 18:49:41 IST 2012	Proposer is: 210
Thu Dec 06 18:49:41 IST 2012	Responder is: 337
Thu Dec 06 18:49:41 IST 2012	Protocol: A New Phase Began: Feedback Phase
Thu Dec 06 18:49:41 IST 2012	Protocol: Feedback phase, Round: 12
Thu Dec 06 18:49:41 IST 2012	Number of consecutive no movements for player 337 is 1
Thu Dec 06 18:49:41 IST 2012	Number of consecutive no movements for player 210 is 0
Thu Dec 06 18:49:41 IST 2012	All players have all needed chips to get to goal, end the game
Thu Dec 06 18:49:41 IST 2012	Player: 210 ,role: Proposer score is: 185
Thu Dec 06 18:49:41 IST 2012	Player: 337 ,role: Responder score is: 175
