Thu Dec 06 08:25:24 IST 2012	This is the CT debug logger; svn version 638; sep 27 09
Thu Dec 06 08:25:24 IST 2012	Thu Dec 06 08:25:24 IST 2012
Thu Dec 06 08:25:24 IST 2012	A new Alternative Offers game has began
Thu Dec 06 08:25:24 IST 2012	ID Number: 44230
Thu Dec 06 08:25:24 IST 2012	Creating board
Thu Dec 06 08:25:24 IST 2012	<colors>
Thu Dec 06 08:25:24 IST 2012	{ GamePalette  'CTRed':0 'CTPurple':1 'CTGreen':2 'grey78':3 }
Thu Dec 06 08:25:24 IST 2012	<rows>
Thu Dec 06 08:25:24 IST 2012	7
Thu Dec 06 08:25:24 IST 2012	<columns>
Thu Dec 06 08:25:24 IST 2012	5
Thu Dec 06 08:25:24 IST 2012	<squaresColors>
Thu Dec 06 08:25:24 IST 2012	CTPurple CTRed CTRed CTGreen CTPurple 
Thu Dec 06 08:25:24 IST 2012	CTPurple grey78 CTPurple grey78 CTPurple 
Thu Dec 06 08:25:24 IST 2012	CTPurple CTRed CTPurple CTGreen CTPurple 
Thu Dec 06 08:25:24 IST 2012	CTPurple grey78 CTPurple grey78 CTPurple 
Thu Dec 06 08:25:24 IST 2012	CTPurple CTRed CTPurple CTGreen CTPurple 
Thu Dec 06 08:25:24 IST 2012	CTPurple grey78 CTPurple grey78 CTPurple 
Thu Dec 06 08:25:24 IST 2012	CTPurple CTRed CTPurple CTGreen CTPurple 
Thu Dec 06 08:25:24 IST 2012	</squareColors>
Thu Dec 06 08:25:24 IST 2012	<goalPosition>
Thu Dec 06 08:25:24 IST 2012	Goal position: (R:0,C:2)
Thu Dec 06 08:25:24 IST 2012	<numberOfPlayers>
Thu Dec 06 08:25:24 IST 2012	2
Thu Dec 06 08:25:24 IST 2012	<firstPlayerChips>
Thu Dec 06 08:25:24 IST 2012	Setting chips for player: 337 id:0
Thu Dec 06 08:25:24 IST 2012	{ chips  'CTRed':1 'CTGreen':13 'CTPurple':0 'grey78':10 }
Thu Dec 06 08:25:24 IST 2012	Player position: (R:6,C:4)
Thu Dec 06 08:25:24 IST 2012	Setting chips for player: 210 id:1
Thu Dec 06 08:25:24 IST 2012	{ chips  'CTRed':5 'CTGreen':19 'CTPurple':0 'grey78':0 }
Thu Dec 06 08:25:24 IST 2012	Player position: (R:6,C:0)
Thu Dec 06 08:25:24 IST 2012	Protocol: A New Phase Began: Strategy Prep Phase
Thu Dec 06 08:25:24 IST 2012	Protocol: Strategy Preparation phase, Round: 0
Thu Dec 06 08:25:24 IST 2012	Maximum number of rounds with no consecutive movement is 3
Thu Dec 06 08:25:24 IST 2012	In begin comm. phase, set counter offers count to: 0
Thu Dec 06 08:25:24 IST 2012	In begin comm. phase, get counter offers returned: 0
Thu Dec 06 08:25:44 IST 2012	A Phase Ended: Strategy Prep Phase
Thu Dec 06 08:25:44 IST 2012	Protocol: A New Phase Began: Communication Phase
Thu Dec 06 08:25:44 IST 2012	Protocol: Communication phase, Round: 0
Thu Dec 06 08:26:44 IST 2012	Received communication message 
Thu Dec 06 08:26:44 IST 2012	From player: 337
Thu Dec 06 08:26:44 IST 2012	To player: 210
Thu Dec 06 08:26:44 IST 2012	Message type: basicproposal
Thu Dec 06 08:26:44 IST 2012	Chips to send by proposer: { chips  'grey78':2 }
Thu Dec 06 08:26:44 IST 2012	Chips to send by responder: { chips  'CTGreen':1 }
Thu Dec 06 08:26:52 IST 2012	Received communication message 
Thu Dec 06 08:26:52 IST 2012	From player: 210
Thu Dec 06 08:26:52 IST 2012	To player: 337
Thu Dec 06 08:26:52 IST 2012	Message type: basicproposaldiscussion
Thu Dec 06 08:26:52 IST 2012	Player 210 accepted offer
Thu Dec 06 08:26:52 IST 2012	Prop accepted, set counter offers count to: 0
Thu Dec 06 08:26:52 IST 2012	Prop accepted, get counter offers returned: 0
Thu Dec 06 08:26:52 IST 2012	A Phase Ended: Communication Phase
Thu Dec 06 08:26:52 IST 2012	Protocol: A New Phase Began: Exchange Phase
Thu Dec 06 08:26:52 IST 2012	Protocol: Exchange phase, Round: 0
Thu Dec 06 08:26:52 IST 2012	In begin exch.phase, get counter offers returned: 0
Thu Dec 06 08:27:21 IST 2012	A Phase Ended: Exchange Phase
Thu Dec 06 08:27:21 IST 2012	Proposer 337 sent: { chips  'CTRed':0 'CTPurple':0 'CTGreen':0 'grey78':0 }
Thu Dec 06 08:27:21 IST 2012	Responder 210 sent: { chips  'CTRed':0 'CTPurple':0 'CTGreen':1 'grey78':0 }
Thu Dec 06 08:27:21 IST 2012	Protocol: A New Phase Began: Movement Phase
Thu Dec 06 08:27:21 IST 2012	Protocol: Movement phase, Round: 0
Thu Dec 06 08:27:41 IST 2012	A Phase Ended: Movement Phase
Thu Dec 06 08:27:41 IST 2012	Swaping roles:
Thu Dec 06 08:27:41 IST 2012	Proposer is: 210
Thu Dec 06 08:27:41 IST 2012	Responder is: 337
Thu Dec 06 08:27:41 IST 2012	Protocol: A New Phase Began: Feedback Phase
Thu Dec 06 08:27:41 IST 2012	Protocol: Feedback phase, Round: 0
Thu Dec 06 08:27:41 IST 2012	Number of consecutive no movements for player 337 is 1
Thu Dec 06 08:27:41 IST 2012	Number of consecutive no movements for player 210 is 1
Thu Dec 06 08:27:46 IST 2012	A Phase Ended: Feedback Phase
Thu Dec 06 08:27:46 IST 2012	Protocol: A New Phase Began: Communication Phase
Thu Dec 06 08:27:46 IST 2012	Protocol: Communication phase, Round: 1
Thu Dec 06 08:28:08 IST 2012	Received communication message 
Thu Dec 06 08:28:08 IST 2012	From player: 210
Thu Dec 06 08:28:08 IST 2012	To player: 337
Thu Dec 06 08:28:08 IST 2012	Message type: basicproposal
Thu Dec 06 08:28:08 IST 2012	Chips to send by proposer: { chips  'CTRed':0 'CTPurple':0 'CTGreen':3 'grey78':0 }
Thu Dec 06 08:28:08 IST 2012	Chips to send by responder: { chips  'CTRed':0 'CTPurple':0 'CTGreen':0 'grey78':2 }
Thu Dec 06 08:28:38 IST 2012	Received communication message 
Thu Dec 06 08:28:38 IST 2012	From player: 337
Thu Dec 06 08:28:38 IST 2012	To player: 210
Thu Dec 06 08:28:38 IST 2012	Message type: basicproposaldiscussion
Thu Dec 06 08:28:38 IST 2012	Player 337 rejected offer
Thu Dec 06 08:28:38 IST 2012	Swaping roles:
Thu Dec 06 08:28:38 IST 2012	Proposer is: 337
Thu Dec 06 08:28:38 IST 2012	Responder is: 210
Thu Dec 06 08:28:38 IST 2012	Prop rejected, set counter offers count to: 1
Thu Dec 06 08:28:38 IST 2012	Prop rejected, get counter offers returned: 1
Thu Dec 06 08:28:42 IST 2012	Slept 4 seconds
Thu Dec 06 08:28:42 IST 2012	Sent role changed msgs
Thu Dec 06 08:29:42 IST 2012	Received communication message 
Thu Dec 06 08:29:42 IST 2012	From player: 337
Thu Dec 06 08:29:42 IST 2012	To player: 210
Thu Dec 06 08:29:42 IST 2012	Message type: basicproposal
Thu Dec 06 08:29:42 IST 2012	Chips to send by proposer: { chips  'CTRed':0 'CTPurple':0 'CTGreen':0 'grey78':3 }
Thu Dec 06 08:29:42 IST 2012	Chips to send by responder: { chips  'CTRed':0 'CTPurple':0 'CTGreen':1 'grey78':0 }
Thu Dec 06 08:29:52 IST 2012	Received communication message 
Thu Dec 06 08:29:52 IST 2012	From player: 210
Thu Dec 06 08:29:52 IST 2012	To player: 337
Thu Dec 06 08:29:52 IST 2012	Message type: basicproposaldiscussion
Thu Dec 06 08:29:52 IST 2012	Player 210 accepted offer
Thu Dec 06 08:29:52 IST 2012	Prop accepted, set counter offers count to: 0
Thu Dec 06 08:29:52 IST 2012	Prop accepted, get counter offers returned: 0
Thu Dec 06 08:29:52 IST 2012	A Phase Ended: Communication Phase
Thu Dec 06 08:29:52 IST 2012	Protocol: A New Phase Began: Exchange Phase
Thu Dec 06 08:29:52 IST 2012	Protocol: Exchange phase, Round: 1
Thu Dec 06 08:29:52 IST 2012	In begin exch.phase, get counter offers returned: 0
Thu Dec 06 08:30:21 IST 2012	A Phase Ended: Exchange Phase
Thu Dec 06 08:30:21 IST 2012	Proposer 337 sent: { chips  'CTRed':0 'CTPurple':0 'CTGreen':0 'grey78':0 }
Thu Dec 06 08:30:21 IST 2012	Responder 210 sent: { chips  }
Thu Dec 06 08:30:21 IST 2012	Protocol: A New Phase Began: Movement Phase
Thu Dec 06 08:30:21 IST 2012	Protocol: Movement phase, Round: 1
Thu Dec 06 08:30:41 IST 2012	A Phase Ended: Movement Phase
Thu Dec 06 08:30:41 IST 2012	Protocol: A New Phase Began: Feedback Phase
Thu Dec 06 08:30:41 IST 2012	Protocol: Feedback phase, Round: 1
Thu Dec 06 08:30:41 IST 2012	Number of consecutive no movements for player 337 is 2
Thu Dec 06 08:30:41 IST 2012	Number of consecutive no movements for player 210 is 2
Thu Dec 06 08:30:46 IST 2012	A Phase Ended: Feedback Phase
Thu Dec 06 08:30:46 IST 2012	Protocol: A New Phase Began: Communication Phase
Thu Dec 06 08:30:46 IST 2012	Protocol: Communication phase, Round: 2
Thu Dec 06 08:31:46 IST 2012	Received communication message 
Thu Dec 06 08:31:46 IST 2012	From player: 337
Thu Dec 06 08:31:46 IST 2012	To player: 210
Thu Dec 06 08:31:46 IST 2012	Message type: basicproposal
Thu Dec 06 08:31:46 IST 2012	Chips to send by proposer: { chips  'grey78':2 }
Thu Dec 06 08:31:46 IST 2012	Chips to send by responder: { chips  'CTGreen':1 }
Thu Dec 06 08:31:58 IST 2012	Received communication message 
Thu Dec 06 08:31:58 IST 2012	From player: 210
Thu Dec 06 08:31:58 IST 2012	To player: 337
Thu Dec 06 08:31:58 IST 2012	Message type: basicproposaldiscussion
Thu Dec 06 08:31:58 IST 2012	Player 210 accepted offer
Thu Dec 06 08:31:58 IST 2012	Prop accepted, set counter offers count to: 0
Thu Dec 06 08:31:58 IST 2012	Prop accepted, get counter offers returned: 0
Thu Dec 06 08:31:58 IST 2012	A Phase Ended: Communication Phase
Thu Dec 06 08:31:58 IST 2012	Protocol: A New Phase Began: Exchange Phase
Thu Dec 06 08:31:58 IST 2012	Protocol: Exchange phase, Round: 2
Thu Dec 06 08:31:58 IST 2012	In begin exch.phase, get counter offers returned: 0
Thu Dec 06 08:32:27 IST 2012	A Phase Ended: Exchange Phase
Thu Dec 06 08:32:27 IST 2012	Proposer 337 sent: { chips  'CTRed':0 'CTPurple':0 'CTGreen':0 'grey78':0 }
Thu Dec 06 08:32:27 IST 2012	Responder 210 sent: { chips  'CTRed':0 'CTPurple':0 'CTGreen':1 'grey78':0 }
Thu Dec 06 08:32:27 IST 2012	Protocol: A New Phase Began: Movement Phase
Thu Dec 06 08:32:27 IST 2012	Protocol: Movement phase, Round: 2
Thu Dec 06 08:32:27 IST 2012	Player 210 moved to (R:6,C:1)
Thu Dec 06 08:32:27 IST 2012	Player 337 moved to (R:6,C:3)
Thu Dec 06 08:32:47 IST 2012	A Phase Ended: Movement Phase
Thu Dec 06 08:32:47 IST 2012	Swaping roles:
Thu Dec 06 08:32:47 IST 2012	Proposer is: 210
Thu Dec 06 08:32:47 IST 2012	Responder is: 337
Thu Dec 06 08:32:47 IST 2012	Protocol: A New Phase Began: Feedback Phase
Thu Dec 06 08:32:47 IST 2012	Protocol: Feedback phase, Round: 2
Thu Dec 06 08:32:47 IST 2012	Number of consecutive no movements for player 337 is 0
Thu Dec 06 08:32:47 IST 2012	Number of consecutive no movements for player 210 is 0
Thu Dec 06 08:32:52 IST 2012	A Phase Ended: Feedback Phase
Thu Dec 06 08:32:52 IST 2012	Protocol: A New Phase Began: Communication Phase
Thu Dec 06 08:32:52 IST 2012	Protocol: Communication phase, Round: 3
Thu Dec 06 08:33:09 IST 2012	Received communication message 
Thu Dec 06 08:33:09 IST 2012	From player: 210
Thu Dec 06 08:33:09 IST 2012	To player: 337
Thu Dec 06 08:33:09 IST 2012	Message type: basicproposal
Thu Dec 06 08:33:09 IST 2012	Chips to send by proposer: { chips  'CTRed':0 'CTPurple':0 'CTGreen':2 'grey78':0 }
Thu Dec 06 08:33:09 IST 2012	Chips to send by responder: { chips  'CTRed':0 'CTPurple':0 'CTGreen':0 'grey78':2 }
Thu Dec 06 08:33:26 IST 2012	Received communication message 
Thu Dec 06 08:33:26 IST 2012	From player: 337
Thu Dec 06 08:33:26 IST 2012	To player: 210
Thu Dec 06 08:33:26 IST 2012	Message type: basicproposaldiscussion
Thu Dec 06 08:33:26 IST 2012	Player 337 accepted offer
Thu Dec 06 08:33:26 IST 2012	Prop accepted, set counter offers count to: 0
Thu Dec 06 08:33:26 IST 2012	Prop accepted, get counter offers returned: 0
Thu Dec 06 08:33:26 IST 2012	A Phase Ended: Communication Phase
Thu Dec 06 08:33:26 IST 2012	Protocol: A New Phase Began: Exchange Phase
Thu Dec 06 08:33:26 IST 2012	Protocol: Exchange phase, Round: 3
Thu Dec 06 08:33:26 IST 2012	In begin exch.phase, get counter offers returned: 0
Thu Dec 06 08:33:55 IST 2012	A Phase Ended: Exchange Phase
Thu Dec 06 08:33:55 IST 2012	Proposer 210 sent: { chips  'CTRed':0 'CTPurple':0 'CTGreen':2 'grey78':0 }
Thu Dec 06 08:33:55 IST 2012	Responder 337 sent: { chips  'CTRed':0 'CTPurple':0 'CTGreen':0 'grey78':2 }
Thu Dec 06 08:33:55 IST 2012	Protocol: A New Phase Began: Movement Phase
Thu Dec 06 08:33:55 IST 2012	Protocol: Movement phase, Round: 3
Thu Dec 06 08:34:15 IST 2012	A Phase Ended: Movement Phase
Thu Dec 06 08:34:15 IST 2012	Swaping roles:
Thu Dec 06 08:34:15 IST 2012	Proposer is: 337
Thu Dec 06 08:34:15 IST 2012	Responder is: 210
Thu Dec 06 08:34:15 IST 2012	Protocol: A New Phase Began: Feedback Phase
Thu Dec 06 08:34:15 IST 2012	Protocol: Feedback phase, Round: 3
Thu Dec 06 08:34:15 IST 2012	Number of consecutive no movements for player 337 is 1
Thu Dec 06 08:34:15 IST 2012	Number of consecutive no movements for player 210 is 1
Thu Dec 06 08:34:20 IST 2012	A Phase Ended: Feedback Phase
Thu Dec 06 08:34:20 IST 2012	Protocol: A New Phase Began: Communication Phase
Thu Dec 06 08:34:20 IST 2012	Protocol: Communication phase, Round: 4
Thu Dec 06 08:35:20 IST 2012	Received communication message 
Thu Dec 06 08:35:20 IST 2012	From player: 337
Thu Dec 06 08:35:20 IST 2012	To player: 210
Thu Dec 06 08:35:20 IST 2012	Message type: basicproposal
Thu Dec 06 08:35:20 IST 2012	Chips to send by proposer: { chips  'grey78':1 }
Thu Dec 06 08:35:20 IST 2012	Chips to send by responder: { chips  'CTGreen':1 }
Thu Dec 06 08:35:32 IST 2012	Received communication message 
Thu Dec 06 08:35:32 IST 2012	From player: 210
Thu Dec 06 08:35:32 IST 2012	To player: 337
Thu Dec 06 08:35:32 IST 2012	Message type: basicproposaldiscussion
Thu Dec 06 08:35:32 IST 2012	Player 210 accepted offer
Thu Dec 06 08:35:32 IST 2012	Prop accepted, set counter offers count to: 0
Thu Dec 06 08:35:32 IST 2012	Prop accepted, get counter offers returned: 0
Thu Dec 06 08:35:32 IST 2012	A Phase Ended: Communication Phase
Thu Dec 06 08:35:32 IST 2012	Protocol: A New Phase Began: Exchange Phase
Thu Dec 06 08:35:32 IST 2012	Protocol: Exchange phase, Round: 4
Thu Dec 06 08:35:32 IST 2012	In begin exch.phase, get counter offers returned: 0
Thu Dec 06 08:36:01 IST 2012	A Phase Ended: Exchange Phase
Thu Dec 06 08:36:01 IST 2012	Proposer 337 sent: { chips  'CTRed':0 'CTPurple':0 'CTGreen':0 'grey78':0 }
Thu Dec 06 08:36:01 IST 2012	Responder 210 sent: { chips  }
Thu Dec 06 08:36:01 IST 2012	Protocol: A New Phase Began: Movement Phase
Thu Dec 06 08:36:01 IST 2012	Protocol: Movement phase, Round: 4
Thu Dec 06 08:36:21 IST 2012	A Phase Ended: Movement Phase
Thu Dec 06 08:36:21 IST 2012	Swaping roles:
Thu Dec 06 08:36:21 IST 2012	Proposer is: 210
Thu Dec 06 08:36:21 IST 2012	Responder is: 337
Thu Dec 06 08:36:21 IST 2012	Protocol: A New Phase Began: Feedback Phase
Thu Dec 06 08:36:21 IST 2012	Protocol: Feedback phase, Round: 4
Thu Dec 06 08:36:21 IST 2012	Number of consecutive no movements for player 337 is 2
Thu Dec 06 08:36:21 IST 2012	Number of consecutive no movements for player 210 is 2
Thu Dec 06 08:36:26 IST 2012	A Phase Ended: Feedback Phase
Thu Dec 06 08:36:26 IST 2012	Protocol: A New Phase Began: Communication Phase
Thu Dec 06 08:36:26 IST 2012	Protocol: Communication phase, Round: 5
Thu Dec 06 08:36:44 IST 2012	Received communication message 
Thu Dec 06 08:36:44 IST 2012	From player: 210
Thu Dec 06 08:36:44 IST 2012	To player: 337
Thu Dec 06 08:36:44 IST 2012	Message type: basicproposal
Thu Dec 06 08:36:44 IST 2012	Chips to send by proposer: { chips  'CTRed':0 'CTPurple':0 'CTGreen':1 'grey78':0 }
Thu Dec 06 08:36:44 IST 2012	Chips to send by responder: { chips  'CTRed':0 'CTPurple':0 'CTGreen':0 'grey78':1 }
Thu Dec 06 08:37:44 IST 2012	Received communication message 
Thu Dec 06 08:37:44 IST 2012	From player: 337
Thu Dec 06 08:37:44 IST 2012	To player: 210
Thu Dec 06 08:37:44 IST 2012	Message type: basicproposaldiscussion
Thu Dec 06 08:37:44 IST 2012	Player 337 accepted offer
Thu Dec 06 08:37:44 IST 2012	Prop accepted, set counter offers count to: 0
Thu Dec 06 08:37:44 IST 2012	Prop accepted, get counter offers returned: 0
Thu Dec 06 08:37:44 IST 2012	A Phase Ended: Communication Phase
Thu Dec 06 08:37:44 IST 2012	Protocol: A New Phase Began: Exchange Phase
Thu Dec 06 08:37:44 IST 2012	Protocol: Exchange phase, Round: 5
Thu Dec 06 08:37:44 IST 2012	In begin exch.phase, get counter offers returned: 0
Thu Dec 06 08:38:13 IST 2012	A Phase Ended: Exchange Phase
Thu Dec 06 08:38:13 IST 2012	Proposer 210 sent: { chips  'CTRed':0 'CTPurple':0 'CTGreen':1 'grey78':0 }
Thu Dec 06 08:38:13 IST 2012	Responder 337 sent: { chips  'CTRed':0 'CTPurple':0 'CTGreen':0 'grey78':1 }
Thu Dec 06 08:38:13 IST 2012	Protocol: A New Phase Began: Movement Phase
Thu Dec 06 08:38:13 IST 2012	Protocol: Movement phase, Round: 5
Thu Dec 06 08:38:13 IST 2012	Player 210 moved to (R:5,C:1)
Thu Dec 06 08:38:13 IST 2012	Player 337 moved to (R:5,C:3)
Thu Dec 06 08:38:33 IST 2012	A Phase Ended: Movement Phase
Thu Dec 06 08:38:33 IST 2012	Swaping roles:
Thu Dec 06 08:38:33 IST 2012	Proposer is: 337
Thu Dec 06 08:38:33 IST 2012	Responder is: 210
Thu Dec 06 08:38:33 IST 2012	Protocol: A New Phase Began: Feedback Phase
Thu Dec 06 08:38:33 IST 2012	Protocol: Feedback phase, Round: 5
Thu Dec 06 08:38:33 IST 2012	Number of consecutive no movements for player 337 is 0
Thu Dec 06 08:38:33 IST 2012	Number of consecutive no movements for player 210 is 0
Thu Dec 06 08:38:33 IST 2012	All players have all needed chips to get to goal, end the game
Thu Dec 06 08:38:33 IST 2012	Player: 337 ,role: Proposer score is: 190
Thu Dec 06 08:38:33 IST 2012	Player: 210 ,role: Responder score is: 170
