filename,round,propID,respID,IsPropCustomer,chipsToSend,chipsToReceive,accept,propCurrentScore,respCurrentScore,actualSent,ActualRcvd,propResultingScore,respResultingScore,#ofCustomerMovesInRound,customerRowPositionAfterMovePhase,customerColPositionAfterMovePhase,Player100ChipsAfterMovePhase,Player100ScoreAfterMovePhase,Player200ChipsAfterMovePhase,Player200ScoreAfterMovePhase,Player300ChipsAfterMovePhase,Player300ScoreAfterMovePhase,generosityLevel,ClientReachedGoal
3playersLog_1378893765922.csv,1,520,510,false,{ chips  'CTPurple':4 },{ chips  'CTYellow':2 },TRUE,200,120,{ chips  'CTRed':0 'CTPurple':4 'CTGreen':0 'grey78':0 'CTYellow':0 },{ chips  'CTRed':0 'CTPurple':0 'CTGreen':0 'grey78':0 'CTYellow':2 },190,130,0,(R:5,C:4),{ chips  'CTRed':0 'CTGreen':0 'CTPurple':4 'grey78':12 'CTYellow':10 },130,{ chips  'CTRed':33 'CTGreen':0 'CTPurple':3 'grey78':0 'CTYellow':2 },190,{ chips  'CTRed':33 'CTGreen':0 'CTPurple':7 'grey78':0 'CTYellow':0 },200
3playersLog_1378893765922.csv,1,540,510,false,{ chips  'CTPurple':2 },{ chips  'grey78':3 },IGNORED,200,120,,,,,0,(R:5,C:4),{ chips  'CTRed':0 'CTGreen':0 'CTPurple':4 'grey78':12 'CTYellow':10 },130,{ chips  'CTRed':33 'CTGreen':0 'CTPurple':3 'grey78':0 'CTYellow':2 },190,{ chips  'CTRed':33 'CTGreen':0 'CTPurple':7 'grey78':0 'CTYellow':0 },200
3playersLog_1378893765922.csv,2,510,520,true,{ chips  'grey78':11 },{ chips  'CTRed':33 'CTPurple':3 'CTYellow':2 },FALSE,130,190,,,,,1,(R:5,C:3),{ chips  'CTRed':0 'CTGreen':0 'CTPurple':4 'grey78':11 'CTYellow':10 },125,{ chips  'CTRed':33 'CTGreen':0 'CTPurple':3 'grey78':0 'CTYellow':2 },190,{ chips  'CTRed':33 'CTGreen':0 'CTPurple':7 'grey78':0 'CTYellow':0 },200
3playersLog_1378893765922.csv,3,520,510,false,{ chips  'CTRed':7 },{ chips  'grey78':7 },FALSE,190,125,,,,,0,(R:5,C:3),{ chips  'CTRed':0 'CTGreen':0 'CTPurple':4 'grey78':11 'CTYellow':10 },125,{ chips  'CTRed':33 'CTGreen':0 'CTPurple':3 'grey78':0 'CTYellow':2 },190,{ chips  'CTRed':33 'CTGreen':0 'CTPurple':7 'grey78':0 'CTYellow':0 },200
3playersLog_1378893765922.csv,3,540,510,false,{ chips  'CTPurple':2 },{ chips  'CTYellow':2 },FALSE,200,125,,,,,0,(R:5,C:3),{ chips  'CTRed':0 'CTGreen':0 'CTPurple':4 'grey78':11 'CTYellow':10 },125,{ chips  'CTRed':33 'CTGreen':0 'CTPurple':3 'grey78':0 'CTYellow':2 },190,{ chips  'CTRed':33 'CTGreen':0 'CTPurple':7 'grey78':0 'CTYellow':0 },200
3playersLog_1378893765922.csv,4,510,540,true,{ chips  },{ chips  'CTRed':4 },FALSE,125,200,,,,,1,(R:4,C:3),{ chips  'CTRed':0 'CTGreen':0 'CTPurple':4 'grey78':10 'CTYellow':10 },120,{ chips  'CTRed':33 'CTGreen':0 'CTPurple':3 'grey78':0 'CTYellow':2 },190,{ chips  'CTRed':33 'CTGreen':0 'CTPurple':7 'grey78':0 'CTYellow':0 },200
3playersLog_1378893765922.csv,5,520,510,false,{ chips  'CTPurple':3 },{ chips  'CTYellow':1 },TRUE,190,120,{ chips  'CTRed':0 'CTPurple':3 'CTGreen':0 'grey78':0 'CTYellow':0 },{ chips  'CTRed':0 'CTPurple':0 'CTGreen':0 'grey78':0 'CTYellow':1 },180,130,0,(R:4,C:3),{ chips  'CTRed':0 'CTGreen':0 'CTPurple':7 'grey78':10 'CTYellow':9 },130,{ chips  'CTRed':33 'CTGreen':0 'CTPurple':0 'grey78':0 'CTYellow':3 },180,{ chips  'CTRed':33 'CTGreen':0 'CTPurple':7 'grey78':0 'CTYellow':0 },200
3playersLog_1378893765922.csv,5,540,510,false,{ chips  'CTRed':2 },{ chips  'CTPurple':1 'grey78':1 'CTYellow':2 },IGNORED,200,120,,,,,0,(R:4,C:3),{ chips  'CTRed':0 'CTGreen':0 'CTPurple':7 'grey78':10 'CTYellow':9 },130,{ chips  'CTRed':33 'CTGreen':0 'CTPurple':0 'grey78':0 'CTYellow':3 },180,{ chips  'CTRed':33 'CTGreen':0 'CTPurple':7 'grey78':0 'CTYellow':0 },200
3playersLog_1378893765922.csv,6,510,540,true,{ chips  },{ chips  'CTRed':20 'CTPurple':1 },FALSE,130,200,,,,,1,(R:3,C:3),{ chips  'CTRed':0 'CTGreen':0 'CTPurple':6 'grey78':10 'CTYellow':9 },125,{ chips  'CTRed':33 'CTGreen':0 'CTPurple':0 'grey78':0 'CTYellow':3 },180,{ chips  'CTRed':33 'CTGreen':0 'CTPurple':7 'grey78':0 'CTYellow':0 },200
3playersLog_1378893765922.csv,7,520,510,false,{ chips  'CTRed':11 },{ chips  'grey78':7 },TRUE,180,125,{ chips  'CTRed':11 'CTPurple':0 'CTGreen':0 'grey78':0 'CTYellow':0 },{ chips  'CTRed':0 'CTPurple':0 'CTGreen':0 'grey78':7 'CTYellow':0 },160,145,0,(R:3,C:3),{ chips  'CTRed':11 'CTGreen':0 'CTPurple':6 'grey78':3 'CTYellow':9 },145,{ chips  'CTRed':22 'CTGreen':0 'CTPurple':0 'grey78':7 'CTYellow':3 },160,{ chips  'CTRed':33 'CTGreen':0 'CTPurple':7 'grey78':0 'CTYellow':0 },200
3playersLog_1378893765922.csv,7,540,510,false,{ chips  'CTRed':4 },{ chips  'CTYellow':3 },IGNORED,200,125,,,,,0,(R:3,C:3),{ chips  'CTRed':11 'CTGreen':0 'CTPurple':6 'grey78':3 'CTYellow':9 },145,{ chips  'CTRed':22 'CTGreen':0 'CTPurple':0 'grey78':7 'CTYellow':3 },160,{ chips  'CTRed':33 'CTGreen':0 'CTPurple':7 'grey78':0 'CTYellow':0 },200
3playersLog_1378893765922.csv,8,510,520,true,{ chips  'grey78':2 },{ chips  'CTRed':22 'CTYellow':3 },FALSE,145,160,,,,,1,(R:3,C:4),{ chips  'CTRed':11 'CTGreen':0 'CTPurple':5 'grey78':3 'CTYellow':9 },140,{ chips  'CTRed':22 'CTGreen':0 'CTPurple':0 'grey78':7 'CTYellow':3 },160,{ chips  'CTRed':33 'CTGreen':0 'CTPurple':7 'grey78':0 'CTYellow':0 },200
3playersLog_1378893765922.csv,9,520,510,false,{ chips  'CTRed':7 },{ chips  'grey78':3 },IGNORED,160,140,,,,,0,(R:3,C:4),{ chips  'CTRed':22 'CTGreen':0 'CTPurple':1 'grey78':3 'CTYellow':9 },175,{ chips  'CTRed':22 'CTGreen':0 'CTPurple':0 'grey78':7 'CTYellow':3 },160,{ chips  'CTRed':22 'CTGreen':0 'CTPurple':11 'grey78':0 'CTYellow':0 },165
3playersLog_1378893765922.csv,9,540,510,false,{ chips  'CTRed':11 },{ chips  'CTPurple':4 },TRUE,200,140,{ chips  'CTRed':11 'CTPurple':0 'CTGreen':0 'grey78':0 'CTYellow':0 },{ chips  'CTRed':0 'CTPurple':4 'CTGreen':0 'grey78':0 'CTYellow':0 },165,175,0,(R:3,C:4),{ chips  'CTRed':22 'CTGreen':0 'CTPurple':1 'grey78':3 'CTYellow':9 },175,{ chips  'CTRed':22 'CTGreen':0 'CTPurple':0 'grey78':7 'CTYellow':3 },160,{ chips  'CTRed':22 'CTGreen':0 'CTPurple':11 'grey78':0 'CTYellow':0 },165
3playersLog_1378893765922.csv,10,510,520,true,{ chips  'grey78':2 },{ chips  'CTRed':22 'CTYellow':3 },FALSE,175,160,,,,,1,(R:3,C:5),{ chips  'CTRed':22 'CTGreen':0 'CTPurple':0 'grey78':3 'CTYellow':9 },170,{ chips  'CTRed':22 'CTGreen':0 'CTPurple':0 'grey78':7 'CTYellow':3 },160,{ chips  'CTRed':22 'CTGreen':0 'CTPurple':11 'grey78':0 'CTYellow':0 },165
3playersLog_1378893765922.csv,11,520,510,false,{ chips  'CTRed':3 },{ chips  'grey78':1 },TRUE,160,170,{ chips  'CTRed':3 'CTPurple':0 'CTGreen':0 'grey78':0 'CTYellow':0 },{ chips  'CTRed':0 'CTPurple':0 'CTGreen':0 'grey78':1 'CTYellow':0 },150,180,0,(R:3,C:5),{ chips  'CTRed':25 'CTGreen':0 'CTPurple':0 'grey78':2 'CTYellow':9 },180,{ chips  'CTRed':19 'CTGreen':0 'CTPurple':0 'grey78':8 'CTYellow':3 },150,{ chips  'CTRed':22 'CTGreen':0 'CTPurple':11 'grey78':0 'CTYellow':0 },165
3playersLog_1378893765922.csv,11,540,510,false,{ chips  'CTRed':12 'CTPurple':2 },{ chips  'CTYellow':7 },IGNORED,165,170,,,,,0,(R:3,C:5),{ chips  'CTRed':25 'CTGreen':0 'CTPurple':0 'grey78':2 'CTYellow':9 },180,{ chips  'CTRed':19 'CTGreen':0 'CTPurple':0 'grey78':8 'CTYellow':3 },150,{ chips  'CTRed':22 'CTGreen':0 'CTPurple':11 'grey78':0 'CTYellow':0 },165
3playersLog_1378893765922.csv,12,510,520,true,{ chips  'grey78':1 },{ chips  'CTRed':19 'CTYellow':3 },FALSE,180,150,,,,,1,(R:3,C:6),{ chips  'CTRed':25 'CTGreen':0 'CTPurple':0 'grey78':2 'CTYellow':8 },175,{ chips  'CTRed':19 'CTGreen':0 'CTPurple':0 'grey78':8 'CTYellow':3 },150,{ chips  'CTRed':22 'CTGreen':0 'CTPurple':11 'grey78':0 'CTYellow':0 },165
3playersLog_1378893765922.csv,13,520,510,false,{ chips  'CTRed':2 },{ chips  'grey78':1 },FALSE,150,175,,,,,0,(R:3,C:6),{ chips  'CTRed':25 'CTGreen':0 'CTPurple':0 'grey78':2 'CTYellow':8 },175,{ chips  'CTRed':19 'CTGreen':0 'CTPurple':0 'grey78':8 'CTYellow':3 },150,{ chips  'CTRed':22 'CTGreen':0 'CTPurple':11 'grey78':0 'CTYellow':0 },165
3playersLog_1378893765922.csv,13,540,510,false,{ chips  'CTRed':12 'CTPurple':4 },{ chips  'CTYellow':5 },FALSE,165,175,,,,,0,(R:3,C:6),{ chips  'CTRed':25 'CTGreen':0 'CTPurple':0 'grey78':2 'CTYellow':8 },175,{ chips  'CTRed':19 'CTGreen':0 'CTPurple':0 'grey78':8 'CTYellow':3 },150,{ chips  'CTRed':22 'CTGreen':0 'CTPurple':11 'grey78':0 'CTYellow':0 },165
3playersLog_1378893765922.csv,14,510,520,true,{ chips  'grey78':1 },{ chips  'CTRed':19 'CTYellow':3 },FALSE,175,150,,,,,1,(R:3,C:7),{ chips  'CTRed':25 'CTGreen':0 'CTPurple':0 'grey78':2 'CTYellow':7 },170,{ chips  'CTRed':19 'CTGreen':0 'CTPurple':0 'grey78':8 'CTYellow':3 },150,{ chips  'CTRed':22 'CTGreen':0 'CTPurple':11 'grey78':0 'CTYellow':0 },165
3playersLog_1378893765922.csv,15,520,510,false,{ chips  'CTRed':5 },{ chips  'grey78':1 },IGNORED,150,170,,,,,0,(R:3,C:7),{ chips  'CTRed':29 'CTGreen':0 'CTPurple':2 'grey78':0 'CTYellow':5 },180,{ chips  'CTRed':19 'CTGreen':0 'CTPurple':0 'grey78':8 'CTYellow':3 },150,{ chips  'CTRed':18 'CTGreen':0 'CTPurple':9 'grey78':2 'CTYellow':2 },155
3playersLog_1378893765922.csv,15,540,510,false,{ chips  'CTRed':4 'CTPurple':2 },{ chips  'grey78':2 'CTYellow':2 },TRUE,165,170,{ chips  'CTRed':4 'CTPurple':2 'CTGreen':0 'grey78':0 'CTYellow':0 },{ chips  'CTRed':0 'CTPurple':0 'CTGreen':0 'grey78':2 'CTYellow':2 },155,180,0,(R:3,C:7),{ chips  'CTRed':29 'CTGreen':0 'CTPurple':2 'grey78':0 'CTYellow':5 },180,{ chips  'CTRed':19 'CTGreen':0 'CTPurple':0 'grey78':8 'CTYellow':3 },150,{ chips  'CTRed':18 'CTGreen':0 'CTPurple':9 'grey78':2 'CTYellow':2 },155
3playersLog_1378893765922.csv,16,510,520,true,{ chips  },{ chips  'CTYellow':3 },FALSE,180,150,,,,,1,(R:2,C:7),{ chips  'CTRed':29 'CTGreen':0 'CTPurple':2 'grey78':0 'CTYellow':4 },175,{ chips  'CTRed':19 'CTGreen':0 'CTPurple':0 'grey78':8 'CTYellow':3 },150,{ chips  'CTRed':18 'CTGreen':0 'CTPurple':9 'grey78':2 'CTYellow':2 },155
3playersLog_1378893765922.csv,17,540,510,false,{ chips  'CTRed':3 },{ chips  'CTRed':1 'CTYellow':2 },IGNORED,155,175,,,,,0,(R:2,C:7),{ chips  'CTRed':29 'CTGreen':0 'CTPurple':2 'grey78':0 'CTYellow':4 },175,{ chips  'CTRed':19 'CTGreen':0 'CTPurple':0 'grey78':8 'CTYellow':3 },150,{ chips  'CTRed':18 'CTGreen':0 'CTPurple':9 'grey78':2 'CTYellow':2 },155
3playersLog_1378893765922.csv,18,510,520,true,{ chips  },{ chips  'CTRed':9 'CTYellow':3 },FALSE,175,150,,,,,1,(R:1,C:7),{ chips  'CTRed':29 'CTGreen':0 'CTPurple':1 'grey78':0 'CTYellow':4 },170,{ chips  'CTRed':19 'CTGreen':0 'CTPurple':0 'grey78':8 'CTYellow':3 },150,{ chips  'CTRed':18 'CTGreen':0 'CTPurple':9 'grey78':2 'CTYellow':2 },155
3playersLog_1378893765922.csv,19,520,510,false,{ chips  'CTRed':4 },{ chips  'CTPurple':1 },IGNORED,150,170,,,,,0,(R:1,C:7),{ chips  'CTRed':38 'CTGreen':0 'CTPurple':10 'grey78':2 'CTYellow':0 },250,{ chips  'CTRed':19 'CTGreen':0 'CTPurple':0 'grey78':8 'CTYellow':3 },150,{ chips  'CTRed':9 'CTGreen':0 'CTPurple':0 'grey78':0 'CTYellow':6 },75
3playersLog_1378893765922.csv,19,540,510,false,{ chips  'CTRed':9 'CTPurple':9 'grey78':2 },{ chips  'CTYellow':4 },TRUE,155,170,{ chips  'CTRed':9 'CTPurple':9 'CTGreen':0 'grey78':2 'CTYellow':0 },{ chips  'CTRed':0 'CTPurple':0 'CTGreen':0 'grey78':0 'CTYellow':4 },75,250,0,(R:1,C:7),{ chips  'CTRed':38 'CTGreen':0 'CTPurple':10 'grey78':2 'CTYellow':0 },250,{ chips  'CTRed':19 'CTGreen':0 'CTPurple':0 'grey78':8 'CTYellow':3 },150,{ chips  'CTRed':9 'CTGreen':0 'CTPurple':0 'grey78':0 'CTYellow':6 },75
3playersLog_1378893765922.csv,20,510,540,true,{ chips  },{ chips  'CTRed':1 },TRUE,250,150,{ chips  'CTYellow':0 },{ chips  'CTRed':1 'CTPurple':0 'grey78':0 },255,70,1,(R:1,C:6),{ chips  'CTRed':39 'CTGreen':0 'CTPurple':9 'grey78':2 'CTYellow':0 },250,{ chips  'CTRed':19 'CTGreen':0 'CTPurple':0 'grey78':8 'CTYellow':3 },150,{ chips  'CTRed':8 'CTGreen':0 'CTPurple':0 'grey78':0 'CTYellow':6 },70
3playersLog_1378893765922.csv,21,520,510,false,{ chips  'CTRed':3 'CTYellow':3 },{ chips  },TRUE,150,250,{ chips  'CTRed':3 'CTPurple':0 'CTGreen':0 'grey78':0 'CTYellow':3 },{ chips  'CTRed':0 'CTPurple':0 'CTGreen':0 'grey78':0 'CTYellow':0 },120,280,0,(R:1,C:6),{ chips  'CTRed':42 'CTGreen':0 'CTPurple':9 'grey78':2 'CTYellow':3 },280,{ chips  'CTRed':16 'CTGreen':0 'CTPurple':0 'grey78':8 'CTYellow':0 },120,{ chips  'CTRed':8 'CTGreen':0 'CTPurple':0 'grey78':0 'CTYellow':6 },70
3playersLog_1378893765922.csv,21,540,510,false,{ chips  },{ chips  'CTRed':2 },IGNORED,70,250,,,,,0,(R:1,C:6),{ chips  'CTRed':42 'CTGreen':0 'CTPurple':9 'grey78':2 'CTYellow':3 },280,{ chips  'CTRed':16 'CTGreen':0 'CTPurple':0 'grey78':8 'CTYellow':0 },120,{ chips  'CTRed':8 'CTGreen':0 'CTPurple':0 'grey78':0 'CTYellow':6 },70
3playersLog_1378893765922.csv,22,510,520,true,{ chips  'grey78':1 },{ chips  'CTRed':16 },TRUE,280,120,{ chips  'grey78':1 },{ chips  'CTRed':16 'CTPurple':0 'CTYellow':0 },355,45,3,(R:0,C:8),{ chips  'CTRed':58 'CTGreen':0 'CTPurple':8 'grey78':1 'CTYellow':1 },490,{ chips  'CTRed':0 'CTGreen':0 'CTPurple':0 'grey78':9 'CTYellow':0 },195,{ chips  'CTRed':8 'CTGreen':0 'CTPurple':0 'grey78':0 'CTYellow':6 },70
3playersLog_1378893765922.csv,,,,,,,,,,,,,,,,,,,,,,,,true
