Wed Jun 26 17:34:48 IDT 2013	This is the CT debug logger; svn version 638; sep 27 09
Wed Jun 26 17:34:48 IDT 2013	Wed Jun 26 17:34:48 IDT 2013
Wed Jun 26 17:34:48 IDT 2013	ID Number: 67993
Wed Jun 26 17:34:48 IDT 2013	Creating board
Wed Jun 26 17:34:48 IDT 2013	<colors>
Wed Jun 26 17:34:48 IDT 2013	{ GamePalette  'CTPurple':0 'CTRed':1 'CTGreen':2 'grey78':3 'CTYellow':4 }
Wed Jun 26 17:34:48 IDT 2013	<rows>
Wed Jun 26 17:34:48 IDT 2013	6
Wed Jun 26 17:34:48 IDT 2013	<columns>
Wed Jun 26 17:34:48 IDT 2013	9
Wed Jun 26 17:34:48 IDT 2013	<squaresColors>
Wed Jun 26 17:34:48 IDT 2013	grey78 CTGreen CTGreen CTGreen CTGreen CTGreen CTGreen CTGreen CTYellow 
Wed Jun 26 17:34:48 IDT 2013	grey78 CTPurple CTPurple CTPurple CTPurple CTPurple CTPurple CTPurple CTYellow 
Wed Jun 26 17:34:48 IDT 2013	grey78 grey78 CTGreen CTGreen CTGreen CTGreen CTGreen CTYellow CTYellow 
Wed Jun 26 17:34:48 IDT 2013	CTGreen grey78 grey78 CTPurple CTPurple CTPurple CTYellow CTYellow CTGreen 
Wed Jun 26 17:34:48 IDT 2013	CTGreen CTGreen grey78 grey78 CTGreen CTYellow CTYellow CTGreen CTGreen 
Wed Jun 26 17:34:48 IDT 2013	CTGreen CTGreen CTGreen grey78 CTGreen CTYellow CTGreen CTGreen CTGreen 
Wed Jun 26 17:34:48 IDT 2013	</squareColors>
Wed Jun 26 17:34:48 IDT 2013	<goalPosition>
Wed Jun 26 17:34:48 IDT 2013	Goal position: (R:0,C:0)
Wed Jun 26 17:34:48 IDT 2013	<goalPosition>
Wed Jun 26 17:34:48 IDT 2013	Goal position: (R:0,C:0)
Wed Jun 26 17:34:48 IDT 2013	<firstPlayerPossibleGoal1>
Wed Jun 26 17:34:48 IDT 2013	0.5
Wed Jun 26 17:34:48 IDT 2013	0
Wed Jun 26 17:34:48 IDT 2013	0
Wed Jun 26 17:34:48 IDT 2013	</firstPlayerPossibleGoal1>
Wed Jun 26 17:34:48 IDT 2013	<firstPlayerPossibleGoal2>
Wed Jun 26 17:34:48 IDT 2013	0.5
Wed Jun 26 17:34:48 IDT 2013	0
Wed Jun 26 17:34:48 IDT 2013	8
Wed Jun 26 17:34:48 IDT 2013	</firstPlayerPossibleGoal2>
Wed Jun 26 17:34:48 IDT 2013	<numberOfPlayers>
Wed Jun 26 17:34:48 IDT 2013	3
Wed Jun 26 17:34:48 IDT 2013	<firstPlayerChips>
Wed Jun 26 17:34:48 IDT 2013	Setting chips for player: 100 id:0
Wed Jun 26 17:34:48 IDT 2013	{ chips  'CTRed':0 'CTGreen':0 'CTPurple':0 'grey78':12 'CTYellow':12 }
Wed Jun 26 17:34:48 IDT 2013	Player position: (R:5,C:4)
Wed Jun 26 17:34:48 IDT 2013	Setting chips for player: 200 id:1
Wed Jun 26 17:34:48 IDT 2013	{ chips  'CTRed':33 'CTGreen':0 'CTPurple':7 'grey78':0 'CTYellow':0 }
Wed Jun 26 17:34:48 IDT 2013	Player position: (R:0,C:8)
Wed Jun 26 17:34:48 IDT 2013	Setting chips for player: 300 id:2
Wed Jun 26 17:34:48 IDT 2013	{ chips  'CTRed':33 'CTGreen':0 'CTPurple':7 'grey78':0 'CTYellow':0 }
Wed Jun 26 17:34:48 IDT 2013	Player position: (R:0,C:0)
Wed Jun 26 17:34:48 IDT 2013	Protocol: A New Phase Began: Strategy Prep Phase. loop is true
Wed Jun 26 17:34:48 IDT 2013	---------- Beginning Strategy Prep Phase at round 0 ----------
Wed Jun 26 17:35:48 IDT 2013	A Phase Ended: Strategy Prep Phase
Wed Jun 26 17:35:48 IDT 2013	Protocol: A New Phase Began: Communication Phase. loop is true
Wed Jun 26 17:35:48 IDT 2013	---------- Beginning Communication Phase at round 1 ----------
Wed Jun 26 17:36:45 IDT 2013	Received communication message 
Wed Jun 26 17:36:45 IDT 2013	From player: 200
Wed Jun 26 17:36:45 IDT 2013	To player: 100
Wed Jun 26 17:36:45 IDT 2013	Chips to send by proposer: { chips  'CTRed':12 'CTPurple':0 'CTGreen':0 'grey78':0 'CTYellow':0 }
Wed Jun 26 17:36:45 IDT 2013	Chips to send by responder: { chips  'CTRed':0 'CTPurple':0 'CTGreen':0 'grey78':0 'CTYellow':0 }
Wed Jun 26 17:36:50 IDT 2013	Received communication message 
Wed Jun 26 17:36:50 IDT 2013	From player: 300
Wed Jun 26 17:36:50 IDT 2013	To player: 100
Wed Jun 26 17:36:50 IDT 2013	Chips to send by proposer: { chips  'CTRed':14 'CTPurple':7 'CTGreen':0 'grey78':0 'CTYellow':0 }
Wed Jun 26 17:36:50 IDT 2013	Chips to send by responder: { chips  'CTRed':0 'CTPurple':0 'CTGreen':0 'grey78':0 'CTYellow':0 }
Wed Jun 26 17:37:22 IDT 2013	Received communication message 
Wed Jun 26 17:37:22 IDT 2013	Proposer 0 accepted? false
Wed Jun 26 17:37:22 IDT 2013	case that we had one reject, and one accept
Wed Jun 26 17:37:25 IDT 2013	Received communication message 
Wed Jun 26 17:37:25 IDT 2013	Proposer 1 accepted? true
Wed Jun 26 17:37:25 IDT 2013	A Phase Ended: Communication Phase
Wed Jun 26 17:37:25 IDT 2013	Protocol: A New Phase Began: Movement Phase. loop is true
Wed Jun 26 17:37:25 IDT 2013	---------- Beginning Movement Phase at round 1 ----------
Wed Jun 26 17:37:25 IDT 2013	remove strategy phase. 
Wed Jun 26 17:38:10 IDT 2013	A Phase Ended: Movement Phase
Wed Jun 26 17:38:10 IDT 2013	Protocol: A New Phase Began: Feedback Phase. loop is true
Wed Jun 26 17:38:10 IDT 2013	---------- Beginning Feedback Phase at round 1 ----------
Wed Jun 26 17:38:10 IDT 2013	Number of consecutive no movements for player 100 is 0
Wed Jun 26 17:38:10 IDT 2013	TDPlayerPosition is(R:2,C:1)goal location 0(R:0,C:0)goal location 1(R:0,C:8)
Wed Jun 26 17:38:10 IDT 2013	ended is false
Wed Jun 26 17:38:15 IDT 2013	A Phase Ended: Feedback Phase
Wed Jun 26 17:38:15 IDT 2013	 numberofMoves in round 1 is 6
Wed Jun 26 17:38:15 IDT 2013	Swaping roles:
Wed Jun 26 17:38:15 IDT 2013	Protocol: A New Phase Began: Communication Phase. loop is true
Wed Jun 26 17:38:15 IDT 2013	---------- Beginning Communication Phase at round 2 ----------
Wed Jun 26 17:38:58 IDT 2013	Received communication message 
Wed Jun 26 17:38:58 IDT 2013	From player: 100
Wed Jun 26 17:38:58 IDT 2013	To player: 200
Wed Jun 26 17:38:58 IDT 2013	Chips to send by proposer: { chips  'CTRed':3 'CTPurple':0 'CTGreen':0 'grey78':0 'CTYellow':0 }
Wed Jun 26 17:38:58 IDT 2013	Chips to send by responder: { chips  'CTRed':0 'CTPurple':4 'CTGreen':0 'grey78':0 'CTYellow':0 }
Wed Jun 26 17:39:06 IDT 2013	Received communication message 
Wed Jun 26 17:39:06 IDT 2013	Proposer 0 accepted? true
Wed Jun 26 17:39:06 IDT 2013	A Phase Ended: Communication Phase
Wed Jun 26 17:39:06 IDT 2013	Protocol: A New Phase Began: Movement Phase. loop is true
Wed Jun 26 17:39:06 IDT 2013	---------- Beginning Movement Phase at round 2 ----------
Wed Jun 26 17:39:51 IDT 2013	A Phase Ended: Movement Phase
Wed Jun 26 17:39:51 IDT 2013	Protocol: A New Phase Began: Feedback Phase. loop is true
Wed Jun 26 17:39:51 IDT 2013	---------- Beginning Feedback Phase at round 2 ----------
Wed Jun 26 17:39:51 IDT 2013	Number of consecutive no movements for player 100 is 0
Wed Jun 26 17:39:51 IDT 2013	TDPlayerPosition is(R:1,C:0)goal location 0(R:0,C:0)goal location 1(R:0,C:8)
Wed Jun 26 17:39:51 IDT 2013	ended is false
Wed Jun 26 17:39:56 IDT 2013	A Phase Ended: Feedback Phase
Wed Jun 26 17:39:56 IDT 2013	 numberofMoves in round 2 is 2
Wed Jun 26 17:39:56 IDT 2013	Swaping roles:
Wed Jun 26 17:39:56 IDT 2013	Protocol: A New Phase Began: Communication Phase. loop is true
Wed Jun 26 17:39:56 IDT 2013	---------- Beginning Communication Phase at round 3 ----------
Wed Jun 26 17:40:11 IDT 2013	Received communication message 
Wed Jun 26 17:40:11 IDT 2013	From player: 200
Wed Jun 26 17:40:11 IDT 2013	To player: 100
Wed Jun 26 17:40:11 IDT 2013	Chips to send by proposer: { chips  'CTRed':18 'CTPurple':0 'CTGreen':0 'grey78':0 'CTYellow':0 }
Wed Jun 26 17:40:11 IDT 2013	Chips to send by responder: { chips  'CTRed':0 'CTPurple':0 'CTGreen':0 'grey78':0 'CTYellow':0 }
Wed Jun 26 17:40:39 IDT 2013	Received communication message 
Wed Jun 26 17:40:39 IDT 2013	Proposer 0 accepted? true
Wed Jun 26 17:40:39 IDT 2013	A Phase Ended: Communication Phase
Wed Jun 26 17:40:39 IDT 2013	Protocol: A New Phase Began: Movement Phase. loop is true
Wed Jun 26 17:40:39 IDT 2013	---------- Beginning Movement Phase at round 3 ----------
Wed Jun 26 17:41:24 IDT 2013	A Phase Ended: Movement Phase
Wed Jun 26 17:41:24 IDT 2013	Protocol: A New Phase Began: Feedback Phase. loop is true
Wed Jun 26 17:41:24 IDT 2013	---------- Beginning Feedback Phase at round 3 ----------
Wed Jun 26 17:41:24 IDT 2013	Number of consecutive no movements for player 100 is 0
Wed Jun 26 17:41:24 IDT 2013	TDPlayerPosition is(R:1,C:8)goal location 0(R:0,C:0)goal location 1(R:0,C:8)
Wed Jun 26 17:41:24 IDT 2013	ended is false
Wed Jun 26 17:41:29 IDT 2013	A Phase Ended: Feedback Phase
Wed Jun 26 17:41:29 IDT 2013	 numberofMoves in round 3 is 8
Wed Jun 26 17:41:29 IDT 2013	Swaping roles:
Wed Jun 26 17:41:29 IDT 2013	Protocol: A New Phase Began: Communication Phase. loop is true
Wed Jun 26 17:41:29 IDT 2013	---------- Beginning Communication Phase at round 4 ----------
Wed Jun 26 17:42:16 IDT 2013	Received communication message 
Wed Jun 26 17:42:16 IDT 2013	From player: 100
Wed Jun 26 17:42:16 IDT 2013	To player: 200
Wed Jun 26 17:42:16 IDT 2013	Chips to send by proposer: { chips  'CTRed':2 'CTPurple':0 'CTGreen':0 'grey78':0 'CTYellow':0 }
Wed Jun 26 17:42:16 IDT 2013	Chips to send by responder: { chips  'CTRed':0 'CTPurple':3 'CTGreen':0 'grey78':0 'CTYellow':0 }
Wed Jun 26 17:42:22 IDT 2013	Received communication message 
Wed Jun 26 17:42:22 IDT 2013	Proposer 0 accepted? true
Wed Jun 26 17:42:22 IDT 2013	A Phase Ended: Communication Phase
Wed Jun 26 17:42:22 IDT 2013	Protocol: A New Phase Began: Movement Phase. loop is true
Wed Jun 26 17:42:22 IDT 2013	---------- Beginning Movement Phase at round 4 ----------
Wed Jun 26 17:43:07 IDT 2013	A Phase Ended: Movement Phase
Wed Jun 26 17:43:07 IDT 2013	Protocol: A New Phase Began: Feedback Phase. loop is true
Wed Jun 26 17:43:07 IDT 2013	---------- Beginning Feedback Phase at round 4 ----------
Wed Jun 26 17:43:07 IDT 2013	The TD player reached the goal, end the game
Wed Jun 26 17:43:07 IDT 2013	ended is true
Wed Jun 26 17:43:12 IDT 2013	A Phase Ended: Feedback Phase
Wed Jun 26 17:43:12 IDT 2013	 numberofMoves in round 4 is 1
Wed Jun 26 17:43:12 IDT 2013	Loop status: false
Wed Jun 26 17:43:12 IDT 2013	Player: 200 ,role: Responder score is: 250
Wed Jun 26 17:43:12 IDT 2013	Player: 200Game Ended
Wed Jun 26 17:43:12 IDT 2013	Player: 100 ,role: Proposer score is: 390
Wed Jun 26 17:43:12 IDT 2013	Player: 100Game Ended
Wed Jun 26 17:43:12 IDT 2013	Player: 300 ,role: Responder score is: 95
Wed Jun 26 17:43:12 IDT 2013	Player: 300Game Ended
Wed Jun 26 17:43:12 IDT 2013	Protocol: A New Phase Began: Communication Phase. loop is false
Wed Jun 26 17:43:12 IDT 2013	---------- Beginning Communication Phase at round 4 ----------
