Wed Jan 15 15:50:07 IST 2014	This is the CT debug logger; svn version 638; sep 27 09
Wed Jan 15 15:50:07 IST 2014	Wed Jan 15 15:50:07 IST 2014
Wed Jan 15 15:50:07 IST 2014	ThreePlayersAgentPlayerLearningSP(): entering.
Wed Jan 15 15:56:50 IST 2014	phaseAdvanced(): entering.
Wed Jan 15 15:56:50 IST 2014	phaseAdvanced(): new phase is 'Strategy Prep Phase'.
Wed Jan 15 15:57:50 IST 2014	phaseAdvanced(): entering.
Wed Jan 15 15:57:50 IST 2014	phaseAdvanced(): new phase is 'Communication Phase'.
Wed Jan 15 15:59:09 IST 2014	onReceipt(): entering.
Wed Jan 15 15:59:09 IST 2014	phaseAdvanced(): entering.
Wed Jan 15 15:59:09 IST 2014	phaseAdvanced(): new phase is 'Movement Phase'.
Wed Jan 15 15:59:54 IST 2014	phaseAdvanced(): entering.
Wed Jan 15 15:59:54 IST 2014	phaseAdvanced(): new phase is 'Feedback Phase'.
Wed Jan 15 15:59:59 IST 2014	phaseAdvanced(): entering.
Wed Jan 15 15:59:59 IST 2014	phaseAdvanced(): new phase is 'Communication Phase'.
Wed Jan 15 16:01:12 IST 2014	onReceipt(): entering.
Wed Jan 15 16:01:12 IST 2014	onReceipt(): opponent's proposal: ({ chips  'CTRed':0 'CTPurple':0 'CTGreen':0 'grey78':0 'CTYellow':4 }, { chips  'CTRed':15 'CTPurple':7 'CTGreen':0 'grey78':0 'CTYellow':0 }).
Wed Jan 15 16:01:12 IST 2014	respondToProposal(): entering.
Wed Jan 15 16:01:12 IST 2014	respondToProposal(): my chips: ({ chips  'CTRed':18 'CTPurple':7 'CTGreen':0 'grey78':0 'CTYellow':0 }).
Wed Jan 15 16:01:12 IST 2014	responseToSend(): entering.
Wed Jan 15 16:01:12 IST 2014	responseToSend(): rejecting proposal
Wed Jan 15 16:01:12 IST 2014	phaseAdvanced(): entering.
Wed Jan 15 16:01:12 IST 2014	phaseAdvanced(): new phase is 'Movement Phase'.
Wed Jan 15 16:01:56 IST 2014	phaseAdvanced(): entering.
Wed Jan 15 16:01:56 IST 2014	phaseAdvanced(): new phase is 'Feedback Phase'.
