Tue Sep 03 16:42:13 IDT 2013	This is the CT debug logger; svn version 638; sep 27 09
Tue Sep 03 16:42:13 IDT 2013	Tue Sep 03 16:42:13 IDT 2013
Tue Sep 03 16:42:13 IDT 2013	ThreePlayersAgentPlayer(): entering.
Tue Sep 03 16:42:51 IDT 2013	phaseAdvanced(): entering.
Tue Sep 03 16:42:51 IDT 2013	phaseAdvanced(): new phase is 'Strategy Prep Phase'.
Tue Sep 03 16:43:51 IDT 2013	phaseAdvanced(): entering.
Tue Sep 03 16:43:51 IDT 2013	phaseAdvanced(): new phase is 'Communication Phase'.
Tue Sep 03 16:46:51 IDT 2013	phaseAdvanced(): entering.
Tue Sep 03 16:46:51 IDT 2013	phaseAdvanced(): new phase is 'Movement Phase'.
Tue Sep 03 16:47:36 IDT 2013	phaseAdvanced(): entering.
Tue Sep 03 16:47:36 IDT 2013	phaseAdvanced(): new phase is 'Feedback Phase'.
Tue Sep 03 16:47:41 IDT 2013	phaseAdvanced(): entering.
Tue Sep 03 16:47:41 IDT 2013	phaseAdvanced(): new phase is 'Communication Phase'.
Tue Sep 03 16:48:18 IDT 2013	onReceipt(): entering.
Tue Sep 03 16:48:18 IDT 2013	phaseAdvanced(): entering.
Tue Sep 03 16:48:18 IDT 2013	phaseAdvanced(): new phase is 'Movement Phase'.
Tue Sep 03 16:49:03 IDT 2013	phaseAdvanced(): entering.
Tue Sep 03 16:49:03 IDT 2013	phaseAdvanced(): new phase is 'Feedback Phase'.
Tue Sep 03 16:49:08 IDT 2013	phaseAdvanced(): entering.
Tue Sep 03 16:49:08 IDT 2013	phaseAdvanced(): new phase is 'Communication Phase'.
Tue Sep 03 16:50:00 IDT 2013	onReceipt(): entering.
Tue Sep 03 16:50:00 IDT 2013	onReceipt(): opponent's proposal: ({ chips  'CTRed':6 'CTPurple':2 'CTGreen':0 'grey78':0 'CTYellow':0 }, { chips  'CTRed':0 'CTPurple':0 'CTGreen':0 'grey78':0 'CTYellow':7 }).
Tue Sep 03 16:50:54 IDT 2013	onReceipt(): entering.
Tue Sep 03 16:50:54 IDT 2013	onReceipt(): opponent's proposal: ({ chips  'CTRed':6 'CTPurple':7 'CTGreen':0 'grey78':0 'CTYellow':0 }, { chips  'CTRed':0 'CTPurple':0 'CTGreen':0 'grey78':6 'CTYellow':6 }).
Tue Sep 03 16:50:54 IDT 2013	responseToSend(): entering.
Tue Sep 03 16:50:54 IDT 2013	compareProposals(): decision: 0 utility 125.0
Tue Sep 03 16:50:54 IDT 2013	responseToSend(): accepting proposal ({ chips  'CTRed':6 'CTPurple':2 'CTGreen':0 'grey78':0 'CTYellow':0 }, { chips  'CTRed':0 'CTPurple':0 'CTGreen':0 'grey78':0 'CTYellow':7 }).
Tue Sep 03 16:50:54 IDT 2013	phaseAdvanced(): entering.
Tue Sep 03 16:50:54 IDT 2013	phaseAdvanced(): new phase is 'Movement Phase'.
Tue Sep 03 16:51:39 IDT 2013	phaseAdvanced(): entering.
Tue Sep 03 16:51:39 IDT 2013	phaseAdvanced(): new phase is 'Feedback Phase'.
Tue Sep 03 16:51:44 IDT 2013	phaseAdvanced(): entering.
Tue Sep 03 16:51:44 IDT 2013	phaseAdvanced(): new phase is 'Communication Phase'.
Tue Sep 03 16:52:36 IDT 2013	onReceipt(): entering.
Tue Sep 03 16:52:36 IDT 2013	phaseAdvanced(): entering.
Tue Sep 03 16:52:36 IDT 2013	phaseAdvanced(): new phase is 'Movement Phase'.
Tue Sep 03 16:53:20 IDT 2013	phaseAdvanced(): entering.
Tue Sep 03 16:53:20 IDT 2013	phaseAdvanced(): new phase is 'Feedback Phase'.
