Tue Sep 03 12:22:37 IDT 2013	This is the CT debug logger; svn version 638; sep 27 09
Tue Sep 03 12:22:37 IDT 2013	Tue Sep 03 12:22:37 IDT 2013
Tue Sep 03 12:22:37 IDT 2013	ThreePlayersAgentPlayer(): entering.
Tue Sep 03 12:28:55 IDT 2013	phaseAdvanced(): entering.
Tue Sep 03 12:28:55 IDT 2013	phaseAdvanced(): new phase is 'Strategy Prep Phase'.
Tue Sep 03 12:29:55 IDT 2013	phaseAdvanced(): entering.
Tue Sep 03 12:29:55 IDT 2013	phaseAdvanced(): new phase is 'Communication Phase'.
Tue Sep 03 12:31:00 IDT 2013	onReceipt(): entering.
Tue Sep 03 12:31:00 IDT 2013	onReceipt(): opponent's proposal: ({ chips  'CTRed':7 'CTPurple':1 'CTGreen':0 'grey78':0 'CTYellow':0 }, { chips  'CTRed':0 'CTPurple':0 'CTGreen':0 'grey78':3 'CTYellow':0 }).
Tue Sep 03 12:31:43 IDT 2013	onReceipt(): entering.
Tue Sep 03 12:31:43 IDT 2013	onReceipt(): opponent's proposal: ({ chips  'CTRed':20 'CTPurple':0 'CTGreen':0 'grey78':0 'CTYellow':0 }, { chips  'CTRed':0 'CTPurple':0 'CTGreen':0 'grey78':0 'CTYellow':12 }).
Tue Sep 03 12:31:43 IDT 2013	responseToSend(): entering.
Tue Sep 03 12:31:49 IDT 2013	compareProposals(): decision: 0 utility 145.0
Tue Sep 03 12:31:49 IDT 2013	responseToSend(): accepting proposal ({ chips  'CTRed':7 'CTPurple':1 'CTGreen':0 'grey78':0 'CTYellow':0 }, { chips  'CTRed':0 'CTPurple':0 'CTGreen':0 'grey78':3 'CTYellow':0 }).
Tue Sep 03 12:31:49 IDT 2013	phaseAdvanced(): entering.
Tue Sep 03 12:31:49 IDT 2013	phaseAdvanced(): new phase is 'Movement Phase'.
Tue Sep 03 12:32:34 IDT 2013	phaseAdvanced(): entering.
Tue Sep 03 12:32:34 IDT 2013	phaseAdvanced(): new phase is 'Feedback Phase'.
Tue Sep 03 12:32:39 IDT 2013	phaseAdvanced(): entering.
Tue Sep 03 12:32:39 IDT 2013	phaseAdvanced(): new phase is 'Communication Phase'.
Tue Sep 03 12:33:45 IDT 2013	onReceipt(): entering.
Tue Sep 03 12:33:45 IDT 2013	phaseAdvanced(): entering.
Tue Sep 03 12:33:45 IDT 2013	phaseAdvanced(): new phase is 'Movement Phase'.
Tue Sep 03 12:34:29 IDT 2013	phaseAdvanced(): entering.
Tue Sep 03 12:34:29 IDT 2013	phaseAdvanced(): new phase is 'Feedback Phase'.
Tue Sep 03 12:34:34 IDT 2013	phaseAdvanced(): entering.
Tue Sep 03 12:34:34 IDT 2013	phaseAdvanced(): new phase is 'Communication Phase'.
Tue Sep 03 12:36:28 IDT 2013	onReceipt(): entering.
Tue Sep 03 12:36:28 IDT 2013	onReceipt(): opponent's proposal: ({ chips  'CTRed':5 'CTPurple':0 'CTGreen':0 'grey78':0 'CTYellow':0 }, { chips  'CTRed':0 'CTPurple':1 'CTGreen':0 'grey78':0 'CTYellow':1 }).
Tue Sep 03 12:36:55 IDT 2013	onReceipt(): entering.
Tue Sep 03 12:36:55 IDT 2013	onReceipt(): opponent's proposal: ({ chips  'CTRed':8 'CTPurple':0 'CTGreen':0 'grey78':0 'CTYellow':0 }, { chips  'CTRed':0 'CTPurple':0 'CTGreen':0 'grey78':3 'CTYellow':0 }).
Tue Sep 03 12:36:55 IDT 2013	responseToSend(): entering.
Tue Sep 03 12:36:55 IDT 2013	compareProposals(): decision: 0 utility 170.0
Tue Sep 03 12:36:55 IDT 2013	responseToSend(): accepting proposal ({ chips  'CTRed':8 'CTPurple':0 'CTGreen':0 'grey78':0 'CTYellow':0 }, { chips  'CTRed':0 'CTPurple':0 'CTGreen':0 'grey78':3 'CTYellow':0 }).
Tue Sep 03 12:36:55 IDT 2013	phaseAdvanced(): entering.
Tue Sep 03 12:36:55 IDT 2013	phaseAdvanced(): new phase is 'Movement Phase'.
Tue Sep 03 12:36:55 IDT 2013	phaseAdvanced(): found paths (12).
Tue Sep 03 12:37:15 IDT 2013	responseToSend(): entering.
Tue Sep 03 12:37:39 IDT 2013	phaseAdvanced(): entering.
Tue Sep 03 12:37:39 IDT 2013	phaseAdvanced(): new phase is 'Feedback Phase'.
Tue Sep 03 12:37:44 IDT 2013	phaseAdvanced(): entering.
Tue Sep 03 12:37:44 IDT 2013	phaseAdvanced(): new phase is 'Communication Phase'.
Tue Sep 03 12:38:27 IDT 2013	onReceipt(): entering.
Tue Sep 03 12:38:27 IDT 2013	phaseAdvanced(): entering.
Tue Sep 03 12:38:27 IDT 2013	phaseAdvanced(): new phase is 'Movement Phase'.
Tue Sep 03 12:38:27 IDT 2013	phaseAdvanced(): found paths (4).
Tue Sep 03 12:39:11 IDT 2013	phaseAdvanced(): entering.
Tue Sep 03 12:39:11 IDT 2013	phaseAdvanced(): new phase is 'Feedback Phase'.
Tue Sep 03 12:39:16 IDT 2013	phaseAdvanced(): entering.
Tue Sep 03 12:39:16 IDT 2013	phaseAdvanced(): new phase is 'Communication Phase'.
Tue Sep 03 12:40:37 IDT 2013	onReceipt(): entering.
Tue Sep 03 12:40:37 IDT 2013	onReceipt(): opponent's proposal: ({ chips  'CTRed':3 'CTPurple':3 'CTGreen':0 'grey78':0 'CTYellow':0 }, { chips  'CTRed':0 'CTPurple':0 'CTGreen':0 'grey78':1 'CTYellow':0 }).
Tue Sep 03 12:40:48 IDT 2013	onReceipt(): entering.
Tue Sep 03 12:40:48 IDT 2013	onReceipt(): opponent's proposal: ({ chips  'CTRed':0 'CTPurple':5 'CTGreen':0 'grey78':0 'CTYellow':0 }, { chips  'CTRed':3 'CTPurple':0 'CTGreen':0 'grey78':0 'CTYellow':10 }).
Tue Sep 03 12:40:48 IDT 2013	responseToSend(): entering.
Tue Sep 03 12:40:48 IDT 2013	compareProposals(): decision: 0 utility 180.0
Tue Sep 03 12:40:48 IDT 2013	responseToSend(): accepting proposal ({ chips  'CTRed':3 'CTPurple':3 'CTGreen':0 'grey78':0 'CTYellow':0 }, { chips  'CTRed':0 'CTPurple':0 'CTGreen':0 'grey78':1 'CTYellow':0 }).
Tue Sep 03 12:40:48 IDT 2013	phaseAdvanced(): entering.
Tue Sep 03 12:40:48 IDT 2013	phaseAdvanced(): new phase is 'Movement Phase'.
Tue Sep 03 12:41:32 IDT 2013	phaseAdvanced(): entering.
Tue Sep 03 12:41:32 IDT 2013	phaseAdvanced(): new phase is 'Feedback Phase'.
