Tue Nov 19 18:06:21 IST 2013	This is the CT debug logger; svn version 638; sep 27 09
Tue Nov 19 18:06:21 IST 2013	Tue Nov 19 18:06:21 IST 2013
Tue Nov 19 18:06:21 IST 2013	ThreePlayersAgentPlayerNastySP(): entering.
Tue Nov 19 18:06:35 IST 2013	phaseAdvanced(): entering.
Tue Nov 19 18:06:35 IST 2013	phaseAdvanced(): new phase is 'Strategy Prep Phase'.
Tue Nov 19 18:07:35 IST 2013	phaseAdvanced(): entering.
Tue Nov 19 18:07:35 IST 2013	phaseAdvanced(): new phase is 'Communication Phase'.
Tue Nov 19 18:08:15 IST 2013	onReceipt(): entering.
Tue Nov 19 18:08:15 IST 2013	phaseAdvanced(): entering.
Tue Nov 19 18:08:15 IST 2013	phaseAdvanced(): new phase is 'Movement Phase'.
Tue Nov 19 18:08:59 IST 2013	phaseAdvanced(): entering.
Tue Nov 19 18:08:59 IST 2013	phaseAdvanced(): new phase is 'Feedback Phase'.
Tue Nov 19 18:09:04 IST 2013	phaseAdvanced(): entering.
Tue Nov 19 18:09:04 IST 2013	phaseAdvanced(): new phase is 'Communication Phase'.
Tue Nov 19 18:12:04 IST 2013	phaseAdvanced(): entering.
Tue Nov 19 18:12:04 IST 2013	phaseAdvanced(): new phase is 'Movement Phase'.
Tue Nov 19 18:12:49 IST 2013	phaseAdvanced(): entering.
Tue Nov 19 18:12:49 IST 2013	phaseAdvanced(): new phase is 'Feedback Phase'.
Tue Nov 19 18:12:54 IST 2013	phaseAdvanced(): entering.
Tue Nov 19 18:12:54 IST 2013	phaseAdvanced(): new phase is 'Communication Phase'.
Tue Nov 19 18:15:54 IST 2013	phaseAdvanced(): entering.
Tue Nov 19 18:15:54 IST 2013	phaseAdvanced(): new phase is 'Movement Phase'.
Tue Nov 19 18:16:39 IST 2013	phaseAdvanced(): entering.
Tue Nov 19 18:16:39 IST 2013	phaseAdvanced(): new phase is 'Feedback Phase'.
Tue Nov 19 18:16:44 IST 2013	phaseAdvanced(): entering.
Tue Nov 19 18:16:44 IST 2013	phaseAdvanced(): new phase is 'Communication Phase'.
Tue Nov 19 18:18:17 IST 2013	phaseAdvanced(): entering.
Tue Nov 19 18:18:17 IST 2013	phaseAdvanced(): new phase is 'Movement Phase'.
Tue Nov 19 18:19:01 IST 2013	phaseAdvanced(): entering.
Tue Nov 19 18:19:01 IST 2013	phaseAdvanced(): new phase is 'Feedback Phase'.
Tue Nov 19 18:19:06 IST 2013	phaseAdvanced(): entering.
Tue Nov 19 18:19:06 IST 2013	phaseAdvanced(): new phase is 'Communication Phase'.
Tue Nov 19 18:19:38 IST 2013	onReceipt(): entering.
Tue Nov 19 18:20:15 IST 2013	phaseAdvanced(): entering.
Tue Nov 19 18:20:15 IST 2013	phaseAdvanced(): new phase is 'Movement Phase'.
Tue Nov 19 18:21:00 IST 2013	phaseAdvanced(): entering.
Tue Nov 19 18:21:00 IST 2013	phaseAdvanced(): new phase is 'Feedback Phase'.
Tue Nov 19 18:21:05 IST 2013	phaseAdvanced(): entering.
Tue Nov 19 18:21:05 IST 2013	phaseAdvanced(): new phase is 'Communication Phase'.
Tue Nov 19 18:22:11 IST 2013	onReceipt(): entering.
Tue Nov 19 18:24:05 IST 2013	phaseAdvanced(): entering.
Tue Nov 19 18:24:05 IST 2013	phaseAdvanced(): new phase is 'Movement Phase'.
Tue Nov 19 18:24:50 IST 2013	phaseAdvanced(): entering.
Tue Nov 19 18:24:50 IST 2013	phaseAdvanced(): new phase is 'Feedback Phase'.
Tue Nov 19 18:24:55 IST 2013	phaseAdvanced(): entering.
Tue Nov 19 18:24:55 IST 2013	phaseAdvanced(): new phase is 'Communication Phase'.
Tue Nov 19 18:26:26 IST 2013	onReceipt(): entering.
Tue Nov 19 18:26:26 IST 2013	phaseAdvanced(): entering.
Tue Nov 19 18:26:26 IST 2013	phaseAdvanced(): new phase is 'Movement Phase'.
Tue Nov 19 18:27:10 IST 2013	phaseAdvanced(): entering.
Tue Nov 19 18:27:10 IST 2013	phaseAdvanced(): new phase is 'Feedback Phase'.
Tue Nov 19 18:27:15 IST 2013	phaseAdvanced(): entering.
Tue Nov 19 18:27:15 IST 2013	phaseAdvanced(): new phase is 'Communication Phase'.
Tue Nov 19 18:28:48 IST 2013	phaseAdvanced(): entering.
Tue Nov 19 18:28:48 IST 2013	phaseAdvanced(): new phase is 'Movement Phase'.
Tue Nov 19 18:29:32 IST 2013	phaseAdvanced(): entering.
Tue Nov 19 18:29:32 IST 2013	phaseAdvanced(): new phase is 'Feedback Phase'.
Tue Nov 19 18:29:37 IST 2013	phaseAdvanced(): entering.
Tue Nov 19 18:29:37 IST 2013	phaseAdvanced(): new phase is 'Communication Phase'.
Tue Nov 19 18:31:27 IST 2013	onReceipt(): entering.
Tue Nov 19 18:31:27 IST 2013	phaseAdvanced(): entering.
Tue Nov 19 18:31:27 IST 2013	phaseAdvanced(): new phase is 'Movement Phase'.
Tue Nov 19 18:32:11 IST 2013	phaseAdvanced(): entering.
Tue Nov 19 18:32:11 IST 2013	phaseAdvanced(): new phase is 'Feedback Phase'.
Tue Nov 19 18:32:16 IST 2013	phaseAdvanced(): entering.
Tue Nov 19 18:32:16 IST 2013	phaseAdvanced(): new phase is 'Communication Phase'.
Tue Nov 19 18:33:22 IST 2013	phaseAdvanced(): entering.
Tue Nov 19 18:33:22 IST 2013	phaseAdvanced(): new phase is 'Movement Phase'.
Tue Nov 19 18:34:06 IST 2013	phaseAdvanced(): entering.
Tue Nov 19 18:34:06 IST 2013	phaseAdvanced(): new phase is 'Feedback Phase'.
Tue Nov 19 18:34:11 IST 2013	phaseAdvanced(): entering.
Tue Nov 19 18:34:11 IST 2013	phaseAdvanced(): new phase is 'Communication Phase'.
Tue Nov 19 18:37:11 IST 2013	onReceipt(): entering.
Tue Nov 19 18:37:11 IST 2013	phaseAdvanced(): entering.
Tue Nov 19 18:37:11 IST 2013	phaseAdvanced(): new phase is 'Movement Phase'.
Tue Nov 19 18:37:55 IST 2013	phaseAdvanced(): entering.
Tue Nov 19 18:37:55 IST 2013	phaseAdvanced(): new phase is 'Feedback Phase'.
Tue Nov 19 18:38:00 IST 2013	phaseAdvanced(): entering.
Tue Nov 19 18:38:00 IST 2013	phaseAdvanced(): new phase is 'Communication Phase'.
Tue Nov 19 18:39:12 IST 2013	phaseAdvanced(): entering.
Tue Nov 19 18:39:12 IST 2013	phaseAdvanced(): new phase is 'Movement Phase'.
Tue Nov 19 18:39:56 IST 2013	phaseAdvanced(): entering.
Tue Nov 19 18:39:56 IST 2013	phaseAdvanced(): new phase is 'Feedback Phase'.
