filename,round,propID,respID,IsPropCustomer,chipsToSend,chipsToReceive,accept,propCurrentScore,respCurrentScore,actualSent,ActualRcvd,propResultingScore,respResultingScore,#ofCustomerMovesInRound,customerRowPositionAfterMovePhase,customerColPositionAfterMovePhase,Player100ChipsAfterMovePhase,Player100ScoreAfterMovePhase,Player200ChipsAfterMovePhase,Player200ScoreAfterMovePhase,Player300ChipsAfterMovePhase,Player300ScoreAfterMovePhase,generosityLevel,ClientReachedGoal
3playersLog_1388926342513.csv,1,530,500,false,{ chips  'CTRed':33 'CTPurple':7 },{ chips  'grey78':11 },FALSE,200,120,,,,,1,(R:5,C:5),{ chips  'CTRed':7 'CTGreen':0 'CTPurple':0 'grey78':11 'CTYellow':8 },130,{ chips  'CTRed':33 'CTGreen':0 'CTPurple':7 'grey78':0 'CTYellow':0 },200,{ chips  'CTRed':26 'CTGreen':0 'CTPurple':7 'grey78':1 'CTYellow':3 },185
3playersLog_1388926342513.csv,1,540,500,false,{ chips  'CTRed':7 },{ chips  'grey78':1 'CTYellow':3 },TRUE,200,120,{ chips  'CTRed':7 'CTPurple':0 'CTGreen':0 'grey78':0 'CTYellow':0 },{ chips  'CTRed':0 'CTPurple':0 'CTGreen':0 'grey78':1 'CTYellow':3 },185,135,1,(R:5,C:5),{ chips  'CTRed':7 'CTGreen':0 'CTPurple':0 'grey78':11 'CTYellow':8 },130,{ chips  'CTRed':33 'CTGreen':0 'CTPurple':7 'grey78':0 'CTYellow':0 },200,{ chips  'CTRed':26 'CTGreen':0 'CTPurple':7 'grey78':1 'CTYellow':3 },185
3playersLog_1388926342513.csv,2,500,530,true,{ chips  'grey78':5 },{ chips  'CTRed':15 },FALSE,130,200,,,,,1,(R:4,C:5),{ chips  'CTRed':7 'CTGreen':0 'CTPurple':0 'grey78':11 'CTYellow':7 },125,{ chips  'CTRed':33 'CTGreen':0 'CTPurple':7 'grey78':0 'CTYellow':0 },200,{ chips  'CTRed':26 'CTGreen':0 'CTPurple':7 'grey78':1 'CTYellow':3 },185
3playersLog_1388926342513.csv,3,530,500,false,{ chips  'CTRed':33 'CTPurple':7 },{ chips  'grey78':11 },TRUE,200,125,{ chips  'CTRed':33 'CTPurple':7 'CTYellow':0 },{ chips  'grey78':11 },55,270,4,(R:2,C:7),{ chips  'CTRed':40 'CTGreen':0 'CTPurple':6 'grey78':0 'CTYellow':4 },250,{ chips  'CTRed':0 'CTGreen':0 'CTPurple':0 'grey78':11 'CTYellow':0 },55,{ chips  'CTRed':26 'CTGreen':0 'CTPurple':7 'grey78':1 'CTYellow':3 },185
3playersLog_1388926342513.csv,4,500,530,true,{ chips  'CTRed':4 },{ chips  'grey78':2 },TRUE,250,55,{ chips  'CTRed':4 'CTPurple':0 'CTGreen':0 'grey78':0 'CTYellow':0 },{ chips  'CTRed':0 'CTPurple':0 'CTGreen':0 'grey78':2 'CTYellow':0 },240,65,3,(R:0,C:8),{ chips  'CTRed':36 'CTGreen':0 'CTPurple':5 'grey78':2 'CTYellow':2 },375,{ chips  'CTRed':4 'CTGreen':0 'CTPurple':0 'grey78':9 'CTYellow':0 },215,{ chips  'CTRed':26 'CTGreen':0 'CTPurple':7 'grey78':1 'CTYellow':3 },185
3playersLog_1388926342513.csv,,,,,,,,,,,,,,,,,,,,,,,,true
