Mon Nov 26 22:45:18 IST 2012	This is the CT debug logger; svn version 638; sep 27 09
Mon Nov 26 22:45:18 IST 2012	Mon Nov 26 22:45:18 IST 2012
Mon Nov 26 22:45:18 IST 2012	A new Alternative Offers game has began
Mon Nov 26 22:45:18 IST 2012	ID Number: 38887
Mon Nov 26 22:45:18 IST 2012	Creating board
Mon Nov 26 22:45:18 IST 2012	<colors>
Mon Nov 26 22:45:18 IST 2012	{ GamePalette  'CTRed':0 'CTPurple':1 'CTGreen':2 'grey78':3 'CTYellow':4 }
Mon Nov 26 22:45:18 IST 2012	<rows>
Mon Nov 26 22:45:18 IST 2012	7
Mon Nov 26 22:45:18 IST 2012	<columns>
Mon Nov 26 22:45:18 IST 2012	5
Mon Nov 26 22:45:18 IST 2012	<squaresColors>
Mon Nov 26 22:45:18 IST 2012	CTPurple CTRed CTRed CTGreen CTPurple 
Mon Nov 26 22:45:18 IST 2012	CTPurple grey78 CTPurple CTYellow CTPurple 
Mon Nov 26 22:45:18 IST 2012	CTPurple CTRed CTPurple CTGreen CTPurple 
Mon Nov 26 22:45:18 IST 2012	CTPurple grey78 CTPurple CTYellow CTPurple 
Mon Nov 26 22:45:18 IST 2012	CTPurple CTRed CTPurple CTGreen CTPurple 
Mon Nov 26 22:45:18 IST 2012	CTPurple grey78 CTPurple CTYellow CTPurple 
Mon Nov 26 22:45:18 IST 2012	CTPurple CTRed CTPurple CTGreen CTPurple 
Mon Nov 26 22:45:18 IST 2012	</squareColors>
Mon Nov 26 22:45:18 IST 2012	<goalPosition>
Mon Nov 26 22:45:18 IST 2012	Goal position: (R:0,C:2)
Mon Nov 26 22:45:18 IST 2012	<numberOfPlayers>
Mon Nov 26 22:45:18 IST 2012	2
Mon Nov 26 22:45:18 IST 2012	<firstPlayerChips>
Mon Nov 26 22:45:18 IST 2012	Setting chips for player: 337 id:0
Mon Nov 26 22:45:18 IST 2012	{ chips  'CTRed':5 'CTGreen':10 'CTPurple':0 'grey78':0 'CTYellow':9 }
Mon Nov 26 22:45:18 IST 2012	Player position: (R:6,C:0)
Mon Nov 26 22:45:18 IST 2012	Setting chips for player: 310 id:1
Mon Nov 26 22:45:18 IST 2012	{ chips  'CTRed':1 'CTGreen':13 'CTPurple':0 'grey78':10 'CTYellow':0 }
Mon Nov 26 22:45:18 IST 2012	Player position: (R:6,C:4)
Mon Nov 26 22:45:19 IST 2012	Protocol: A New Phase Began: Strategy Prep Phase
Mon Nov 26 22:45:19 IST 2012	Protocol: Strategy Preparation phase, Round: 0
Mon Nov 26 22:45:19 IST 2012	Maximum number of rounds with no consecutive movement is 3
Mon Nov 26 22:45:19 IST 2012	In begin comm. phase, set counter offers count to: 0
Mon Nov 26 22:45:19 IST 2012	In begin comm. phase, get counter offers returned: 0
Mon Nov 26 22:45:39 IST 2012	A Phase Ended: Strategy Prep Phase
Mon Nov 26 22:45:39 IST 2012	Protocol: A New Phase Began: Communication Phase
Mon Nov 26 22:45:39 IST 2012	Protocol: Communication phase, Round: 0
Mon Nov 26 22:46:39 IST 2012	Received communication message 
Mon Nov 26 22:46:39 IST 2012	From player: 337
Mon Nov 26 22:46:39 IST 2012	To player: 310
Mon Nov 26 22:46:39 IST 2012	Message type: basicproposal
Mon Nov 26 22:46:39 IST 2012	Chips to send by proposer: { chips  'CTGreen':1 }
Mon Nov 26 22:46:39 IST 2012	Chips to send by responder: { chips  'grey78':1 }
Mon Nov 26 22:46:53 IST 2012	Received communication message 
Mon Nov 26 22:46:53 IST 2012	From player: 310
Mon Nov 26 22:46:53 IST 2012	To player: 337
Mon Nov 26 22:46:53 IST 2012	Message type: basicproposaldiscussion
Mon Nov 26 22:46:53 IST 2012	Player 310 accepted offer
Mon Nov 26 22:46:53 IST 2012	Prop accepted, set counter offers count to: 0
Mon Nov 26 22:46:53 IST 2012	Prop accepted, get counter offers returned: 0
Mon Nov 26 22:46:53 IST 2012	A Phase Ended: Communication Phase
Mon Nov 26 22:46:53 IST 2012	Protocol: A New Phase Began: Exchange Phase
Mon Nov 26 22:46:53 IST 2012	Protocol: Exchange phase, Round: 0
Mon Nov 26 22:46:53 IST 2012	In begin exch.phase, get counter offers returned: 0
Mon Nov 26 22:47:23 IST 2012	A Phase Ended: Exchange Phase
Mon Nov 26 22:47:23 IST 2012	Proposer 337 sent: { chips  'CTRed':0 'CTPurple':0 'CTGreen':1 'grey78':0 'CTYellow':0 }
Mon Nov 26 22:47:23 IST 2012	Responder 310 sent: { chips  'CTRed':0 'CTPurple':0 'CTGreen':0 'grey78':1 'CTYellow':0 }
Mon Nov 26 22:47:23 IST 2012	Protocol: A New Phase Began: Movement Phase
Mon Nov 26 22:47:23 IST 2012	Protocol: Movement phase, Round: 0
Mon Nov 26 22:47:42 IST 2012	A Phase Ended: Movement Phase
Mon Nov 26 22:47:42 IST 2012	Swaping roles:
Mon Nov 26 22:47:42 IST 2012	Proposer is: 310
Mon Nov 26 22:47:42 IST 2012	Responder is: 337
Mon Nov 26 22:47:42 IST 2012	Protocol: A New Phase Began: Feedback Phase
Mon Nov 26 22:47:42 IST 2012	Protocol: Feedback phase, Round: 0
Mon Nov 26 22:47:42 IST 2012	Number of consecutive no movements for player 337 is 1
Mon Nov 26 22:47:42 IST 2012	Number of consecutive no movements for player 310 is 1
Mon Nov 26 22:47:47 IST 2012	A Phase Ended: Feedback Phase
Mon Nov 26 22:47:47 IST 2012	Protocol: A New Phase Began: Communication Phase
Mon Nov 26 22:47:47 IST 2012	Protocol: Communication phase, Round: 1
Mon Nov 26 22:48:41 IST 2012	Received communication message 
Mon Nov 26 22:48:41 IST 2012	From player: 310
Mon Nov 26 22:48:41 IST 2012	To player: 337
Mon Nov 26 22:48:41 IST 2012	Message type: basicproposal
Mon Nov 26 22:48:41 IST 2012	Chips to send by proposer: { chips  'CTRed':0 'CTPurple':0 'CTGreen':0 'grey78':1 'CTYellow':0 }
Mon Nov 26 22:48:41 IST 2012	Chips to send by responder: { chips  'CTRed':0 'CTPurple':0 'CTGreen':2 'grey78':0 'CTYellow':1 }
Mon Nov 26 22:49:39 IST 2012	Received communication message 
Mon Nov 26 22:49:39 IST 2012	From player: 337
Mon Nov 26 22:49:39 IST 2012	To player: 310
Mon Nov 26 22:49:39 IST 2012	Message type: basicproposaldiscussion
Mon Nov 26 22:49:39 IST 2012	Player 337 accepted offer
Mon Nov 26 22:49:39 IST 2012	Prop accepted, set counter offers count to: 0
Mon Nov 26 22:49:39 IST 2012	Prop accepted, get counter offers returned: 0
Mon Nov 26 22:49:39 IST 2012	A Phase Ended: Communication Phase
Mon Nov 26 22:49:39 IST 2012	Protocol: A New Phase Began: Exchange Phase
Mon Nov 26 22:49:39 IST 2012	Protocol: Exchange phase, Round: 1
Mon Nov 26 22:49:39 IST 2012	In begin exch.phase, get counter offers returned: 0
Mon Nov 26 22:50:08 IST 2012	A Phase Ended: Exchange Phase
Mon Nov 26 22:50:08 IST 2012	Proposer 310 sent: { chips  'CTRed':0 'CTPurple':0 'CTGreen':0 'grey78':1 'CTYellow':0 }
Mon Nov 26 22:50:08 IST 2012	Responder 337 sent: { chips  'CTRed':0 'CTPurple':0 'CTGreen':2 'grey78':0 'CTYellow':1 }
Mon Nov 26 22:50:08 IST 2012	Protocol: A New Phase Began: Movement Phase
Mon Nov 26 22:50:08 IST 2012	Protocol: Movement phase, Round: 1
Mon Nov 26 22:50:27 IST 2012	A Phase Ended: Movement Phase
Mon Nov 26 22:50:27 IST 2012	Swaping roles:
Mon Nov 26 22:50:27 IST 2012	Proposer is: 337
Mon Nov 26 22:50:27 IST 2012	Responder is: 310
Mon Nov 26 22:50:27 IST 2012	Protocol: A New Phase Began: Feedback Phase
Mon Nov 26 22:50:27 IST 2012	Protocol: Feedback phase, Round: 1
Mon Nov 26 22:50:27 IST 2012	Number of consecutive no movements for player 337 is 2
Mon Nov 26 22:50:27 IST 2012	Number of consecutive no movements for player 310 is 2
Mon Nov 26 22:50:32 IST 2012	A Phase Ended: Feedback Phase
Mon Nov 26 22:50:32 IST 2012	Protocol: A New Phase Began: Communication Phase
Mon Nov 26 22:50:32 IST 2012	Protocol: Communication phase, Round: 2
Mon Nov 26 22:51:32 IST 2012	Received communication message 
Mon Nov 26 22:51:32 IST 2012	From player: 337
Mon Nov 26 22:51:32 IST 2012	To player: 310
Mon Nov 26 22:51:32 IST 2012	Message type: basicproposal
Mon Nov 26 22:51:32 IST 2012	Chips to send by proposer: { chips  'CTYellow':2 }
Mon Nov 26 22:51:32 IST 2012	Chips to send by responder: { chips  'CTGreen':1 'grey78':2 }
Mon Nov 26 22:51:43 IST 2012	Received communication message 
Mon Nov 26 22:51:43 IST 2012	From player: 310
Mon Nov 26 22:51:43 IST 2012	To player: 337
Mon Nov 26 22:51:43 IST 2012	Message type: basicproposaldiscussion
Mon Nov 26 22:51:43 IST 2012	Player 310 accepted offer
Mon Nov 26 22:51:43 IST 2012	Prop accepted, set counter offers count to: 0
Mon Nov 26 22:51:43 IST 2012	Prop accepted, get counter offers returned: 0
Mon Nov 26 22:51:43 IST 2012	A Phase Ended: Communication Phase
Mon Nov 26 22:51:43 IST 2012	Protocol: A New Phase Began: Exchange Phase
Mon Nov 26 22:51:43 IST 2012	Protocol: Exchange phase, Round: 2
Mon Nov 26 22:51:43 IST 2012	In begin exch.phase, get counter offers returned: 0
Mon Nov 26 22:52:12 IST 2012	A Phase Ended: Exchange Phase
Mon Nov 26 22:52:12 IST 2012	Proposer 337 sent: { chips  'CTRed':0 'CTPurple':0 'CTGreen':0 'grey78':0 'CTYellow':2 }
Mon Nov 26 22:52:12 IST 2012	Responder 310 sent: { chips  }
Mon Nov 26 22:52:12 IST 2012	Protocol: A New Phase Began: Movement Phase
Mon Nov 26 22:52:12 IST 2012	Protocol: Movement phase, Round: 2
Mon Nov 26 22:52:12 IST 2012	Player 310 moved to (R:6,C:3)
Mon Nov 26 22:52:12 IST 2012	Player 337 moved to (R:6,C:1)
Mon Nov 26 22:52:32 IST 2012	A Phase Ended: Movement Phase
Mon Nov 26 22:52:32 IST 2012	Swaping roles:
Mon Nov 26 22:52:32 IST 2012	Proposer is: 310
Mon Nov 26 22:52:32 IST 2012	Responder is: 337
Mon Nov 26 22:52:32 IST 2012	Protocol: A New Phase Began: Feedback Phase
Mon Nov 26 22:52:32 IST 2012	Protocol: Feedback phase, Round: 2
Mon Nov 26 22:52:32 IST 2012	Number of consecutive no movements for player 337 is 0
Mon Nov 26 22:52:32 IST 2012	Number of consecutive no movements for player 310 is 0
Mon Nov 26 22:52:37 IST 2012	A Phase Ended: Feedback Phase
Mon Nov 26 22:52:37 IST 2012	Protocol: A New Phase Began: Communication Phase
Mon Nov 26 22:52:37 IST 2012	Protocol: Communication phase, Round: 3
Mon Nov 26 22:52:53 IST 2012	Received communication message 
Mon Nov 26 22:52:53 IST 2012	From player: 310
Mon Nov 26 22:52:53 IST 2012	To player: 337
Mon Nov 26 22:52:53 IST 2012	Message type: basicproposal
Mon Nov 26 22:52:53 IST 2012	Chips to send by proposer: { chips  'CTRed':0 'CTPurple':0 'CTGreen':0 'grey78':1 'CTYellow':0 }
Mon Nov 26 22:52:53 IST 2012	Chips to send by responder: { chips  'CTRed':0 'CTPurple':0 'CTGreen':5 'grey78':0 'CTYellow':0 }
Mon Nov 26 22:53:28 IST 2012	Received communication message 
Mon Nov 26 22:53:28 IST 2012	From player: 337
Mon Nov 26 22:53:28 IST 2012	To player: 310
Mon Nov 26 22:53:28 IST 2012	Message type: basicproposaldiscussion
Mon Nov 26 22:53:28 IST 2012	Player 337 rejected offer
Mon Nov 26 22:53:28 IST 2012	Swaping roles:
Mon Nov 26 22:53:28 IST 2012	Proposer is: 337
Mon Nov 26 22:53:28 IST 2012	Responder is: 310
Mon Nov 26 22:53:28 IST 2012	Prop rejected, set counter offers count to: 1
Mon Nov 26 22:53:28 IST 2012	Prop rejected, get counter offers returned: 1
Mon Nov 26 22:53:32 IST 2012	Slept 4 seconds
Mon Nov 26 22:53:32 IST 2012	Sent role changed msgs
Mon Nov 26 22:54:32 IST 2012	Received communication message 
Mon Nov 26 22:54:32 IST 2012	From player: 337
Mon Nov 26 22:54:32 IST 2012	To player: 310
Mon Nov 26 22:54:32 IST 2012	Message type: basicproposal
Mon Nov 26 22:54:32 IST 2012	Chips to send by proposer: { chips  'CTRed':0 'CTPurple':0 'CTGreen':0 'grey78':0 'CTYellow':1 }
Mon Nov 26 22:54:32 IST 2012	Chips to send by responder: { chips  'CTRed':0 'CTPurple':0 'CTGreen':0 'grey78':1 'CTYellow':0 }
Mon Nov 26 22:54:42 IST 2012	Received communication message 
Mon Nov 26 22:54:42 IST 2012	From player: 310
Mon Nov 26 22:54:42 IST 2012	To player: 337
Mon Nov 26 22:54:42 IST 2012	Message type: basicproposaldiscussion
Mon Nov 26 22:54:42 IST 2012	Player 310 accepted offer
Mon Nov 26 22:54:42 IST 2012	Prop accepted, set counter offers count to: 0
Mon Nov 26 22:54:42 IST 2012	Prop accepted, get counter offers returned: 0
Mon Nov 26 22:54:42 IST 2012	A Phase Ended: Communication Phase
Mon Nov 26 22:54:42 IST 2012	Protocol: A New Phase Began: Exchange Phase
Mon Nov 26 22:54:42 IST 2012	Protocol: Exchange phase, Round: 3
Mon Nov 26 22:54:42 IST 2012	In begin exch.phase, get counter offers returned: 0
Mon Nov 26 22:55:08 IST 2012	A Phase Ended: Exchange Phase
Mon Nov 26 22:55:08 IST 2012	Proposer 337 sent: { chips  'CTRed':0 'CTPurple':0 'CTGreen':0 'grey78':0 'CTYellow':1 }
Mon Nov 26 22:55:08 IST 2012	Responder 310 sent: { chips  }
Mon Nov 26 22:55:08 IST 2012	Protocol: A New Phase Began: Movement Phase
Mon Nov 26 22:55:08 IST 2012	Protocol: Movement phase, Round: 3
Mon Nov 26 22:55:08 IST 2012	Player 310 moved to (R:5,C:3)
Mon Nov 26 22:55:28 IST 2012	A Phase Ended: Movement Phase
Mon Nov 26 22:55:28 IST 2012	Protocol: A New Phase Began: Feedback Phase
Mon Nov 26 22:55:28 IST 2012	Protocol: Feedback phase, Round: 3
Mon Nov 26 22:55:28 IST 2012	Number of consecutive no movements for player 337 is 1
Mon Nov 26 22:55:28 IST 2012	Number of consecutive no movements for player 310 is 0
Mon Nov 26 22:55:33 IST 2012	A Phase Ended: Feedback Phase
Mon Nov 26 22:55:33 IST 2012	Protocol: A New Phase Began: Communication Phase
Mon Nov 26 22:55:33 IST 2012	Protocol: Communication phase, Round: 4
Mon Nov 26 22:56:33 IST 2012	Received communication message 
Mon Nov 26 22:56:33 IST 2012	From player: 337
Mon Nov 26 22:56:33 IST 2012	To player: 310
Mon Nov 26 22:56:33 IST 2012	Message type: basicproposal
Mon Nov 26 22:56:33 IST 2012	Chips to send by proposer: { chips  'CTGreen':1 }
Mon Nov 26 22:56:33 IST 2012	Chips to send by responder: { chips  'grey78':1 }
Mon Nov 26 22:56:45 IST 2012	Received communication message 
Mon Nov 26 22:56:45 IST 2012	From player: 310
Mon Nov 26 22:56:45 IST 2012	To player: 337
Mon Nov 26 22:56:45 IST 2012	Message type: basicproposaldiscussion
Mon Nov 26 22:56:45 IST 2012	Player 310 rejected offer
Mon Nov 26 22:56:45 IST 2012	Swaping roles:
Mon Nov 26 22:56:45 IST 2012	Proposer is: 310
Mon Nov 26 22:56:45 IST 2012	Responder is: 337
Mon Nov 26 22:56:45 IST 2012	Prop rejected, set counter offers count to: 1
Mon Nov 26 22:56:45 IST 2012	Prop rejected, get counter offers returned: 1
Mon Nov 26 22:56:49 IST 2012	Slept 4 seconds
Mon Nov 26 22:56:49 IST 2012	Sent role changed msgs
Mon Nov 26 22:57:07 IST 2012	Received communication message 
Mon Nov 26 22:57:07 IST 2012	From player: 310
Mon Nov 26 22:57:07 IST 2012	To player: 337
Mon Nov 26 22:57:07 IST 2012	Message type: basicproposal
Mon Nov 26 22:57:07 IST 2012	Chips to send by proposer: { chips  'CTRed':0 'CTPurple':0 'CTGreen':0 'grey78':1 'CTYellow':0 }
Mon Nov 26 22:57:07 IST 2012	Chips to send by responder: { chips  'CTRed':0 'CTPurple':0 'CTGreen':6 'grey78':0 'CTYellow':0 }
Mon Nov 26 22:57:57 IST 2012	Received communication message 
Mon Nov 26 22:57:57 IST 2012	From player: 337
Mon Nov 26 22:57:57 IST 2012	To player: 310
Mon Nov 26 22:57:57 IST 2012	Message type: basicproposaldiscussion
Mon Nov 26 22:57:57 IST 2012	Player 337 rejected offer
Mon Nov 26 22:57:57 IST 2012	Set counter offers count to: 0
Mon Nov 26 22:57:57 IST 2012	A Phase Ended: Communication Phase
Mon Nov 26 22:57:57 IST 2012	Protocol: A New Phase Began: Exchange Phase
Mon Nov 26 22:57:57 IST 2012	Protocol: Exchange phase, Round: 4
Mon Nov 26 22:57:57 IST 2012	In begin exch.phase, get counter offers returned: 0
Mon Nov 26 22:58:37 IST 2012	A Phase Ended: Exchange Phase
Mon Nov 26 22:58:37 IST 2012	Responder 337 sent: { chips  }
Mon Nov 26 22:58:37 IST 2012	Protocol: A New Phase Began: Movement Phase
Mon Nov 26 22:58:37 IST 2012	Protocol: Movement phase, Round: 4
Mon Nov 26 22:58:37 IST 2012	Player 310 moved to (R:4,C:3)
Mon Nov 26 22:58:57 IST 2012	A Phase Ended: Movement Phase
Mon Nov 26 22:58:57 IST 2012	Protocol: A New Phase Began: Feedback Phase
Mon Nov 26 22:58:57 IST 2012	Protocol: Feedback phase, Round: 4
Mon Nov 26 22:58:57 IST 2012	Number of consecutive no movements for player 337 is 2
Mon Nov 26 22:58:57 IST 2012	Number of consecutive no movements for player 310 is 0
Mon Nov 26 22:59:02 IST 2012	A Phase Ended: Feedback Phase
Mon Nov 26 22:59:02 IST 2012	Protocol: A New Phase Began: Communication Phase
Mon Nov 26 22:59:02 IST 2012	Protocol: Communication phase, Round: 5
Mon Nov 26 22:59:17 IST 2012	Received communication message 
Mon Nov 26 22:59:17 IST 2012	From player: 310
Mon Nov 26 22:59:17 IST 2012	To player: 337
Mon Nov 26 22:59:17 IST 2012	Message type: basicproposal
Mon Nov 26 22:59:17 IST 2012	Chips to send by proposer: { chips  'CTRed':0 'CTPurple':0 'CTGreen':0 'grey78':1 'CTYellow':0 }
Mon Nov 26 22:59:17 IST 2012	Chips to send by responder: { chips  'CTRed':0 'CTPurple':0 'CTGreen':7 'grey78':0 'CTYellow':0 }
Mon Nov 26 23:00:11 IST 2012	Received communication message 
Mon Nov 26 23:00:11 IST 2012	From player: 337
Mon Nov 26 23:00:11 IST 2012	To player: 310
Mon Nov 26 23:00:11 IST 2012	Message type: basicproposaldiscussion
Mon Nov 26 23:00:11 IST 2012	Player 337 rejected offer
Mon Nov 26 23:00:11 IST 2012	Swaping roles:
Mon Nov 26 23:00:11 IST 2012	Proposer is: 337
Mon Nov 26 23:00:11 IST 2012	Responder is: 310
Mon Nov 26 23:00:11 IST 2012	Prop rejected, set counter offers count to: 1
Mon Nov 26 23:00:11 IST 2012	Prop rejected, get counter offers returned: 1
Mon Nov 26 23:00:15 IST 2012	Slept 4 seconds
Mon Nov 26 23:00:15 IST 2012	Sent role changed msgs
Mon Nov 26 23:01:15 IST 2012	Received communication message 
Mon Nov 26 23:01:15 IST 2012	From player: 337
Mon Nov 26 23:01:15 IST 2012	To player: 310
Mon Nov 26 23:01:15 IST 2012	Message type: basicproposal
Mon Nov 26 23:01:15 IST 2012	Chips to send by proposer: { chips  'CTRed':0 'CTPurple':0 'CTGreen':0 'grey78':0 'CTYellow':1 }
Mon Nov 26 23:01:15 IST 2012	Chips to send by responder: { chips  'CTRed':0 'CTPurple':0 'CTGreen':0 'grey78':1 'CTYellow':0 }
Mon Nov 26 23:01:23 IST 2012	Received communication message 
Mon Nov 26 23:01:23 IST 2012	From player: 310
Mon Nov 26 23:01:23 IST 2012	To player: 337
Mon Nov 26 23:01:23 IST 2012	Message type: basicproposaldiscussion
Mon Nov 26 23:01:23 IST 2012	Player 310 rejected offer
Mon Nov 26 23:01:23 IST 2012	Set counter offers count to: 0
Mon Nov 26 23:01:23 IST 2012	A Phase Ended: Communication Phase
Mon Nov 26 23:01:23 IST 2012	Protocol: A New Phase Began: Exchange Phase
Mon Nov 26 23:01:23 IST 2012	Protocol: Exchange phase, Round: 5
Mon Nov 26 23:01:23 IST 2012	In begin exch.phase, get counter offers returned: 0
Mon Nov 26 23:02:03 IST 2012	A Phase Ended: Exchange Phase
Mon Nov 26 23:02:03 IST 2012	Proposer 337 sent: { chips  }
Mon Nov 26 23:02:03 IST 2012	Protocol: A New Phase Began: Movement Phase
Mon Nov 26 23:02:03 IST 2012	Protocol: Movement phase, Round: 5
Mon Nov 26 23:02:03 IST 2012	Player 337 moved to (R:5,C:1)
Mon Nov 26 23:02:03 IST 2012	Player 310 moved to (R:3,C:3)
Mon Nov 26 23:02:23 IST 2012	A Phase Ended: Movement Phase
Mon Nov 26 23:02:23 IST 2012	Protocol: A New Phase Began: Feedback Phase
Mon Nov 26 23:02:23 IST 2012	Protocol: Feedback phase, Round: 5
Mon Nov 26 23:02:23 IST 2012	Number of consecutive no movements for player 337 is 0
Mon Nov 26 23:02:23 IST 2012	Number of consecutive no movements for player 310 is 0
Mon Nov 26 23:02:28 IST 2012	A Phase Ended: Feedback Phase
Mon Nov 26 23:02:28 IST 2012	Protocol: A New Phase Began: Communication Phase
Mon Nov 26 23:02:28 IST 2012	Protocol: Communication phase, Round: 6
Mon Nov 26 23:03:28 IST 2012	Received communication message 
Mon Nov 26 23:03:28 IST 2012	From player: 337
Mon Nov 26 23:03:28 IST 2012	To player: 310
Mon Nov 26 23:03:28 IST 2012	Message type: basicproposal
Mon Nov 26 23:03:28 IST 2012	Chips to send by proposer: { chips  'CTGreen':1 }
Mon Nov 26 23:03:28 IST 2012	Chips to send by responder: { chips  'grey78':1 }
Mon Nov 26 23:03:38 IST 2012	Received communication message 
Mon Nov 26 23:03:38 IST 2012	From player: 310
Mon Nov 26 23:03:38 IST 2012	To player: 337
Mon Nov 26 23:03:38 IST 2012	Message type: basicproposaldiscussion
Mon Nov 26 23:03:38 IST 2012	Player 310 accepted offer
Mon Nov 26 23:03:38 IST 2012	Prop accepted, set counter offers count to: 0
Mon Nov 26 23:03:38 IST 2012	Prop accepted, get counter offers returned: 0
Mon Nov 26 23:03:38 IST 2012	A Phase Ended: Communication Phase
Mon Nov 26 23:03:38 IST 2012	Protocol: A New Phase Began: Exchange Phase
Mon Nov 26 23:03:38 IST 2012	Protocol: Exchange phase, Round: 6
Mon Nov 26 23:03:38 IST 2012	In begin exch.phase, get counter offers returned: 0
Mon Nov 26 23:04:01 IST 2012	A Phase Ended: Exchange Phase
Mon Nov 26 23:04:01 IST 2012	Proposer 337 sent: { chips  'CTRed':0 'CTPurple':0 'CTGreen':1 'grey78':0 'CTYellow':0 }
Mon Nov 26 23:04:01 IST 2012	Responder 310 sent: { chips  }
Mon Nov 26 23:04:01 IST 2012	Protocol: A New Phase Began: Movement Phase
Mon Nov 26 23:04:01 IST 2012	Protocol: Movement phase, Round: 6
Mon Nov 26 23:04:01 IST 2012	Player 310 moved to (R:2,C:3)
Mon Nov 26 23:04:21 IST 2012	A Phase Ended: Movement Phase
Mon Nov 26 23:04:21 IST 2012	Swaping roles:
Mon Nov 26 23:04:21 IST 2012	Proposer is: 310
Mon Nov 26 23:04:21 IST 2012	Responder is: 337
Mon Nov 26 23:04:21 IST 2012	Protocol: A New Phase Began: Feedback Phase
Mon Nov 26 23:04:21 IST 2012	Protocol: Feedback phase, Round: 6
Mon Nov 26 23:04:21 IST 2012	Number of consecutive no movements for player 337 is 1
Mon Nov 26 23:04:21 IST 2012	Number of consecutive no movements for player 310 is 0
Mon Nov 26 23:04:26 IST 2012	A Phase Ended: Feedback Phase
Mon Nov 26 23:04:26 IST 2012	Protocol: A New Phase Began: Communication Phase
Mon Nov 26 23:04:26 IST 2012	Protocol: Communication phase, Round: 7
Mon Nov 26 23:04:39 IST 2012	Received communication message 
Mon Nov 26 23:04:39 IST 2012	From player: 310
Mon Nov 26 23:04:39 IST 2012	To player: 337
Mon Nov 26 23:04:39 IST 2012	Message type: basicproposal
Mon Nov 26 23:04:39 IST 2012	Chips to send by proposer: { chips  'CTRed':0 'CTPurple':0 'CTGreen':0 'grey78':1 'CTYellow':0 }
Mon Nov 26 23:04:39 IST 2012	Chips to send by responder: { chips  'CTRed':0 'CTPurple':0 'CTGreen':6 'grey78':0 'CTYellow':0 }
Mon Nov 26 23:05:09 IST 2012	Received communication message 
Mon Nov 26 23:05:09 IST 2012	From player: 337
Mon Nov 26 23:05:09 IST 2012	To player: 310
Mon Nov 26 23:05:09 IST 2012	Message type: basicproposaldiscussion
Mon Nov 26 23:05:09 IST 2012	Player 337 rejected offer
Mon Nov 26 23:05:09 IST 2012	Swaping roles:
Mon Nov 26 23:05:09 IST 2012	Proposer is: 337
Mon Nov 26 23:05:09 IST 2012	Responder is: 310
Mon Nov 26 23:05:09 IST 2012	Prop rejected, set counter offers count to: 1
Mon Nov 26 23:05:09 IST 2012	Prop rejected, get counter offers returned: 1
Mon Nov 26 23:05:13 IST 2012	Slept 4 seconds
Mon Nov 26 23:05:13 IST 2012	Sent role changed msgs
Mon Nov 26 23:06:13 IST 2012	Received communication message 
Mon Nov 26 23:06:13 IST 2012	From player: 337
Mon Nov 26 23:06:13 IST 2012	To player: 310
Mon Nov 26 23:06:13 IST 2012	Message type: basicproposal
Mon Nov 26 23:06:13 IST 2012	Chips to send by proposer: { chips  'CTRed':0 'CTPurple':0 'CTGreen':1 'grey78':0 'CTYellow':0 }
Mon Nov 26 23:06:13 IST 2012	Chips to send by responder: { chips  'CTRed':0 'CTPurple':0 'CTGreen':0 'grey78':1 'CTYellow':0 }
Mon Nov 26 23:06:22 IST 2012	Received communication message 
Mon Nov 26 23:06:22 IST 2012	From player: 310
Mon Nov 26 23:06:22 IST 2012	To player: 337
Mon Nov 26 23:06:22 IST 2012	Message type: basicproposaldiscussion
Mon Nov 26 23:06:22 IST 2012	Player 310 rejected offer
Mon Nov 26 23:06:22 IST 2012	Set counter offers count to: 0
Mon Nov 26 23:06:22 IST 2012	A Phase Ended: Communication Phase
Mon Nov 26 23:06:22 IST 2012	Protocol: A New Phase Began: Exchange Phase
Mon Nov 26 23:06:22 IST 2012	Protocol: Exchange phase, Round: 7
Mon Nov 26 23:06:22 IST 2012	In begin exch.phase, get counter offers returned: 0
Mon Nov 26 23:07:03 IST 2012	A Phase Ended: Exchange Phase
Mon Nov 26 23:07:03 IST 2012	Proposer 337 sent: { chips  }
Mon Nov 26 23:07:03 IST 2012	Protocol: A New Phase Began: Movement Phase
Mon Nov 26 23:07:03 IST 2012	Protocol: Movement phase, Round: 7
Mon Nov 26 23:07:03 IST 2012	Player 310 moved to (R:1,C:3)
Mon Nov 26 23:07:23 IST 2012	A Phase Ended: Movement Phase
Mon Nov 26 23:07:23 IST 2012	Protocol: A New Phase Began: Feedback Phase
Mon Nov 26 23:07:23 IST 2012	Protocol: Feedback phase, Round: 7
Mon Nov 26 23:07:23 IST 2012	Number of consecutive no movements for player 337 is 2
Mon Nov 26 23:07:23 IST 2012	Number of consecutive no movements for player 310 is 0
Mon Nov 26 23:07:28 IST 2012	A Phase Ended: Feedback Phase
Mon Nov 26 23:07:28 IST 2012	Protocol: A New Phase Began: Communication Phase
Mon Nov 26 23:07:28 IST 2012	Protocol: Communication phase, Round: 8
Mon Nov 26 23:08:28 IST 2012	Received communication message 
Mon Nov 26 23:08:28 IST 2012	From player: 337
Mon Nov 26 23:08:28 IST 2012	To player: 310
Mon Nov 26 23:08:28 IST 2012	Message type: basicproposal
Mon Nov 26 23:08:28 IST 2012	Chips to send by proposer: { chips  'CTYellow':1 }
Mon Nov 26 23:08:28 IST 2012	Chips to send by responder: { chips  'grey78':1 }
Mon Nov 26 23:08:39 IST 2012	Received communication message 
Mon Nov 26 23:08:39 IST 2012	From player: 310
Mon Nov 26 23:08:39 IST 2012	To player: 337
Mon Nov 26 23:08:39 IST 2012	Message type: basicproposaldiscussion
Mon Nov 26 23:08:39 IST 2012	Player 310 accepted offer
Mon Nov 26 23:08:39 IST 2012	Prop accepted, set counter offers count to: 0
Mon Nov 26 23:08:39 IST 2012	Prop accepted, get counter offers returned: 0
Mon Nov 26 23:08:39 IST 2012	A Phase Ended: Communication Phase
Mon Nov 26 23:08:39 IST 2012	Protocol: A New Phase Began: Exchange Phase
Mon Nov 26 23:08:39 IST 2012	Protocol: Exchange phase, Round: 8
Mon Nov 26 23:08:39 IST 2012	In begin exch.phase, get counter offers returned: 0
Mon Nov 26 23:08:57 IST 2012	A Phase Ended: Exchange Phase
Mon Nov 26 23:08:57 IST 2012	Proposer 337 sent: { chips  'CTRed':0 'CTPurple':0 'CTGreen':0 'grey78':0 'CTYellow':1 }
Mon Nov 26 23:08:57 IST 2012	Responder 310 sent: { chips  }
Mon Nov 26 23:08:57 IST 2012	Protocol: A New Phase Began: Movement Phase
Mon Nov 26 23:08:57 IST 2012	Protocol: Movement phase, Round: 8
Mon Nov 26 23:08:57 IST 2012	Player 310 moved to (R:0,C:3)
Mon Nov 26 23:08:57 IST 2012	Player 337 moved to (R:4,C:1)
Mon Nov 26 23:09:17 IST 2012	A Phase Ended: Movement Phase
Mon Nov 26 23:09:17 IST 2012	Swaping roles:
Mon Nov 26 23:09:17 IST 2012	Proposer is: 310
Mon Nov 26 23:09:17 IST 2012	Responder is: 337
Mon Nov 26 23:09:17 IST 2012	Protocol: A New Phase Began: Feedback Phase
Mon Nov 26 23:09:17 IST 2012	Protocol: Feedback phase, Round: 8
Mon Nov 26 23:09:17 IST 2012	Number of consecutive no movements for player 337 is 0
Mon Nov 26 23:09:17 IST 2012	Number of consecutive no movements for player 310 is 0
Mon Nov 26 23:09:22 IST 2012	A Phase Ended: Feedback Phase
Mon Nov 26 23:09:22 IST 2012	Protocol: A New Phase Began: Communication Phase
Mon Nov 26 23:09:22 IST 2012	Protocol: Communication phase, Round: 9
Mon Nov 26 23:09:41 IST 2012	Received communication message 
Mon Nov 26 23:09:41 IST 2012	From player: 310
Mon Nov 26 23:09:41 IST 2012	To player: 337
Mon Nov 26 23:09:41 IST 2012	Message type: basicproposal
Mon Nov 26 23:09:41 IST 2012	Chips to send by proposer: { chips  'CTRed':0 'CTPurple':0 'CTGreen':0 'grey78':1 'CTYellow':0 }
Mon Nov 26 23:09:41 IST 2012	Chips to send by responder: { chips  'CTRed':0 'CTPurple':0 'CTGreen':6 'grey78':0 'CTYellow':1 }
Mon Nov 26 23:09:55 IST 2012	Received communication message 
Mon Nov 26 23:09:55 IST 2012	From player: 337
Mon Nov 26 23:09:55 IST 2012	To player: 310
Mon Nov 26 23:09:55 IST 2012	Message type: basicproposaldiscussion
Mon Nov 26 23:09:55 IST 2012	Player 337 rejected offer
Mon Nov 26 23:09:55 IST 2012	Swaping roles:
Mon Nov 26 23:09:55 IST 2012	Proposer is: 337
Mon Nov 26 23:09:55 IST 2012	Responder is: 310
Mon Nov 26 23:09:55 IST 2012	Prop rejected, set counter offers count to: 1
Mon Nov 26 23:09:55 IST 2012	Prop rejected, get counter offers returned: 1
Mon Nov 26 23:09:59 IST 2012	Slept 4 seconds
Mon Nov 26 23:09:59 IST 2012	Sent role changed msgs
Mon Nov 26 23:10:44 IST 2012	Received communication message 
Mon Nov 26 23:10:44 IST 2012	From player: 337
Mon Nov 26 23:10:44 IST 2012	To player: 310
Mon Nov 26 23:10:44 IST 2012	Message type: basicproposal
Mon Nov 26 23:10:44 IST 2012	Chips to send by proposer: { chips  'CTRed':0 'CTPurple':0 'CTGreen':0 'grey78':0 'CTYellow':1 }
Mon Nov 26 23:10:44 IST 2012	Chips to send by responder: { chips  'CTRed':0 'CTPurple':0 'CTGreen':0 'grey78':1 'CTYellow':0 }
Mon Nov 26 23:10:54 IST 2012	Received communication message 
Mon Nov 26 23:10:54 IST 2012	From player: 310
Mon Nov 26 23:10:54 IST 2012	To player: 337
Mon Nov 26 23:10:54 IST 2012	Message type: basicproposaldiscussion
Mon Nov 26 23:10:54 IST 2012	Player 310 accepted offer
Mon Nov 26 23:10:54 IST 2012	Prop accepted, set counter offers count to: 0
Mon Nov 26 23:10:54 IST 2012	Prop accepted, get counter offers returned: 0
Mon Nov 26 23:10:54 IST 2012	A Phase Ended: Communication Phase
Mon Nov 26 23:10:54 IST 2012	Protocol: A New Phase Began: Exchange Phase
Mon Nov 26 23:10:54 IST 2012	Protocol: Exchange phase, Round: 9
Mon Nov 26 23:10:54 IST 2012	In begin exch.phase, get counter offers returned: 0
Mon Nov 26 23:11:06 IST 2012	A Phase Ended: Exchange Phase
Mon Nov 26 23:11:06 IST 2012	Proposer 337 sent: { chips  'CTRed':0 'CTPurple':0 'CTGreen':0 'grey78':0 'CTYellow':1 }
Mon Nov 26 23:11:06 IST 2012	Responder 310 sent: { chips  }
Mon Nov 26 23:11:06 IST 2012	Protocol: A New Phase Began: Movement Phase
Mon Nov 26 23:11:06 IST 2012	Protocol: Movement phase, Round: 9
Mon Nov 26 23:11:06 IST 2012	Player 310 moved to (R:0,C:2)
Mon Nov 26 23:11:10 IST 2012	Slept 4 seconds
Mon Nov 26 23:11:10 IST 2012	Player 310 got to goal, advance the other and end game
Mon Nov 26 23:11:10 IST 2012	Player: 337 ,role: Proposer score is: 25
Mon Nov 26 23:11:10 IST 2012	Player: 310 ,role: Responder score is: 220
