Mon Nov 26 05:12:30 IST 2012	This is the CT debug logger; svn version 638; sep 27 09
Mon Nov 26 05:12:30 IST 2012	Mon Nov 26 05:12:30 IST 2012
Mon Nov 26 05:12:30 IST 2012	A new Alternative Offers game has began
Mon Nov 26 05:12:30 IST 2012	ID Number: 30138
Mon Nov 26 05:12:30 IST 2012	Creating board
Mon Nov 26 05:12:30 IST 2012	<colors>
Mon Nov 26 05:12:30 IST 2012	{ GamePalette  'CTRed':0 'CTPurple':1 'CTGreen':2 'grey78':3 'CTYellow':4 }
Mon Nov 26 05:12:30 IST 2012	<rows>
Mon Nov 26 05:12:30 IST 2012	7
Mon Nov 26 05:12:30 IST 2012	<columns>
Mon Nov 26 05:12:30 IST 2012	5
Mon Nov 26 05:12:30 IST 2012	<squaresColors>
Mon Nov 26 05:12:30 IST 2012	CTPurple CTRed CTRed CTGreen CTPurple 
Mon Nov 26 05:12:30 IST 2012	CTPurple grey78 CTPurple CTYellow CTPurple 
Mon Nov 26 05:12:30 IST 2012	CTPurple CTRed CTPurple CTGreen CTPurple 
Mon Nov 26 05:12:30 IST 2012	CTPurple grey78 CTPurple CTYellow CTPurple 
Mon Nov 26 05:12:30 IST 2012	CTPurple CTRed CTPurple CTGreen CTPurple 
Mon Nov 26 05:12:30 IST 2012	CTPurple grey78 CTPurple CTYellow CTPurple 
Mon Nov 26 05:12:30 IST 2012	CTPurple CTRed CTPurple CTGreen CTPurple 
Mon Nov 26 05:12:30 IST 2012	</squareColors>
Mon Nov 26 05:12:30 IST 2012	<goalPosition>
Mon Nov 26 05:12:30 IST 2012	Goal position: (R:0,C:2)
Mon Nov 26 05:12:30 IST 2012	<numberOfPlayers>
Mon Nov 26 05:12:30 IST 2012	2
Mon Nov 26 05:12:30 IST 2012	<firstPlayerChips>
Mon Nov 26 05:12:30 IST 2012	Setting chips for player: 337 id:0
Mon Nov 26 05:12:30 IST 2012	{ chips  'CTRed':5 'CTGreen':10 'CTPurple':0 'grey78':0 'CTYellow':9 }
Mon Nov 26 05:12:30 IST 2012	Player position: (R:6,C:0)
Mon Nov 26 05:12:30 IST 2012	Setting chips for player: 310 id:1
Mon Nov 26 05:12:30 IST 2012	{ chips  'CTRed':1 'CTGreen':13 'CTPurple':0 'grey78':10 'CTYellow':0 }
Mon Nov 26 05:12:30 IST 2012	Player position: (R:6,C:4)
Mon Nov 26 05:12:30 IST 2012	Protocol: A New Phase Began: Strategy Prep Phase
Mon Nov 26 05:12:30 IST 2012	Protocol: Strategy Preparation phase, Round: 0
Mon Nov 26 05:12:30 IST 2012	Maximum number of rounds with no consecutive movement is 3
Mon Nov 26 05:12:30 IST 2012	In begin comm. phase, set counter offers count to: 0
Mon Nov 26 05:12:30 IST 2012	In begin comm. phase, get counter offers returned: 0
Mon Nov 26 05:12:50 IST 2012	A Phase Ended: Strategy Prep Phase
Mon Nov 26 05:12:50 IST 2012	Protocol: A New Phase Began: Communication Phase
Mon Nov 26 05:12:50 IST 2012	Protocol: Communication phase, Round: 0
Mon Nov 26 05:13:50 IST 2012	Received communication message 
Mon Nov 26 05:13:50 IST 2012	From player: 337
Mon Nov 26 05:13:50 IST 2012	To player: 310
Mon Nov 26 05:13:50 IST 2012	Message type: basicproposal
Mon Nov 26 05:13:50 IST 2012	Chips to send by proposer: { chips  'CTGreen':1 }
Mon Nov 26 05:13:50 IST 2012	Chips to send by responder: { chips  'grey78':2 }
Mon Nov 26 05:14:01 IST 2012	Received communication message 
Mon Nov 26 05:14:01 IST 2012	From player: 310
Mon Nov 26 05:14:01 IST 2012	To player: 337
Mon Nov 26 05:14:01 IST 2012	Message type: basicproposaldiscussion
Mon Nov 26 05:14:01 IST 2012	Player 310 rejected offer
Mon Nov 26 05:14:01 IST 2012	Swaping roles:
Mon Nov 26 05:14:01 IST 2012	Proposer is: 310
Mon Nov 26 05:14:01 IST 2012	Responder is: 337
Mon Nov 26 05:14:01 IST 2012	Prop rejected, set counter offers count to: 1
Mon Nov 26 05:14:01 IST 2012	Prop rejected, get counter offers returned: 1
Mon Nov 26 05:14:05 IST 2012	Slept 4 seconds
Mon Nov 26 05:14:05 IST 2012	Sent role changed msgs
Mon Nov 26 05:15:20 IST 2012	Received communication message 
Mon Nov 26 05:15:20 IST 2012	From player: 310
Mon Nov 26 05:15:20 IST 2012	To player: 337
Mon Nov 26 05:15:20 IST 2012	Message type: basicproposal
Mon Nov 26 05:15:20 IST 2012	Chips to send by proposer: { chips  'CTRed':0 'CTPurple':0 'CTGreen':0 'grey78':2 'CTYellow':0 }
Mon Nov 26 05:15:20 IST 2012	Chips to send by responder: { chips  'CTRed':0 'CTPurple':0 'CTGreen':0 'grey78':0 'CTYellow':3 }
Mon Nov 26 05:16:10 IST 2012	Received communication message 
Mon Nov 26 05:16:10 IST 2012	From player: 337
Mon Nov 26 05:16:10 IST 2012	To player: 310
Mon Nov 26 05:16:10 IST 2012	Message type: basicproposaldiscussion
Mon Nov 26 05:16:10 IST 2012	Player 337 rejected offer
Mon Nov 26 05:16:10 IST 2012	Set counter offers count to: 0
Mon Nov 26 05:16:10 IST 2012	A Phase Ended: Communication Phase
Mon Nov 26 05:16:10 IST 2012	Protocol: A New Phase Began: Exchange Phase
Mon Nov 26 05:16:10 IST 2012	Protocol: Exchange phase, Round: 0
Mon Nov 26 05:16:10 IST 2012	In begin exch.phase, get counter offers returned: 0
Mon Nov 26 05:16:49 IST 2012	A Phase Ended: Exchange Phase
Mon Nov 26 05:16:49 IST 2012	Responder 337 sent: { chips  }
Mon Nov 26 05:16:49 IST 2012	Protocol: A New Phase Began: Movement Phase
Mon Nov 26 05:16:49 IST 2012	Protocol: Movement phase, Round: 0
Mon Nov 26 05:17:10 IST 2012	A Phase Ended: Movement Phase
Mon Nov 26 05:17:10 IST 2012	Protocol: A New Phase Began: Feedback Phase
Mon Nov 26 05:17:10 IST 2012	Protocol: Feedback phase, Round: 0
Mon Nov 26 05:17:10 IST 2012	Number of consecutive no movements for player 337 is 1
Mon Nov 26 05:17:10 IST 2012	Number of consecutive no movements for player 310 is 1
Mon Nov 26 05:17:15 IST 2012	A Phase Ended: Feedback Phase
Mon Nov 26 05:17:15 IST 2012	Protocol: A New Phase Began: Communication Phase
Mon Nov 26 05:17:15 IST 2012	Protocol: Communication phase, Round: 1
Mon Nov 26 05:18:35 IST 2012	Received communication message 
Mon Nov 26 05:18:35 IST 2012	From player: 310
Mon Nov 26 05:18:35 IST 2012	To player: 337
Mon Nov 26 05:18:35 IST 2012	Message type: basicproposal
Mon Nov 26 05:18:35 IST 2012	Chips to send by proposer: { chips  'CTRed':0 'CTPurple':0 'CTGreen':0 'grey78':2 'CTYellow':0 }
Mon Nov 26 05:18:35 IST 2012	Chips to send by responder: { chips  'CTRed':0 'CTPurple':0 'CTGreen':0 'grey78':0 'CTYellow':3 }
Mon Nov 26 05:19:22 IST 2012	Received communication message 
Mon Nov 26 05:19:22 IST 2012	From player: 337
Mon Nov 26 05:19:22 IST 2012	To player: 310
Mon Nov 26 05:19:22 IST 2012	Message type: basicproposaldiscussion
Mon Nov 26 05:19:22 IST 2012	Player 337 rejected offer
Mon Nov 26 05:19:22 IST 2012	Swaping roles:
Mon Nov 26 05:19:22 IST 2012	Proposer is: 337
Mon Nov 26 05:19:22 IST 2012	Responder is: 310
Mon Nov 26 05:19:22 IST 2012	Prop rejected, set counter offers count to: 1
Mon Nov 26 05:19:22 IST 2012	Prop rejected, get counter offers returned: 1
Mon Nov 26 05:19:26 IST 2012	Slept 4 seconds
Mon Nov 26 05:19:26 IST 2012	Sent role changed msgs
Mon Nov 26 05:20:26 IST 2012	Received communication message 
Mon Nov 26 05:20:26 IST 2012	From player: 337
Mon Nov 26 05:20:26 IST 2012	To player: 310
Mon Nov 26 05:20:26 IST 2012	Message type: basicproposal
Mon Nov 26 05:20:26 IST 2012	Chips to send by proposer: { chips  'CTRed':0 'CTPurple':0 'CTGreen':0 'grey78':0 'CTYellow':1 }
Mon Nov 26 05:20:26 IST 2012	Chips to send by responder: { chips  'CTRed':0 'CTPurple':0 'CTGreen':0 'grey78':2 'CTYellow':0 }
Mon Nov 26 05:20:40 IST 2012	Received communication message 
Mon Nov 26 05:20:40 IST 2012	From player: 310
Mon Nov 26 05:20:40 IST 2012	To player: 337
Mon Nov 26 05:20:40 IST 2012	Message type: basicproposaldiscussion
Mon Nov 26 05:20:40 IST 2012	Player 310 accepted offer
Mon Nov 26 05:20:40 IST 2012	Prop accepted, set counter offers count to: 0
Mon Nov 26 05:20:40 IST 2012	Prop accepted, get counter offers returned: 0
Mon Nov 26 05:20:40 IST 2012	A Phase Ended: Communication Phase
Mon Nov 26 05:20:40 IST 2012	Protocol: A New Phase Began: Exchange Phase
Mon Nov 26 05:20:40 IST 2012	Protocol: Exchange phase, Round: 1
Mon Nov 26 05:20:40 IST 2012	In begin exch.phase, get counter offers returned: 0
Mon Nov 26 05:21:09 IST 2012	A Phase Ended: Exchange Phase
Mon Nov 26 05:21:09 IST 2012	Proposer 337 sent: { chips  'CTRed':0 'CTPurple':0 'CTGreen':0 'grey78':0 'CTYellow':1 }
Mon Nov 26 05:21:09 IST 2012	Responder 310 sent: { chips  'CTRed':0 'CTPurple':0 'CTGreen':0 'grey78':2 'CTYellow':0 }
Mon Nov 26 05:21:09 IST 2012	Protocol: A New Phase Began: Movement Phase
Mon Nov 26 05:21:09 IST 2012	Protocol: Movement phase, Round: 1
Mon Nov 26 05:21:29 IST 2012	A Phase Ended: Movement Phase
Mon Nov 26 05:21:29 IST 2012	Protocol: A New Phase Began: Feedback Phase
Mon Nov 26 05:21:29 IST 2012	Protocol: Feedback phase, Round: 1
Mon Nov 26 05:21:29 IST 2012	Number of consecutive no movements for player 337 is 2
Mon Nov 26 05:21:29 IST 2012	Number of consecutive no movements for player 310 is 2
Mon Nov 26 05:21:34 IST 2012	A Phase Ended: Feedback Phase
Mon Nov 26 05:21:34 IST 2012	Protocol: A New Phase Began: Communication Phase
Mon Nov 26 05:21:34 IST 2012	Protocol: Communication phase, Round: 2
Mon Nov 26 05:22:34 IST 2012	Received communication message 
Mon Nov 26 05:22:34 IST 2012	From player: 337
Mon Nov 26 05:22:34 IST 2012	To player: 310
Mon Nov 26 05:22:34 IST 2012	Message type: basicproposal
Mon Nov 26 05:22:34 IST 2012	Chips to send by proposer: { chips  'CTYellow':1 }
Mon Nov 26 05:22:34 IST 2012	Chips to send by responder: { chips  'CTGreen':2 'grey78':1 }
Mon Nov 26 05:22:44 IST 2012	Received communication message 
Mon Nov 26 05:22:44 IST 2012	From player: 310
Mon Nov 26 05:22:44 IST 2012	To player: 337
Mon Nov 26 05:22:44 IST 2012	Message type: basicproposaldiscussion
Mon Nov 26 05:22:44 IST 2012	Player 310 rejected offer
Mon Nov 26 05:22:44 IST 2012	Swaping roles:
Mon Nov 26 05:22:44 IST 2012	Proposer is: 310
Mon Nov 26 05:22:44 IST 2012	Responder is: 337
Mon Nov 26 05:22:44 IST 2012	Prop rejected, set counter offers count to: 1
Mon Nov 26 05:22:44 IST 2012	Prop rejected, get counter offers returned: 1
Mon Nov 26 05:22:48 IST 2012	Slept 4 seconds
Mon Nov 26 05:22:48 IST 2012	Sent role changed msgs
Mon Nov 26 05:23:08 IST 2012	Received communication message 
Mon Nov 26 05:23:08 IST 2012	From player: 310
Mon Nov 26 05:23:08 IST 2012	To player: 337
Mon Nov 26 05:23:08 IST 2012	Message type: basicproposal
Mon Nov 26 05:23:08 IST 2012	Chips to send by proposer: { chips  'CTRed':0 'CTPurple':0 'CTGreen':0 'grey78':1 'CTYellow':0 }
Mon Nov 26 05:23:08 IST 2012	Chips to send by responder: { chips  'CTRed':0 'CTPurple':0 'CTGreen':3 'grey78':0 'CTYellow':2 }
Mon Nov 26 05:23:49 IST 2012	Received communication message 
Mon Nov 26 05:23:49 IST 2012	From player: 337
Mon Nov 26 05:23:49 IST 2012	To player: 310
Mon Nov 26 05:23:49 IST 2012	Message type: basicproposaldiscussion
Mon Nov 26 05:23:49 IST 2012	Player 337 rejected offer
Mon Nov 26 05:23:49 IST 2012	Set counter offers count to: 0
Mon Nov 26 05:23:49 IST 2012	A Phase Ended: Communication Phase
Mon Nov 26 05:23:49 IST 2012	Protocol: A New Phase Began: Exchange Phase
Mon Nov 26 05:23:49 IST 2012	Protocol: Exchange phase, Round: 2
Mon Nov 26 05:23:49 IST 2012	In begin exch.phase, get counter offers returned: 0
Mon Nov 26 05:24:29 IST 2012	A Phase Ended: Exchange Phase
Mon Nov 26 05:24:29 IST 2012	Responder 337 sent: { chips  }
Mon Nov 26 05:24:29 IST 2012	Protocol: A New Phase Began: Movement Phase
Mon Nov 26 05:24:29 IST 2012	Protocol: Movement phase, Round: 2
Mon Nov 26 05:24:29 IST 2012	Player 337 moved to (R:6,C:1)
Mon Nov 26 05:24:29 IST 2012	Player 310 moved to (R:6,C:3)
Mon Nov 26 05:24:49 IST 2012	A Phase Ended: Movement Phase
Mon Nov 26 05:24:49 IST 2012	Protocol: A New Phase Began: Feedback Phase
Mon Nov 26 05:24:49 IST 2012	Protocol: Feedback phase, Round: 2
Mon Nov 26 05:24:49 IST 2012	Number of consecutive no movements for player 337 is 0
Mon Nov 26 05:24:49 IST 2012	Number of consecutive no movements for player 310 is 0
Mon Nov 26 05:24:54 IST 2012	A Phase Ended: Feedback Phase
Mon Nov 26 05:24:54 IST 2012	Protocol: A New Phase Began: Communication Phase
Mon Nov 26 05:24:54 IST 2012	Protocol: Communication phase, Round: 3
Mon Nov 26 05:25:14 IST 2012	Received communication message 
Mon Nov 26 05:25:14 IST 2012	From player: 310
Mon Nov 26 05:25:14 IST 2012	To player: 337
Mon Nov 26 05:25:14 IST 2012	Message type: basicproposal
Mon Nov 26 05:25:14 IST 2012	Chips to send by proposer: { chips  'CTRed':0 'CTPurple':0 'CTGreen':2 'grey78':1 'CTYellow':0 }
Mon Nov 26 05:25:14 IST 2012	Chips to send by responder: { chips  'CTRed':0 'CTPurple':0 'CTGreen':0 'grey78':0 'CTYellow':2 }
Mon Nov 26 05:25:56 IST 2012	Received communication message 
Mon Nov 26 05:25:56 IST 2012	From player: 337
Mon Nov 26 05:25:56 IST 2012	To player: 310
Mon Nov 26 05:25:56 IST 2012	Message type: basicproposaldiscussion
Mon Nov 26 05:25:56 IST 2012	Player 337 accepted offer
Mon Nov 26 05:25:56 IST 2012	Prop accepted, set counter offers count to: 0
Mon Nov 26 05:25:56 IST 2012	Prop accepted, get counter offers returned: 0
Mon Nov 26 05:25:56 IST 2012	A Phase Ended: Communication Phase
Mon Nov 26 05:25:56 IST 2012	Protocol: A New Phase Began: Exchange Phase
Mon Nov 26 05:25:56 IST 2012	Protocol: Exchange phase, Round: 3
Mon Nov 26 05:25:56 IST 2012	In begin exch.phase, get counter offers returned: 0
Mon Nov 26 05:26:25 IST 2012	A Phase Ended: Exchange Phase
Mon Nov 26 05:26:25 IST 2012	Proposer 310 sent: { chips  }
Mon Nov 26 05:26:25 IST 2012	Responder 337 sent: { chips  'CTRed':0 'CTPurple':0 'CTGreen':0 'grey78':0 'CTYellow':2 }
Mon Nov 26 05:26:25 IST 2012	Protocol: A New Phase Began: Movement Phase
Mon Nov 26 05:26:25 IST 2012	Protocol: Movement phase, Round: 3
Mon Nov 26 05:26:25 IST 2012	Player 310 moved to (R:5,C:3)
Mon Nov 26 05:26:46 IST 2012	A Phase Ended: Movement Phase
Mon Nov 26 05:26:46 IST 2012	Swaping roles:
Mon Nov 26 05:26:46 IST 2012	Proposer is: 337
Mon Nov 26 05:26:46 IST 2012	Responder is: 310
Mon Nov 26 05:26:46 IST 2012	Protocol: A New Phase Began: Feedback Phase
Mon Nov 26 05:26:46 IST 2012	Protocol: Feedback phase, Round: 3
Mon Nov 26 05:26:46 IST 2012	Number of consecutive no movements for player 337 is 1
Mon Nov 26 05:26:46 IST 2012	Number of consecutive no movements for player 310 is 0
Mon Nov 26 05:26:51 IST 2012	A Phase Ended: Feedback Phase
Mon Nov 26 05:26:51 IST 2012	Protocol: A New Phase Began: Communication Phase
Mon Nov 26 05:26:51 IST 2012	Protocol: Communication phase, Round: 4
Mon Nov 26 05:27:51 IST 2012	Received communication message 
Mon Nov 26 05:27:51 IST 2012	From player: 337
Mon Nov 26 05:27:51 IST 2012	To player: 310
Mon Nov 26 05:27:51 IST 2012	Message type: basicproposal
Mon Nov 26 05:27:51 IST 2012	Chips to send by proposer: { chips  'CTYellow':1 }
Mon Nov 26 05:27:51 IST 2012	Chips to send by responder: { chips  'grey78':1 }
Mon Nov 26 05:28:04 IST 2012	Received communication message 
Mon Nov 26 05:28:04 IST 2012	From player: 310
Mon Nov 26 05:28:04 IST 2012	To player: 337
Mon Nov 26 05:28:04 IST 2012	Message type: basicproposaldiscussion
Mon Nov 26 05:28:04 IST 2012	Player 310 rejected offer
Mon Nov 26 05:28:04 IST 2012	Swaping roles:
Mon Nov 26 05:28:04 IST 2012	Proposer is: 310
Mon Nov 26 05:28:04 IST 2012	Responder is: 337
Mon Nov 26 05:28:04 IST 2012	Prop rejected, set counter offers count to: 1
Mon Nov 26 05:28:04 IST 2012	Prop rejected, get counter offers returned: 1
Mon Nov 26 05:28:08 IST 2012	Slept 4 seconds
Mon Nov 26 05:28:08 IST 2012	Sent role changed msgs
Mon Nov 26 05:28:20 IST 2012	Received communication message 
Mon Nov 26 05:28:20 IST 2012	From player: 310
Mon Nov 26 05:28:20 IST 2012	To player: 337
Mon Nov 26 05:28:20 IST 2012	Message type: basicproposal
Mon Nov 26 05:28:20 IST 2012	Chips to send by proposer: { chips  'CTRed':0 'CTPurple':0 'CTGreen':0 'grey78':1 'CTYellow':0 }
Mon Nov 26 05:28:20 IST 2012	Chips to send by responder: { chips  'CTRed':0 'CTPurple':0 'CTGreen':7 'grey78':0 'CTYellow':0 }
Mon Nov 26 05:28:46 IST 2012	Received communication message 
Mon Nov 26 05:28:46 IST 2012	From player: 337
Mon Nov 26 05:28:46 IST 2012	To player: 310
Mon Nov 26 05:28:46 IST 2012	Message type: basicproposaldiscussion
Mon Nov 26 05:28:46 IST 2012	Player 337 rejected offer
Mon Nov 26 05:28:46 IST 2012	Set counter offers count to: 0
Mon Nov 26 05:28:46 IST 2012	A Phase Ended: Communication Phase
Mon Nov 26 05:28:46 IST 2012	Protocol: A New Phase Began: Exchange Phase
Mon Nov 26 05:28:46 IST 2012	Protocol: Exchange phase, Round: 4
Mon Nov 26 05:28:46 IST 2012	In begin exch.phase, get counter offers returned: 0
Mon Nov 26 05:29:26 IST 2012	A Phase Ended: Exchange Phase
Mon Nov 26 05:29:26 IST 2012	Responder 337 sent: { chips  }
Mon Nov 26 05:29:26 IST 2012	Protocol: A New Phase Began: Movement Phase
Mon Nov 26 05:29:26 IST 2012	Protocol: Movement phase, Round: 4
Mon Nov 26 05:29:26 IST 2012	Player 310 moved to (R:4,C:3)
Mon Nov 26 05:29:46 IST 2012	A Phase Ended: Movement Phase
Mon Nov 26 05:29:46 IST 2012	Protocol: A New Phase Began: Feedback Phase
Mon Nov 26 05:29:46 IST 2012	Protocol: Feedback phase, Round: 4
Mon Nov 26 05:29:46 IST 2012	Number of consecutive no movements for player 337 is 2
Mon Nov 26 05:29:46 IST 2012	Number of consecutive no movements for player 310 is 0
Mon Nov 26 05:29:51 IST 2012	A Phase Ended: Feedback Phase
Mon Nov 26 05:29:51 IST 2012	Protocol: A New Phase Began: Communication Phase
Mon Nov 26 05:29:51 IST 2012	Protocol: Communication phase, Round: 5
Mon Nov 26 05:30:08 IST 2012	Received communication message 
Mon Nov 26 05:30:08 IST 2012	From player: 310
Mon Nov 26 05:30:08 IST 2012	To player: 337
Mon Nov 26 05:30:08 IST 2012	Message type: basicproposal
Mon Nov 26 05:30:08 IST 2012	Chips to send by proposer: { chips  'CTRed':0 'CTPurple':0 'CTGreen':0 'grey78':1 'CTYellow':0 }
Mon Nov 26 05:30:08 IST 2012	Chips to send by responder: { chips  'CTRed':0 'CTPurple':0 'CTGreen':7 'grey78':0 'CTYellow':0 }
Mon Nov 26 05:30:35 IST 2012	Received communication message 
Mon Nov 26 05:30:35 IST 2012	From player: 337
Mon Nov 26 05:30:35 IST 2012	To player: 310
Mon Nov 26 05:30:35 IST 2012	Message type: basicproposaldiscussion
Mon Nov 26 05:30:35 IST 2012	Player 337 rejected offer
Mon Nov 26 05:30:35 IST 2012	Swaping roles:
Mon Nov 26 05:30:35 IST 2012	Proposer is: 337
Mon Nov 26 05:30:35 IST 2012	Responder is: 310
Mon Nov 26 05:30:35 IST 2012	Prop rejected, set counter offers count to: 1
Mon Nov 26 05:30:35 IST 2012	Prop rejected, get counter offers returned: 1
Mon Nov 26 05:30:39 IST 2012	Slept 4 seconds
Mon Nov 26 05:30:39 IST 2012	Sent role changed msgs
Mon Nov 26 05:31:39 IST 2012	Received communication message 
Mon Nov 26 05:31:39 IST 2012	From player: 337
Mon Nov 26 05:31:39 IST 2012	To player: 310
Mon Nov 26 05:31:39 IST 2012	Message type: basicproposal
Mon Nov 26 05:31:39 IST 2012	Chips to send by proposer: { chips  'CTRed':0 'CTPurple':0 'CTGreen':1 'grey78':0 'CTYellow':0 }
Mon Nov 26 05:31:39 IST 2012	Chips to send by responder: { chips  'CTRed':0 'CTPurple':0 'CTGreen':0 'grey78':1 'CTYellow':0 }
Mon Nov 26 05:31:46 IST 2012	Received communication message 
Mon Nov 26 05:31:46 IST 2012	From player: 310
Mon Nov 26 05:31:46 IST 2012	To player: 337
Mon Nov 26 05:31:46 IST 2012	Message type: basicproposaldiscussion
Mon Nov 26 05:31:46 IST 2012	Player 310 accepted offer
Mon Nov 26 05:31:46 IST 2012	Prop accepted, set counter offers count to: 0
Mon Nov 26 05:31:46 IST 2012	Prop accepted, get counter offers returned: 0
Mon Nov 26 05:31:46 IST 2012	A Phase Ended: Communication Phase
Mon Nov 26 05:31:46 IST 2012	Protocol: A New Phase Began: Exchange Phase
Mon Nov 26 05:31:46 IST 2012	Protocol: Exchange phase, Round: 5
Mon Nov 26 05:31:46 IST 2012	In begin exch.phase, get counter offers returned: 0
Mon Nov 26 05:32:06 IST 2012	A Phase Ended: Exchange Phase
Mon Nov 26 05:32:06 IST 2012	Proposer 337 sent: { chips  'CTRed':0 'CTPurple':0 'CTGreen':1 'grey78':0 'CTYellow':0 }
Mon Nov 26 05:32:06 IST 2012	Responder 310 sent: { chips  }
Mon Nov 26 05:32:06 IST 2012	Protocol: A New Phase Began: Movement Phase
Mon Nov 26 05:32:06 IST 2012	Protocol: Movement phase, Round: 5
Mon Nov 26 05:32:06 IST 2012	Player 310 moved to (R:3,C:3)
Mon Nov 26 05:32:06 IST 2012	Player 337 moved to (R:5,C:1)
Mon Nov 26 05:32:26 IST 2012	A Phase Ended: Movement Phase
Mon Nov 26 05:32:26 IST 2012	Protocol: A New Phase Began: Feedback Phase
Mon Nov 26 05:32:26 IST 2012	Protocol: Feedback phase, Round: 5
Mon Nov 26 05:32:26 IST 2012	Number of consecutive no movements for player 337 is 0
Mon Nov 26 05:32:26 IST 2012	Number of consecutive no movements for player 310 is 0
Mon Nov 26 05:32:31 IST 2012	A Phase Ended: Feedback Phase
Mon Nov 26 05:32:31 IST 2012	Protocol: A New Phase Began: Communication Phase
Mon Nov 26 05:32:31 IST 2012	Protocol: Communication phase, Round: 6
Mon Nov 26 05:33:31 IST 2012	Received communication message 
Mon Nov 26 05:33:31 IST 2012	From player: 337
Mon Nov 26 05:33:31 IST 2012	To player: 310
Mon Nov 26 05:33:31 IST 2012	Message type: basicproposal
Mon Nov 26 05:33:31 IST 2012	Chips to send by proposer: { chips  'CTYellow':1 }
Mon Nov 26 05:33:31 IST 2012	Chips to send by responder: { chips  'grey78':1 }
Mon Nov 26 05:33:40 IST 2012	Received communication message 
Mon Nov 26 05:33:40 IST 2012	From player: 310
Mon Nov 26 05:33:40 IST 2012	To player: 337
Mon Nov 26 05:33:40 IST 2012	Message type: basicproposaldiscussion
Mon Nov 26 05:33:40 IST 2012	Player 310 rejected offer
Mon Nov 26 05:33:40 IST 2012	Swaping roles:
Mon Nov 26 05:33:40 IST 2012	Proposer is: 310
Mon Nov 26 05:33:40 IST 2012	Responder is: 337
Mon Nov 26 05:33:40 IST 2012	Prop rejected, set counter offers count to: 1
Mon Nov 26 05:33:40 IST 2012	Prop rejected, get counter offers returned: 1
Mon Nov 26 05:33:45 IST 2012	Slept 4 seconds
Mon Nov 26 05:33:45 IST 2012	Sent role changed msgs
Mon Nov 26 05:34:00 IST 2012	Received communication message 
Mon Nov 26 05:34:00 IST 2012	From player: 310
Mon Nov 26 05:34:00 IST 2012	To player: 337
Mon Nov 26 05:34:00 IST 2012	Message type: basicproposal
Mon Nov 26 05:34:00 IST 2012	Chips to send by proposer: { chips  'CTRed':0 'CTPurple':0 'CTGreen':0 'grey78':1 'CTYellow':0 }
Mon Nov 26 05:34:00 IST 2012	Chips to send by responder: { chips  'CTRed':0 'CTPurple':0 'CTGreen':7 'grey78':0 'CTYellow':0 }
Mon Nov 26 05:34:24 IST 2012	Received communication message 
Mon Nov 26 05:34:24 IST 2012	From player: 337
Mon Nov 26 05:34:24 IST 2012	To player: 310
Mon Nov 26 05:34:24 IST 2012	Message type: basicproposaldiscussion
Mon Nov 26 05:34:24 IST 2012	Player 337 rejected offer
Mon Nov 26 05:34:24 IST 2012	Set counter offers count to: 0
Mon Nov 26 05:34:24 IST 2012	A Phase Ended: Communication Phase
Mon Nov 26 05:34:24 IST 2012	Protocol: A New Phase Began: Exchange Phase
Mon Nov 26 05:34:24 IST 2012	Protocol: Exchange phase, Round: 6
Mon Nov 26 05:34:24 IST 2012	In begin exch.phase, get counter offers returned: 0
Mon Nov 26 05:35:04 IST 2012	A Phase Ended: Exchange Phase
Mon Nov 26 05:35:04 IST 2012	Responder 337 sent: { chips  }
Mon Nov 26 05:35:04 IST 2012	Protocol: A New Phase Began: Movement Phase
Mon Nov 26 05:35:04 IST 2012	Protocol: Movement phase, Round: 6
Mon Nov 26 05:35:04 IST 2012	Player 310 moved to (R:2,C:3)
Mon Nov 26 05:35:24 IST 2012	A Phase Ended: Movement Phase
Mon Nov 26 05:35:24 IST 2012	Protocol: A New Phase Began: Feedback Phase
Mon Nov 26 05:35:24 IST 2012	Protocol: Feedback phase, Round: 6
Mon Nov 26 05:35:24 IST 2012	Number of consecutive no movements for player 337 is 1
Mon Nov 26 05:35:24 IST 2012	Number of consecutive no movements for player 310 is 0
Mon Nov 26 05:35:29 IST 2012	A Phase Ended: Feedback Phase
Mon Nov 26 05:35:29 IST 2012	Protocol: A New Phase Began: Communication Phase
Mon Nov 26 05:35:29 IST 2012	Protocol: Communication phase, Round: 7
Mon Nov 26 05:35:47 IST 2012	Received communication message 
Mon Nov 26 05:35:47 IST 2012	From player: 310
Mon Nov 26 05:35:47 IST 2012	To player: 337
Mon Nov 26 05:35:47 IST 2012	Message type: basicproposal
Mon Nov 26 05:35:47 IST 2012	Chips to send by proposer: { chips  'CTRed':0 'CTPurple':0 'CTGreen':0 'grey78':1 'CTYellow':0 }
Mon Nov 26 05:35:47 IST 2012	Chips to send by responder: { chips  'CTRed':0 'CTPurple':0 'CTGreen':6 'grey78':0 'CTYellow':0 }
Mon Nov 26 05:36:08 IST 2012	Received communication message 
Mon Nov 26 05:36:08 IST 2012	From player: 337
Mon Nov 26 05:36:08 IST 2012	To player: 310
Mon Nov 26 05:36:08 IST 2012	Message type: basicproposaldiscussion
Mon Nov 26 05:36:08 IST 2012	Player 337 rejected offer
Mon Nov 26 05:36:08 IST 2012	Swaping roles:
Mon Nov 26 05:36:08 IST 2012	Proposer is: 337
Mon Nov 26 05:36:08 IST 2012	Responder is: 310
Mon Nov 26 05:36:08 IST 2012	Prop rejected, set counter offers count to: 1
Mon Nov 26 05:36:08 IST 2012	Prop rejected, get counter offers returned: 1
Mon Nov 26 05:36:12 IST 2012	Slept 4 seconds
Mon Nov 26 05:36:12 IST 2012	Sent role changed msgs
Mon Nov 26 05:37:12 IST 2012	Received communication message 
Mon Nov 26 05:37:12 IST 2012	From player: 337
Mon Nov 26 05:37:12 IST 2012	To player: 310
Mon Nov 26 05:37:12 IST 2012	Message type: basicproposal
Mon Nov 26 05:37:12 IST 2012	Chips to send by proposer: { chips  'CTRed':0 'CTPurple':0 'CTGreen':1 'grey78':0 'CTYellow':0 }
Mon Nov 26 05:37:12 IST 2012	Chips to send by responder: { chips  'CTRed':0 'CTPurple':0 'CTGreen':0 'grey78':1 'CTYellow':0 }
Mon Nov 26 05:37:24 IST 2012	Received communication message 
Mon Nov 26 05:37:24 IST 2012	From player: 310
Mon Nov 26 05:37:24 IST 2012	To player: 337
Mon Nov 26 05:37:24 IST 2012	Message type: basicproposaldiscussion
Mon Nov 26 05:37:24 IST 2012	Player 310 accepted offer
Mon Nov 26 05:37:24 IST 2012	Prop accepted, set counter offers count to: 0
Mon Nov 26 05:37:24 IST 2012	Prop accepted, get counter offers returned: 0
Mon Nov 26 05:37:24 IST 2012	A Phase Ended: Communication Phase
Mon Nov 26 05:37:24 IST 2012	Protocol: A New Phase Began: Exchange Phase
Mon Nov 26 05:37:24 IST 2012	Protocol: Exchange phase, Round: 7
Mon Nov 26 05:37:24 IST 2012	In begin exch.phase, get counter offers returned: 0
Mon Nov 26 05:37:40 IST 2012	A Phase Ended: Exchange Phase
Mon Nov 26 05:37:40 IST 2012	Proposer 337 sent: { chips  'CTRed':0 'CTPurple':0 'CTGreen':1 'grey78':0 'CTYellow':0 }
Mon Nov 26 05:37:40 IST 2012	Responder 310 sent: { chips  }
Mon Nov 26 05:37:40 IST 2012	Protocol: A New Phase Began: Movement Phase
Mon Nov 26 05:37:40 IST 2012	Protocol: Movement phase, Round: 7
Mon Nov 26 05:37:40 IST 2012	Player 310 moved to (R:1,C:3)
Mon Nov 26 05:38:00 IST 2012	A Phase Ended: Movement Phase
Mon Nov 26 05:38:00 IST 2012	Protocol: A New Phase Began: Feedback Phase
Mon Nov 26 05:38:00 IST 2012	Protocol: Feedback phase, Round: 7
Mon Nov 26 05:38:00 IST 2012	Number of consecutive no movements for player 337 is 2
Mon Nov 26 05:38:00 IST 2012	Number of consecutive no movements for player 310 is 0
Mon Nov 26 05:38:05 IST 2012	A Phase Ended: Feedback Phase
Mon Nov 26 05:38:05 IST 2012	Protocol: A New Phase Began: Communication Phase
Mon Nov 26 05:38:05 IST 2012	Protocol: Communication phase, Round: 8
Mon Nov 26 05:39:02 IST 2012	Received communication message 
Mon Nov 26 05:39:02 IST 2012	From player: 337
Mon Nov 26 05:39:02 IST 2012	To player: 310
Mon Nov 26 05:39:02 IST 2012	Message type: basicproposal
Mon Nov 26 05:39:02 IST 2012	Chips to send by proposer: { chips  'CTYellow':1 }
Mon Nov 26 05:39:02 IST 2012	Chips to send by responder: { chips  'grey78':1 }
Mon Nov 26 05:39:14 IST 2012	Received communication message 
Mon Nov 26 05:39:14 IST 2012	From player: 310
Mon Nov 26 05:39:14 IST 2012	To player: 337
Mon Nov 26 05:39:14 IST 2012	Message type: basicproposaldiscussion
Mon Nov 26 05:39:14 IST 2012	Player 310 rejected offer
Mon Nov 26 05:39:14 IST 2012	Swaping roles:
Mon Nov 26 05:39:14 IST 2012	Proposer is: 310
Mon Nov 26 05:39:14 IST 2012	Responder is: 337
Mon Nov 26 05:39:14 IST 2012	Prop rejected, set counter offers count to: 1
Mon Nov 26 05:39:14 IST 2012	Prop rejected, get counter offers returned: 1
Mon Nov 26 05:39:18 IST 2012	Slept 4 seconds
Mon Nov 26 05:39:18 IST 2012	Sent role changed msgs
Mon Nov 26 05:39:32 IST 2012	Received communication message 
Mon Nov 26 05:39:32 IST 2012	From player: 310
Mon Nov 26 05:39:32 IST 2012	To player: 337
Mon Nov 26 05:39:32 IST 2012	Message type: basicproposal
Mon Nov 26 05:39:32 IST 2012	Chips to send by proposer: { chips  'CTRed':0 'CTPurple':0 'CTGreen':0 'grey78':1 'CTYellow':0 }
Mon Nov 26 05:39:32 IST 2012	Chips to send by responder: { chips  'CTRed':0 'CTPurple':0 'CTGreen':4 'grey78':0 'CTYellow':0 }
Mon Nov 26 05:39:50 IST 2012	Received communication message 
Mon Nov 26 05:39:50 IST 2012	From player: 337
Mon Nov 26 05:39:50 IST 2012	To player: 310
Mon Nov 26 05:39:50 IST 2012	Message type: basicproposaldiscussion
Mon Nov 26 05:39:50 IST 2012	Player 337 rejected offer
Mon Nov 26 05:39:50 IST 2012	Set counter offers count to: 0
Mon Nov 26 05:39:50 IST 2012	A Phase Ended: Communication Phase
Mon Nov 26 05:39:50 IST 2012	Protocol: A New Phase Began: Exchange Phase
Mon Nov 26 05:39:50 IST 2012	Protocol: Exchange phase, Round: 8
Mon Nov 26 05:39:50 IST 2012	In begin exch.phase, get counter offers returned: 0
Mon Nov 26 05:40:30 IST 2012	A Phase Ended: Exchange Phase
Mon Nov 26 05:40:30 IST 2012	Responder 337 sent: { chips  }
Mon Nov 26 05:40:30 IST 2012	Protocol: A New Phase Began: Movement Phase
Mon Nov 26 05:40:30 IST 2012	Protocol: Movement phase, Round: 8
Mon Nov 26 05:40:30 IST 2012	Player 310 moved to (R:0,C:3)
Mon Nov 26 05:40:30 IST 2012	Player 337 moved to (R:4,C:1)
Mon Nov 26 05:40:50 IST 2012	A Phase Ended: Movement Phase
Mon Nov 26 05:40:50 IST 2012	Protocol: A New Phase Began: Feedback Phase
Mon Nov 26 05:40:50 IST 2012	Protocol: Feedback phase, Round: 8
Mon Nov 26 05:40:50 IST 2012	Number of consecutive no movements for player 337 is 0
Mon Nov 26 05:40:50 IST 2012	Number of consecutive no movements for player 310 is 0
Mon Nov 26 05:40:56 IST 2012	A Phase Ended: Feedback Phase
Mon Nov 26 05:40:56 IST 2012	Protocol: A New Phase Began: Communication Phase
Mon Nov 26 05:40:56 IST 2012	Protocol: Communication phase, Round: 9
Mon Nov 26 05:41:12 IST 2012	Received communication message 
Mon Nov 26 05:41:12 IST 2012	From player: 310
Mon Nov 26 05:41:12 IST 2012	To player: 337
Mon Nov 26 05:41:12 IST 2012	Message type: basicproposal
Mon Nov 26 05:41:12 IST 2012	Chips to send by proposer: { chips  'CTRed':0 'CTPurple':0 'CTGreen':0 'grey78':1 'CTYellow':0 }
Mon Nov 26 05:41:12 IST 2012	Chips to send by responder: { chips  'CTRed':0 'CTPurple':0 'CTGreen':4 'grey78':0 'CTYellow':0 }
Mon Nov 26 05:41:24 IST 2012	Received communication message 
Mon Nov 26 05:41:24 IST 2012	From player: 337
Mon Nov 26 05:41:24 IST 2012	To player: 310
Mon Nov 26 05:41:24 IST 2012	Message type: basicproposaldiscussion
Mon Nov 26 05:41:24 IST 2012	Player 337 rejected offer
Mon Nov 26 05:41:24 IST 2012	Swaping roles:
Mon Nov 26 05:41:24 IST 2012	Proposer is: 337
Mon Nov 26 05:41:24 IST 2012	Responder is: 310
Mon Nov 26 05:41:24 IST 2012	Prop rejected, set counter offers count to: 1
Mon Nov 26 05:41:24 IST 2012	Prop rejected, get counter offers returned: 1
Mon Nov 26 05:41:28 IST 2012	Slept 4 seconds
Mon Nov 26 05:41:28 IST 2012	Sent role changed msgs
Mon Nov 26 05:42:07 IST 2012	Received communication message 
Mon Nov 26 05:42:07 IST 2012	From player: 337
Mon Nov 26 05:42:07 IST 2012	To player: 310
Mon Nov 26 05:42:07 IST 2012	Message type: basicproposal
Mon Nov 26 05:42:07 IST 2012	Chips to send by proposer: { chips  'CTRed':0 'CTPurple':0 'CTGreen':0 'grey78':0 'CTYellow':1 }
Mon Nov 26 05:42:07 IST 2012	Chips to send by responder: { chips  'CTRed':0 'CTPurple':0 'CTGreen':0 'grey78':1 'CTYellow':0 }
Mon Nov 26 05:42:14 IST 2012	Received communication message 
Mon Nov 26 05:42:14 IST 2012	From player: 310
Mon Nov 26 05:42:14 IST 2012	To player: 337
Mon Nov 26 05:42:14 IST 2012	Message type: basicproposaldiscussion
Mon Nov 26 05:42:14 IST 2012	Player 310 rejected offer
Mon Nov 26 05:42:14 IST 2012	Set counter offers count to: 0
Mon Nov 26 05:42:14 IST 2012	A Phase Ended: Communication Phase
Mon Nov 26 05:42:14 IST 2012	Protocol: A New Phase Began: Exchange Phase
Mon Nov 26 05:42:14 IST 2012	Protocol: Exchange phase, Round: 9
Mon Nov 26 05:42:14 IST 2012	In begin exch.phase, get counter offers returned: 0
Mon Nov 26 05:42:54 IST 2012	A Phase Ended: Exchange Phase
Mon Nov 26 05:42:54 IST 2012	Proposer 337 sent: { chips  }
Mon Nov 26 05:42:54 IST 2012	Protocol: A New Phase Began: Movement Phase
Mon Nov 26 05:42:54 IST 2012	Protocol: Movement phase, Round: 9
Mon Nov 26 05:42:54 IST 2012	Player 310 moved to (R:0,C:2)
Mon Nov 26 05:42:58 IST 2012	Slept 4 seconds
Mon Nov 26 05:42:58 IST 2012	Player 310 got to goal, advance the other and end game
Mon Nov 26 05:42:58 IST 2012	Player: 337 ,role: Proposer score is: 50
Mon Nov 26 05:42:58 IST 2012	Player: 310 ,role: Responder score is: 195
