Sun Nov 25 16:50:12 IST 2012	This is the CT debug logger; svn version 638; sep 27 09
Sun Nov 25 16:50:12 IST 2012	Sun Nov 25 16:50:12 IST 2012
Sun Nov 25 16:50:12 IST 2012	A new Alternative Offers game has began
Sun Nov 25 16:50:12 IST 2012	ID Number: 32102
Sun Nov 25 16:50:12 IST 2012	Creating board
Sun Nov 25 16:50:12 IST 2012	<colors>
Sun Nov 25 16:50:12 IST 2012	{ GamePalette  'CTRed':0 'CTPurple':1 'CTGreen':2 'grey78':3 'CTYellow':4 }
Sun Nov 25 16:50:12 IST 2012	<rows>
Sun Nov 25 16:50:12 IST 2012	7
Sun Nov 25 16:50:12 IST 2012	<columns>
Sun Nov 25 16:50:12 IST 2012	5
Sun Nov 25 16:50:12 IST 2012	<squaresColors>
Sun Nov 25 16:50:12 IST 2012	CTPurple CTRed CTRed CTGreen CTPurple 
Sun Nov 25 16:50:12 IST 2012	CTPurple grey78 CTPurple CTYellow CTPurple 
Sun Nov 25 16:50:12 IST 2012	CTPurple CTRed CTPurple CTGreen CTPurple 
Sun Nov 25 16:50:12 IST 2012	CTPurple grey78 CTPurple CTYellow CTPurple 
Sun Nov 25 16:50:12 IST 2012	CTPurple CTRed CTPurple CTGreen CTPurple 
Sun Nov 25 16:50:12 IST 2012	CTPurple grey78 CTPurple CTYellow CTPurple 
Sun Nov 25 16:50:12 IST 2012	CTPurple CTRed CTPurple CTGreen CTPurple 
Sun Nov 25 16:50:12 IST 2012	</squareColors>
Sun Nov 25 16:50:12 IST 2012	<goalPosition>
Sun Nov 25 16:50:12 IST 2012	Goal position: (R:0,C:2)
Sun Nov 25 16:50:12 IST 2012	<numberOfPlayers>
Sun Nov 25 16:50:12 IST 2012	2
Sun Nov 25 16:50:12 IST 2012	<firstPlayerChips>
Sun Nov 25 16:50:12 IST 2012	Setting chips for player: 337 id:0
Sun Nov 25 16:50:12 IST 2012	{ chips  'CTRed':5 'CTGreen':10 'CTPurple':0 'grey78':0 'CTYellow':9 }
Sun Nov 25 16:50:12 IST 2012	Player position: (R:6,C:0)
Sun Nov 25 16:50:12 IST 2012	Setting chips for player: 310 id:1
Sun Nov 25 16:50:12 IST 2012	{ chips  'CTRed':1 'CTGreen':13 'CTPurple':0 'grey78':10 'CTYellow':0 }
Sun Nov 25 16:50:12 IST 2012	Player position: (R:6,C:4)
Sun Nov 25 16:50:12 IST 2012	Protocol: A New Phase Began: Strategy Prep Phase
Sun Nov 25 16:50:12 IST 2012	Protocol: Strategy Preparation phase, Round: 0
Sun Nov 25 16:50:12 IST 2012	Maximum number of rounds with no consecutive movement is 3
Sun Nov 25 16:50:12 IST 2012	In begin comm. phase, set counter offers count to: 0
Sun Nov 25 16:50:12 IST 2012	In begin comm. phase, get counter offers returned: 0
Sun Nov 25 16:50:32 IST 2012	A Phase Ended: Strategy Prep Phase
Sun Nov 25 16:50:32 IST 2012	Protocol: A New Phase Began: Communication Phase
Sun Nov 25 16:50:32 IST 2012	Protocol: Communication phase, Round: 0
Sun Nov 25 16:51:32 IST 2012	Received communication message 
Sun Nov 25 16:51:32 IST 2012	From player: 337
Sun Nov 25 16:51:32 IST 2012	To player: 310
Sun Nov 25 16:51:32 IST 2012	Message type: basicproposal
Sun Nov 25 16:51:32 IST 2012	Chips to send by proposer: { chips  'CTGreen':1 }
Sun Nov 25 16:51:32 IST 2012	Chips to send by responder: { chips  'grey78':1 }
Sun Nov 25 16:51:46 IST 2012	Received communication message 
Sun Nov 25 16:51:46 IST 2012	From player: 310
Sun Nov 25 16:51:46 IST 2012	To player: 337
Sun Nov 25 16:51:46 IST 2012	Message type: basicproposaldiscussion
Sun Nov 25 16:51:46 IST 2012	Player 310 accepted offer
Sun Nov 25 16:51:46 IST 2012	Prop accepted, set counter offers count to: 0
Sun Nov 25 16:51:46 IST 2012	Prop accepted, get counter offers returned: 0
Sun Nov 25 16:51:46 IST 2012	A Phase Ended: Communication Phase
Sun Nov 25 16:51:46 IST 2012	Protocol: A New Phase Began: Exchange Phase
Sun Nov 25 16:51:46 IST 2012	Protocol: Exchange phase, Round: 0
Sun Nov 25 16:51:46 IST 2012	In begin exch.phase, get counter offers returned: 0
Sun Nov 25 16:52:15 IST 2012	A Phase Ended: Exchange Phase
Sun Nov 25 16:52:15 IST 2012	Proposer 337 sent: { chips  'CTRed':0 'CTPurple':0 'CTGreen':1 'grey78':0 'CTYellow':0 }
Sun Nov 25 16:52:15 IST 2012	Responder 310 sent: { chips  'CTRed':0 'CTPurple':0 'CTGreen':0 'grey78':1 'CTYellow':0 }
Sun Nov 25 16:52:16 IST 2012	Protocol: A New Phase Began: Movement Phase
Sun Nov 25 16:52:16 IST 2012	Protocol: Movement phase, Round: 0
Sun Nov 25 16:52:36 IST 2012	A Phase Ended: Movement Phase
Sun Nov 25 16:52:36 IST 2012	Swaping roles:
Sun Nov 25 16:52:36 IST 2012	Proposer is: 310
Sun Nov 25 16:52:36 IST 2012	Responder is: 337
Sun Nov 25 16:52:36 IST 2012	Protocol: A New Phase Began: Feedback Phase
Sun Nov 25 16:52:36 IST 2012	Protocol: Feedback phase, Round: 0
Sun Nov 25 16:52:36 IST 2012	Number of consecutive no movements for player 337 is 1
Sun Nov 25 16:52:36 IST 2012	Number of consecutive no movements for player 310 is 1
Sun Nov 25 16:52:41 IST 2012	A Phase Ended: Feedback Phase
Sun Nov 25 16:52:41 IST 2012	Protocol: A New Phase Began: Communication Phase
Sun Nov 25 16:52:41 IST 2012	Protocol: Communication phase, Round: 1
Sun Nov 25 16:53:21 IST 2012	Received communication message 
Sun Nov 25 16:53:21 IST 2012	From player: 310
Sun Nov 25 16:53:21 IST 2012	To player: 337
Sun Nov 25 16:53:21 IST 2012	Message type: basicproposal
Sun Nov 25 16:53:21 IST 2012	Chips to send by proposer: { chips  'CTRed':0 'CTPurple':0 'CTGreen':0 'grey78':1 'CTYellow':0 }
Sun Nov 25 16:53:21 IST 2012	Chips to send by responder: { chips  'CTRed':0 'CTPurple':0 'CTGreen':2 'grey78':0 'CTYellow':2 }
Sun Nov 25 16:54:03 IST 2012	Received communication message 
Sun Nov 25 16:54:03 IST 2012	From player: 337
Sun Nov 25 16:54:03 IST 2012	To player: 310
Sun Nov 25 16:54:03 IST 2012	Message type: basicproposaldiscussion
Sun Nov 25 16:54:03 IST 2012	Player 337 rejected offer
Sun Nov 25 16:54:03 IST 2012	Swaping roles:
Sun Nov 25 16:54:03 IST 2012	Proposer is: 337
Sun Nov 25 16:54:03 IST 2012	Responder is: 310
Sun Nov 25 16:54:03 IST 2012	Prop rejected, set counter offers count to: 1
Sun Nov 25 16:54:03 IST 2012	Prop rejected, get counter offers returned: 1
Sun Nov 25 16:54:07 IST 2012	Slept 4 seconds
Sun Nov 25 16:54:07 IST 2012	Sent role changed msgs
Sun Nov 25 16:55:07 IST 2012	Received communication message 
Sun Nov 25 16:55:07 IST 2012	From player: 337
Sun Nov 25 16:55:07 IST 2012	To player: 310
Sun Nov 25 16:55:07 IST 2012	Message type: basicproposal
Sun Nov 25 16:55:07 IST 2012	Chips to send by proposer: { chips  'CTRed':0 'CTPurple':0 'CTGreen':1 'grey78':0 'CTYellow':0 }
Sun Nov 25 16:55:07 IST 2012	Chips to send by responder: { chips  'CTRed':0 'CTPurple':0 'CTGreen':0 'grey78':1 'CTYellow':0 }
Sun Nov 25 16:55:14 IST 2012	Received communication message 
Sun Nov 25 16:55:14 IST 2012	From player: 310
Sun Nov 25 16:55:14 IST 2012	To player: 337
Sun Nov 25 16:55:14 IST 2012	Message type: basicproposaldiscussion
Sun Nov 25 16:55:14 IST 2012	Player 310 rejected offer
Sun Nov 25 16:55:14 IST 2012	Set counter offers count to: 0
Sun Nov 25 16:55:14 IST 2012	A Phase Ended: Communication Phase
Sun Nov 25 16:55:14 IST 2012	Protocol: A New Phase Began: Exchange Phase
Sun Nov 25 16:55:14 IST 2012	Protocol: Exchange phase, Round: 1
Sun Nov 25 16:55:14 IST 2012	In begin exch.phase, get counter offers returned: 0
Sun Nov 25 16:55:54 IST 2012	A Phase Ended: Exchange Phase
Sun Nov 25 16:55:54 IST 2012	Proposer 337 sent: { chips  }
Sun Nov 25 16:55:55 IST 2012	Protocol: A New Phase Began: Movement Phase
Sun Nov 25 16:55:55 IST 2012	Protocol: Movement phase, Round: 1
Sun Nov 25 16:56:15 IST 2012	A Phase Ended: Movement Phase
Sun Nov 25 16:56:15 IST 2012	Protocol: A New Phase Began: Feedback Phase
Sun Nov 25 16:56:15 IST 2012	Protocol: Feedback phase, Round: 1
Sun Nov 25 16:56:15 IST 2012	Number of consecutive no movements for player 337 is 2
Sun Nov 25 16:56:15 IST 2012	Number of consecutive no movements for player 310 is 2
Sun Nov 25 16:56:20 IST 2012	A Phase Ended: Feedback Phase
Sun Nov 25 16:56:20 IST 2012	Protocol: A New Phase Began: Communication Phase
Sun Nov 25 16:56:20 IST 2012	Protocol: Communication phase, Round: 2
Sun Nov 25 16:57:20 IST 2012	Received communication message 
Sun Nov 25 16:57:20 IST 2012	From player: 337
Sun Nov 25 16:57:20 IST 2012	To player: 310
Sun Nov 25 16:57:20 IST 2012	Message type: basicproposal
Sun Nov 25 16:57:20 IST 2012	Chips to send by proposer: { chips  'CTGreen':1 }
Sun Nov 25 16:57:20 IST 2012	Chips to send by responder: { chips  'grey78':1 }
Sun Nov 25 16:57:33 IST 2012	Received communication message 
Sun Nov 25 16:57:33 IST 2012	From player: 310
Sun Nov 25 16:57:33 IST 2012	To player: 337
Sun Nov 25 16:57:33 IST 2012	Message type: basicproposaldiscussion
Sun Nov 25 16:57:33 IST 2012	Player 310 rejected offer
Sun Nov 25 16:57:33 IST 2012	Swaping roles:
Sun Nov 25 16:57:33 IST 2012	Proposer is: 310
Sun Nov 25 16:57:33 IST 2012	Responder is: 337
Sun Nov 25 16:57:33 IST 2012	Prop rejected, set counter offers count to: 1
Sun Nov 25 16:57:33 IST 2012	Prop rejected, get counter offers returned: 1
Sun Nov 25 16:57:37 IST 2012	Slept 4 seconds
Sun Nov 25 16:57:37 IST 2012	Sent role changed msgs
Sun Nov 25 16:58:26 IST 2012	Received communication message 
Sun Nov 25 16:58:26 IST 2012	From player: 310
Sun Nov 25 16:58:26 IST 2012	To player: 337
Sun Nov 25 16:58:26 IST 2012	Message type: basicproposal
Sun Nov 25 16:58:26 IST 2012	Chips to send by proposer: { chips  'CTRed':0 'CTPurple':0 'CTGreen':0 'grey78':2 'CTYellow':0 }
Sun Nov 25 16:58:26 IST 2012	Chips to send by responder: { chips  'CTRed':0 'CTPurple':0 'CTGreen':0 'grey78':0 'CTYellow':2 }
Sun Nov 25 16:59:04 IST 2012	Received communication message 
Sun Nov 25 16:59:04 IST 2012	From player: 337
Sun Nov 25 16:59:04 IST 2012	To player: 310
Sun Nov 25 16:59:04 IST 2012	Message type: basicproposaldiscussion
Sun Nov 25 16:59:04 IST 2012	Player 337 accepted offer
Sun Nov 25 16:59:04 IST 2012	Prop accepted, set counter offers count to: 0
Sun Nov 25 16:59:04 IST 2012	Prop accepted, get counter offers returned: 0
Sun Nov 25 16:59:04 IST 2012	A Phase Ended: Communication Phase
Sun Nov 25 16:59:04 IST 2012	Protocol: A New Phase Began: Exchange Phase
Sun Nov 25 16:59:04 IST 2012	Protocol: Exchange phase, Round: 2
Sun Nov 25 16:59:04 IST 2012	In begin exch.phase, get counter offers returned: 0
Sun Nov 25 16:59:33 IST 2012	A Phase Ended: Exchange Phase
Sun Nov 25 16:59:33 IST 2012	Proposer 310 sent: { chips  'CTRed':0 'CTPurple':0 'CTGreen':0 'grey78':1 'CTYellow':0 }
Sun Nov 25 16:59:33 IST 2012	Responder 337 sent: { chips  'CTRed':0 'CTPurple':0 'CTGreen':0 'grey78':0 'CTYellow':1 }
Sun Nov 25 16:59:33 IST 2012	Protocol: A New Phase Began: Movement Phase
Sun Nov 25 16:59:33 IST 2012	Protocol: Movement phase, Round: 2
Sun Nov 25 16:59:33 IST 2012	Player 337 moved to (R:6,C:1)
Sun Nov 25 16:59:33 IST 2012	Player 310 moved to (R:6,C:3)
Sun Nov 25 16:59:53 IST 2012	A Phase Ended: Movement Phase
Sun Nov 25 16:59:53 IST 2012	Protocol: A New Phase Began: Feedback Phase
Sun Nov 25 16:59:53 IST 2012	Protocol: Feedback phase, Round: 2
Sun Nov 25 16:59:53 IST 2012	Number of consecutive no movements for player 337 is 0
Sun Nov 25 16:59:53 IST 2012	Number of consecutive no movements for player 310 is 0
Sun Nov 25 16:59:58 IST 2012	A Phase Ended: Feedback Phase
Sun Nov 25 16:59:58 IST 2012	Protocol: A New Phase Began: Communication Phase
Sun Nov 25 16:59:58 IST 2012	Protocol: Communication phase, Round: 3
Sun Nov 25 17:00:19 IST 2012	Received communication message 
Sun Nov 25 17:00:19 IST 2012	From player: 310
Sun Nov 25 17:00:19 IST 2012	To player: 337
Sun Nov 25 17:00:19 IST 2012	Message type: basicproposal
Sun Nov 25 17:00:19 IST 2012	Chips to send by proposer: { chips  'CTRed':0 'CTPurple':0 'CTGreen':2 'grey78':1 'CTYellow':0 }
Sun Nov 25 17:00:19 IST 2012	Chips to send by responder: { chips  'CTRed':0 'CTPurple':0 'CTGreen':0 'grey78':0 'CTYellow':2 }
Sun Nov 25 17:01:13 IST 2012	Received communication message 
Sun Nov 25 17:01:13 IST 2012	From player: 337
Sun Nov 25 17:01:13 IST 2012	To player: 310
Sun Nov 25 17:01:13 IST 2012	Message type: basicproposaldiscussion
Sun Nov 25 17:01:13 IST 2012	Player 337 rejected offer
Sun Nov 25 17:01:13 IST 2012	Swaping roles:
Sun Nov 25 17:01:13 IST 2012	Proposer is: 337
Sun Nov 25 17:01:13 IST 2012	Responder is: 310
Sun Nov 25 17:01:13 IST 2012	Prop rejected, set counter offers count to: 1
Sun Nov 25 17:01:13 IST 2012	Prop rejected, get counter offers returned: 1
Sun Nov 25 17:01:17 IST 2012	Slept 4 seconds
Sun Nov 25 17:01:17 IST 2012	Sent role changed msgs
Sun Nov 25 17:02:17 IST 2012	Received communication message 
Sun Nov 25 17:02:17 IST 2012	From player: 337
Sun Nov 25 17:02:17 IST 2012	To player: 310
Sun Nov 25 17:02:17 IST 2012	Message type: basicproposal
Sun Nov 25 17:02:17 IST 2012	Chips to send by proposer: { chips  'CTRed':0 'CTPurple':0 'CTGreen':0 'grey78':0 'CTYellow':1 }
Sun Nov 25 17:02:17 IST 2012	Chips to send by responder: { chips  'CTRed':0 'CTPurple':0 'CTGreen':1 'grey78':0 'CTYellow':0 }
Sun Nov 25 17:02:23 IST 2012	Received communication message 
Sun Nov 25 17:02:23 IST 2012	From player: 310
Sun Nov 25 17:02:23 IST 2012	To player: 337
Sun Nov 25 17:02:23 IST 2012	Message type: basicproposaldiscussion
Sun Nov 25 17:02:23 IST 2012	Player 310 accepted offer
Sun Nov 25 17:02:23 IST 2012	Prop accepted, set counter offers count to: 0
Sun Nov 25 17:02:23 IST 2012	Prop accepted, get counter offers returned: 0
Sun Nov 25 17:02:23 IST 2012	A Phase Ended: Communication Phase
Sun Nov 25 17:02:23 IST 2012	Protocol: A New Phase Began: Exchange Phase
Sun Nov 25 17:02:23 IST 2012	Protocol: Exchange phase, Round: 3
Sun Nov 25 17:02:23 IST 2012	In begin exch.phase, get counter offers returned: 0
Sun Nov 25 17:02:52 IST 2012	A Phase Ended: Exchange Phase
Sun Nov 25 17:02:52 IST 2012	Proposer 337 sent: { chips  'CTRed':0 'CTPurple':0 'CTGreen':0 'grey78':0 'CTYellow':1 }
Sun Nov 25 17:02:52 IST 2012	Responder 310 sent: { chips  'CTRed':0 'CTPurple':0 'CTGreen':1 'grey78':0 'CTYellow':0 }
Sun Nov 25 17:02:52 IST 2012	Protocol: A New Phase Began: Movement Phase
Sun Nov 25 17:02:52 IST 2012	Protocol: Movement phase, Round: 3
Sun Nov 25 17:03:13 IST 2012	A Phase Ended: Movement Phase
Sun Nov 25 17:03:13 IST 2012	Protocol: A New Phase Began: Feedback Phase
Sun Nov 25 17:03:13 IST 2012	Protocol: Feedback phase, Round: 3
Sun Nov 25 17:03:13 IST 2012	Number of consecutive no movements for player 337 is 1
Sun Nov 25 17:03:13 IST 2012	Number of consecutive no movements for player 310 is 1
Sun Nov 25 17:03:18 IST 2012	A Phase Ended: Feedback Phase
Sun Nov 25 17:03:18 IST 2012	Protocol: A New Phase Began: Communication Phase
Sun Nov 25 17:03:18 IST 2012	Protocol: Communication phase, Round: 4
Sun Nov 25 17:04:18 IST 2012	Received communication message 
Sun Nov 25 17:04:18 IST 2012	From player: 337
Sun Nov 25 17:04:18 IST 2012	To player: 310
Sun Nov 25 17:04:18 IST 2012	Message type: basicproposal
Sun Nov 25 17:04:18 IST 2012	Chips to send by proposer: { chips  'CTYellow':1 }
Sun Nov 25 17:04:18 IST 2012	Chips to send by responder: { chips  'CTGreen':2 'grey78':1 }
Sun Nov 25 17:04:28 IST 2012	Received communication message 
Sun Nov 25 17:04:28 IST 2012	From player: 310
Sun Nov 25 17:04:28 IST 2012	To player: 337
Sun Nov 25 17:04:28 IST 2012	Message type: basicproposaldiscussion
Sun Nov 25 17:04:28 IST 2012	Player 310 accepted offer
Sun Nov 25 17:04:28 IST 2012	Prop accepted, set counter offers count to: 0
Sun Nov 25 17:04:28 IST 2012	Prop accepted, get counter offers returned: 0
Sun Nov 25 17:04:28 IST 2012	A Phase Ended: Communication Phase
Sun Nov 25 17:04:28 IST 2012	Protocol: A New Phase Began: Exchange Phase
Sun Nov 25 17:04:28 IST 2012	Protocol: Exchange phase, Round: 4
Sun Nov 25 17:04:28 IST 2012	In begin exch.phase, get counter offers returned: 0
Sun Nov 25 17:04:51 IST 2012	A Phase Ended: Exchange Phase
Sun Nov 25 17:04:51 IST 2012	Proposer 337 sent: { chips  'CTRed':0 'CTPurple':0 'CTGreen':0 'grey78':0 'CTYellow':0 }
Sun Nov 25 17:04:51 IST 2012	Responder 310 sent: { chips  }
Sun Nov 25 17:04:51 IST 2012	Protocol: A New Phase Began: Movement Phase
Sun Nov 25 17:04:51 IST 2012	Protocol: Movement phase, Round: 4
Sun Nov 25 17:05:11 IST 2012	A Phase Ended: Movement Phase
Sun Nov 25 17:05:11 IST 2012	Swaping roles:
Sun Nov 25 17:05:11 IST 2012	Proposer is: 310
Sun Nov 25 17:05:11 IST 2012	Responder is: 337
Sun Nov 25 17:05:11 IST 2012	Protocol: A New Phase Began: Feedback Phase
Sun Nov 25 17:05:11 IST 2012	Protocol: Feedback phase, Round: 4
Sun Nov 25 17:05:11 IST 2012	Number of consecutive no movements for player 337 is 2
Sun Nov 25 17:05:11 IST 2012	Number of consecutive no movements for player 310 is 2
Sun Nov 25 17:05:16 IST 2012	A Phase Ended: Feedback Phase
Sun Nov 25 17:05:16 IST 2012	Protocol: A New Phase Began: Communication Phase
Sun Nov 25 17:05:16 IST 2012	Protocol: Communication phase, Round: 5
Sun Nov 25 17:05:31 IST 2012	Received communication message 
Sun Nov 25 17:05:31 IST 2012	From player: 310
Sun Nov 25 17:05:31 IST 2012	To player: 337
Sun Nov 25 17:05:31 IST 2012	Message type: basicproposal
Sun Nov 25 17:05:31 IST 2012	Chips to send by proposer: { chips  'CTRed':0 'CTPurple':0 'CTGreen':0 'grey78':1 'CTYellow':0 }
Sun Nov 25 17:05:31 IST 2012	Chips to send by responder: { chips  'CTRed':0 'CTPurple':0 'CTGreen':1 'grey78':0 'CTYellow':1 }
Sun Nov 25 17:06:07 IST 2012	Received communication message 
Sun Nov 25 17:06:07 IST 2012	From player: 337
Sun Nov 25 17:06:07 IST 2012	To player: 310
Sun Nov 25 17:06:07 IST 2012	Message type: basicproposaldiscussion
Sun Nov 25 17:06:07 IST 2012	Player 337 rejected offer
Sun Nov 25 17:06:07 IST 2012	Swaping roles:
Sun Nov 25 17:06:07 IST 2012	Proposer is: 337
Sun Nov 25 17:06:07 IST 2012	Responder is: 310
Sun Nov 25 17:06:07 IST 2012	Prop rejected, set counter offers count to: 1
Sun Nov 25 17:06:07 IST 2012	Prop rejected, get counter offers returned: 1
Sun Nov 25 17:06:11 IST 2012	Slept 4 seconds
Sun Nov 25 17:06:11 IST 2012	Sent role changed msgs
Sun Nov 25 17:07:11 IST 2012	Received communication message 
Sun Nov 25 17:07:11 IST 2012	From player: 337
Sun Nov 25 17:07:11 IST 2012	To player: 310
Sun Nov 25 17:07:11 IST 2012	Message type: basicproposal
Sun Nov 25 17:07:11 IST 2012	Chips to send by proposer: { chips  'CTRed':0 'CTPurple':0 'CTGreen':0 'grey78':0 'CTYellow':1 }
Sun Nov 25 17:07:11 IST 2012	Chips to send by responder: { chips  'CTRed':0 'CTPurple':0 'CTGreen':2 'grey78':1 'CTYellow':0 }
Sun Nov 25 17:07:20 IST 2012	Received communication message 
Sun Nov 25 17:07:20 IST 2012	From player: 310
Sun Nov 25 17:07:20 IST 2012	To player: 337
Sun Nov 25 17:07:20 IST 2012	Message type: basicproposaldiscussion
Sun Nov 25 17:07:20 IST 2012	Player 310 accepted offer
Sun Nov 25 17:07:20 IST 2012	Prop accepted, set counter offers count to: 0
Sun Nov 25 17:07:20 IST 2012	Prop accepted, get counter offers returned: 0
Sun Nov 25 17:07:20 IST 2012	A Phase Ended: Communication Phase
Sun Nov 25 17:07:20 IST 2012	Protocol: A New Phase Began: Exchange Phase
Sun Nov 25 17:07:20 IST 2012	Protocol: Exchange phase, Round: 5
Sun Nov 25 17:07:20 IST 2012	In begin exch.phase, get counter offers returned: 0
Sun Nov 25 17:07:49 IST 2012	A Phase Ended: Exchange Phase
Sun Nov 25 17:07:49 IST 2012	Proposer 337 sent: { chips  'CTRed':0 'CTPurple':0 'CTGreen':0 'grey78':0 'CTYellow':1 }
Sun Nov 25 17:07:49 IST 2012	Responder 310 sent: { chips  'CTRed':0 'CTPurple':0 'CTGreen':2 'grey78':1 'CTYellow':0 }
Sun Nov 25 17:07:49 IST 2012	Protocol: A New Phase Began: Movement Phase
Sun Nov 25 17:07:49 IST 2012	Protocol: Movement phase, Round: 5
Sun Nov 25 17:07:49 IST 2012	Player 310 moved to (R:5,C:3)
Sun Nov 25 17:07:49 IST 2012	Player 337 moved to (R:5,C:1)
Sun Nov 25 17:08:09 IST 2012	A Phase Ended: Movement Phase
Sun Nov 25 17:08:09 IST 2012	Protocol: A New Phase Began: Feedback Phase
Sun Nov 25 17:08:09 IST 2012	Protocol: Feedback phase, Round: 5
Sun Nov 25 17:08:09 IST 2012	Number of consecutive no movements for player 337 is 0
Sun Nov 25 17:08:09 IST 2012	Number of consecutive no movements for player 310 is 0
Sun Nov 25 17:08:09 IST 2012	All players have all needed chips to get to goal, end the game
Sun Nov 25 17:08:09 IST 2012	Player: 337 ,role: Proposer score is: 190
Sun Nov 25 17:08:09 IST 2012	Player: 310 ,role: Responder score is: 170
