Sat Nov 24 23:14:20 IST 2012	This is the CT debug logger; svn version 638; sep 27 09
Sat Nov 24 23:14:20 IST 2012	Sat Nov 24 23:14:20 IST 2012
Sat Nov 24 23:14:20 IST 2012	A new Alternative Offers game has began
Sat Nov 24 23:14:20 IST 2012	ID Number: 30597
Sat Nov 24 23:14:20 IST 2012	Creating board
Sat Nov 24 23:14:20 IST 2012	<colors>
Sat Nov 24 23:14:20 IST 2012	{ GamePalette  'CTRed':0 'CTPurple':1 'CTGreen':2 'grey78':3 'CTYellow':4 }
Sat Nov 24 23:14:20 IST 2012	<rows>
Sat Nov 24 23:14:20 IST 2012	7
Sat Nov 24 23:14:20 IST 2012	<columns>
Sat Nov 24 23:14:20 IST 2012	5
Sat Nov 24 23:14:20 IST 2012	<squaresColors>
Sat Nov 24 23:14:20 IST 2012	CTPurple CTRed CTRed CTGreen CTPurple 
Sat Nov 24 23:14:20 IST 2012	CTPurple grey78 CTPurple CTYellow CTPurple 
Sat Nov 24 23:14:20 IST 2012	CTPurple CTRed CTPurple CTGreen CTPurple 
Sat Nov 24 23:14:20 IST 2012	CTPurple grey78 CTPurple CTYellow CTPurple 
Sat Nov 24 23:14:20 IST 2012	CTPurple CTRed CTPurple CTGreen CTPurple 
Sat Nov 24 23:14:20 IST 2012	CTPurple grey78 CTPurple CTYellow CTPurple 
Sat Nov 24 23:14:20 IST 2012	CTPurple CTRed CTPurple CTGreen CTPurple 
Sat Nov 24 23:14:20 IST 2012	</squareColors>
Sat Nov 24 23:14:20 IST 2012	<goalPosition>
Sat Nov 24 23:14:20 IST 2012	Goal position: (R:0,C:2)
Sat Nov 24 23:14:20 IST 2012	<numberOfPlayers>
Sat Nov 24 23:14:20 IST 2012	2
Sat Nov 24 23:14:20 IST 2012	<firstPlayerChips>
Sat Nov 24 23:14:20 IST 2012	Setting chips for player: 337 id:0
Sat Nov 24 23:14:20 IST 2012	{ chips  'CTRed':5 'CTGreen':10 'CTPurple':0 'grey78':0 'CTYellow':9 }
Sat Nov 24 23:14:20 IST 2012	Player position: (R:6,C:0)
Sat Nov 24 23:14:20 IST 2012	Setting chips for player: 310 id:1
Sat Nov 24 23:14:20 IST 2012	{ chips  'CTRed':1 'CTGreen':13 'CTPurple':0 'grey78':10 'CTYellow':0 }
Sat Nov 24 23:14:20 IST 2012	Player position: (R:6,C:4)
Sat Nov 24 23:14:20 IST 2012	Protocol: A New Phase Began: Strategy Prep Phase
Sat Nov 24 23:14:20 IST 2012	Protocol: Strategy Preparation phase, Round: 0
Sat Nov 24 23:14:20 IST 2012	Maximum number of rounds with no consecutive movement is 3
Sat Nov 24 23:14:20 IST 2012	In begin comm. phase, set counter offers count to: 0
Sat Nov 24 23:14:20 IST 2012	In begin comm. phase, get counter offers returned: 0
Sat Nov 24 23:14:40 IST 2012	A Phase Ended: Strategy Prep Phase
Sat Nov 24 23:14:40 IST 2012	Protocol: A New Phase Began: Communication Phase
Sat Nov 24 23:14:40 IST 2012	Protocol: Communication phase, Round: 0
Sat Nov 24 23:15:40 IST 2012	Received communication message 
Sat Nov 24 23:15:40 IST 2012	From player: 337
Sat Nov 24 23:15:40 IST 2012	To player: 310
Sat Nov 24 23:15:40 IST 2012	Message type: basicproposal
Sat Nov 24 23:15:40 IST 2012	Chips to send by proposer: { chips  'CTGreen':1 }
Sat Nov 24 23:15:40 IST 2012	Chips to send by responder: { chips  'grey78':1 }
Sat Nov 24 23:15:52 IST 2012	Received communication message 
Sat Nov 24 23:15:52 IST 2012	From player: 310
Sat Nov 24 23:15:52 IST 2012	To player: 337
Sat Nov 24 23:15:52 IST 2012	Message type: basicproposaldiscussion
Sat Nov 24 23:15:52 IST 2012	Player 310 accepted offer
Sat Nov 24 23:15:52 IST 2012	Prop accepted, set counter offers count to: 0
Sat Nov 24 23:15:52 IST 2012	Prop accepted, get counter offers returned: 0
Sat Nov 24 23:15:52 IST 2012	A Phase Ended: Communication Phase
Sat Nov 24 23:15:52 IST 2012	Protocol: A New Phase Began: Exchange Phase
Sat Nov 24 23:15:52 IST 2012	Protocol: Exchange phase, Round: 0
Sat Nov 24 23:15:52 IST 2012	In begin exch.phase, get counter offers returned: 0
Sat Nov 24 23:16:21 IST 2012	A Phase Ended: Exchange Phase
Sat Nov 24 23:16:21 IST 2012	Proposer 337 sent: { chips  'CTRed':0 'CTPurple':0 'CTGreen':1 'grey78':0 'CTYellow':0 }
Sat Nov 24 23:16:21 IST 2012	Responder 310 sent: { chips  'CTRed':0 'CTPurple':0 'CTGreen':0 'grey78':1 'CTYellow':0 }
Sat Nov 24 23:16:21 IST 2012	Protocol: A New Phase Began: Movement Phase
Sat Nov 24 23:16:21 IST 2012	Protocol: Movement phase, Round: 0
Sat Nov 24 23:16:41 IST 2012	A Phase Ended: Movement Phase
Sat Nov 24 23:16:41 IST 2012	Swaping roles:
Sat Nov 24 23:16:41 IST 2012	Proposer is: 310
Sat Nov 24 23:16:41 IST 2012	Responder is: 337
Sat Nov 24 23:16:41 IST 2012	Protocol: A New Phase Began: Feedback Phase
Sat Nov 24 23:16:41 IST 2012	Protocol: Feedback phase, Round: 0
Sat Nov 24 23:16:41 IST 2012	Number of consecutive no movements for player 337 is 1
Sat Nov 24 23:16:41 IST 2012	Number of consecutive no movements for player 310 is 1
Sat Nov 24 23:16:46 IST 2012	A Phase Ended: Feedback Phase
Sat Nov 24 23:16:46 IST 2012	Protocol: A New Phase Began: Communication Phase
Sat Nov 24 23:16:46 IST 2012	Protocol: Communication phase, Round: 1
Sat Nov 24 23:17:31 IST 2012	Received communication message 
Sat Nov 24 23:17:31 IST 2012	From player: 310
Sat Nov 24 23:17:31 IST 2012	To player: 337
Sat Nov 24 23:17:31 IST 2012	Message type: basicproposal
Sat Nov 24 23:17:31 IST 2012	Chips to send by proposer: { chips  'CTRed':0 'CTPurple':0 'CTGreen':0 'grey78':1 'CTYellow':0 }
Sat Nov 24 23:17:31 IST 2012	Chips to send by responder: { chips  'CTRed':0 'CTPurple':0 'CTGreen':3 'grey78':0 'CTYellow':2 }
Sat Nov 24 23:18:21 IST 2012	Received communication message 
Sat Nov 24 23:18:21 IST 2012	From player: 337
Sat Nov 24 23:18:21 IST 2012	To player: 310
Sat Nov 24 23:18:21 IST 2012	Message type: basicproposaldiscussion
Sat Nov 24 23:18:21 IST 2012	Player 337 rejected offer
Sat Nov 24 23:18:21 IST 2012	Swaping roles:
Sat Nov 24 23:18:21 IST 2012	Proposer is: 337
Sat Nov 24 23:18:21 IST 2012	Responder is: 310
Sat Nov 24 23:18:21 IST 2012	Prop rejected, set counter offers count to: 1
Sat Nov 24 23:18:21 IST 2012	Prop rejected, get counter offers returned: 1
Sat Nov 24 23:18:25 IST 2012	Slept 4 seconds
Sat Nov 24 23:18:25 IST 2012	Sent role changed msgs
Sat Nov 24 23:19:25 IST 2012	Received communication message 
Sat Nov 24 23:19:25 IST 2012	From player: 337
Sat Nov 24 23:19:25 IST 2012	To player: 310
Sat Nov 24 23:19:25 IST 2012	Message type: basicproposal
Sat Nov 24 23:19:25 IST 2012	Chips to send by proposer: { chips  'CTRed':0 'CTPurple':0 'CTGreen':0 'grey78':0 'CTYellow':1 }
Sat Nov 24 23:19:25 IST 2012	Chips to send by responder: { chips  'CTRed':0 'CTPurple':0 'CTGreen':0 'grey78':1 'CTYellow':0 }
Sat Nov 24 23:19:34 IST 2012	Received communication message 
Sat Nov 24 23:19:34 IST 2012	From player: 310
Sat Nov 24 23:19:34 IST 2012	To player: 337
Sat Nov 24 23:19:34 IST 2012	Message type: basicproposaldiscussion
Sat Nov 24 23:19:34 IST 2012	Player 310 accepted offer
Sat Nov 24 23:19:34 IST 2012	Prop accepted, set counter offers count to: 0
Sat Nov 24 23:19:34 IST 2012	Prop accepted, get counter offers returned: 0
Sat Nov 24 23:19:34 IST 2012	A Phase Ended: Communication Phase
Sat Nov 24 23:19:34 IST 2012	Protocol: A New Phase Began: Exchange Phase
Sat Nov 24 23:19:34 IST 2012	Protocol: Exchange phase, Round: 1
Sat Nov 24 23:19:34 IST 2012	In begin exch.phase, get counter offers returned: 0
Sat Nov 24 23:20:03 IST 2012	A Phase Ended: Exchange Phase
Sat Nov 24 23:20:03 IST 2012	Proposer 337 sent: { chips  'CTRed':0 'CTPurple':0 'CTGreen':0 'grey78':0 'CTYellow':1 }
Sat Nov 24 23:20:03 IST 2012	Responder 310 sent: { chips  'CTRed':0 'CTPurple':0 'CTGreen':0 'grey78':1 'CTYellow':0 }
Sat Nov 24 23:20:04 IST 2012	Protocol: A New Phase Began: Movement Phase
Sat Nov 24 23:20:04 IST 2012	Protocol: Movement phase, Round: 1
Sat Nov 24 23:20:23 IST 2012	A Phase Ended: Movement Phase
Sat Nov 24 23:20:23 IST 2012	Protocol: A New Phase Began: Feedback Phase
Sat Nov 24 23:20:23 IST 2012	Protocol: Feedback phase, Round: 1
Sat Nov 24 23:20:23 IST 2012	Number of consecutive no movements for player 337 is 2
Sat Nov 24 23:20:23 IST 2012	Number of consecutive no movements for player 310 is 2
Sat Nov 24 23:20:28 IST 2012	A Phase Ended: Feedback Phase
Sat Nov 24 23:20:28 IST 2012	Protocol: A New Phase Began: Communication Phase
Sat Nov 24 23:20:28 IST 2012	Protocol: Communication phase, Round: 2
Sat Nov 24 23:21:28 IST 2012	Received communication message 
Sat Nov 24 23:21:28 IST 2012	From player: 337
Sat Nov 24 23:21:28 IST 2012	To player: 310
Sat Nov 24 23:21:28 IST 2012	Message type: basicproposal
Sat Nov 24 23:21:28 IST 2012	Chips to send by proposer: { chips  'CTYellow':1 }
Sat Nov 24 23:21:28 IST 2012	Chips to send by responder: { chips  'CTGreen':1 }
Sat Nov 24 23:21:36 IST 2012	Received communication message 
Sat Nov 24 23:21:36 IST 2012	From player: 310
Sat Nov 24 23:21:36 IST 2012	To player: 337
Sat Nov 24 23:21:36 IST 2012	Message type: basicproposaldiscussion
Sat Nov 24 23:21:36 IST 2012	Player 310 rejected offer
Sat Nov 24 23:21:36 IST 2012	Swaping roles:
Sat Nov 24 23:21:36 IST 2012	Proposer is: 310
Sat Nov 24 23:21:36 IST 2012	Responder is: 337
Sat Nov 24 23:21:36 IST 2012	Prop rejected, set counter offers count to: 1
Sat Nov 24 23:21:36 IST 2012	Prop rejected, get counter offers returned: 1
Sat Nov 24 23:21:40 IST 2012	Slept 4 seconds
Sat Nov 24 23:21:40 IST 2012	Sent role changed msgs
Sat Nov 24 23:22:00 IST 2012	Received communication message 
Sat Nov 24 23:22:00 IST 2012	From player: 310
Sat Nov 24 23:22:00 IST 2012	To player: 337
Sat Nov 24 23:22:00 IST 2012	Message type: basicproposal
Sat Nov 24 23:22:00 IST 2012	Chips to send by proposer: { chips  'CTRed':0 'CTPurple':0 'CTGreen':3 'grey78':1 'CTYellow':0 }
Sat Nov 24 23:22:00 IST 2012	Chips to send by responder: { chips  'CTRed':0 'CTPurple':0 'CTGreen':0 'grey78':0 'CTYellow':2 }
Sat Nov 24 23:22:53 IST 2012	Received communication message 
Sat Nov 24 23:22:53 IST 2012	From player: 337
Sat Nov 24 23:22:53 IST 2012	To player: 310
Sat Nov 24 23:22:53 IST 2012	Message type: basicproposaldiscussion
Sat Nov 24 23:22:53 IST 2012	Player 337 rejected offer
Sat Nov 24 23:22:53 IST 2012	Set counter offers count to: 0
Sat Nov 24 23:22:53 IST 2012	A Phase Ended: Communication Phase
Sat Nov 24 23:22:53 IST 2012	Protocol: A New Phase Began: Exchange Phase
Sat Nov 24 23:22:53 IST 2012	Protocol: Exchange phase, Round: 2
Sat Nov 24 23:22:53 IST 2012	In begin exch.phase, get counter offers returned: 0
Sat Nov 24 23:23:33 IST 2012	A Phase Ended: Exchange Phase
Sat Nov 24 23:23:33 IST 2012	Responder 337 sent: { chips  }
Sat Nov 24 23:23:33 IST 2012	Protocol: A New Phase Began: Movement Phase
Sat Nov 24 23:23:33 IST 2012	Protocol: Movement phase, Round: 2
Sat Nov 24 23:23:33 IST 2012	Player 310 moved to (R:6,C:3)
Sat Nov 24 23:23:33 IST 2012	Player 337 moved to (R:6,C:1)
Sat Nov 24 23:23:53 IST 2012	A Phase Ended: Movement Phase
Sat Nov 24 23:23:53 IST 2012	Protocol: A New Phase Began: Feedback Phase
Sat Nov 24 23:23:53 IST 2012	Protocol: Feedback phase, Round: 2
Sat Nov 24 23:23:53 IST 2012	Number of consecutive no movements for player 337 is 0
Sat Nov 24 23:23:53 IST 2012	Number of consecutive no movements for player 310 is 0
Sat Nov 24 23:23:58 IST 2012	A Phase Ended: Feedback Phase
Sat Nov 24 23:23:58 IST 2012	Protocol: A New Phase Began: Communication Phase
Sat Nov 24 23:23:58 IST 2012	Protocol: Communication phase, Round: 3
Sat Nov 24 23:24:16 IST 2012	Received communication message 
Sat Nov 24 23:24:16 IST 2012	From player: 310
Sat Nov 24 23:24:16 IST 2012	To player: 337
Sat Nov 24 23:24:16 IST 2012	Message type: basicproposal
Sat Nov 24 23:24:16 IST 2012	Chips to send by proposer: { chips  'CTRed':0 'CTPurple':0 'CTGreen':0 'grey78':1 'CTYellow':0 }
Sat Nov 24 23:24:16 IST 2012	Chips to send by responder: { chips  'CTRed':0 'CTPurple':0 'CTGreen':3 'grey78':0 'CTYellow':2 }
Sat Nov 24 23:25:04 IST 2012	Received communication message 
Sat Nov 24 23:25:04 IST 2012	From player: 337
Sat Nov 24 23:25:04 IST 2012	To player: 310
Sat Nov 24 23:25:04 IST 2012	Message type: basicproposaldiscussion
Sat Nov 24 23:25:04 IST 2012	Player 337 rejected offer
Sat Nov 24 23:25:04 IST 2012	Swaping roles:
Sat Nov 24 23:25:04 IST 2012	Proposer is: 337
Sat Nov 24 23:25:04 IST 2012	Responder is: 310
Sat Nov 24 23:25:04 IST 2012	Prop rejected, set counter offers count to: 1
Sat Nov 24 23:25:04 IST 2012	Prop rejected, get counter offers returned: 1
Sat Nov 24 23:25:08 IST 2012	Slept 4 seconds
Sat Nov 24 23:25:08 IST 2012	Sent role changed msgs
Sat Nov 24 23:26:08 IST 2012	Received communication message 
Sat Nov 24 23:26:08 IST 2012	From player: 337
Sat Nov 24 23:26:08 IST 2012	To player: 310
Sat Nov 24 23:26:08 IST 2012	Message type: basicproposal
Sat Nov 24 23:26:08 IST 2012	Chips to send by proposer: { chips  'CTRed':0 'CTPurple':0 'CTGreen':0 'grey78':0 'CTYellow':1 }
Sat Nov 24 23:26:08 IST 2012	Chips to send by responder: { chips  'CTRed':0 'CTPurple':0 'CTGreen':1 'grey78':2 'CTYellow':0 }
Sat Nov 24 23:26:16 IST 2012	Received communication message 
Sat Nov 24 23:26:16 IST 2012	From player: 310
Sat Nov 24 23:26:16 IST 2012	To player: 337
Sat Nov 24 23:26:16 IST 2012	Message type: basicproposaldiscussion
Sat Nov 24 23:26:16 IST 2012	Player 310 rejected offer
Sat Nov 24 23:26:16 IST 2012	Set counter offers count to: 0
Sat Nov 24 23:26:16 IST 2012	A Phase Ended: Communication Phase
Sat Nov 24 23:26:16 IST 2012	Protocol: A New Phase Began: Exchange Phase
Sat Nov 24 23:26:16 IST 2012	Protocol: Exchange phase, Round: 3
Sat Nov 24 23:26:16 IST 2012	In begin exch.phase, get counter offers returned: 0
Sat Nov 24 23:26:56 IST 2012	A Phase Ended: Exchange Phase
Sat Nov 24 23:26:56 IST 2012	Proposer 337 sent: { chips  }
Sat Nov 24 23:26:56 IST 2012	Protocol: A New Phase Began: Movement Phase
Sat Nov 24 23:26:56 IST 2012	Protocol: Movement phase, Round: 3
Sat Nov 24 23:27:16 IST 2012	A Phase Ended: Movement Phase
Sat Nov 24 23:27:16 IST 2012	Protocol: A New Phase Began: Feedback Phase
Sat Nov 24 23:27:16 IST 2012	Protocol: Feedback phase, Round: 3
Sat Nov 24 23:27:16 IST 2012	Number of consecutive no movements for player 337 is 1
Sat Nov 24 23:27:16 IST 2012	Number of consecutive no movements for player 310 is 1
Sat Nov 24 23:27:21 IST 2012	A Phase Ended: Feedback Phase
Sat Nov 24 23:27:21 IST 2012	Protocol: A New Phase Began: Communication Phase
Sat Nov 24 23:27:21 IST 2012	Protocol: Communication phase, Round: 4
Sat Nov 24 23:28:21 IST 2012	Received communication message 
Sat Nov 24 23:28:21 IST 2012	From player: 337
Sat Nov 24 23:28:21 IST 2012	To player: 310
Sat Nov 24 23:28:21 IST 2012	Message type: basicproposal
Sat Nov 24 23:28:21 IST 2012	Chips to send by proposer: { chips  'CTYellow':1 }
Sat Nov 24 23:28:21 IST 2012	Chips to send by responder: { chips  'CTGreen':2 }
Sat Nov 24 23:28:27 IST 2012	Received communication message 
Sat Nov 24 23:28:27 IST 2012	From player: 310
Sat Nov 24 23:28:27 IST 2012	To player: 337
Sat Nov 24 23:28:27 IST 2012	Message type: basicproposaldiscussion
Sat Nov 24 23:28:27 IST 2012	Player 310 rejected offer
Sat Nov 24 23:28:27 IST 2012	Swaping roles:
Sat Nov 24 23:28:27 IST 2012	Proposer is: 310
Sat Nov 24 23:28:27 IST 2012	Responder is: 337
Sat Nov 24 23:28:27 IST 2012	Prop rejected, set counter offers count to: 1
Sat Nov 24 23:28:27 IST 2012	Prop rejected, get counter offers returned: 1
Sat Nov 24 23:28:31 IST 2012	Slept 4 seconds
Sat Nov 24 23:28:31 IST 2012	Sent role changed msgs
Sat Nov 24 23:28:53 IST 2012	Received communication message 
Sat Nov 24 23:28:53 IST 2012	From player: 310
Sat Nov 24 23:28:53 IST 2012	To player: 337
Sat Nov 24 23:28:53 IST 2012	Message type: basicproposal
Sat Nov 24 23:28:53 IST 2012	Chips to send by proposer: { chips  'CTRed':0 'CTPurple':0 'CTGreen':5 'grey78':1 'CTYellow':0 }
Sat Nov 24 23:28:53 IST 2012	Chips to send by responder: { chips  'CTRed':0 'CTPurple':0 'CTGreen':0 'grey78':0 'CTYellow':2 }
Sat Nov 24 23:29:42 IST 2012	Received communication message 
Sat Nov 24 23:29:42 IST 2012	From player: 337
Sat Nov 24 23:29:42 IST 2012	To player: 310
Sat Nov 24 23:29:42 IST 2012	Message type: basicproposaldiscussion
Sat Nov 24 23:29:42 IST 2012	Player 337 rejected offer
Sat Nov 24 23:29:42 IST 2012	Set counter offers count to: 0
Sat Nov 24 23:29:42 IST 2012	A Phase Ended: Communication Phase
Sat Nov 24 23:29:42 IST 2012	Protocol: A New Phase Began: Exchange Phase
Sat Nov 24 23:29:42 IST 2012	Protocol: Exchange phase, Round: 4
Sat Nov 24 23:29:42 IST 2012	In begin exch.phase, get counter offers returned: 0
Sat Nov 24 23:30:22 IST 2012	A Phase Ended: Exchange Phase
Sat Nov 24 23:30:22 IST 2012	Responder 337 sent: { chips  }
Sat Nov 24 23:30:22 IST 2012	Protocol: A New Phase Began: Movement Phase
Sat Nov 24 23:30:22 IST 2012	Protocol: Movement phase, Round: 4
Sat Nov 24 23:30:42 IST 2012	A Phase Ended: Movement Phase
Sat Nov 24 23:30:42 IST 2012	Protocol: A New Phase Began: Feedback Phase
Sat Nov 24 23:30:42 IST 2012	Protocol: Feedback phase, Round: 4
Sat Nov 24 23:30:42 IST 2012	Number of consecutive no movements for player 337 is 2
Sat Nov 24 23:30:42 IST 2012	Number of consecutive no movements for player 310 is 2
Sat Nov 24 23:30:47 IST 2012	A Phase Ended: Feedback Phase
Sat Nov 24 23:30:47 IST 2012	Protocol: A New Phase Began: Communication Phase
Sat Nov 24 23:30:47 IST 2012	Protocol: Communication phase, Round: 5
Sat Nov 24 23:31:07 IST 2012	Received communication message 
Sat Nov 24 23:31:07 IST 2012	From player: 310
Sat Nov 24 23:31:07 IST 2012	To player: 337
Sat Nov 24 23:31:07 IST 2012	Message type: basicproposal
Sat Nov 24 23:31:07 IST 2012	Chips to send by proposer: { chips  'CTRed':0 'CTPurple':0 'CTGreen':0 'grey78':1 'CTYellow':0 }
Sat Nov 24 23:31:07 IST 2012	Chips to send by responder: { chips  'CTRed':0 'CTPurple':0 'CTGreen':0 'grey78':0 'CTYellow':2 }
Sat Nov 24 23:31:48 IST 2012	Received communication message 
Sat Nov 24 23:31:48 IST 2012	From player: 337
Sat Nov 24 23:31:48 IST 2012	To player: 310
Sat Nov 24 23:31:48 IST 2012	Message type: basicproposaldiscussion
Sat Nov 24 23:31:48 IST 2012	Player 337 accepted offer
Sat Nov 24 23:31:48 IST 2012	Prop accepted, set counter offers count to: 0
Sat Nov 24 23:31:48 IST 2012	Prop accepted, get counter offers returned: 0
Sat Nov 24 23:31:48 IST 2012	A Phase Ended: Communication Phase
Sat Nov 24 23:31:48 IST 2012	Protocol: A New Phase Began: Exchange Phase
Sat Nov 24 23:31:48 IST 2012	Protocol: Exchange phase, Round: 5
Sat Nov 24 23:31:48 IST 2012	In begin exch.phase, get counter offers returned: 0
Sat Nov 24 23:32:17 IST 2012	A Phase Ended: Exchange Phase
Sat Nov 24 23:32:17 IST 2012	Proposer 310 sent: { chips  }
Sat Nov 24 23:32:17 IST 2012	Responder 337 sent: { chips  'CTRed':0 'CTPurple':0 'CTGreen':0 'grey78':0 'CTYellow':1 }
Sat Nov 24 23:32:17 IST 2012	Protocol: A New Phase Began: Movement Phase
Sat Nov 24 23:32:17 IST 2012	Protocol: Movement phase, Round: 5
Sat Nov 24 23:32:17 IST 2012	Player 310 moved to (R:5,C:3)
Sat Nov 24 23:32:17 IST 2012	Player 337 moved to (R:5,C:1)
Sat Nov 24 23:32:38 IST 2012	A Phase Ended: Movement Phase
Sat Nov 24 23:32:38 IST 2012	Swaping roles:
Sat Nov 24 23:32:38 IST 2012	Proposer is: 337
Sat Nov 24 23:32:38 IST 2012	Responder is: 310
Sat Nov 24 23:32:38 IST 2012	Protocol: A New Phase Began: Feedback Phase
Sat Nov 24 23:32:38 IST 2012	Protocol: Feedback phase, Round: 5
Sat Nov 24 23:32:38 IST 2012	Number of consecutive no movements for player 337 is 0
Sat Nov 24 23:32:38 IST 2012	Number of consecutive no movements for player 310 is 0
Sat Nov 24 23:32:43 IST 2012	A Phase Ended: Feedback Phase
Sat Nov 24 23:32:43 IST 2012	Protocol: A New Phase Began: Communication Phase
Sat Nov 24 23:32:43 IST 2012	Protocol: Communication phase, Round: 6
Sat Nov 24 23:33:43 IST 2012	Received communication message 
Sat Nov 24 23:33:43 IST 2012	From player: 337
Sat Nov 24 23:33:43 IST 2012	To player: 310
Sat Nov 24 23:33:43 IST 2012	Message type: basicproposal
Sat Nov 24 23:33:43 IST 2012	Chips to send by proposer: { chips  'CTYellow':1 }
Sat Nov 24 23:33:43 IST 2012	Chips to send by responder: { chips  'CTGreen':2 'grey78':1 }
Sat Nov 24 23:33:57 IST 2012	Received communication message 
Sat Nov 24 23:33:57 IST 2012	From player: 310
Sat Nov 24 23:33:57 IST 2012	To player: 337
Sat Nov 24 23:33:57 IST 2012	Message type: basicproposaldiscussion
Sat Nov 24 23:33:57 IST 2012	Player 310 accepted offer
Sat Nov 24 23:33:57 IST 2012	Prop accepted, set counter offers count to: 0
Sat Nov 24 23:33:57 IST 2012	Prop accepted, get counter offers returned: 0
Sat Nov 24 23:33:57 IST 2012	A Phase Ended: Communication Phase
Sat Nov 24 23:33:57 IST 2012	Protocol: A New Phase Began: Exchange Phase
Sat Nov 24 23:33:57 IST 2012	Protocol: Exchange phase, Round: 6
Sat Nov 24 23:33:57 IST 2012	In begin exch.phase, get counter offers returned: 0
Sat Nov 24 23:34:22 IST 2012	A Phase Ended: Exchange Phase
Sat Nov 24 23:34:22 IST 2012	Proposer 337 sent: { chips  'CTRed':0 'CTPurple':0 'CTGreen':0 'grey78':0 'CTYellow':1 }
Sat Nov 24 23:34:22 IST 2012	Responder 310 sent: { chips  }
Sat Nov 24 23:34:22 IST 2012	Protocol: A New Phase Began: Movement Phase
Sat Nov 24 23:34:22 IST 2012	Protocol: Movement phase, Round: 6
Sat Nov 24 23:34:22 IST 2012	Player 310 moved to (R:4,C:3)
Sat Nov 24 23:34:41 IST 2012	A Phase Ended: Movement Phase
Sat Nov 24 23:34:41 IST 2012	Swaping roles:
Sat Nov 24 23:34:41 IST 2012	Proposer is: 310
Sat Nov 24 23:34:41 IST 2012	Responder is: 337
Sat Nov 24 23:34:41 IST 2012	Protocol: A New Phase Began: Feedback Phase
Sat Nov 24 23:34:41 IST 2012	Protocol: Feedback phase, Round: 6
Sat Nov 24 23:34:41 IST 2012	Number of consecutive no movements for player 337 is 1
Sat Nov 24 23:34:41 IST 2012	Number of consecutive no movements for player 310 is 0
Sat Nov 24 23:34:46 IST 2012	A Phase Ended: Feedback Phase
Sat Nov 24 23:34:46 IST 2012	Protocol: A New Phase Began: Communication Phase
Sat Nov 24 23:34:46 IST 2012	Protocol: Communication phase, Round: 7
Sat Nov 24 23:35:02 IST 2012	Received communication message 
Sat Nov 24 23:35:02 IST 2012	From player: 310
Sat Nov 24 23:35:02 IST 2012	To player: 337
Sat Nov 24 23:35:02 IST 2012	Message type: basicproposal
Sat Nov 24 23:35:02 IST 2012	Chips to send by proposer: { chips  'CTRed':0 'CTPurple':0 'CTGreen':0 'grey78':1 'CTYellow':0 }
Sat Nov 24 23:35:02 IST 2012	Chips to send by responder: { chips  'CTRed':0 'CTPurple':0 'CTGreen':7 'grey78':0 'CTYellow':0 }
Sat Nov 24 23:35:28 IST 2012	Received communication message 
Sat Nov 24 23:35:28 IST 2012	From player: 337
Sat Nov 24 23:35:28 IST 2012	To player: 310
Sat Nov 24 23:35:28 IST 2012	Message type: basicproposaldiscussion
Sat Nov 24 23:35:28 IST 2012	Player 337 rejected offer
Sat Nov 24 23:35:28 IST 2012	Swaping roles:
Sat Nov 24 23:35:28 IST 2012	Proposer is: 337
Sat Nov 24 23:35:28 IST 2012	Responder is: 310
Sat Nov 24 23:35:28 IST 2012	Prop rejected, set counter offers count to: 1
Sat Nov 24 23:35:28 IST 2012	Prop rejected, get counter offers returned: 1
Sat Nov 24 23:35:32 IST 2012	Slept 4 seconds
Sat Nov 24 23:35:32 IST 2012	Sent role changed msgs
Sat Nov 24 23:36:32 IST 2012	Received communication message 
Sat Nov 24 23:36:32 IST 2012	From player: 337
Sat Nov 24 23:36:32 IST 2012	To player: 310
Sat Nov 24 23:36:32 IST 2012	Message type: basicproposal
Sat Nov 24 23:36:32 IST 2012	Chips to send by proposer: { chips  'CTRed':0 'CTPurple':0 'CTGreen':1 'grey78':0 'CTYellow':0 }
Sat Nov 24 23:36:32 IST 2012	Chips to send by responder: { chips  'CTRed':0 'CTPurple':0 'CTGreen':0 'grey78':1 'CTYellow':0 }
Sat Nov 24 23:36:41 IST 2012	Received communication message 
Sat Nov 24 23:36:41 IST 2012	From player: 310
Sat Nov 24 23:36:41 IST 2012	To player: 337
Sat Nov 24 23:36:41 IST 2012	Message type: basicproposaldiscussion
Sat Nov 24 23:36:41 IST 2012	Player 310 accepted offer
Sat Nov 24 23:36:41 IST 2012	Prop accepted, set counter offers count to: 0
Sat Nov 24 23:36:41 IST 2012	Prop accepted, get counter offers returned: 0
Sat Nov 24 23:36:41 IST 2012	A Phase Ended: Communication Phase
Sat Nov 24 23:36:41 IST 2012	Protocol: A New Phase Began: Exchange Phase
Sat Nov 24 23:36:41 IST 2012	Protocol: Exchange phase, Round: 7
Sat Nov 24 23:36:41 IST 2012	In begin exch.phase, get counter offers returned: 0
Sat Nov 24 23:36:58 IST 2012	A Phase Ended: Exchange Phase
Sat Nov 24 23:36:58 IST 2012	Proposer 337 sent: { chips  'CTRed':0 'CTPurple':0 'CTGreen':0 'grey78':0 'CTYellow':0 }
Sat Nov 24 23:36:58 IST 2012	Responder 310 sent: { chips  }
Sat Nov 24 23:36:58 IST 2012	Protocol: A New Phase Began: Movement Phase
Sat Nov 24 23:36:58 IST 2012	Protocol: Movement phase, Round: 7
Sat Nov 24 23:36:58 IST 2012	Player 310 moved to (R:3,C:3)
Sat Nov 24 23:37:18 IST 2012	A Phase Ended: Movement Phase
Sat Nov 24 23:37:18 IST 2012	Protocol: A New Phase Began: Feedback Phase
Sat Nov 24 23:37:18 IST 2012	Protocol: Feedback phase, Round: 7
Sat Nov 24 23:37:18 IST 2012	Number of consecutive no movements for player 337 is 2
Sat Nov 24 23:37:18 IST 2012	Number of consecutive no movements for player 310 is 0
Sat Nov 24 23:37:23 IST 2012	A Phase Ended: Feedback Phase
Sat Nov 24 23:37:23 IST 2012	Protocol: A New Phase Began: Communication Phase
Sat Nov 24 23:37:23 IST 2012	Protocol: Communication phase, Round: 8
Sat Nov 24 23:38:24 IST 2012	Received communication message 
Sat Nov 24 23:38:24 IST 2012	From player: 337
Sat Nov 24 23:38:24 IST 2012	To player: 310
Sat Nov 24 23:38:24 IST 2012	Message type: basicproposal
Sat Nov 24 23:38:24 IST 2012	Chips to send by proposer: { chips  'CTGreen':1 }
Sat Nov 24 23:38:24 IST 2012	Chips to send by responder: { chips  'grey78':1 }
Sat Nov 24 23:38:34 IST 2012	Received communication message 
Sat Nov 24 23:38:34 IST 2012	From player: 310
Sat Nov 24 23:38:34 IST 2012	To player: 337
Sat Nov 24 23:38:34 IST 2012	Message type: basicproposaldiscussion
Sat Nov 24 23:38:34 IST 2012	Player 310 accepted offer
Sat Nov 24 23:38:34 IST 2012	Prop accepted, set counter offers count to: 0
Sat Nov 24 23:38:34 IST 2012	Prop accepted, get counter offers returned: 0
Sat Nov 24 23:38:34 IST 2012	A Phase Ended: Communication Phase
Sat Nov 24 23:38:34 IST 2012	Protocol: A New Phase Began: Exchange Phase
Sat Nov 24 23:38:34 IST 2012	Protocol: Exchange phase, Round: 8
Sat Nov 24 23:38:34 IST 2012	In begin exch.phase, get counter offers returned: 0
Sat Nov 24 23:38:56 IST 2012	A Phase Ended: Exchange Phase
Sat Nov 24 23:38:56 IST 2012	Proposer 337 sent: { chips  'CTRed':0 'CTPurple':0 'CTGreen':1 'grey78':0 'CTYellow':0 }
Sat Nov 24 23:38:56 IST 2012	Responder 310 sent: { chips  }
Sat Nov 24 23:38:56 IST 2012	Protocol: A New Phase Began: Movement Phase
Sat Nov 24 23:38:56 IST 2012	Protocol: Movement phase, Round: 8
Sat Nov 24 23:38:56 IST 2012	Player 310 moved to (R:2,C:3)
Sat Nov 24 23:38:56 IST 2012	Player 337 moved to (R:4,C:1)
Sat Nov 24 23:39:16 IST 2012	A Phase Ended: Movement Phase
Sat Nov 24 23:39:16 IST 2012	Swaping roles:
Sat Nov 24 23:39:16 IST 2012	Proposer is: 310
Sat Nov 24 23:39:16 IST 2012	Responder is: 337
Sat Nov 24 23:39:16 IST 2012	Protocol: A New Phase Began: Feedback Phase
Sat Nov 24 23:39:16 IST 2012	Protocol: Feedback phase, Round: 8
Sat Nov 24 23:39:16 IST 2012	Number of consecutive no movements for player 337 is 0
Sat Nov 24 23:39:16 IST 2012	Number of consecutive no movements for player 310 is 0
Sat Nov 24 23:39:21 IST 2012	A Phase Ended: Feedback Phase
Sat Nov 24 23:39:21 IST 2012	Protocol: A New Phase Began: Communication Phase
Sat Nov 24 23:39:21 IST 2012	Protocol: Communication phase, Round: 9
Sat Nov 24 23:39:40 IST 2012	Received communication message 
Sat Nov 24 23:39:40 IST 2012	From player: 310
Sat Nov 24 23:39:40 IST 2012	To player: 337
Sat Nov 24 23:39:40 IST 2012	Message type: basicproposal
Sat Nov 24 23:39:40 IST 2012	Chips to send by proposer: { chips  'CTRed':0 'CTPurple':0 'CTGreen':0 'grey78':1 'CTYellow':0 }
Sat Nov 24 23:39:40 IST 2012	Chips to send by responder: { chips  'CTRed':0 'CTPurple':0 'CTGreen':7 'grey78':0 'CTYellow':0 }
Sat Nov 24 23:40:09 IST 2012	Received communication message 
Sat Nov 24 23:40:09 IST 2012	From player: 337
Sat Nov 24 23:40:09 IST 2012	To player: 310
Sat Nov 24 23:40:09 IST 2012	Message type: basicproposaldiscussion
Sat Nov 24 23:40:09 IST 2012	Player 337 rejected offer
Sat Nov 24 23:40:09 IST 2012	Swaping roles:
Sat Nov 24 23:40:09 IST 2012	Proposer is: 337
Sat Nov 24 23:40:09 IST 2012	Responder is: 310
Sat Nov 24 23:40:09 IST 2012	Prop rejected, set counter offers count to: 1
Sat Nov 24 23:40:09 IST 2012	Prop rejected, get counter offers returned: 1
Sat Nov 24 23:40:13 IST 2012	Slept 4 seconds
Sat Nov 24 23:40:13 IST 2012	Sent role changed msgs
Sat Nov 24 23:41:13 IST 2012	Received communication message 
Sat Nov 24 23:41:13 IST 2012	From player: 337
Sat Nov 24 23:41:13 IST 2012	To player: 310
Sat Nov 24 23:41:13 IST 2012	Message type: basicproposal
Sat Nov 24 23:41:13 IST 2012	Chips to send by proposer: { chips  'CTRed':0 'CTPurple':0 'CTGreen':1 'grey78':0 'CTYellow':0 }
Sat Nov 24 23:41:13 IST 2012	Chips to send by responder: { chips  'CTRed':0 'CTPurple':0 'CTGreen':0 'grey78':1 'CTYellow':0 }
Sat Nov 24 23:41:25 IST 2012	Received communication message 
Sat Nov 24 23:41:25 IST 2012	From player: 310
Sat Nov 24 23:41:25 IST 2012	To player: 337
Sat Nov 24 23:41:25 IST 2012	Message type: basicproposaldiscussion
Sat Nov 24 23:41:25 IST 2012	Player 310 accepted offer
Sat Nov 24 23:41:25 IST 2012	Prop accepted, set counter offers count to: 0
Sat Nov 24 23:41:25 IST 2012	Prop accepted, get counter offers returned: 0
Sat Nov 24 23:41:25 IST 2012	A Phase Ended: Communication Phase
Sat Nov 24 23:41:25 IST 2012	Protocol: A New Phase Began: Exchange Phase
Sat Nov 24 23:41:25 IST 2012	Protocol: Exchange phase, Round: 9
Sat Nov 24 23:41:25 IST 2012	In begin exch.phase, get counter offers returned: 0
Sat Nov 24 23:41:46 IST 2012	A Phase Ended: Exchange Phase
Sat Nov 24 23:41:46 IST 2012	Proposer 337 sent: { chips  'CTRed':0 'CTPurple':0 'CTGreen':1 'grey78':0 'CTYellow':0 }
Sat Nov 24 23:41:46 IST 2012	Responder 310 sent: { chips  }
Sat Nov 24 23:41:46 IST 2012	Protocol: A New Phase Began: Movement Phase
Sat Nov 24 23:41:46 IST 2012	Protocol: Movement phase, Round: 9
Sat Nov 24 23:41:46 IST 2012	Player 310 moved to (R:1,C:3)
Sat Nov 24 23:42:05 IST 2012	A Phase Ended: Movement Phase
Sat Nov 24 23:42:05 IST 2012	Protocol: A New Phase Began: Feedback Phase
Sat Nov 24 23:42:05 IST 2012	Protocol: Feedback phase, Round: 9
Sat Nov 24 23:42:05 IST 2012	Number of consecutive no movements for player 337 is 1
Sat Nov 24 23:42:05 IST 2012	Number of consecutive no movements for player 310 is 0
Sat Nov 24 23:42:11 IST 2012	A Phase Ended: Feedback Phase
Sat Nov 24 23:42:11 IST 2012	Protocol: A New Phase Began: Communication Phase
Sat Nov 24 23:42:11 IST 2012	Protocol: Communication phase, Round: 10
Sat Nov 24 23:43:11 IST 2012	Received communication message 
Sat Nov 24 23:43:11 IST 2012	From player: 337
Sat Nov 24 23:43:11 IST 2012	To player: 310
Sat Nov 24 23:43:11 IST 2012	Message type: basicproposal
Sat Nov 24 23:43:11 IST 2012	Chips to send by proposer: { chips  'CTYellow':1 }
Sat Nov 24 23:43:11 IST 2012	Chips to send by responder: { chips  'grey78':1 }
Sat Nov 24 23:43:25 IST 2012	Received communication message 
Sat Nov 24 23:43:25 IST 2012	From player: 310
Sat Nov 24 23:43:25 IST 2012	To player: 337
Sat Nov 24 23:43:25 IST 2012	Message type: basicproposaldiscussion
Sat Nov 24 23:43:25 IST 2012	Player 310 rejected offer
Sat Nov 24 23:43:25 IST 2012	Swaping roles:
Sat Nov 24 23:43:25 IST 2012	Proposer is: 310
Sat Nov 24 23:43:25 IST 2012	Responder is: 337
Sat Nov 24 23:43:25 IST 2012	Prop rejected, set counter offers count to: 1
Sat Nov 24 23:43:25 IST 2012	Prop rejected, get counter offers returned: 1
Sat Nov 24 23:43:29 IST 2012	Slept 4 seconds
Sat Nov 24 23:43:29 IST 2012	Sent role changed msgs
Sat Nov 24 23:43:49 IST 2012	Received communication message 
Sat Nov 24 23:43:49 IST 2012	From player: 310
Sat Nov 24 23:43:49 IST 2012	To player: 337
Sat Nov 24 23:43:49 IST 2012	Message type: basicproposal
Sat Nov 24 23:43:49 IST 2012	Chips to send by proposer: { chips  'CTRed':0 'CTPurple':0 'CTGreen':0 'grey78':1 'CTYellow':0 }
Sat Nov 24 23:43:49 IST 2012	Chips to send by responder: { chips  'CTRed':0 'CTPurple':0 'CTGreen':7 'grey78':0 'CTYellow':0 }
Sat Nov 24 23:44:12 IST 2012	Received communication message 
Sat Nov 24 23:44:12 IST 2012	From player: 337
Sat Nov 24 23:44:12 IST 2012	To player: 310
Sat Nov 24 23:44:12 IST 2012	Message type: basicproposaldiscussion
Sat Nov 24 23:44:12 IST 2012	Player 337 rejected offer
Sat Nov 24 23:44:12 IST 2012	Set counter offers count to: 0
Sat Nov 24 23:44:12 IST 2012	A Phase Ended: Communication Phase
Sat Nov 24 23:44:12 IST 2012	Protocol: A New Phase Began: Exchange Phase
Sat Nov 24 23:44:12 IST 2012	Protocol: Exchange phase, Round: 10
Sat Nov 24 23:44:12 IST 2012	In begin exch.phase, get counter offers returned: 0
Sat Nov 24 23:44:52 IST 2012	A Phase Ended: Exchange Phase
Sat Nov 24 23:44:52 IST 2012	Responder 337 sent: { chips  }
Sat Nov 24 23:44:52 IST 2012	Protocol: A New Phase Began: Movement Phase
Sat Nov 24 23:44:52 IST 2012	Protocol: Movement phase, Round: 10
Sat Nov 24 23:44:52 IST 2012	Player 310 moved to (R:0,C:3)
Sat Nov 24 23:45:12 IST 2012	A Phase Ended: Movement Phase
Sat Nov 24 23:45:12 IST 2012	Protocol: A New Phase Began: Feedback Phase
Sat Nov 24 23:45:12 IST 2012	Protocol: Feedback phase, Round: 10
Sat Nov 24 23:45:12 IST 2012	Number of consecutive no movements for player 337 is 2
Sat Nov 24 23:45:12 IST 2012	Number of consecutive no movements for player 310 is 0
Sat Nov 24 23:45:17 IST 2012	A Phase Ended: Feedback Phase
Sat Nov 24 23:45:17 IST 2012	Protocol: A New Phase Began: Communication Phase
Sat Nov 24 23:45:17 IST 2012	Protocol: Communication phase, Round: 11
Sat Nov 24 23:45:33 IST 2012	Received communication message 
Sat Nov 24 23:45:33 IST 2012	From player: 310
Sat Nov 24 23:45:33 IST 2012	To player: 337
Sat Nov 24 23:45:33 IST 2012	Message type: basicproposal
Sat Nov 24 23:45:33 IST 2012	Chips to send by proposer: { chips  'CTRed':0 'CTPurple':0 'CTGreen':0 'grey78':1 'CTYellow':0 }
Sat Nov 24 23:45:33 IST 2012	Chips to send by responder: { chips  'CTRed':0 'CTPurple':0 'CTGreen':5 'grey78':0 'CTYellow':0 }
Sat Nov 24 23:45:48 IST 2012	Received communication message 
Sat Nov 24 23:45:48 IST 2012	From player: 337
Sat Nov 24 23:45:48 IST 2012	To player: 310
Sat Nov 24 23:45:48 IST 2012	Message type: basicproposaldiscussion
Sat Nov 24 23:45:48 IST 2012	Player 337 rejected offer
Sat Nov 24 23:45:48 IST 2012	Swaping roles:
Sat Nov 24 23:45:48 IST 2012	Proposer is: 337
Sat Nov 24 23:45:48 IST 2012	Responder is: 310
Sat Nov 24 23:45:48 IST 2012	Prop rejected, set counter offers count to: 1
Sat Nov 24 23:45:48 IST 2012	Prop rejected, get counter offers returned: 1
Sat Nov 24 23:45:53 IST 2012	Slept 4 seconds
Sat Nov 24 23:45:53 IST 2012	Sent role changed msgs
Sat Nov 24 23:46:40 IST 2012	Received communication message 
Sat Nov 24 23:46:40 IST 2012	From player: 337
Sat Nov 24 23:46:40 IST 2012	To player: 310
Sat Nov 24 23:46:40 IST 2012	Message type: basicproposal
Sat Nov 24 23:46:40 IST 2012	Chips to send by proposer: { chips  'CTRed':0 'CTPurple':0 'CTGreen':1 'grey78':0 'CTYellow':0 }
Sat Nov 24 23:46:40 IST 2012	Chips to send by responder: { chips  'CTRed':0 'CTPurple':0 'CTGreen':0 'grey78':1 'CTYellow':0 }
Sat Nov 24 23:46:51 IST 2012	Received communication message 
Sat Nov 24 23:46:51 IST 2012	From player: 310
Sat Nov 24 23:46:51 IST 2012	To player: 337
Sat Nov 24 23:46:51 IST 2012	Message type: basicproposaldiscussion
Sat Nov 24 23:46:51 IST 2012	Player 310 rejected offer
Sat Nov 24 23:46:51 IST 2012	Set counter offers count to: 0
Sat Nov 24 23:46:51 IST 2012	A Phase Ended: Communication Phase
Sat Nov 24 23:46:51 IST 2012	Protocol: A New Phase Began: Exchange Phase
Sat Nov 24 23:46:51 IST 2012	Protocol: Exchange phase, Round: 11
Sat Nov 24 23:46:51 IST 2012	In begin exch.phase, get counter offers returned: 0
Sat Nov 24 23:47:31 IST 2012	A Phase Ended: Exchange Phase
Sat Nov 24 23:47:31 IST 2012	Proposer 337 sent: { chips  }
Sat Nov 24 23:47:31 IST 2012	Protocol: A New Phase Began: Movement Phase
Sat Nov 24 23:47:31 IST 2012	Protocol: Movement phase, Round: 11
Sat Nov 24 23:47:31 IST 2012	Player 337 moved to (R:3,C:1)
Sat Nov 24 23:47:31 IST 2012	Player 310 moved to (R:0,C:2)
Sat Nov 24 23:47:35 IST 2012	Slept 4 seconds
Sat Nov 24 23:47:35 IST 2012	Player 310 got to goal, advance the other and end game
Sat Nov 24 23:47:35 IST 2012	Player: 310 ,role: Responder score is: 200
Sat Nov 24 23:47:35 IST 2012	Player: 337 ,role: Proposer score is: 45
