Mon Nov 26 21:16:41 IST 2012	This is the CT debug logger; svn version 638; sep 27 09
Mon Nov 26 21:16:41 IST 2012	Mon Nov 26 21:16:41 IST 2012
Mon Nov 26 21:16:41 IST 2012	A new Alternative Offers game has began
Mon Nov 26 21:16:41 IST 2012	ID Number: 31148
Mon Nov 26 21:16:41 IST 2012	Creating board
Mon Nov 26 21:16:41 IST 2012	<colors>
Mon Nov 26 21:16:41 IST 2012	{ GamePalette  'CTRed':0 'CTPurple':1 'CTGreen':2 'grey78':3 'CTYellow':4 }
Mon Nov 26 21:16:41 IST 2012	<rows>
Mon Nov 26 21:16:41 IST 2012	7
Mon Nov 26 21:16:41 IST 2012	<columns>
Mon Nov 26 21:16:41 IST 2012	5
Mon Nov 26 21:16:41 IST 2012	<squaresColors>
Mon Nov 26 21:16:41 IST 2012	CTPurple CTRed CTRed CTGreen CTPurple 
Mon Nov 26 21:16:41 IST 2012	CTPurple grey78 CTPurple CTYellow CTPurple 
Mon Nov 26 21:16:41 IST 2012	CTPurple CTRed CTPurple CTGreen CTPurple 
Mon Nov 26 21:16:41 IST 2012	CTPurple grey78 CTPurple CTYellow CTPurple 
Mon Nov 26 21:16:41 IST 2012	CTPurple CTRed CTPurple CTGreen CTPurple 
Mon Nov 26 21:16:41 IST 2012	CTPurple grey78 CTPurple CTYellow CTPurple 
Mon Nov 26 21:16:41 IST 2012	CTPurple CTRed CTPurple CTGreen CTPurple 
Mon Nov 26 21:16:41 IST 2012	</squareColors>
Mon Nov 26 21:16:41 IST 2012	<goalPosition>
Mon Nov 26 21:16:41 IST 2012	Goal position: (R:0,C:2)
Mon Nov 26 21:16:41 IST 2012	<numberOfPlayers>
Mon Nov 26 21:16:41 IST 2012	2
Mon Nov 26 21:16:41 IST 2012	<firstPlayerChips>
Mon Nov 26 21:16:41 IST 2012	Setting chips for player: 337 id:0
Mon Nov 26 21:16:41 IST 2012	{ chips  'CTRed':5 'CTGreen':10 'CTPurple':0 'grey78':0 'CTYellow':9 }
Mon Nov 26 21:16:41 IST 2012	Player position: (R:6,C:0)
Mon Nov 26 21:16:41 IST 2012	Setting chips for player: 310 id:1
Mon Nov 26 21:16:41 IST 2012	{ chips  'CTRed':1 'CTGreen':13 'CTPurple':0 'grey78':10 'CTYellow':0 }
Mon Nov 26 21:16:41 IST 2012	Player position: (R:6,C:4)
Mon Nov 26 21:16:41 IST 2012	Protocol: A New Phase Began: Strategy Prep Phase
Mon Nov 26 21:16:41 IST 2012	Protocol: Strategy Preparation phase, Round: 0
Mon Nov 26 21:16:41 IST 2012	Maximum number of rounds with no consecutive movement is 3
Mon Nov 26 21:16:41 IST 2012	In begin comm. phase, set counter offers count to: 0
Mon Nov 26 21:16:41 IST 2012	In begin comm. phase, get counter offers returned: 0
Mon Nov 26 21:17:01 IST 2012	A Phase Ended: Strategy Prep Phase
Mon Nov 26 21:17:01 IST 2012	Protocol: A New Phase Began: Communication Phase
Mon Nov 26 21:17:01 IST 2012	Protocol: Communication phase, Round: 0
Mon Nov 26 21:18:01 IST 2012	Received communication message 
Mon Nov 26 21:18:01 IST 2012	From player: 337
Mon Nov 26 21:18:01 IST 2012	To player: 310
Mon Nov 26 21:18:01 IST 2012	Message type: basicproposal
Mon Nov 26 21:18:01 IST 2012	Chips to send by proposer: { chips  'CTYellow':1 }
Mon Nov 26 21:18:01 IST 2012	Chips to send by responder: { chips  'CTGreen':1 'grey78':1 }
Mon Nov 26 21:18:15 IST 2012	Received communication message 
Mon Nov 26 21:18:15 IST 2012	From player: 310
Mon Nov 26 21:18:15 IST 2012	To player: 337
Mon Nov 26 21:18:15 IST 2012	Message type: basicproposaldiscussion
Mon Nov 26 21:18:15 IST 2012	Player 310 accepted offer
Mon Nov 26 21:18:15 IST 2012	Prop accepted, set counter offers count to: 0
Mon Nov 26 21:18:15 IST 2012	Prop accepted, get counter offers returned: 0
Mon Nov 26 21:18:15 IST 2012	A Phase Ended: Communication Phase
Mon Nov 26 21:18:15 IST 2012	Protocol: A New Phase Began: Exchange Phase
Mon Nov 26 21:18:15 IST 2012	Protocol: Exchange phase, Round: 0
Mon Nov 26 21:18:15 IST 2012	In begin exch.phase, get counter offers returned: 0
Mon Nov 26 21:18:44 IST 2012	A Phase Ended: Exchange Phase
Mon Nov 26 21:18:44 IST 2012	Proposer 337 sent: { chips  'CTRed':0 'CTPurple':0 'CTGreen':0 'grey78':0 'CTYellow':1 }
Mon Nov 26 21:18:44 IST 2012	Responder 310 sent: { chips  'CTRed':0 'CTPurple':0 'CTGreen':0 'grey78':1 'CTYellow':0 }
Mon Nov 26 21:18:44 IST 2012	Protocol: A New Phase Began: Movement Phase
Mon Nov 26 21:18:44 IST 2012	Protocol: Movement phase, Round: 0
Mon Nov 26 21:19:04 IST 2012	A Phase Ended: Movement Phase
Mon Nov 26 21:19:04 IST 2012	Swaping roles:
Mon Nov 26 21:19:04 IST 2012	Proposer is: 310
Mon Nov 26 21:19:04 IST 2012	Responder is: 337
Mon Nov 26 21:19:04 IST 2012	Protocol: A New Phase Began: Feedback Phase
Mon Nov 26 21:19:04 IST 2012	Protocol: Feedback phase, Round: 0
Mon Nov 26 21:19:04 IST 2012	Number of consecutive no movements for player 337 is 1
Mon Nov 26 21:19:04 IST 2012	Number of consecutive no movements for player 310 is 1
Mon Nov 26 21:19:09 IST 2012	A Phase Ended: Feedback Phase
Mon Nov 26 21:19:09 IST 2012	Protocol: A New Phase Began: Communication Phase
Mon Nov 26 21:19:09 IST 2012	Protocol: Communication phase, Round: 1
Mon Nov 26 21:19:39 IST 2012	Received communication message 
Mon Nov 26 21:19:39 IST 2012	From player: 310
Mon Nov 26 21:19:39 IST 2012	To player: 337
Mon Nov 26 21:19:39 IST 2012	Message type: basicproposal
Mon Nov 26 21:19:39 IST 2012	Chips to send by proposer: { chips  'CTRed':0 'CTPurple':0 'CTGreen':0 'grey78':2 'CTYellow':0 }
Mon Nov 26 21:19:39 IST 2012	Chips to send by responder: { chips  'CTRed':0 'CTPurple':0 'CTGreen':5 'grey78':0 'CTYellow':2 }
Mon Nov 26 21:20:37 IST 2012	Received communication message 
Mon Nov 26 21:20:37 IST 2012	From player: 337
Mon Nov 26 21:20:37 IST 2012	To player: 310
Mon Nov 26 21:20:37 IST 2012	Message type: basicproposaldiscussion
Mon Nov 26 21:20:37 IST 2012	Player 337 rejected offer
Mon Nov 26 21:20:37 IST 2012	Swaping roles:
Mon Nov 26 21:20:37 IST 2012	Proposer is: 337
Mon Nov 26 21:20:37 IST 2012	Responder is: 310
Mon Nov 26 21:20:37 IST 2012	Prop rejected, set counter offers count to: 1
Mon Nov 26 21:20:37 IST 2012	Prop rejected, get counter offers returned: 1
Mon Nov 26 21:20:41 IST 2012	Slept 4 seconds
Mon Nov 26 21:20:41 IST 2012	Sent role changed msgs
Mon Nov 26 21:21:41 IST 2012	Received communication message 
Mon Nov 26 21:21:41 IST 2012	From player: 337
Mon Nov 26 21:21:41 IST 2012	To player: 310
Mon Nov 26 21:21:41 IST 2012	Message type: basicproposal
Mon Nov 26 21:21:41 IST 2012	Chips to send by proposer: { chips  'CTRed':0 'CTPurple':0 'CTGreen':0 'grey78':0 'CTYellow':1 }
Mon Nov 26 21:21:41 IST 2012	Chips to send by responder: { chips  'CTRed':0 'CTPurple':0 'CTGreen':1 'grey78':1 'CTYellow':0 }
Mon Nov 26 21:21:53 IST 2012	Received communication message 
Mon Nov 26 21:21:53 IST 2012	From player: 310
Mon Nov 26 21:21:53 IST 2012	To player: 337
Mon Nov 26 21:21:53 IST 2012	Message type: basicproposaldiscussion
Mon Nov 26 21:21:53 IST 2012	Player 310 accepted offer
Mon Nov 26 21:21:53 IST 2012	Prop accepted, set counter offers count to: 0
Mon Nov 26 21:21:53 IST 2012	Prop accepted, get counter offers returned: 0
Mon Nov 26 21:21:53 IST 2012	A Phase Ended: Communication Phase
Mon Nov 26 21:21:53 IST 2012	Protocol: A New Phase Began: Exchange Phase
Mon Nov 26 21:21:53 IST 2012	Protocol: Exchange phase, Round: 1
Mon Nov 26 21:21:53 IST 2012	In begin exch.phase, get counter offers returned: 0
Mon Nov 26 21:22:22 IST 2012	A Phase Ended: Exchange Phase
Mon Nov 26 21:22:22 IST 2012	Proposer 337 sent: { chips  'CTRed':0 'CTPurple':0 'CTGreen':0 'grey78':0 'CTYellow':1 }
Mon Nov 26 21:22:22 IST 2012	Responder 310 sent: { chips  'CTRed':0 'CTPurple':0 'CTGreen':0 'grey78':1 'CTYellow':0 }
Mon Nov 26 21:22:22 IST 2012	Protocol: A New Phase Began: Movement Phase
Mon Nov 26 21:22:22 IST 2012	Protocol: Movement phase, Round: 1
Mon Nov 26 21:22:41 IST 2012	A Phase Ended: Movement Phase
Mon Nov 26 21:22:41 IST 2012	Protocol: A New Phase Began: Feedback Phase
Mon Nov 26 21:22:41 IST 2012	Protocol: Feedback phase, Round: 1
Mon Nov 26 21:22:41 IST 2012	Number of consecutive no movements for player 337 is 2
Mon Nov 26 21:22:41 IST 2012	Number of consecutive no movements for player 310 is 2
Mon Nov 26 21:22:46 IST 2012	A Phase Ended: Feedback Phase
Mon Nov 26 21:22:46 IST 2012	Protocol: A New Phase Began: Communication Phase
Mon Nov 26 21:22:46 IST 2012	Protocol: Communication phase, Round: 2
Mon Nov 26 21:23:46 IST 2012	Received communication message 
Mon Nov 26 21:23:46 IST 2012	From player: 337
Mon Nov 26 21:23:46 IST 2012	To player: 310
Mon Nov 26 21:23:46 IST 2012	Message type: basicproposal
Mon Nov 26 21:23:46 IST 2012	Chips to send by proposer: { chips  'CTYellow':1 }
Mon Nov 26 21:23:46 IST 2012	Chips to send by responder: { chips  'CTGreen':2 'grey78':1 }
Mon Nov 26 21:23:57 IST 2012	Received communication message 
Mon Nov 26 21:23:57 IST 2012	From player: 310
Mon Nov 26 21:23:57 IST 2012	To player: 337
Mon Nov 26 21:23:57 IST 2012	Message type: basicproposaldiscussion
Mon Nov 26 21:23:57 IST 2012	Player 310 accepted offer
Mon Nov 26 21:23:57 IST 2012	Prop accepted, set counter offers count to: 0
Mon Nov 26 21:23:57 IST 2012	Prop accepted, get counter offers returned: 0
Mon Nov 26 21:23:57 IST 2012	A Phase Ended: Communication Phase
Mon Nov 26 21:23:57 IST 2012	Protocol: A New Phase Began: Exchange Phase
Mon Nov 26 21:23:57 IST 2012	Protocol: Exchange phase, Round: 2
Mon Nov 26 21:23:57 IST 2012	In begin exch.phase, get counter offers returned: 0
Mon Nov 26 21:24:19 IST 2012	A Phase Ended: Exchange Phase
Mon Nov 26 21:24:19 IST 2012	Proposer 337 sent: { chips  'CTRed':0 'CTPurple':0 'CTGreen':0 'grey78':0 'CTYellow':0 }
Mon Nov 26 21:24:19 IST 2012	Responder 310 sent: { chips  }
Mon Nov 26 21:24:19 IST 2012	Protocol: A New Phase Began: Movement Phase
Mon Nov 26 21:24:19 IST 2012	Protocol: Movement phase, Round: 2
Mon Nov 26 21:24:19 IST 2012	Player 310 moved to (R:6,C:3)
Mon Nov 26 21:24:19 IST 2012	Player 337 moved to (R:6,C:1)
Mon Nov 26 21:24:38 IST 2012	A Phase Ended: Movement Phase
Mon Nov 26 21:24:38 IST 2012	Swaping roles:
Mon Nov 26 21:24:38 IST 2012	Proposer is: 310
Mon Nov 26 21:24:38 IST 2012	Responder is: 337
Mon Nov 26 21:24:38 IST 2012	Protocol: A New Phase Began: Feedback Phase
Mon Nov 26 21:24:38 IST 2012	Protocol: Feedback phase, Round: 2
Mon Nov 26 21:24:38 IST 2012	Number of consecutive no movements for player 337 is 0
Mon Nov 26 21:24:38 IST 2012	Number of consecutive no movements for player 310 is 0
Mon Nov 26 21:24:43 IST 2012	A Phase Ended: Feedback Phase
Mon Nov 26 21:24:43 IST 2012	Protocol: A New Phase Began: Communication Phase
Mon Nov 26 21:24:43 IST 2012	Protocol: Communication phase, Round: 3
Mon Nov 26 21:25:00 IST 2012	Received communication message 
Mon Nov 26 21:25:00 IST 2012	From player: 310
Mon Nov 26 21:25:00 IST 2012	To player: 337
Mon Nov 26 21:25:00 IST 2012	Message type: basicproposal
Mon Nov 26 21:25:00 IST 2012	Chips to send by proposer: { chips  'CTRed':0 'CTPurple':0 'CTGreen':0 'grey78':1 'CTYellow':0 }
Mon Nov 26 21:25:00 IST 2012	Chips to send by responder: { chips  'CTRed':0 'CTPurple':0 'CTGreen':1 'grey78':0 'CTYellow':1 }
Mon Nov 26 21:25:29 IST 2012	Received communication message 
Mon Nov 26 21:25:29 IST 2012	From player: 337
Mon Nov 26 21:25:29 IST 2012	To player: 310
Mon Nov 26 21:25:29 IST 2012	Message type: basicproposaldiscussion
Mon Nov 26 21:25:29 IST 2012	Player 337 rejected offer
Mon Nov 26 21:25:29 IST 2012	Swaping roles:
Mon Nov 26 21:25:29 IST 2012	Proposer is: 337
Mon Nov 26 21:25:29 IST 2012	Responder is: 310
Mon Nov 26 21:25:29 IST 2012	Prop rejected, set counter offers count to: 1
Mon Nov 26 21:25:29 IST 2012	Prop rejected, get counter offers returned: 1
Mon Nov 26 21:25:33 IST 2012	Slept 4 seconds
Mon Nov 26 21:25:33 IST 2012	Sent role changed msgs
Mon Nov 26 21:26:33 IST 2012	Received communication message 
Mon Nov 26 21:26:33 IST 2012	From player: 337
Mon Nov 26 21:26:33 IST 2012	To player: 310
Mon Nov 26 21:26:33 IST 2012	Message type: basicproposal
Mon Nov 26 21:26:33 IST 2012	Chips to send by proposer: { chips  'CTRed':0 'CTPurple':0 'CTGreen':0 'grey78':0 'CTYellow':1 }
Mon Nov 26 21:26:33 IST 2012	Chips to send by responder: { chips  'CTRed':0 'CTPurple':0 'CTGreen':1 'grey78':1 'CTYellow':0 }
Mon Nov 26 21:26:42 IST 2012	Received communication message 
Mon Nov 26 21:26:42 IST 2012	From player: 310
Mon Nov 26 21:26:42 IST 2012	To player: 337
Mon Nov 26 21:26:42 IST 2012	Message type: basicproposaldiscussion
Mon Nov 26 21:26:42 IST 2012	Player 310 accepted offer
Mon Nov 26 21:26:42 IST 2012	Prop accepted, set counter offers count to: 0
Mon Nov 26 21:26:42 IST 2012	Prop accepted, get counter offers returned: 0
Mon Nov 26 21:26:42 IST 2012	A Phase Ended: Communication Phase
Mon Nov 26 21:26:42 IST 2012	Protocol: A New Phase Began: Exchange Phase
Mon Nov 26 21:26:42 IST 2012	Protocol: Exchange phase, Round: 3
Mon Nov 26 21:26:42 IST 2012	In begin exch.phase, get counter offers returned: 0
Mon Nov 26 21:27:07 IST 2012	A Phase Ended: Exchange Phase
Mon Nov 26 21:27:07 IST 2012	Proposer 337 sent: { chips  'CTRed':0 'CTPurple':0 'CTGreen':0 'grey78':0 'CTYellow':1 }
Mon Nov 26 21:27:07 IST 2012	Responder 310 sent: { chips  }
Mon Nov 26 21:27:07 IST 2012	Protocol: A New Phase Began: Movement Phase
Mon Nov 26 21:27:07 IST 2012	Protocol: Movement phase, Round: 3
Mon Nov 26 21:27:07 IST 2012	Player 310 moved to (R:5,C:3)
Mon Nov 26 21:27:27 IST 2012	A Phase Ended: Movement Phase
Mon Nov 26 21:27:27 IST 2012	Protocol: A New Phase Began: Feedback Phase
Mon Nov 26 21:27:27 IST 2012	Protocol: Feedback phase, Round: 3
Mon Nov 26 21:27:27 IST 2012	Number of consecutive no movements for player 337 is 1
Mon Nov 26 21:27:27 IST 2012	Number of consecutive no movements for player 310 is 0
Mon Nov 26 21:27:32 IST 2012	A Phase Ended: Feedback Phase
Mon Nov 26 21:27:32 IST 2012	Protocol: A New Phase Began: Communication Phase
Mon Nov 26 21:27:32 IST 2012	Protocol: Communication phase, Round: 4
Mon Nov 26 21:28:32 IST 2012	Received communication message 
Mon Nov 26 21:28:32 IST 2012	From player: 337
Mon Nov 26 21:28:32 IST 2012	To player: 310
Mon Nov 26 21:28:32 IST 2012	Message type: basicproposal
Mon Nov 26 21:28:32 IST 2012	Chips to send by proposer: { chips  'CTYellow':1 }
Mon Nov 26 21:28:32 IST 2012	Chips to send by responder: { chips  'grey78':1 }
Mon Nov 26 21:28:40 IST 2012	Received communication message 
Mon Nov 26 21:28:40 IST 2012	From player: 310
Mon Nov 26 21:28:40 IST 2012	To player: 337
Mon Nov 26 21:28:40 IST 2012	Message type: basicproposaldiscussion
Mon Nov 26 21:28:40 IST 2012	Player 310 accepted offer
Mon Nov 26 21:28:40 IST 2012	Prop accepted, set counter offers count to: 0
Mon Nov 26 21:28:40 IST 2012	Prop accepted, get counter offers returned: 0
Mon Nov 26 21:28:40 IST 2012	A Phase Ended: Communication Phase
Mon Nov 26 21:28:40 IST 2012	Protocol: A New Phase Began: Exchange Phase
Mon Nov 26 21:28:40 IST 2012	Protocol: Exchange phase, Round: 4
Mon Nov 26 21:28:40 IST 2012	In begin exch.phase, get counter offers returned: 0
Mon Nov 26 21:28:57 IST 2012	A Phase Ended: Exchange Phase
Mon Nov 26 21:28:57 IST 2012	Proposer 337 sent: { chips  'CTRed':0 'CTPurple':0 'CTGreen':0 'grey78':0 'CTYellow':0 }
Mon Nov 26 21:28:57 IST 2012	Responder 310 sent: { chips  }
Mon Nov 26 21:28:57 IST 2012	Protocol: A New Phase Began: Movement Phase
Mon Nov 26 21:28:57 IST 2012	Protocol: Movement phase, Round: 4
Mon Nov 26 21:28:57 IST 2012	Player 310 moved to (R:4,C:3)
Mon Nov 26 21:29:17 IST 2012	A Phase Ended: Movement Phase
Mon Nov 26 21:29:17 IST 2012	Swaping roles:
Mon Nov 26 21:29:17 IST 2012	Proposer is: 310
Mon Nov 26 21:29:17 IST 2012	Responder is: 337
Mon Nov 26 21:29:17 IST 2012	Protocol: A New Phase Began: Feedback Phase
Mon Nov 26 21:29:17 IST 2012	Protocol: Feedback phase, Round: 4
Mon Nov 26 21:29:17 IST 2012	Number of consecutive no movements for player 337 is 2
Mon Nov 26 21:29:17 IST 2012	Number of consecutive no movements for player 310 is 0
Mon Nov 26 21:29:22 IST 2012	A Phase Ended: Feedback Phase
Mon Nov 26 21:29:22 IST 2012	Protocol: A New Phase Began: Communication Phase
Mon Nov 26 21:29:22 IST 2012	Protocol: Communication phase, Round: 5
Mon Nov 26 21:29:36 IST 2012	Received communication message 
Mon Nov 26 21:29:36 IST 2012	From player: 310
Mon Nov 26 21:29:36 IST 2012	To player: 337
Mon Nov 26 21:29:36 IST 2012	Message type: basicproposal
Mon Nov 26 21:29:36 IST 2012	Chips to send by proposer: { chips  'CTRed':0 'CTPurple':0 'CTGreen':0 'grey78':1 'CTYellow':0 }
Mon Nov 26 21:29:36 IST 2012	Chips to send by responder: { chips  'CTRed':0 'CTPurple':0 'CTGreen':1 'grey78':0 'CTYellow':0 }
Mon Nov 26 21:30:07 IST 2012	Received communication message 
Mon Nov 26 21:30:07 IST 2012	From player: 337
Mon Nov 26 21:30:07 IST 2012	To player: 310
Mon Nov 26 21:30:07 IST 2012	Message type: basicproposaldiscussion
Mon Nov 26 21:30:07 IST 2012	Player 337 accepted offer
Mon Nov 26 21:30:07 IST 2012	Prop accepted, set counter offers count to: 0
Mon Nov 26 21:30:07 IST 2012	Prop accepted, get counter offers returned: 0
Mon Nov 26 21:30:07 IST 2012	A Phase Ended: Communication Phase
Mon Nov 26 21:30:07 IST 2012	Protocol: A New Phase Began: Exchange Phase
Mon Nov 26 21:30:07 IST 2012	Protocol: Exchange phase, Round: 5
Mon Nov 26 21:30:07 IST 2012	In begin exch.phase, get counter offers returned: 0
Mon Nov 26 21:30:36 IST 2012	A Phase Ended: Exchange Phase
Mon Nov 26 21:30:36 IST 2012	Proposer 310 sent: { chips  }
Mon Nov 26 21:30:36 IST 2012	Responder 337 sent: { chips  'CTRed':0 'CTPurple':0 'CTGreen':1 'grey78':0 'CTYellow':0 }
Mon Nov 26 21:30:36 IST 2012	Protocol: A New Phase Began: Movement Phase
Mon Nov 26 21:30:36 IST 2012	Protocol: Movement phase, Round: 5
Mon Nov 26 21:30:36 IST 2012	Player 310 moved to (R:3,C:3)
Mon Nov 26 21:30:36 IST 2012	Player 337 moved to (R:5,C:1)
Mon Nov 26 21:30:55 IST 2012	A Phase Ended: Movement Phase
Mon Nov 26 21:30:55 IST 2012	Swaping roles:
Mon Nov 26 21:30:55 IST 2012	Proposer is: 337
Mon Nov 26 21:30:55 IST 2012	Responder is: 310
Mon Nov 26 21:30:55 IST 2012	Protocol: A New Phase Began: Feedback Phase
Mon Nov 26 21:30:55 IST 2012	Protocol: Feedback phase, Round: 5
Mon Nov 26 21:30:55 IST 2012	Number of consecutive no movements for player 337 is 0
Mon Nov 26 21:30:55 IST 2012	Number of consecutive no movements for player 310 is 0
Mon Nov 26 21:31:00 IST 2012	A Phase Ended: Feedback Phase
Mon Nov 26 21:31:00 IST 2012	Protocol: A New Phase Began: Communication Phase
Mon Nov 26 21:31:00 IST 2012	Protocol: Communication phase, Round: 6
Mon Nov 26 21:32:00 IST 2012	Received communication message 
Mon Nov 26 21:32:00 IST 2012	From player: 337
Mon Nov 26 21:32:00 IST 2012	To player: 310
Mon Nov 26 21:32:00 IST 2012	Message type: basicproposal
Mon Nov 26 21:32:00 IST 2012	Chips to send by proposer: { chips  'CTGreen':1 }
Mon Nov 26 21:32:00 IST 2012	Chips to send by responder: { chips  'grey78':1 }
Mon Nov 26 21:32:13 IST 2012	Received communication message 
Mon Nov 26 21:32:13 IST 2012	From player: 310
Mon Nov 26 21:32:13 IST 2012	To player: 337
Mon Nov 26 21:32:13 IST 2012	Message type: basicproposaldiscussion
Mon Nov 26 21:32:13 IST 2012	Player 310 accepted offer
Mon Nov 26 21:32:13 IST 2012	Prop accepted, set counter offers count to: 0
Mon Nov 26 21:32:13 IST 2012	Prop accepted, get counter offers returned: 0
Mon Nov 26 21:32:13 IST 2012	A Phase Ended: Communication Phase
Mon Nov 26 21:32:13 IST 2012	Protocol: A New Phase Began: Exchange Phase
Mon Nov 26 21:32:13 IST 2012	Protocol: Exchange phase, Round: 6
Mon Nov 26 21:32:13 IST 2012	In begin exch.phase, get counter offers returned: 0
Mon Nov 26 21:32:31 IST 2012	A Phase Ended: Exchange Phase
Mon Nov 26 21:32:31 IST 2012	Proposer 337 sent: { chips  'CTRed':0 'CTPurple':0 'CTGreen':1 'grey78':0 'CTYellow':0 }
Mon Nov 26 21:32:31 IST 2012	Responder 310 sent: { chips  }
Mon Nov 26 21:32:32 IST 2012	Protocol: A New Phase Began: Movement Phase
Mon Nov 26 21:32:32 IST 2012	Protocol: Movement phase, Round: 6
Mon Nov 26 21:32:32 IST 2012	Player 310 moved to (R:2,C:3)
Mon Nov 26 21:32:51 IST 2012	A Phase Ended: Movement Phase
Mon Nov 26 21:32:51 IST 2012	Swaping roles:
Mon Nov 26 21:32:51 IST 2012	Proposer is: 310
Mon Nov 26 21:32:51 IST 2012	Responder is: 337
Mon Nov 26 21:32:51 IST 2012	Protocol: A New Phase Began: Feedback Phase
Mon Nov 26 21:32:51 IST 2012	Protocol: Feedback phase, Round: 6
Mon Nov 26 21:32:51 IST 2012	Number of consecutive no movements for player 337 is 1
Mon Nov 26 21:32:51 IST 2012	Number of consecutive no movements for player 310 is 0
Mon Nov 26 21:32:56 IST 2012	A Phase Ended: Feedback Phase
Mon Nov 26 21:32:56 IST 2012	Protocol: A New Phase Began: Communication Phase
Mon Nov 26 21:32:56 IST 2012	Protocol: Communication phase, Round: 7
Mon Nov 26 21:33:16 IST 2012	Received communication message 
Mon Nov 26 21:33:16 IST 2012	From player: 310
Mon Nov 26 21:33:16 IST 2012	To player: 337
Mon Nov 26 21:33:16 IST 2012	Message type: basicproposal
Mon Nov 26 21:33:16 IST 2012	Chips to send by proposer: { chips  'CTRed':0 'CTPurple':0 'CTGreen':0 'grey78':1 'CTYellow':0 }
Mon Nov 26 21:33:16 IST 2012	Chips to send by responder: { chips  'CTRed':0 'CTPurple':0 'CTGreen':6 'grey78':0 'CTYellow':0 }
Mon Nov 26 21:33:40 IST 2012	Received communication message 
Mon Nov 26 21:33:40 IST 2012	From player: 337
Mon Nov 26 21:33:40 IST 2012	To player: 310
Mon Nov 26 21:33:40 IST 2012	Message type: basicproposaldiscussion
Mon Nov 26 21:33:40 IST 2012	Player 337 rejected offer
Mon Nov 26 21:33:40 IST 2012	Swaping roles:
Mon Nov 26 21:33:40 IST 2012	Proposer is: 337
Mon Nov 26 21:33:40 IST 2012	Responder is: 310
Mon Nov 26 21:33:40 IST 2012	Prop rejected, set counter offers count to: 1
Mon Nov 26 21:33:40 IST 2012	Prop rejected, get counter offers returned: 1
Mon Nov 26 21:33:44 IST 2012	Slept 4 seconds
Mon Nov 26 21:33:44 IST 2012	Sent role changed msgs
Mon Nov 26 21:34:44 IST 2012	Received communication message 
Mon Nov 26 21:34:44 IST 2012	From player: 337
Mon Nov 26 21:34:44 IST 2012	To player: 310
Mon Nov 26 21:34:44 IST 2012	Message type: basicproposal
Mon Nov 26 21:34:44 IST 2012	Chips to send by proposer: { chips  'CTRed':0 'CTPurple':0 'CTGreen':0 'grey78':0 'CTYellow':1 }
Mon Nov 26 21:34:44 IST 2012	Chips to send by responder: { chips  'CTRed':0 'CTPurple':0 'CTGreen':0 'grey78':1 'CTYellow':0 }
Mon Nov 26 21:34:56 IST 2012	Received communication message 
Mon Nov 26 21:34:56 IST 2012	From player: 310
Mon Nov 26 21:34:56 IST 2012	To player: 337
Mon Nov 26 21:34:56 IST 2012	Message type: basicproposaldiscussion
Mon Nov 26 21:34:56 IST 2012	Player 310 accepted offer
Mon Nov 26 21:34:56 IST 2012	Prop accepted, set counter offers count to: 0
Mon Nov 26 21:34:56 IST 2012	Prop accepted, get counter offers returned: 0
Mon Nov 26 21:34:56 IST 2012	A Phase Ended: Communication Phase
Mon Nov 26 21:34:56 IST 2012	Protocol: A New Phase Began: Exchange Phase
Mon Nov 26 21:34:56 IST 2012	Protocol: Exchange phase, Round: 7
Mon Nov 26 21:34:56 IST 2012	In begin exch.phase, get counter offers returned: 0
Mon Nov 26 21:35:13 IST 2012	A Phase Ended: Exchange Phase
Mon Nov 26 21:35:13 IST 2012	Proposer 337 sent: { chips  'CTRed':0 'CTPurple':0 'CTGreen':0 'grey78':0 'CTYellow':1 }
Mon Nov 26 21:35:13 IST 2012	Responder 310 sent: { chips  }
Mon Nov 26 21:35:13 IST 2012	Protocol: A New Phase Began: Movement Phase
Mon Nov 26 21:35:13 IST 2012	Protocol: Movement phase, Round: 7
Mon Nov 26 21:35:13 IST 2012	Player 310 moved to (R:1,C:3)
Mon Nov 26 21:35:33 IST 2012	A Phase Ended: Movement Phase
Mon Nov 26 21:35:33 IST 2012	Protocol: A New Phase Began: Feedback Phase
Mon Nov 26 21:35:33 IST 2012	Protocol: Feedback phase, Round: 7
Mon Nov 26 21:35:33 IST 2012	Number of consecutive no movements for player 337 is 2
Mon Nov 26 21:35:33 IST 2012	Number of consecutive no movements for player 310 is 0
Mon Nov 26 21:35:38 IST 2012	A Phase Ended: Feedback Phase
Mon Nov 26 21:35:38 IST 2012	Protocol: A New Phase Began: Communication Phase
Mon Nov 26 21:35:38 IST 2012	Protocol: Communication phase, Round: 8
Mon Nov 26 21:36:38 IST 2012	Received communication message 
Mon Nov 26 21:36:38 IST 2012	From player: 337
Mon Nov 26 21:36:38 IST 2012	To player: 310
Mon Nov 26 21:36:38 IST 2012	Message type: basicproposal
Mon Nov 26 21:36:38 IST 2012	Chips to send by proposer: { chips  'CTGreen':1 }
Mon Nov 26 21:36:38 IST 2012	Chips to send by responder: { chips  'grey78':1 }
Mon Nov 26 21:36:44 IST 2012	Received communication message 
Mon Nov 26 21:36:44 IST 2012	From player: 310
Mon Nov 26 21:36:44 IST 2012	To player: 337
Mon Nov 26 21:36:44 IST 2012	Message type: basicproposaldiscussion
Mon Nov 26 21:36:44 IST 2012	Player 310 accepted offer
Mon Nov 26 21:36:44 IST 2012	Prop accepted, set counter offers count to: 0
Mon Nov 26 21:36:44 IST 2012	Prop accepted, get counter offers returned: 0
Mon Nov 26 21:36:44 IST 2012	A Phase Ended: Communication Phase
Mon Nov 26 21:36:44 IST 2012	Protocol: A New Phase Began: Exchange Phase
Mon Nov 26 21:36:44 IST 2012	Protocol: Exchange phase, Round: 8
Mon Nov 26 21:36:44 IST 2012	In begin exch.phase, get counter offers returned: 0
Mon Nov 26 21:36:59 IST 2012	A Phase Ended: Exchange Phase
Mon Nov 26 21:36:59 IST 2012	Proposer 337 sent: { chips  'CTRed':0 'CTPurple':0 'CTGreen':1 'grey78':0 'CTYellow':0 }
Mon Nov 26 21:36:59 IST 2012	Responder 310 sent: { chips  }
Mon Nov 26 21:36:59 IST 2012	Protocol: A New Phase Began: Movement Phase
Mon Nov 26 21:36:59 IST 2012	Protocol: Movement phase, Round: 8
Mon Nov 26 21:36:59 IST 2012	Player 310 moved to (R:0,C:3)
Mon Nov 26 21:36:59 IST 2012	Player 337 moved to (R:4,C:1)
Mon Nov 26 21:37:19 IST 2012	A Phase Ended: Movement Phase
Mon Nov 26 21:37:19 IST 2012	Swaping roles:
Mon Nov 26 21:37:19 IST 2012	Proposer is: 310
Mon Nov 26 21:37:19 IST 2012	Responder is: 337
Mon Nov 26 21:37:19 IST 2012	Protocol: A New Phase Began: Feedback Phase
Mon Nov 26 21:37:19 IST 2012	Protocol: Feedback phase, Round: 8
Mon Nov 26 21:37:19 IST 2012	Number of consecutive no movements for player 337 is 0
Mon Nov 26 21:37:19 IST 2012	Number of consecutive no movements for player 310 is 0
Mon Nov 26 21:37:24 IST 2012	A Phase Ended: Feedback Phase
Mon Nov 26 21:37:24 IST 2012	Protocol: A New Phase Began: Communication Phase
Mon Nov 26 21:37:24 IST 2012	Protocol: Communication phase, Round: 9
Mon Nov 26 21:37:37 IST 2012	Received communication message 
Mon Nov 26 21:37:37 IST 2012	From player: 310
Mon Nov 26 21:37:37 IST 2012	To player: 337
Mon Nov 26 21:37:37 IST 2012	Message type: basicproposal
Mon Nov 26 21:37:37 IST 2012	Chips to send by proposer: { chips  'CTRed':0 'CTPurple':0 'CTGreen':0 'grey78':1 'CTYellow':0 }
Mon Nov 26 21:37:37 IST 2012	Chips to send by responder: { chips  'CTRed':0 'CTPurple':0 'CTGreen':7 'grey78':0 'CTYellow':0 }
Mon Nov 26 21:37:52 IST 2012	Received communication message 
Mon Nov 26 21:37:52 IST 2012	From player: 337
Mon Nov 26 21:37:52 IST 2012	To player: 310
Mon Nov 26 21:37:52 IST 2012	Message type: basicproposaldiscussion
Mon Nov 26 21:37:52 IST 2012	Player 337 rejected offer
Mon Nov 26 21:37:52 IST 2012	Swaping roles:
Mon Nov 26 21:37:52 IST 2012	Proposer is: 337
Mon Nov 26 21:37:52 IST 2012	Responder is: 310
Mon Nov 26 21:37:52 IST 2012	Prop rejected, set counter offers count to: 1
Mon Nov 26 21:37:52 IST 2012	Prop rejected, get counter offers returned: 1
Mon Nov 26 21:37:56 IST 2012	Slept 4 seconds
Mon Nov 26 21:37:56 IST 2012	Sent role changed msgs
Mon Nov 26 21:38:39 IST 2012	Received communication message 
Mon Nov 26 21:38:39 IST 2012	From player: 337
Mon Nov 26 21:38:39 IST 2012	To player: 310
Mon Nov 26 21:38:39 IST 2012	Message type: basicproposal
Mon Nov 26 21:38:39 IST 2012	Chips to send by proposer: { chips  'CTRed':0 'CTPurple':0 'CTGreen':1 'grey78':0 'CTYellow':0 }
Mon Nov 26 21:38:39 IST 2012	Chips to send by responder: { chips  'CTRed':0 'CTPurple':0 'CTGreen':0 'grey78':1 'CTYellow':0 }
Mon Nov 26 21:38:52 IST 2012	Received communication message 
Mon Nov 26 21:38:52 IST 2012	From player: 310
Mon Nov 26 21:38:52 IST 2012	To player: 337
Mon Nov 26 21:38:52 IST 2012	Message type: basicproposaldiscussion
Mon Nov 26 21:38:52 IST 2012	Player 310 rejected offer
Mon Nov 26 21:38:52 IST 2012	Set counter offers count to: 0
Mon Nov 26 21:38:52 IST 2012	A Phase Ended: Communication Phase
Mon Nov 26 21:38:52 IST 2012	Protocol: A New Phase Began: Exchange Phase
Mon Nov 26 21:38:52 IST 2012	Protocol: Exchange phase, Round: 9
Mon Nov 26 21:38:52 IST 2012	In begin exch.phase, get counter offers returned: 0
Mon Nov 26 21:39:31 IST 2012	A Phase Ended: Exchange Phase
Mon Nov 26 21:39:31 IST 2012	Proposer 337 sent: { chips  }
Mon Nov 26 21:39:31 IST 2012	Protocol: A New Phase Began: Movement Phase
Mon Nov 26 21:39:31 IST 2012	Protocol: Movement phase, Round: 9
Mon Nov 26 21:39:31 IST 2012	Player 310 moved to (R:0,C:2)
Mon Nov 26 21:39:35 IST 2012	Slept 4 seconds
Mon Nov 26 21:39:35 IST 2012	Player 310 got to goal, advance the other and end game
Mon Nov 26 21:39:35 IST 2012	Player: 337 ,role: Proposer score is: 40
Mon Nov 26 21:39:35 IST 2012	Player: 310 ,role: Responder score is: 205
