Mon Nov 26 22:24:02 IST 2012	This is the CT debug logger; svn version 638; sep 27 09
Mon Nov 26 22:24:02 IST 2012	Mon Nov 26 22:24:02 IST 2012
Mon Nov 26 22:24:02 IST 2012	A new Alternative Offers game has began
Mon Nov 26 22:24:02 IST 2012	ID Number: 32885
Mon Nov 26 22:24:02 IST 2012	Creating board
Mon Nov 26 22:24:02 IST 2012	<colors>
Mon Nov 26 22:24:02 IST 2012	{ GamePalette  'CTRed':0 'CTPurple':1 'CTGreen':2 'grey78':3 'CTYellow':4 }
Mon Nov 26 22:24:02 IST 2012	<rows>
Mon Nov 26 22:24:02 IST 2012	7
Mon Nov 26 22:24:02 IST 2012	<columns>
Mon Nov 26 22:24:02 IST 2012	5
Mon Nov 26 22:24:02 IST 2012	<squaresColors>
Mon Nov 26 22:24:02 IST 2012	CTPurple CTRed CTRed CTGreen CTPurple 
Mon Nov 26 22:24:02 IST 2012	CTPurple grey78 CTPurple CTYellow CTPurple 
Mon Nov 26 22:24:02 IST 2012	CTPurple CTRed CTPurple CTGreen CTPurple 
Mon Nov 26 22:24:02 IST 2012	CTPurple grey78 CTPurple CTYellow CTPurple 
Mon Nov 26 22:24:02 IST 2012	CTPurple CTRed CTPurple CTGreen CTPurple 
Mon Nov 26 22:24:02 IST 2012	CTPurple grey78 CTPurple CTYellow CTPurple 
Mon Nov 26 22:24:02 IST 2012	CTPurple CTRed CTPurple CTGreen CTPurple 
Mon Nov 26 22:24:02 IST 2012	</squareColors>
Mon Nov 26 22:24:02 IST 2012	<goalPosition>
Mon Nov 26 22:24:02 IST 2012	Goal position: (R:0,C:2)
Mon Nov 26 22:24:02 IST 2012	<numberOfPlayers>
Mon Nov 26 22:24:02 IST 2012	2
Mon Nov 26 22:24:02 IST 2012	<firstPlayerChips>
Mon Nov 26 22:24:02 IST 2012	Setting chips for player: 337 id:0
Mon Nov 26 22:24:02 IST 2012	{ chips  'CTRed':5 'CTGreen':10 'CTPurple':0 'grey78':0 'CTYellow':9 }
Mon Nov 26 22:24:02 IST 2012	Player position: (R:6,C:0)
Mon Nov 26 22:24:02 IST 2012	Setting chips for player: 310 id:1
Mon Nov 26 22:24:02 IST 2012	{ chips  'CTRed':1 'CTGreen':13 'CTPurple':0 'grey78':10 'CTYellow':0 }
Mon Nov 26 22:24:02 IST 2012	Player position: (R:6,C:4)
Mon Nov 26 22:24:02 IST 2012	Protocol: A New Phase Began: Strategy Prep Phase
Mon Nov 26 22:24:02 IST 2012	Protocol: Strategy Preparation phase, Round: 0
Mon Nov 26 22:24:02 IST 2012	Maximum number of rounds with no consecutive movement is 3
Mon Nov 26 22:24:02 IST 2012	In begin comm. phase, set counter offers count to: 0
Mon Nov 26 22:24:02 IST 2012	In begin comm. phase, get counter offers returned: 0
Mon Nov 26 22:24:22 IST 2012	A Phase Ended: Strategy Prep Phase
Mon Nov 26 22:24:22 IST 2012	Protocol: A New Phase Began: Communication Phase
Mon Nov 26 22:24:22 IST 2012	Protocol: Communication phase, Round: 0
Mon Nov 26 22:25:23 IST 2012	Received communication message 
Mon Nov 26 22:25:23 IST 2012	From player: 337
Mon Nov 26 22:25:23 IST 2012	To player: 310
Mon Nov 26 22:25:23 IST 2012	Message type: basicproposal
Mon Nov 26 22:25:23 IST 2012	Chips to send by proposer: { chips  'CTGreen':1 }
Mon Nov 26 22:25:23 IST 2012	Chips to send by responder: { chips  'grey78':1 }
Mon Nov 26 22:25:37 IST 2012	Received communication message 
Mon Nov 26 22:25:37 IST 2012	From player: 310
Mon Nov 26 22:25:37 IST 2012	To player: 337
Mon Nov 26 22:25:37 IST 2012	Message type: basicproposaldiscussion
Mon Nov 26 22:25:37 IST 2012	Player 310 accepted offer
Mon Nov 26 22:25:37 IST 2012	Prop accepted, set counter offers count to: 0
Mon Nov 26 22:25:37 IST 2012	Prop accepted, get counter offers returned: 0
Mon Nov 26 22:25:37 IST 2012	A Phase Ended: Communication Phase
Mon Nov 26 22:25:37 IST 2012	Protocol: A New Phase Began: Exchange Phase
Mon Nov 26 22:25:37 IST 2012	Protocol: Exchange phase, Round: 0
Mon Nov 26 22:25:37 IST 2012	In begin exch.phase, get counter offers returned: 0
Mon Nov 26 22:26:06 IST 2012	A Phase Ended: Exchange Phase
Mon Nov 26 22:26:06 IST 2012	Proposer 337 sent: { chips  'CTRed':0 'CTPurple':0 'CTGreen':1 'grey78':0 'CTYellow':0 }
Mon Nov 26 22:26:06 IST 2012	Responder 310 sent: { chips  'CTRed':0 'CTPurple':0 'CTGreen':0 'grey78':1 'CTYellow':0 }
Mon Nov 26 22:26:06 IST 2012	Protocol: A New Phase Began: Movement Phase
Mon Nov 26 22:26:06 IST 2012	Protocol: Movement phase, Round: 0
Mon Nov 26 22:26:26 IST 2012	A Phase Ended: Movement Phase
Mon Nov 26 22:26:26 IST 2012	Swaping roles:
Mon Nov 26 22:26:26 IST 2012	Proposer is: 310
Mon Nov 26 22:26:26 IST 2012	Responder is: 337
Mon Nov 26 22:26:26 IST 2012	Protocol: A New Phase Began: Feedback Phase
Mon Nov 26 22:26:26 IST 2012	Protocol: Feedback phase, Round: 0
Mon Nov 26 22:26:26 IST 2012	Number of consecutive no movements for player 337 is 1
Mon Nov 26 22:26:26 IST 2012	Number of consecutive no movements for player 310 is 1
Mon Nov 26 22:26:31 IST 2012	A Phase Ended: Feedback Phase
Mon Nov 26 22:26:31 IST 2012	Protocol: A New Phase Began: Communication Phase
Mon Nov 26 22:26:31 IST 2012	Protocol: Communication phase, Round: 1
Mon Nov 26 22:27:11 IST 2012	Received communication message 
Mon Nov 26 22:27:11 IST 2012	From player: 310
Mon Nov 26 22:27:11 IST 2012	To player: 337
Mon Nov 26 22:27:11 IST 2012	Message type: basicproposal
Mon Nov 26 22:27:11 IST 2012	Chips to send by proposer: { chips  'CTRed':0 'CTPurple':0 'CTGreen':1 'grey78':2 'CTYellow':0 }
Mon Nov 26 22:27:11 IST 2012	Chips to send by responder: { chips  'CTRed':0 'CTPurple':0 'CTGreen':0 'grey78':0 'CTYellow':2 }
Mon Nov 26 22:27:58 IST 2012	Received communication message 
Mon Nov 26 22:27:58 IST 2012	From player: 337
Mon Nov 26 22:27:58 IST 2012	To player: 310
Mon Nov 26 22:27:58 IST 2012	Message type: basicproposaldiscussion
Mon Nov 26 22:27:58 IST 2012	Player 337 accepted offer
Mon Nov 26 22:27:58 IST 2012	Prop accepted, set counter offers count to: 0
Mon Nov 26 22:27:58 IST 2012	Prop accepted, get counter offers returned: 0
Mon Nov 26 22:27:58 IST 2012	A Phase Ended: Communication Phase
Mon Nov 26 22:27:58 IST 2012	Protocol: A New Phase Began: Exchange Phase
Mon Nov 26 22:27:58 IST 2012	Protocol: Exchange phase, Round: 1
Mon Nov 26 22:27:58 IST 2012	In begin exch.phase, get counter offers returned: 0
Mon Nov 26 22:28:27 IST 2012	A Phase Ended: Exchange Phase
Mon Nov 26 22:28:27 IST 2012	Proposer 310 sent: { chips  'CTRed':0 'CTPurple':0 'CTGreen':0 'grey78':1 'CTYellow':0 }
Mon Nov 26 22:28:27 IST 2012	Responder 337 sent: { chips  'CTRed':0 'CTPurple':0 'CTGreen':0 'grey78':0 'CTYellow':1 }
Mon Nov 26 22:28:27 IST 2012	Protocol: A New Phase Began: Movement Phase
Mon Nov 26 22:28:27 IST 2012	Protocol: Movement phase, Round: 1
Mon Nov 26 22:28:47 IST 2012	A Phase Ended: Movement Phase
Mon Nov 26 22:28:47 IST 2012	Swaping roles:
Mon Nov 26 22:28:47 IST 2012	Proposer is: 337
Mon Nov 26 22:28:47 IST 2012	Responder is: 310
Mon Nov 26 22:28:47 IST 2012	Protocol: A New Phase Began: Feedback Phase
Mon Nov 26 22:28:47 IST 2012	Protocol: Feedback phase, Round: 1
Mon Nov 26 22:28:47 IST 2012	Number of consecutive no movements for player 337 is 2
Mon Nov 26 22:28:47 IST 2012	Number of consecutive no movements for player 310 is 2
Mon Nov 26 22:28:52 IST 2012	A Phase Ended: Feedback Phase
Mon Nov 26 22:28:52 IST 2012	Protocol: A New Phase Began: Communication Phase
Mon Nov 26 22:28:52 IST 2012	Protocol: Communication phase, Round: 2
Mon Nov 26 22:29:52 IST 2012	Received communication message 
Mon Nov 26 22:29:52 IST 2012	From player: 337
Mon Nov 26 22:29:52 IST 2012	To player: 310
Mon Nov 26 22:29:52 IST 2012	Message type: basicproposal
Mon Nov 26 22:29:52 IST 2012	Chips to send by proposer: { chips  'CTYellow':1 }
Mon Nov 26 22:29:52 IST 2012	Chips to send by responder: { chips  'CTGreen':3 }
Mon Nov 26 22:29:58 IST 2012	Received communication message 
Mon Nov 26 22:29:58 IST 2012	From player: 310
Mon Nov 26 22:29:58 IST 2012	To player: 337
Mon Nov 26 22:29:58 IST 2012	Message type: basicproposaldiscussion
Mon Nov 26 22:29:58 IST 2012	Player 310 accepted offer
Mon Nov 26 22:29:58 IST 2012	Prop accepted, set counter offers count to: 0
Mon Nov 26 22:29:58 IST 2012	Prop accepted, get counter offers returned: 0
Mon Nov 26 22:29:58 IST 2012	A Phase Ended: Communication Phase
Mon Nov 26 22:29:58 IST 2012	Protocol: A New Phase Began: Exchange Phase
Mon Nov 26 22:29:58 IST 2012	Protocol: Exchange phase, Round: 2
Mon Nov 26 22:29:58 IST 2012	In begin exch.phase, get counter offers returned: 0
Mon Nov 26 22:30:27 IST 2012	A Phase Ended: Exchange Phase
Mon Nov 26 22:30:27 IST 2012	Proposer 337 sent: { chips  'CTRed':0 'CTPurple':0 'CTGreen':0 'grey78':0 'CTYellow':1 }
Mon Nov 26 22:30:27 IST 2012	Responder 310 sent: { chips  'CTRed':0 'CTPurple':0 'CTGreen':3 'grey78':0 'CTYellow':0 }
Mon Nov 26 22:30:27 IST 2012	Protocol: A New Phase Began: Movement Phase
Mon Nov 26 22:30:27 IST 2012	Protocol: Movement phase, Round: 2
Mon Nov 26 22:30:27 IST 2012	Player 337 moved to (R:6,C:1)
Mon Nov 26 22:30:27 IST 2012	Player 310 moved to (R:6,C:3)
Mon Nov 26 22:30:47 IST 2012	A Phase Ended: Movement Phase
Mon Nov 26 22:30:47 IST 2012	Swaping roles:
Mon Nov 26 22:30:47 IST 2012	Proposer is: 310
Mon Nov 26 22:30:47 IST 2012	Responder is: 337
Mon Nov 26 22:30:47 IST 2012	Protocol: A New Phase Began: Feedback Phase
Mon Nov 26 22:30:47 IST 2012	Protocol: Feedback phase, Round: 2
Mon Nov 26 22:30:47 IST 2012	Number of consecutive no movements for player 337 is 0
Mon Nov 26 22:30:47 IST 2012	Number of consecutive no movements for player 310 is 0
Mon Nov 26 22:30:52 IST 2012	A Phase Ended: Feedback Phase
Mon Nov 26 22:30:52 IST 2012	Protocol: A New Phase Began: Communication Phase
Mon Nov 26 22:30:52 IST 2012	Protocol: Communication phase, Round: 3
Mon Nov 26 22:31:13 IST 2012	Received communication message 
Mon Nov 26 22:31:13 IST 2012	From player: 310
Mon Nov 26 22:31:13 IST 2012	To player: 337
Mon Nov 26 22:31:13 IST 2012	Message type: basicproposal
Mon Nov 26 22:31:13 IST 2012	Chips to send by proposer: { chips  'CTRed':0 'CTPurple':0 'CTGreen':0 'grey78':1 'CTYellow':0 }
Mon Nov 26 22:31:13 IST 2012	Chips to send by responder: { chips  'CTRed':0 'CTPurple':0 'CTGreen':4 'grey78':0 'CTYellow':1 }
Mon Nov 26 22:31:37 IST 2012	Received communication message 
Mon Nov 26 22:31:37 IST 2012	From player: 337
Mon Nov 26 22:31:37 IST 2012	To player: 310
Mon Nov 26 22:31:37 IST 2012	Message type: basicproposaldiscussion
Mon Nov 26 22:31:37 IST 2012	Player 337 rejected offer
Mon Nov 26 22:31:37 IST 2012	Swaping roles:
Mon Nov 26 22:31:37 IST 2012	Proposer is: 337
Mon Nov 26 22:31:37 IST 2012	Responder is: 310
Mon Nov 26 22:31:37 IST 2012	Prop rejected, set counter offers count to: 1
Mon Nov 26 22:31:37 IST 2012	Prop rejected, get counter offers returned: 1
Mon Nov 26 22:31:41 IST 2012	Slept 4 seconds
Mon Nov 26 22:31:41 IST 2012	Sent role changed msgs
Mon Nov 26 22:32:41 IST 2012	Received communication message 
Mon Nov 26 22:32:41 IST 2012	From player: 337
Mon Nov 26 22:32:41 IST 2012	To player: 310
Mon Nov 26 22:32:41 IST 2012	Message type: basicproposal
Mon Nov 26 22:32:41 IST 2012	Chips to send by proposer: { chips  'CTRed':0 'CTPurple':0 'CTGreen':0 'grey78':0 'CTYellow':1 }
Mon Nov 26 22:32:41 IST 2012	Chips to send by responder: { chips  'CTRed':0 'CTPurple':0 'CTGreen':2 'grey78':1 'CTYellow':0 }
Mon Nov 26 22:32:51 IST 2012	Received communication message 
Mon Nov 26 22:32:51 IST 2012	From player: 310
Mon Nov 26 22:32:51 IST 2012	To player: 337
Mon Nov 26 22:32:51 IST 2012	Message type: basicproposaldiscussion
Mon Nov 26 22:32:51 IST 2012	Player 310 accepted offer
Mon Nov 26 22:32:51 IST 2012	Prop accepted, set counter offers count to: 0
Mon Nov 26 22:32:51 IST 2012	Prop accepted, get counter offers returned: 0
Mon Nov 26 22:32:51 IST 2012	A Phase Ended: Communication Phase
Mon Nov 26 22:32:51 IST 2012	Protocol: A New Phase Began: Exchange Phase
Mon Nov 26 22:32:51 IST 2012	Protocol: Exchange phase, Round: 3
Mon Nov 26 22:32:51 IST 2012	In begin exch.phase, get counter offers returned: 0
Mon Nov 26 22:33:14 IST 2012	A Phase Ended: Exchange Phase
Mon Nov 26 22:33:14 IST 2012	Proposer 337 sent: { chips  'CTRed':0 'CTPurple':0 'CTGreen':0 'grey78':0 'CTYellow':1 }
Mon Nov 26 22:33:14 IST 2012	Responder 310 sent: { chips  }
Mon Nov 26 22:33:14 IST 2012	Protocol: A New Phase Began: Movement Phase
Mon Nov 26 22:33:14 IST 2012	Protocol: Movement phase, Round: 3
Mon Nov 26 22:33:14 IST 2012	Player 310 moved to (R:5,C:3)
Mon Nov 26 22:33:34 IST 2012	A Phase Ended: Movement Phase
Mon Nov 26 22:33:34 IST 2012	Protocol: A New Phase Began: Feedback Phase
Mon Nov 26 22:33:34 IST 2012	Protocol: Feedback phase, Round: 3
Mon Nov 26 22:33:34 IST 2012	Number of consecutive no movements for player 337 is 1
Mon Nov 26 22:33:34 IST 2012	Number of consecutive no movements for player 310 is 0
Mon Nov 26 22:33:39 IST 2012	A Phase Ended: Feedback Phase
Mon Nov 26 22:33:39 IST 2012	Protocol: A New Phase Began: Communication Phase
Mon Nov 26 22:33:39 IST 2012	Protocol: Communication phase, Round: 4
Mon Nov 26 22:34:30 IST 2012	Received communication message 
Mon Nov 26 22:34:30 IST 2012	From player: 337
Mon Nov 26 22:34:30 IST 2012	To player: 310
Mon Nov 26 22:34:30 IST 2012	Message type: basicproposal
Mon Nov 26 22:34:30 IST 2012	Chips to send by proposer: { chips  'CTGreen':1 }
Mon Nov 26 22:34:30 IST 2012	Chips to send by responder: { chips  'grey78':1 }
Mon Nov 26 22:34:40 IST 2012	Received communication message 
Mon Nov 26 22:34:40 IST 2012	From player: 310
Mon Nov 26 22:34:40 IST 2012	To player: 337
Mon Nov 26 22:34:40 IST 2012	Message type: basicproposaldiscussion
Mon Nov 26 22:34:40 IST 2012	Player 310 accepted offer
Mon Nov 26 22:34:40 IST 2012	Prop accepted, set counter offers count to: 0
Mon Nov 26 22:34:40 IST 2012	Prop accepted, get counter offers returned: 0
Mon Nov 26 22:34:40 IST 2012	A Phase Ended: Communication Phase
Mon Nov 26 22:34:40 IST 2012	Protocol: A New Phase Began: Exchange Phase
Mon Nov 26 22:34:40 IST 2012	Protocol: Exchange phase, Round: 4
Mon Nov 26 22:34:40 IST 2012	In begin exch.phase, get counter offers returned: 0
Mon Nov 26 22:34:53 IST 2012	A Phase Ended: Exchange Phase
Mon Nov 26 22:34:53 IST 2012	Proposer 337 sent: { chips  'CTRed':0 'CTPurple':0 'CTGreen':0 'grey78':0 'CTYellow':0 }
Mon Nov 26 22:34:53 IST 2012	Responder 310 sent: { chips  }
Mon Nov 26 22:34:53 IST 2012	Protocol: A New Phase Began: Movement Phase
Mon Nov 26 22:34:53 IST 2012	Protocol: Movement phase, Round: 4
Mon Nov 26 22:34:53 IST 2012	Player 310 moved to (R:4,C:3)
Mon Nov 26 22:35:12 IST 2012	A Phase Ended: Movement Phase
Mon Nov 26 22:35:12 IST 2012	Swaping roles:
Mon Nov 26 22:35:12 IST 2012	Proposer is: 310
Mon Nov 26 22:35:12 IST 2012	Responder is: 337
Mon Nov 26 22:35:12 IST 2012	Protocol: A New Phase Began: Feedback Phase
Mon Nov 26 22:35:12 IST 2012	Protocol: Feedback phase, Round: 4
Mon Nov 26 22:35:12 IST 2012	Number of consecutive no movements for player 337 is 2
Mon Nov 26 22:35:12 IST 2012	Number of consecutive no movements for player 310 is 0
Mon Nov 26 22:35:17 IST 2012	A Phase Ended: Feedback Phase
Mon Nov 26 22:35:17 IST 2012	Protocol: A New Phase Began: Communication Phase
Mon Nov 26 22:35:17 IST 2012	Protocol: Communication phase, Round: 5
Mon Nov 26 22:35:32 IST 2012	Received communication message 
Mon Nov 26 22:35:32 IST 2012	From player: 310
Mon Nov 26 22:35:32 IST 2012	To player: 337
Mon Nov 26 22:35:32 IST 2012	Message type: basicproposal
Mon Nov 26 22:35:32 IST 2012	Chips to send by proposer: { chips  'CTRed':0 'CTPurple':0 'CTGreen':0 'grey78':1 'CTYellow':0 }
Mon Nov 26 22:35:32 IST 2012	Chips to send by responder: { chips  'CTRed':0 'CTPurple':0 'CTGreen':1 'grey78':0 'CTYellow':0 }
Mon Nov 26 22:35:57 IST 2012	Received communication message 
Mon Nov 26 22:35:57 IST 2012	From player: 337
Mon Nov 26 22:35:57 IST 2012	To player: 310
Mon Nov 26 22:35:57 IST 2012	Message type: basicproposaldiscussion
Mon Nov 26 22:35:57 IST 2012	Player 337 accepted offer
Mon Nov 26 22:35:57 IST 2012	Prop accepted, set counter offers count to: 0
Mon Nov 26 22:35:57 IST 2012	Prop accepted, get counter offers returned: 0
Mon Nov 26 22:35:57 IST 2012	A Phase Ended: Communication Phase
Mon Nov 26 22:35:57 IST 2012	Protocol: A New Phase Began: Exchange Phase
Mon Nov 26 22:35:57 IST 2012	Protocol: Exchange phase, Round: 5
Mon Nov 26 22:35:57 IST 2012	In begin exch.phase, get counter offers returned: 0
Mon Nov 26 22:36:20 IST 2012	A Phase Ended: Exchange Phase
Mon Nov 26 22:36:20 IST 2012	Proposer 310 sent: { chips  }
Mon Nov 26 22:36:20 IST 2012	Responder 337 sent: { chips  'CTRed':0 'CTPurple':0 'CTGreen':1 'grey78':0 'CTYellow':0 }
Mon Nov 26 22:36:20 IST 2012	Protocol: A New Phase Began: Movement Phase
Mon Nov 26 22:36:20 IST 2012	Protocol: Movement phase, Round: 5
Mon Nov 26 22:36:20 IST 2012	Player 310 moved to (R:3,C:3)
Mon Nov 26 22:36:20 IST 2012	Player 337 moved to (R:5,C:1)
Mon Nov 26 22:36:40 IST 2012	A Phase Ended: Movement Phase
Mon Nov 26 22:36:40 IST 2012	Swaping roles:
Mon Nov 26 22:36:40 IST 2012	Proposer is: 337
Mon Nov 26 22:36:40 IST 2012	Responder is: 310
Mon Nov 26 22:36:40 IST 2012	Protocol: A New Phase Began: Feedback Phase
Mon Nov 26 22:36:40 IST 2012	Protocol: Feedback phase, Round: 5
Mon Nov 26 22:36:40 IST 2012	Number of consecutive no movements for player 337 is 0
Mon Nov 26 22:36:40 IST 2012	Number of consecutive no movements for player 310 is 0
Mon Nov 26 22:36:45 IST 2012	A Phase Ended: Feedback Phase
Mon Nov 26 22:36:45 IST 2012	Protocol: A New Phase Began: Communication Phase
Mon Nov 26 22:36:45 IST 2012	Protocol: Communication phase, Round: 6
Mon Nov 26 22:37:45 IST 2012	Received communication message 
Mon Nov 26 22:37:45 IST 2012	From player: 337
Mon Nov 26 22:37:45 IST 2012	To player: 310
Mon Nov 26 22:37:45 IST 2012	Message type: basicproposal
Mon Nov 26 22:37:45 IST 2012	Chips to send by proposer: { chips  'CTGreen':1 }
Mon Nov 26 22:37:45 IST 2012	Chips to send by responder: { chips  'grey78':1 }
Mon Nov 26 22:37:52 IST 2012	Received communication message 
Mon Nov 26 22:37:52 IST 2012	From player: 310
Mon Nov 26 22:37:52 IST 2012	To player: 337
Mon Nov 26 22:37:52 IST 2012	Message type: basicproposaldiscussion
Mon Nov 26 22:37:52 IST 2012	Player 310 accepted offer
Mon Nov 26 22:37:52 IST 2012	Prop accepted, set counter offers count to: 0
Mon Nov 26 22:37:52 IST 2012	Prop accepted, get counter offers returned: 0
Mon Nov 26 22:37:52 IST 2012	A Phase Ended: Communication Phase
Mon Nov 26 22:37:52 IST 2012	Protocol: A New Phase Began: Exchange Phase
Mon Nov 26 22:37:52 IST 2012	Protocol: Exchange phase, Round: 6
Mon Nov 26 22:37:52 IST 2012	In begin exch.phase, get counter offers returned: 0
Mon Nov 26 22:38:11 IST 2012	A Phase Ended: Exchange Phase
Mon Nov 26 22:38:11 IST 2012	Proposer 337 sent: { chips  'CTRed':0 'CTPurple':0 'CTGreen':1 'grey78':0 'CTYellow':0 }
Mon Nov 26 22:38:11 IST 2012	Responder 310 sent: { chips  }
Mon Nov 26 22:38:11 IST 2012	Protocol: A New Phase Began: Movement Phase
Mon Nov 26 22:38:11 IST 2012	Protocol: Movement phase, Round: 6
Mon Nov 26 22:38:11 IST 2012	Player 310 moved to (R:2,C:3)
Mon Nov 26 22:38:30 IST 2012	A Phase Ended: Movement Phase
Mon Nov 26 22:38:30 IST 2012	Swaping roles:
Mon Nov 26 22:38:30 IST 2012	Proposer is: 310
Mon Nov 26 22:38:30 IST 2012	Responder is: 337
Mon Nov 26 22:38:30 IST 2012	Protocol: A New Phase Began: Feedback Phase
Mon Nov 26 22:38:30 IST 2012	Protocol: Feedback phase, Round: 6
Mon Nov 26 22:38:30 IST 2012	Number of consecutive no movements for player 337 is 1
Mon Nov 26 22:38:30 IST 2012	Number of consecutive no movements for player 310 is 0
Mon Nov 26 22:38:35 IST 2012	A Phase Ended: Feedback Phase
Mon Nov 26 22:38:35 IST 2012	Protocol: A New Phase Began: Communication Phase
Mon Nov 26 22:38:35 IST 2012	Protocol: Communication phase, Round: 7
Mon Nov 26 22:38:56 IST 2012	Received communication message 
Mon Nov 26 22:38:56 IST 2012	From player: 310
Mon Nov 26 22:38:56 IST 2012	To player: 337
Mon Nov 26 22:38:56 IST 2012	Message type: basicproposal
Mon Nov 26 22:38:56 IST 2012	Chips to send by proposer: { chips  'CTRed':0 'CTPurple':0 'CTGreen':0 'grey78':1 'CTYellow':0 }
Mon Nov 26 22:38:56 IST 2012	Chips to send by responder: { chips  'CTRed':0 'CTPurple':0 'CTGreen':7 'grey78':0 'CTYellow':0 }
Mon Nov 26 22:39:17 IST 2012	Received communication message 
Mon Nov 26 22:39:17 IST 2012	From player: 337
Mon Nov 26 22:39:17 IST 2012	To player: 310
Mon Nov 26 22:39:17 IST 2012	Message type: basicproposaldiscussion
Mon Nov 26 22:39:17 IST 2012	Player 337 rejected offer
Mon Nov 26 22:39:17 IST 2012	Swaping roles:
Mon Nov 26 22:39:17 IST 2012	Proposer is: 337
Mon Nov 26 22:39:17 IST 2012	Responder is: 310
Mon Nov 26 22:39:17 IST 2012	Prop rejected, set counter offers count to: 1
Mon Nov 26 22:39:17 IST 2012	Prop rejected, get counter offers returned: 1
Mon Nov 26 22:39:21 IST 2012	Slept 4 seconds
Mon Nov 26 22:39:21 IST 2012	Sent role changed msgs
Mon Nov 26 22:40:21 IST 2012	Received communication message 
Mon Nov 26 22:40:21 IST 2012	From player: 337
Mon Nov 26 22:40:21 IST 2012	To player: 310
Mon Nov 26 22:40:21 IST 2012	Message type: basicproposal
Mon Nov 26 22:40:21 IST 2012	Chips to send by proposer: { chips  'CTRed':0 'CTPurple':0 'CTGreen':1 'grey78':0 'CTYellow':0 }
Mon Nov 26 22:40:21 IST 2012	Chips to send by responder: { chips  'CTRed':0 'CTPurple':0 'CTGreen':0 'grey78':1 'CTYellow':0 }
Mon Nov 26 22:40:32 IST 2012	Received communication message 
Mon Nov 26 22:40:32 IST 2012	From player: 310
Mon Nov 26 22:40:32 IST 2012	To player: 337
Mon Nov 26 22:40:32 IST 2012	Message type: basicproposaldiscussion
Mon Nov 26 22:40:32 IST 2012	Player 310 accepted offer
Mon Nov 26 22:40:32 IST 2012	Prop accepted, set counter offers count to: 0
Mon Nov 26 22:40:32 IST 2012	Prop accepted, get counter offers returned: 0
Mon Nov 26 22:40:32 IST 2012	A Phase Ended: Communication Phase
Mon Nov 26 22:40:32 IST 2012	Protocol: A New Phase Began: Exchange Phase
Mon Nov 26 22:40:32 IST 2012	Protocol: Exchange phase, Round: 7
Mon Nov 26 22:40:32 IST 2012	In begin exch.phase, get counter offers returned: 0
Mon Nov 26 22:40:49 IST 2012	A Phase Ended: Exchange Phase
Mon Nov 26 22:40:49 IST 2012	Proposer 337 sent: { chips  'CTRed':0 'CTPurple':0 'CTGreen':1 'grey78':0 'CTYellow':0 }
Mon Nov 26 22:40:49 IST 2012	Responder 310 sent: { chips  }
Mon Nov 26 22:40:49 IST 2012	Protocol: A New Phase Began: Movement Phase
Mon Nov 26 22:40:49 IST 2012	Protocol: Movement phase, Round: 7
Mon Nov 26 22:40:49 IST 2012	Player 310 moved to (R:1,C:3)
Mon Nov 26 22:41:09 IST 2012	A Phase Ended: Movement Phase
Mon Nov 26 22:41:09 IST 2012	Protocol: A New Phase Began: Feedback Phase
Mon Nov 26 22:41:09 IST 2012	Protocol: Feedback phase, Round: 7
Mon Nov 26 22:41:09 IST 2012	Number of consecutive no movements for player 337 is 2
Mon Nov 26 22:41:09 IST 2012	Number of consecutive no movements for player 310 is 0
Mon Nov 26 22:41:14 IST 2012	A Phase Ended: Feedback Phase
Mon Nov 26 22:41:14 IST 2012	Protocol: A New Phase Began: Communication Phase
Mon Nov 26 22:41:14 IST 2012	Protocol: Communication phase, Round: 8
Mon Nov 26 22:42:14 IST 2012	Received communication message 
Mon Nov 26 22:42:14 IST 2012	From player: 337
Mon Nov 26 22:42:14 IST 2012	To player: 310
Mon Nov 26 22:42:14 IST 2012	Message type: basicproposal
Mon Nov 26 22:42:14 IST 2012	Chips to send by proposer: { chips  'CTYellow':1 }
Mon Nov 26 22:42:14 IST 2012	Chips to send by responder: { chips  'grey78':1 }
Mon Nov 26 22:42:28 IST 2012	Received communication message 
Mon Nov 26 22:42:28 IST 2012	From player: 310
Mon Nov 26 22:42:28 IST 2012	To player: 337
Mon Nov 26 22:42:28 IST 2012	Message type: basicproposaldiscussion
Mon Nov 26 22:42:28 IST 2012	Player 310 accepted offer
Mon Nov 26 22:42:28 IST 2012	Prop accepted, set counter offers count to: 0
Mon Nov 26 22:42:28 IST 2012	Prop accepted, get counter offers returned: 0
Mon Nov 26 22:42:28 IST 2012	A Phase Ended: Communication Phase
Mon Nov 26 22:42:28 IST 2012	Protocol: A New Phase Began: Exchange Phase
Mon Nov 26 22:42:28 IST 2012	Protocol: Exchange phase, Round: 8
Mon Nov 26 22:42:28 IST 2012	In begin exch.phase, get counter offers returned: 0
Mon Nov 26 22:42:43 IST 2012	A Phase Ended: Exchange Phase
Mon Nov 26 22:42:44 IST 2012	Proposer 337 sent: { chips  'CTRed':0 'CTPurple':0 'CTGreen':0 'grey78':0 'CTYellow':1 }
Mon Nov 26 22:42:44 IST 2012	Responder 310 sent: { chips  }
Mon Nov 26 22:42:44 IST 2012	Protocol: A New Phase Began: Movement Phase
Mon Nov 26 22:42:44 IST 2012	Protocol: Movement phase, Round: 8
Mon Nov 26 22:42:44 IST 2012	Player 310 moved to (R:0,C:3)
Mon Nov 26 22:42:44 IST 2012	Player 337 moved to (R:4,C:1)
Mon Nov 26 22:43:03 IST 2012	A Phase Ended: Movement Phase
Mon Nov 26 22:43:03 IST 2012	Swaping roles:
Mon Nov 26 22:43:03 IST 2012	Proposer is: 310
Mon Nov 26 22:43:03 IST 2012	Responder is: 337
Mon Nov 26 22:43:03 IST 2012	Protocol: A New Phase Began: Feedback Phase
Mon Nov 26 22:43:03 IST 2012	Protocol: Feedback phase, Round: 8
Mon Nov 26 22:43:03 IST 2012	Number of consecutive no movements for player 337 is 0
Mon Nov 26 22:43:03 IST 2012	Number of consecutive no movements for player 310 is 0
Mon Nov 26 22:43:08 IST 2012	A Phase Ended: Feedback Phase
Mon Nov 26 22:43:08 IST 2012	Protocol: A New Phase Began: Communication Phase
Mon Nov 26 22:43:08 IST 2012	Protocol: Communication phase, Round: 9
Mon Nov 26 22:43:21 IST 2012	Received communication message 
Mon Nov 26 22:43:21 IST 2012	From player: 310
Mon Nov 26 22:43:21 IST 2012	To player: 337
Mon Nov 26 22:43:21 IST 2012	Message type: basicproposal
Mon Nov 26 22:43:21 IST 2012	Chips to send by proposer: { chips  'CTRed':0 'CTPurple':0 'CTGreen':0 'grey78':1 'CTYellow':0 }
Mon Nov 26 22:43:21 IST 2012	Chips to send by responder: { chips  'CTRed':0 'CTPurple':0 'CTGreen':7 'grey78':0 'CTYellow':0 }
Mon Nov 26 22:43:36 IST 2012	Received communication message 
Mon Nov 26 22:43:36 IST 2012	From player: 337
Mon Nov 26 22:43:36 IST 2012	To player: 310
Mon Nov 26 22:43:36 IST 2012	Message type: basicproposaldiscussion
Mon Nov 26 22:43:36 IST 2012	Player 337 rejected offer
Mon Nov 26 22:43:36 IST 2012	Swaping roles:
Mon Nov 26 22:43:36 IST 2012	Proposer is: 337
Mon Nov 26 22:43:36 IST 2012	Responder is: 310
Mon Nov 26 22:43:36 IST 2012	Prop rejected, set counter offers count to: 1
Mon Nov 26 22:43:36 IST 2012	Prop rejected, get counter offers returned: 1
Mon Nov 26 22:43:40 IST 2012	Slept 4 seconds
Mon Nov 26 22:43:40 IST 2012	Sent role changed msgs
Mon Nov 26 22:44:27 IST 2012	Received communication message 
Mon Nov 26 22:44:27 IST 2012	From player: 337
Mon Nov 26 22:44:27 IST 2012	To player: 310
Mon Nov 26 22:44:27 IST 2012	Message type: basicproposal
Mon Nov 26 22:44:27 IST 2012	Chips to send by proposer: { chips  'CTRed':0 'CTPurple':0 'CTGreen':0 'grey78':0 'CTYellow':1 }
Mon Nov 26 22:44:27 IST 2012	Chips to send by responder: { chips  'CTRed':0 'CTPurple':0 'CTGreen':0 'grey78':1 'CTYellow':0 }
Mon Nov 26 22:44:37 IST 2012	Received communication message 
Mon Nov 26 22:44:37 IST 2012	From player: 310
Mon Nov 26 22:44:37 IST 2012	To player: 337
Mon Nov 26 22:44:37 IST 2012	Message type: basicproposaldiscussion
Mon Nov 26 22:44:37 IST 2012	Player 310 accepted offer
Mon Nov 26 22:44:37 IST 2012	Prop accepted, set counter offers count to: 0
Mon Nov 26 22:44:37 IST 2012	Prop accepted, get counter offers returned: 0
Mon Nov 26 22:44:37 IST 2012	A Phase Ended: Communication Phase
Mon Nov 26 22:44:37 IST 2012	Protocol: A New Phase Began: Exchange Phase
Mon Nov 26 22:44:37 IST 2012	Protocol: Exchange phase, Round: 9
Mon Nov 26 22:44:37 IST 2012	In begin exch.phase, get counter offers returned: 0
Mon Nov 26 22:44:48 IST 2012	A Phase Ended: Exchange Phase
Mon Nov 26 22:44:48 IST 2012	Proposer 337 sent: { chips  'CTRed':0 'CTPurple':0 'CTGreen':0 'grey78':0 'CTYellow':1 }
Mon Nov 26 22:44:48 IST 2012	Responder 310 sent: { chips  }
Mon Nov 26 22:44:48 IST 2012	Protocol: A New Phase Began: Movement Phase
Mon Nov 26 22:44:48 IST 2012	Protocol: Movement phase, Round: 9
Mon Nov 26 22:44:48 IST 2012	Player 310 moved to (R:0,C:2)
Mon Nov 26 22:44:52 IST 2012	Slept 4 seconds
Mon Nov 26 22:44:52 IST 2012	Player 310 got to goal, advance the other and end game
Mon Nov 26 22:44:52 IST 2012	Player: 310 ,role: Responder score is: 200
Mon Nov 26 22:44:52 IST 2012	Player: 337 ,role: Proposer score is: 45
