Sun Nov 25 21:34:41 IST 2012	This is the CT debug logger; svn version 638; sep 27 09
Sun Nov 25 21:34:41 IST 2012	Sun Nov 25 21:34:41 IST 2012
Sun Nov 25 21:34:41 IST 2012	A new Alternative Offers game has began
Sun Nov 25 21:34:41 IST 2012	ID Number: 31754
Sun Nov 25 21:34:41 IST 2012	Creating board
Sun Nov 25 21:34:41 IST 2012	<colors>
Sun Nov 25 21:34:41 IST 2012	{ GamePalette  'CTRed':0 'CTPurple':1 'CTGreen':2 'grey78':3 'CTYellow':4 }
Sun Nov 25 21:34:41 IST 2012	<rows>
Sun Nov 25 21:34:41 IST 2012	7
Sun Nov 25 21:34:41 IST 2012	<columns>
Sun Nov 25 21:34:41 IST 2012	5
Sun Nov 25 21:34:41 IST 2012	<squaresColors>
Sun Nov 25 21:34:41 IST 2012	CTPurple CTRed CTRed CTGreen CTPurple 
Sun Nov 25 21:34:41 IST 2012	CTPurple grey78 CTPurple CTYellow CTPurple 
Sun Nov 25 21:34:41 IST 2012	CTPurple CTRed CTPurple CTGreen CTPurple 
Sun Nov 25 21:34:41 IST 2012	CTPurple grey78 CTPurple CTYellow CTPurple 
Sun Nov 25 21:34:41 IST 2012	CTPurple CTRed CTPurple CTGreen CTPurple 
Sun Nov 25 21:34:41 IST 2012	CTPurple grey78 CTPurple CTYellow CTPurple 
Sun Nov 25 21:34:41 IST 2012	CTPurple CTRed CTPurple CTGreen CTPurple 
Sun Nov 25 21:34:41 IST 2012	</squareColors>
Sun Nov 25 21:34:41 IST 2012	<goalPosition>
Sun Nov 25 21:34:41 IST 2012	Goal position: (R:0,C:2)
Sun Nov 25 21:34:41 IST 2012	<numberOfPlayers>
Sun Nov 25 21:34:41 IST 2012	2
Sun Nov 25 21:34:41 IST 2012	<firstPlayerChips>
Sun Nov 25 21:34:41 IST 2012	Setting chips for player: 337 id:0
Sun Nov 25 21:34:41 IST 2012	{ chips  'CTRed':5 'CTGreen':10 'CTPurple':0 'grey78':0 'CTYellow':9 }
Sun Nov 25 21:34:41 IST 2012	Player position: (R:6,C:0)
Sun Nov 25 21:34:41 IST 2012	Setting chips for player: 310 id:1
Sun Nov 25 21:34:41 IST 2012	{ chips  'CTRed':1 'CTGreen':13 'CTPurple':0 'grey78':10 'CTYellow':0 }
Sun Nov 25 21:34:41 IST 2012	Player position: (R:6,C:4)
Sun Nov 25 21:34:41 IST 2012	Protocol: A New Phase Began: Strategy Prep Phase
Sun Nov 25 21:34:41 IST 2012	Protocol: Strategy Preparation phase, Round: 0
Sun Nov 25 21:34:41 IST 2012	Maximum number of rounds with no consecutive movement is 3
Sun Nov 25 21:34:41 IST 2012	In begin comm. phase, set counter offers count to: 0
Sun Nov 25 21:34:41 IST 2012	In begin comm. phase, get counter offers returned: 0
Sun Nov 25 21:35:02 IST 2012	A Phase Ended: Strategy Prep Phase
Sun Nov 25 21:35:02 IST 2012	Protocol: A New Phase Began: Communication Phase
Sun Nov 25 21:35:02 IST 2012	Protocol: Communication phase, Round: 0
Sun Nov 25 21:36:02 IST 2012	Received communication message 
Sun Nov 25 21:36:02 IST 2012	From player: 337
Sun Nov 25 21:36:02 IST 2012	To player: 310
Sun Nov 25 21:36:02 IST 2012	Message type: basicproposal
Sun Nov 25 21:36:02 IST 2012	Chips to send by proposer: { chips  'CTYellow':1 }
Sun Nov 25 21:36:02 IST 2012	Chips to send by responder: { chips  'grey78':1 }
Sun Nov 25 21:36:15 IST 2012	Received communication message 
Sun Nov 25 21:36:15 IST 2012	From player: 310
Sun Nov 25 21:36:15 IST 2012	To player: 337
Sun Nov 25 21:36:15 IST 2012	Message type: basicproposaldiscussion
Sun Nov 25 21:36:15 IST 2012	Player 310 accepted offer
Sun Nov 25 21:36:15 IST 2012	Prop accepted, set counter offers count to: 0
Sun Nov 25 21:36:15 IST 2012	Prop accepted, get counter offers returned: 0
Sun Nov 25 21:36:15 IST 2012	A Phase Ended: Communication Phase
Sun Nov 25 21:36:15 IST 2012	Protocol: A New Phase Began: Exchange Phase
Sun Nov 25 21:36:15 IST 2012	Protocol: Exchange phase, Round: 0
Sun Nov 25 21:36:15 IST 2012	In begin exch.phase, get counter offers returned: 0
Sun Nov 25 21:36:44 IST 2012	A Phase Ended: Exchange Phase
Sun Nov 25 21:36:44 IST 2012	Proposer 337 sent: { chips  'CTRed':0 'CTPurple':0 'CTGreen':0 'grey78':0 'CTYellow':1 }
Sun Nov 25 21:36:44 IST 2012	Responder 310 sent: { chips  'CTRed':0 'CTPurple':0 'CTGreen':0 'grey78':1 'CTYellow':0 }
Sun Nov 25 21:36:44 IST 2012	Protocol: A New Phase Began: Movement Phase
Sun Nov 25 21:36:44 IST 2012	Protocol: Movement phase, Round: 0
Sun Nov 25 21:37:04 IST 2012	A Phase Ended: Movement Phase
Sun Nov 25 21:37:04 IST 2012	Swaping roles:
Sun Nov 25 21:37:04 IST 2012	Proposer is: 310
Sun Nov 25 21:37:04 IST 2012	Responder is: 337
Sun Nov 25 21:37:04 IST 2012	Protocol: A New Phase Began: Feedback Phase
Sun Nov 25 21:37:04 IST 2012	Protocol: Feedback phase, Round: 0
Sun Nov 25 21:37:04 IST 2012	Number of consecutive no movements for player 337 is 1
Sun Nov 25 21:37:04 IST 2012	Number of consecutive no movements for player 310 is 1
Sun Nov 25 21:37:09 IST 2012	A Phase Ended: Feedback Phase
Sun Nov 25 21:37:09 IST 2012	Protocol: A New Phase Began: Communication Phase
Sun Nov 25 21:37:09 IST 2012	Protocol: Communication phase, Round: 1
Sun Nov 25 21:37:43 IST 2012	Received communication message 
Sun Nov 25 21:37:43 IST 2012	From player: 310
Sun Nov 25 21:37:43 IST 2012	To player: 337
Sun Nov 25 21:37:43 IST 2012	Message type: basicproposal
Sun Nov 25 21:37:43 IST 2012	Chips to send by proposer: { chips  'CTRed':0 'CTPurple':0 'CTGreen':2 'grey78':2 'CTYellow':0 }
Sun Nov 25 21:37:43 IST 2012	Chips to send by responder: { chips  'CTRed':0 'CTPurple':0 'CTGreen':0 'grey78':0 'CTYellow':2 }
Sun Nov 25 21:38:29 IST 2012	Received communication message 
Sun Nov 25 21:38:29 IST 2012	From player: 337
Sun Nov 25 21:38:29 IST 2012	To player: 310
Sun Nov 25 21:38:29 IST 2012	Message type: basicproposaldiscussion
Sun Nov 25 21:38:29 IST 2012	Player 337 accepted offer
Sun Nov 25 21:38:29 IST 2012	Prop accepted, set counter offers count to: 0
Sun Nov 25 21:38:29 IST 2012	Prop accepted, get counter offers returned: 0
Sun Nov 25 21:38:29 IST 2012	A Phase Ended: Communication Phase
Sun Nov 25 21:38:29 IST 2012	Protocol: A New Phase Began: Exchange Phase
Sun Nov 25 21:38:29 IST 2012	Protocol: Exchange phase, Round: 1
Sun Nov 25 21:38:29 IST 2012	In begin exch.phase, get counter offers returned: 0
Sun Nov 25 21:38:58 IST 2012	A Phase Ended: Exchange Phase
Sun Nov 25 21:38:58 IST 2012	Proposer 310 sent: { chips  }
Sun Nov 25 21:38:58 IST 2012	Responder 337 sent: { chips  'CTRed':0 'CTPurple':0 'CTGreen':0 'grey78':0 'CTYellow':0 }
Sun Nov 25 21:38:58 IST 2012	Protocol: A New Phase Began: Movement Phase
Sun Nov 25 21:38:58 IST 2012	Protocol: Movement phase, Round: 1
Sun Nov 25 21:39:17 IST 2012	A Phase Ended: Movement Phase
Sun Nov 25 21:39:17 IST 2012	Swaping roles:
Sun Nov 25 21:39:17 IST 2012	Proposer is: 337
Sun Nov 25 21:39:17 IST 2012	Responder is: 310
Sun Nov 25 21:39:17 IST 2012	Protocol: A New Phase Began: Feedback Phase
Sun Nov 25 21:39:17 IST 2012	Protocol: Feedback phase, Round: 1
Sun Nov 25 21:39:17 IST 2012	Number of consecutive no movements for player 337 is 2
Sun Nov 25 21:39:17 IST 2012	Number of consecutive no movements for player 310 is 2
Sun Nov 25 21:39:22 IST 2012	A Phase Ended: Feedback Phase
Sun Nov 25 21:39:22 IST 2012	Protocol: A New Phase Began: Communication Phase
Sun Nov 25 21:39:22 IST 2012	Protocol: Communication phase, Round: 2
Sun Nov 25 21:40:22 IST 2012	Received communication message 
Sun Nov 25 21:40:22 IST 2012	From player: 337
Sun Nov 25 21:40:22 IST 2012	To player: 310
Sun Nov 25 21:40:22 IST 2012	Message type: basicproposal
Sun Nov 25 21:40:22 IST 2012	Chips to send by proposer: { chips  'CTYellow':1 }
Sun Nov 25 21:40:22 IST 2012	Chips to send by responder: { chips  'CTGreen':2 'grey78':1 }
Sun Nov 25 21:40:33 IST 2012	Received communication message 
Sun Nov 25 21:40:33 IST 2012	From player: 310
Sun Nov 25 21:40:33 IST 2012	To player: 337
Sun Nov 25 21:40:33 IST 2012	Message type: basicproposaldiscussion
Sun Nov 25 21:40:33 IST 2012	Player 310 accepted offer
Sun Nov 25 21:40:33 IST 2012	Prop accepted, set counter offers count to: 0
Sun Nov 25 21:40:33 IST 2012	Prop accepted, get counter offers returned: 0
Sun Nov 25 21:40:33 IST 2012	A Phase Ended: Communication Phase
Sun Nov 25 21:40:33 IST 2012	Protocol: A New Phase Began: Exchange Phase
Sun Nov 25 21:40:33 IST 2012	Protocol: Exchange phase, Round: 2
Sun Nov 25 21:40:33 IST 2012	In begin exch.phase, get counter offers returned: 0
Sun Nov 25 21:41:02 IST 2012	A Phase Ended: Exchange Phase
Sun Nov 25 21:41:02 IST 2012	Proposer 337 sent: { chips  'CTRed':0 'CTPurple':0 'CTGreen':0 'grey78':0 'CTYellow':1 }
Sun Nov 25 21:41:02 IST 2012	Responder 310 sent: { chips  }
Sun Nov 25 21:41:02 IST 2012	Protocol: A New Phase Began: Movement Phase
Sun Nov 25 21:41:02 IST 2012	Protocol: Movement phase, Round: 2
Sun Nov 25 21:41:02 IST 2012	Player 310 moved to (R:6,C:3)
Sun Nov 25 21:41:02 IST 2012	Player 337 moved to (R:6,C:1)
Sun Nov 25 21:41:22 IST 2012	A Phase Ended: Movement Phase
Sun Nov 25 21:41:22 IST 2012	Swaping roles:
Sun Nov 25 21:41:22 IST 2012	Proposer is: 310
Sun Nov 25 21:41:22 IST 2012	Responder is: 337
Sun Nov 25 21:41:22 IST 2012	Protocol: A New Phase Began: Feedback Phase
Sun Nov 25 21:41:22 IST 2012	Protocol: Feedback phase, Round: 2
Sun Nov 25 21:41:22 IST 2012	Number of consecutive no movements for player 337 is 0
Sun Nov 25 21:41:22 IST 2012	Number of consecutive no movements for player 310 is 0
Sun Nov 25 21:41:27 IST 2012	A Phase Ended: Feedback Phase
Sun Nov 25 21:41:27 IST 2012	Protocol: A New Phase Began: Communication Phase
Sun Nov 25 21:41:27 IST 2012	Protocol: Communication phase, Round: 3
Sun Nov 25 21:41:46 IST 2012	Received communication message 
Sun Nov 25 21:41:46 IST 2012	From player: 310
Sun Nov 25 21:41:46 IST 2012	To player: 337
Sun Nov 25 21:41:46 IST 2012	Message type: basicproposal
Sun Nov 25 21:41:46 IST 2012	Chips to send by proposer: { chips  'CTRed':0 'CTPurple':0 'CTGreen':3 'grey78':2 'CTYellow':0 }
Sun Nov 25 21:41:46 IST 2012	Chips to send by responder: { chips  'CTRed':0 'CTPurple':0 'CTGreen':0 'grey78':0 'CTYellow':1 }
Sun Nov 25 21:42:46 IST 2012	Received communication message 
Sun Nov 25 21:42:46 IST 2012	From player: 337
Sun Nov 25 21:42:46 IST 2012	To player: 310
Sun Nov 25 21:42:46 IST 2012	Message type: basicproposaldiscussion
Sun Nov 25 21:42:46 IST 2012	Player 337 rejected offer
Sun Nov 25 21:42:46 IST 2012	Swaping roles:
Sun Nov 25 21:42:46 IST 2012	Proposer is: 337
Sun Nov 25 21:42:46 IST 2012	Responder is: 310
Sun Nov 25 21:42:46 IST 2012	Prop rejected, set counter offers count to: 1
Sun Nov 25 21:42:46 IST 2012	Prop rejected, get counter offers returned: 1
Sun Nov 25 21:42:50 IST 2012	Slept 4 seconds
Sun Nov 25 21:42:50 IST 2012	Sent role changed msgs
Sun Nov 25 21:43:50 IST 2012	Received communication message 
Sun Nov 25 21:43:50 IST 2012	From player: 337
Sun Nov 25 21:43:50 IST 2012	To player: 310
Sun Nov 25 21:43:50 IST 2012	Message type: basicproposal
Sun Nov 25 21:43:50 IST 2012	Chips to send by proposer: { chips  'CTRed':0 'CTPurple':0 'CTGreen':1 'grey78':0 'CTYellow':0 }
Sun Nov 25 21:43:50 IST 2012	Chips to send by responder: { chips  'CTRed':0 'CTPurple':0 'CTGreen':0 'grey78':1 'CTYellow':0 }
Sun Nov 25 21:44:01 IST 2012	Received communication message 
Sun Nov 25 21:44:01 IST 2012	From player: 310
Sun Nov 25 21:44:01 IST 2012	To player: 337
Sun Nov 25 21:44:01 IST 2012	Message type: basicproposaldiscussion
Sun Nov 25 21:44:01 IST 2012	Player 310 accepted offer
Sun Nov 25 21:44:01 IST 2012	Prop accepted, set counter offers count to: 0
Sun Nov 25 21:44:01 IST 2012	Prop accepted, get counter offers returned: 0
Sun Nov 25 21:44:01 IST 2012	A Phase Ended: Communication Phase
Sun Nov 25 21:44:01 IST 2012	Protocol: A New Phase Began: Exchange Phase
Sun Nov 25 21:44:01 IST 2012	Protocol: Exchange phase, Round: 3
Sun Nov 25 21:44:01 IST 2012	In begin exch.phase, get counter offers returned: 0
Sun Nov 25 21:44:30 IST 2012	A Phase Ended: Exchange Phase
Sun Nov 25 21:44:30 IST 2012	Proposer 337 sent: { chips  'CTRed':0 'CTPurple':0 'CTGreen':1 'grey78':0 'CTYellow':0 }
Sun Nov 25 21:44:30 IST 2012	Responder 310 sent: { chips  'CTRed':0 'CTPurple':0 'CTGreen':0 'grey78':1 'CTYellow':0 }
Sun Nov 25 21:44:30 IST 2012	Protocol: A New Phase Began: Movement Phase
Sun Nov 25 21:44:30 IST 2012	Protocol: Movement phase, Round: 3
Sun Nov 25 21:44:50 IST 2012	A Phase Ended: Movement Phase
Sun Nov 25 21:44:50 IST 2012	Protocol: A New Phase Began: Feedback Phase
Sun Nov 25 21:44:50 IST 2012	Protocol: Feedback phase, Round: 3
Sun Nov 25 21:44:50 IST 2012	Number of consecutive no movements for player 337 is 1
Sun Nov 25 21:44:50 IST 2012	Number of consecutive no movements for player 310 is 1
Sun Nov 25 21:44:55 IST 2012	A Phase Ended: Feedback Phase
Sun Nov 25 21:44:55 IST 2012	Protocol: A New Phase Began: Communication Phase
Sun Nov 25 21:44:55 IST 2012	Protocol: Communication phase, Round: 4
Sun Nov 25 21:45:55 IST 2012	Received communication message 
Sun Nov 25 21:45:55 IST 2012	From player: 337
Sun Nov 25 21:45:55 IST 2012	To player: 310
Sun Nov 25 21:45:55 IST 2012	Message type: basicproposal
Sun Nov 25 21:45:55 IST 2012	Chips to send by proposer: { chips  'CTYellow':3 }
Sun Nov 25 21:45:55 IST 2012	Chips to send by responder: { chips  'grey78':1 }
Sun Nov 25 21:46:08 IST 2012	Received communication message 
Sun Nov 25 21:46:08 IST 2012	From player: 310
Sun Nov 25 21:46:08 IST 2012	To player: 337
Sun Nov 25 21:46:08 IST 2012	Message type: basicproposaldiscussion
Sun Nov 25 21:46:08 IST 2012	Player 310 rejected offer
Sun Nov 25 21:46:08 IST 2012	Swaping roles:
Sun Nov 25 21:46:08 IST 2012	Proposer is: 310
Sun Nov 25 21:46:08 IST 2012	Responder is: 337
Sun Nov 25 21:46:08 IST 2012	Prop rejected, set counter offers count to: 1
Sun Nov 25 21:46:08 IST 2012	Prop rejected, get counter offers returned: 1
Sun Nov 25 21:46:12 IST 2012	Slept 4 seconds
Sun Nov 25 21:46:12 IST 2012	Sent role changed msgs
Sun Nov 25 21:46:31 IST 2012	Received communication message 
Sun Nov 25 21:46:31 IST 2012	From player: 310
Sun Nov 25 21:46:31 IST 2012	To player: 337
Sun Nov 25 21:46:31 IST 2012	Message type: basicproposal
Sun Nov 25 21:46:31 IST 2012	Chips to send by proposer: { chips  'CTRed':0 'CTPurple':0 'CTGreen':0 'grey78':1 'CTYellow':0 }
Sun Nov 25 21:46:31 IST 2012	Chips to send by responder: { chips  'CTRed':0 'CTPurple':0 'CTGreen':4 'grey78':0 'CTYellow':1 }
Sun Nov 25 21:47:03 IST 2012	Received communication message 
Sun Nov 25 21:47:03 IST 2012	From player: 337
Sun Nov 25 21:47:03 IST 2012	To player: 310
Sun Nov 25 21:47:03 IST 2012	Message type: basicproposaldiscussion
Sun Nov 25 21:47:03 IST 2012	Player 337 rejected offer
Sun Nov 25 21:47:03 IST 2012	Set counter offers count to: 0
Sun Nov 25 21:47:03 IST 2012	A Phase Ended: Communication Phase
Sun Nov 25 21:47:03 IST 2012	Protocol: A New Phase Began: Exchange Phase
Sun Nov 25 21:47:03 IST 2012	Protocol: Exchange phase, Round: 4
Sun Nov 25 21:47:03 IST 2012	In begin exch.phase, get counter offers returned: 0
Sun Nov 25 21:47:43 IST 2012	A Phase Ended: Exchange Phase
Sun Nov 25 21:47:43 IST 2012	Responder 337 sent: { chips  }
Sun Nov 25 21:47:43 IST 2012	Protocol: A New Phase Began: Movement Phase
Sun Nov 25 21:47:43 IST 2012	Protocol: Movement phase, Round: 4
Sun Nov 25 21:48:04 IST 2012	A Phase Ended: Movement Phase
Sun Nov 25 21:48:04 IST 2012	Protocol: A New Phase Began: Feedback Phase
Sun Nov 25 21:48:04 IST 2012	Protocol: Feedback phase, Round: 4
Sun Nov 25 21:48:04 IST 2012	Number of consecutive no movements for player 337 is 2
Sun Nov 25 21:48:04 IST 2012	Number of consecutive no movements for player 310 is 2
Sun Nov 25 21:48:09 IST 2012	A Phase Ended: Feedback Phase
Sun Nov 25 21:48:09 IST 2012	Protocol: A New Phase Began: Communication Phase
Sun Nov 25 21:48:09 IST 2012	Protocol: Communication phase, Round: 5
Sun Nov 25 21:48:29 IST 2012	Received communication message 
Sun Nov 25 21:48:29 IST 2012	From player: 310
Sun Nov 25 21:48:29 IST 2012	To player: 337
Sun Nov 25 21:48:29 IST 2012	Message type: basicproposal
Sun Nov 25 21:48:29 IST 2012	Chips to send by proposer: { chips  'CTRed':0 'CTPurple':0 'CTGreen':0 'grey78':1 'CTYellow':0 }
Sun Nov 25 21:48:29 IST 2012	Chips to send by responder: { chips  'CTRed':0 'CTPurple':0 'CTGreen':4 'grey78':0 'CTYellow':1 }
Sun Nov 25 21:49:00 IST 2012	Received communication message 
Sun Nov 25 21:49:00 IST 2012	From player: 337
Sun Nov 25 21:49:00 IST 2012	To player: 310
Sun Nov 25 21:49:00 IST 2012	Message type: basicproposaldiscussion
Sun Nov 25 21:49:00 IST 2012	Player 337 rejected offer
Sun Nov 25 21:49:00 IST 2012	Swaping roles:
Sun Nov 25 21:49:00 IST 2012	Proposer is: 337
Sun Nov 25 21:49:00 IST 2012	Responder is: 310
Sun Nov 25 21:49:00 IST 2012	Prop rejected, set counter offers count to: 1
Sun Nov 25 21:49:00 IST 2012	Prop rejected, get counter offers returned: 1
Sun Nov 25 21:49:04 IST 2012	Slept 4 seconds
Sun Nov 25 21:49:04 IST 2012	Sent role changed msgs
Sun Nov 25 21:50:04 IST 2012	Received communication message 
Sun Nov 25 21:50:04 IST 2012	From player: 337
Sun Nov 25 21:50:04 IST 2012	To player: 310
Sun Nov 25 21:50:04 IST 2012	Message type: basicproposal
Sun Nov 25 21:50:04 IST 2012	Chips to send by proposer: { chips  'CTRed':0 'CTPurple':0 'CTGreen':0 'grey78':0 'CTYellow':3 }
Sun Nov 25 21:50:04 IST 2012	Chips to send by responder: { chips  'CTRed':0 'CTPurple':0 'CTGreen':0 'grey78':1 'CTYellow':0 }
Sun Nov 25 21:50:18 IST 2012	Received communication message 
Sun Nov 25 21:50:18 IST 2012	From player: 310
Sun Nov 25 21:50:18 IST 2012	To player: 337
Sun Nov 25 21:50:18 IST 2012	Message type: basicproposaldiscussion
Sun Nov 25 21:50:18 IST 2012	Player 310 rejected offer
Sun Nov 25 21:50:18 IST 2012	Set counter offers count to: 0
Sun Nov 25 21:50:18 IST 2012	A Phase Ended: Communication Phase
Sun Nov 25 21:50:18 IST 2012	Protocol: A New Phase Began: Exchange Phase
Sun Nov 25 21:50:18 IST 2012	Protocol: Exchange phase, Round: 5
Sun Nov 25 21:50:18 IST 2012	In begin exch.phase, get counter offers returned: 0
Sun Nov 25 21:50:58 IST 2012	A Phase Ended: Exchange Phase
Sun Nov 25 21:50:58 IST 2012	Proposer 337 sent: { chips  }
Sun Nov 25 21:50:58 IST 2012	Protocol: A New Phase Began: Movement Phase
Sun Nov 25 21:50:58 IST 2012	Protocol: Movement phase, Round: 5
Sun Nov 25 21:50:58 IST 2012	Player 337 moved to (R:5,C:1)
Sun Nov 25 21:50:58 IST 2012	Player 310 moved to (R:5,C:3)
Sun Nov 25 21:51:18 IST 2012	A Phase Ended: Movement Phase
Sun Nov 25 21:51:18 IST 2012	Protocol: A New Phase Began: Feedback Phase
Sun Nov 25 21:51:18 IST 2012	Protocol: Feedback phase, Round: 5
Sun Nov 25 21:51:18 IST 2012	Number of consecutive no movements for player 337 is 0
Sun Nov 25 21:51:18 IST 2012	Number of consecutive no movements for player 310 is 0
Sun Nov 25 21:51:23 IST 2012	A Phase Ended: Feedback Phase
Sun Nov 25 21:51:23 IST 2012	Protocol: A New Phase Began: Communication Phase
Sun Nov 25 21:51:23 IST 2012	Protocol: Communication phase, Round: 6
Sun Nov 25 21:52:23 IST 2012	Received communication message 
Sun Nov 25 21:52:23 IST 2012	From player: 337
Sun Nov 25 21:52:23 IST 2012	To player: 310
Sun Nov 25 21:52:23 IST 2012	Message type: basicproposal
Sun Nov 25 21:52:23 IST 2012	Chips to send by proposer: { chips  'CTYellow':1 }
Sun Nov 25 21:52:23 IST 2012	Chips to send by responder: { chips  'CTGreen':2 'grey78':1 }
Sun Nov 25 21:52:30 IST 2012	Received communication message 
Sun Nov 25 21:52:30 IST 2012	From player: 310
Sun Nov 25 21:52:30 IST 2012	To player: 337
Sun Nov 25 21:52:30 IST 2012	Message type: basicproposaldiscussion
Sun Nov 25 21:52:30 IST 2012	Player 310 accepted offer
Sun Nov 25 21:52:30 IST 2012	Prop accepted, set counter offers count to: 0
Sun Nov 25 21:52:30 IST 2012	Prop accepted, get counter offers returned: 0
Sun Nov 25 21:52:30 IST 2012	A Phase Ended: Communication Phase
Sun Nov 25 21:52:30 IST 2012	Protocol: A New Phase Began: Exchange Phase
Sun Nov 25 21:52:30 IST 2012	Protocol: Exchange phase, Round: 6
Sun Nov 25 21:52:30 IST 2012	In begin exch.phase, get counter offers returned: 0
Sun Nov 25 21:52:50 IST 2012	A Phase Ended: Exchange Phase
Sun Nov 25 21:52:50 IST 2012	Proposer 337 sent: { chips  'CTRed':0 'CTPurple':0 'CTGreen':0 'grey78':0 'CTYellow':1 }
Sun Nov 25 21:52:50 IST 2012	Responder 310 sent: { chips  }
Sun Nov 25 21:52:50 IST 2012	Protocol: A New Phase Began: Movement Phase
Sun Nov 25 21:52:50 IST 2012	Protocol: Movement phase, Round: 6
Sun Nov 25 21:52:50 IST 2012	Player 310 moved to (R:4,C:3)
Sun Nov 25 21:53:10 IST 2012	A Phase Ended: Movement Phase
Sun Nov 25 21:53:10 IST 2012	Swaping roles:
Sun Nov 25 21:53:10 IST 2012	Proposer is: 310
Sun Nov 25 21:53:10 IST 2012	Responder is: 337
Sun Nov 25 21:53:10 IST 2012	Protocol: A New Phase Began: Feedback Phase
Sun Nov 25 21:53:10 IST 2012	Protocol: Feedback phase, Round: 6
Sun Nov 25 21:53:10 IST 2012	Number of consecutive no movements for player 337 is 1
Sun Nov 25 21:53:10 IST 2012	Number of consecutive no movements for player 310 is 0
Sun Nov 25 21:53:15 IST 2012	A Phase Ended: Feedback Phase
Sun Nov 25 21:53:15 IST 2012	Protocol: A New Phase Began: Communication Phase
Sun Nov 25 21:53:15 IST 2012	Protocol: Communication phase, Round: 7
Sun Nov 25 21:53:35 IST 2012	Received communication message 
Sun Nov 25 21:53:35 IST 2012	From player: 310
Sun Nov 25 21:53:35 IST 2012	To player: 337
Sun Nov 25 21:53:35 IST 2012	Message type: basicproposal
Sun Nov 25 21:53:35 IST 2012	Chips to send by proposer: { chips  'CTRed':0 'CTPurple':0 'CTGreen':0 'grey78':1 'CTYellow':0 }
Sun Nov 25 21:53:35 IST 2012	Chips to send by responder: { chips  'CTRed':0 'CTPurple':0 'CTGreen':2 'grey78':0 'CTYellow':0 }
Sun Nov 25 21:53:55 IST 2012	Received communication message 
Sun Nov 25 21:53:55 IST 2012	From player: 337
Sun Nov 25 21:53:55 IST 2012	To player: 310
Sun Nov 25 21:53:55 IST 2012	Message type: basicproposaldiscussion
Sun Nov 25 21:53:55 IST 2012	Player 337 rejected offer
Sun Nov 25 21:53:55 IST 2012	Swaping roles:
Sun Nov 25 21:53:55 IST 2012	Proposer is: 337
Sun Nov 25 21:53:55 IST 2012	Responder is: 310
Sun Nov 25 21:53:55 IST 2012	Prop rejected, set counter offers count to: 1
Sun Nov 25 21:53:55 IST 2012	Prop rejected, get counter offers returned: 1
Sun Nov 25 21:53:59 IST 2012	Slept 4 seconds
Sun Nov 25 21:53:59 IST 2012	Sent role changed msgs
Sun Nov 25 21:54:59 IST 2012	Received communication message 
Sun Nov 25 21:54:59 IST 2012	From player: 337
Sun Nov 25 21:54:59 IST 2012	To player: 310
Sun Nov 25 21:54:59 IST 2012	Message type: basicproposal
Sun Nov 25 21:54:59 IST 2012	Chips to send by proposer: { chips  'CTRed':0 'CTPurple':0 'CTGreen':0 'grey78':0 'CTYellow':1 }
Sun Nov 25 21:54:59 IST 2012	Chips to send by responder: { chips  'CTRed':0 'CTPurple':0 'CTGreen':0 'grey78':1 'CTYellow':0 }
Sun Nov 25 21:55:12 IST 2012	Received communication message 
Sun Nov 25 21:55:12 IST 2012	From player: 310
Sun Nov 25 21:55:12 IST 2012	To player: 337
Sun Nov 25 21:55:12 IST 2012	Message type: basicproposaldiscussion
Sun Nov 25 21:55:12 IST 2012	Player 310 rejected offer
Sun Nov 25 21:55:12 IST 2012	Set counter offers count to: 0
Sun Nov 25 21:55:12 IST 2012	A Phase Ended: Communication Phase
Sun Nov 25 21:55:12 IST 2012	Protocol: A New Phase Began: Exchange Phase
Sun Nov 25 21:55:12 IST 2012	Protocol: Exchange phase, Round: 7
Sun Nov 25 21:55:12 IST 2012	In begin exch.phase, get counter offers returned: 0
Sun Nov 25 21:55:52 IST 2012	A Phase Ended: Exchange Phase
Sun Nov 25 21:55:52 IST 2012	Proposer 337 sent: { chips  }
Sun Nov 25 21:55:52 IST 2012	Protocol: A New Phase Began: Movement Phase
Sun Nov 25 21:55:52 IST 2012	Protocol: Movement phase, Round: 7
Sun Nov 25 21:55:52 IST 2012	Player 310 moved to (R:3,C:3)
Sun Nov 25 21:56:12 IST 2012	A Phase Ended: Movement Phase
Sun Nov 25 21:56:12 IST 2012	Protocol: A New Phase Began: Feedback Phase
Sun Nov 25 21:56:12 IST 2012	Protocol: Feedback phase, Round: 7
Sun Nov 25 21:56:12 IST 2012	Number of consecutive no movements for player 337 is 2
Sun Nov 25 21:56:12 IST 2012	Number of consecutive no movements for player 310 is 0
Sun Nov 25 21:56:17 IST 2012	A Phase Ended: Feedback Phase
Sun Nov 25 21:56:17 IST 2012	Protocol: A New Phase Began: Communication Phase
Sun Nov 25 21:56:17 IST 2012	Protocol: Communication phase, Round: 8
Sun Nov 25 21:57:17 IST 2012	Received communication message 
Sun Nov 25 21:57:17 IST 2012	From player: 337
Sun Nov 25 21:57:17 IST 2012	To player: 310
Sun Nov 25 21:57:17 IST 2012	Message type: basicproposal
Sun Nov 25 21:57:17 IST 2012	Chips to send by proposer: { chips  'CTYellow':1 }
Sun Nov 25 21:57:17 IST 2012	Chips to send by responder: { chips  'grey78':1 }
Sun Nov 25 21:57:31 IST 2012	Received communication message 
Sun Nov 25 21:57:31 IST 2012	From player: 310
Sun Nov 25 21:57:31 IST 2012	To player: 337
Sun Nov 25 21:57:31 IST 2012	Message type: basicproposaldiscussion
Sun Nov 25 21:57:31 IST 2012	Player 310 accepted offer
Sun Nov 25 21:57:31 IST 2012	Prop accepted, set counter offers count to: 0
Sun Nov 25 21:57:31 IST 2012	Prop accepted, get counter offers returned: 0
Sun Nov 25 21:57:31 IST 2012	A Phase Ended: Communication Phase
Sun Nov 25 21:57:31 IST 2012	Protocol: A New Phase Began: Exchange Phase
Sun Nov 25 21:57:31 IST 2012	Protocol: Exchange phase, Round: 8
Sun Nov 25 21:57:31 IST 2012	In begin exch.phase, get counter offers returned: 0
Sun Nov 25 21:57:48 IST 2012	A Phase Ended: Exchange Phase
Sun Nov 25 21:57:48 IST 2012	Proposer 337 sent: { chips  'CTRed':0 'CTPurple':0 'CTGreen':0 'grey78':0 'CTYellow':1 }
Sun Nov 25 21:57:48 IST 2012	Responder 310 sent: { chips  }
Sun Nov 25 21:57:48 IST 2012	Protocol: A New Phase Began: Movement Phase
Sun Nov 25 21:57:48 IST 2012	Protocol: Movement phase, Round: 8
Sun Nov 25 21:57:48 IST 2012	Player 310 moved to (R:2,C:3)
Sun Nov 25 21:57:48 IST 2012	Player 337 moved to (R:4,C:1)
Sun Nov 25 21:58:08 IST 2012	A Phase Ended: Movement Phase
Sun Nov 25 21:58:08 IST 2012	Swaping roles:
Sun Nov 25 21:58:08 IST 2012	Proposer is: 310
Sun Nov 25 21:58:08 IST 2012	Responder is: 337
Sun Nov 25 21:58:08 IST 2012	Protocol: A New Phase Began: Feedback Phase
Sun Nov 25 21:58:08 IST 2012	Protocol: Feedback phase, Round: 8
Sun Nov 25 21:58:08 IST 2012	Number of consecutive no movements for player 337 is 0
Sun Nov 25 21:58:08 IST 2012	Number of consecutive no movements for player 310 is 0
Sun Nov 25 21:58:13 IST 2012	A Phase Ended: Feedback Phase
Sun Nov 25 21:58:13 IST 2012	Protocol: A New Phase Began: Communication Phase
Sun Nov 25 21:58:13 IST 2012	Protocol: Communication phase, Round: 9
Sun Nov 25 21:58:32 IST 2012	Received communication message 
Sun Nov 25 21:58:32 IST 2012	From player: 310
Sun Nov 25 21:58:32 IST 2012	To player: 337
Sun Nov 25 21:58:32 IST 2012	Message type: basicproposal
Sun Nov 25 21:58:32 IST 2012	Chips to send by proposer: { chips  'CTRed':0 'CTPurple':0 'CTGreen':0 'grey78':1 'CTYellow':0 }
Sun Nov 25 21:58:32 IST 2012	Chips to send by responder: { chips  'CTRed':0 'CTPurple':0 'CTGreen':4 'grey78':0 'CTYellow':0 }
Sun Nov 25 21:58:57 IST 2012	Received communication message 
Sun Nov 25 21:58:57 IST 2012	From player: 337
Sun Nov 25 21:58:57 IST 2012	To player: 310
Sun Nov 25 21:58:57 IST 2012	Message type: basicproposaldiscussion
Sun Nov 25 21:58:57 IST 2012	Player 337 rejected offer
Sun Nov 25 21:58:57 IST 2012	Swaping roles:
Sun Nov 25 21:58:57 IST 2012	Proposer is: 337
Sun Nov 25 21:58:57 IST 2012	Responder is: 310
Sun Nov 25 21:58:57 IST 2012	Prop rejected, set counter offers count to: 1
Sun Nov 25 21:58:57 IST 2012	Prop rejected, get counter offers returned: 1
Sun Nov 25 21:59:01 IST 2012	Slept 4 seconds
Sun Nov 25 21:59:01 IST 2012	Sent role changed msgs
Sun Nov 25 22:00:01 IST 2012	Received communication message 
Sun Nov 25 22:00:01 IST 2012	From player: 337
Sun Nov 25 22:00:01 IST 2012	To player: 310
Sun Nov 25 22:00:01 IST 2012	Message type: basicproposal
Sun Nov 25 22:00:01 IST 2012	Chips to send by proposer: { chips  'CTRed':0 'CTPurple':0 'CTGreen':1 'grey78':0 'CTYellow':0 }
Sun Nov 25 22:00:01 IST 2012	Chips to send by responder: { chips  'CTRed':0 'CTPurple':0 'CTGreen':0 'grey78':1 'CTYellow':0 }
Sun Nov 25 22:00:11 IST 2012	Received communication message 
Sun Nov 25 22:00:11 IST 2012	From player: 310
Sun Nov 25 22:00:11 IST 2012	To player: 337
Sun Nov 25 22:00:11 IST 2012	Message type: basicproposaldiscussion
Sun Nov 25 22:00:11 IST 2012	Player 310 accepted offer
Sun Nov 25 22:00:11 IST 2012	Prop accepted, set counter offers count to: 0
Sun Nov 25 22:00:11 IST 2012	Prop accepted, get counter offers returned: 0
Sun Nov 25 22:00:11 IST 2012	A Phase Ended: Communication Phase
Sun Nov 25 22:00:11 IST 2012	Protocol: A New Phase Began: Exchange Phase
Sun Nov 25 22:00:11 IST 2012	Protocol: Exchange phase, Round: 9
Sun Nov 25 22:00:11 IST 2012	In begin exch.phase, get counter offers returned: 0
Sun Nov 25 22:00:29 IST 2012	A Phase Ended: Exchange Phase
Sun Nov 25 22:00:29 IST 2012	Proposer 337 sent: { chips  'CTRed':0 'CTPurple':0 'CTGreen':1 'grey78':0 'CTYellow':0 }
Sun Nov 25 22:00:29 IST 2012	Responder 310 sent: { chips  }
Sun Nov 25 22:00:29 IST 2012	Protocol: A New Phase Began: Movement Phase
Sun Nov 25 22:00:29 IST 2012	Protocol: Movement phase, Round: 9
Sun Nov 25 22:00:29 IST 2012	Player 310 moved to (R:1,C:3)
Sun Nov 25 22:00:48 IST 2012	A Phase Ended: Movement Phase
Sun Nov 25 22:00:48 IST 2012	Protocol: A New Phase Began: Feedback Phase
Sun Nov 25 22:00:48 IST 2012	Protocol: Feedback phase, Round: 9
Sun Nov 25 22:00:48 IST 2012	Number of consecutive no movements for player 337 is 1
Sun Nov 25 22:00:48 IST 2012	Number of consecutive no movements for player 310 is 0
Sun Nov 25 22:00:53 IST 2012	A Phase Ended: Feedback Phase
Sun Nov 25 22:00:53 IST 2012	Protocol: A New Phase Began: Communication Phase
Sun Nov 25 22:00:53 IST 2012	Protocol: Communication phase, Round: 10
Sun Nov 25 22:01:53 IST 2012	Received communication message 
Sun Nov 25 22:01:53 IST 2012	From player: 337
Sun Nov 25 22:01:53 IST 2012	To player: 310
Sun Nov 25 22:01:53 IST 2012	Message type: basicproposal
Sun Nov 25 22:01:53 IST 2012	Chips to send by proposer: { chips  'CTYellow':1 }
Sun Nov 25 22:01:53 IST 2012	Chips to send by responder: { chips  'grey78':1 }
Sun Nov 25 22:01:59 IST 2012	Received communication message 
Sun Nov 25 22:01:59 IST 2012	From player: 310
Sun Nov 25 22:01:59 IST 2012	To player: 337
Sun Nov 25 22:01:59 IST 2012	Message type: basicproposaldiscussion
Sun Nov 25 22:01:59 IST 2012	Player 310 rejected offer
Sun Nov 25 22:01:59 IST 2012	Swaping roles:
Sun Nov 25 22:01:59 IST 2012	Proposer is: 310
Sun Nov 25 22:01:59 IST 2012	Responder is: 337
Sun Nov 25 22:01:59 IST 2012	Prop rejected, set counter offers count to: 1
Sun Nov 25 22:01:59 IST 2012	Prop rejected, get counter offers returned: 1
Sun Nov 25 22:02:03 IST 2012	Slept 4 seconds
Sun Nov 25 22:02:03 IST 2012	Sent role changed msgs
Sun Nov 25 22:02:21 IST 2012	Received communication message 
Sun Nov 25 22:02:21 IST 2012	From player: 310
Sun Nov 25 22:02:21 IST 2012	To player: 337
Sun Nov 25 22:02:21 IST 2012	Message type: basicproposal
Sun Nov 25 22:02:21 IST 2012	Chips to send by proposer: { chips  'CTRed':0 'CTPurple':0 'CTGreen':0 'grey78':1 'CTYellow':0 }
Sun Nov 25 22:02:21 IST 2012	Chips to send by responder: { chips  'CTRed':0 'CTPurple':0 'CTGreen':7 'grey78':0 'CTYellow':0 }
Sun Nov 25 22:02:42 IST 2012	Received communication message 
Sun Nov 25 22:02:42 IST 2012	From player: 337
Sun Nov 25 22:02:42 IST 2012	To player: 310
Sun Nov 25 22:02:42 IST 2012	Message type: basicproposaldiscussion
Sun Nov 25 22:02:42 IST 2012	Player 337 rejected offer
Sun Nov 25 22:02:42 IST 2012	Set counter offers count to: 0
Sun Nov 25 22:02:42 IST 2012	A Phase Ended: Communication Phase
Sun Nov 25 22:02:42 IST 2012	Protocol: A New Phase Began: Exchange Phase
Sun Nov 25 22:02:42 IST 2012	Protocol: Exchange phase, Round: 10
Sun Nov 25 22:02:42 IST 2012	In begin exch.phase, get counter offers returned: 0
Sun Nov 25 22:03:22 IST 2012	A Phase Ended: Exchange Phase
Sun Nov 25 22:03:22 IST 2012	Responder 337 sent: { chips  }
Sun Nov 25 22:03:22 IST 2012	Protocol: A New Phase Began: Movement Phase
Sun Nov 25 22:03:22 IST 2012	Protocol: Movement phase, Round: 10
Sun Nov 25 22:03:22 IST 2012	Player 310 moved to (R:0,C:3)
Sun Nov 25 22:03:43 IST 2012	A Phase Ended: Movement Phase
Sun Nov 25 22:03:43 IST 2012	Protocol: A New Phase Began: Feedback Phase
Sun Nov 25 22:03:43 IST 2012	Protocol: Feedback phase, Round: 10
Sun Nov 25 22:03:43 IST 2012	Number of consecutive no movements for player 337 is 2
Sun Nov 25 22:03:43 IST 2012	Number of consecutive no movements for player 310 is 0
Sun Nov 25 22:03:48 IST 2012	A Phase Ended: Feedback Phase
Sun Nov 25 22:03:48 IST 2012	Protocol: A New Phase Began: Communication Phase
Sun Nov 25 22:03:48 IST 2012	Protocol: Communication phase, Round: 11
Sun Nov 25 22:04:01 IST 2012	Received communication message 
Sun Nov 25 22:04:01 IST 2012	From player: 310
Sun Nov 25 22:04:01 IST 2012	To player: 337
Sun Nov 25 22:04:01 IST 2012	Message type: basicproposal
Sun Nov 25 22:04:01 IST 2012	Chips to send by proposer: { chips  'CTRed':0 'CTPurple':0 'CTGreen':0 'grey78':1 'CTYellow':0 }
Sun Nov 25 22:04:01 IST 2012	Chips to send by responder: { chips  'CTRed':0 'CTPurple':0 'CTGreen':6 'grey78':0 'CTYellow':0 }
Sun Nov 25 22:04:15 IST 2012	Received communication message 
Sun Nov 25 22:04:15 IST 2012	From player: 337
Sun Nov 25 22:04:15 IST 2012	To player: 310
Sun Nov 25 22:04:15 IST 2012	Message type: basicproposaldiscussion
Sun Nov 25 22:04:15 IST 2012	Player 337 rejected offer
Sun Nov 25 22:04:15 IST 2012	Swaping roles:
Sun Nov 25 22:04:15 IST 2012	Proposer is: 337
Sun Nov 25 22:04:15 IST 2012	Responder is: 310
Sun Nov 25 22:04:15 IST 2012	Prop rejected, set counter offers count to: 1
Sun Nov 25 22:04:15 IST 2012	Prop rejected, get counter offers returned: 1
Sun Nov 25 22:04:19 IST 2012	Slept 4 seconds
Sun Nov 25 22:04:19 IST 2012	Sent role changed msgs
Sun Nov 25 22:05:04 IST 2012	Received communication message 
Sun Nov 25 22:05:04 IST 2012	From player: 337
Sun Nov 25 22:05:04 IST 2012	To player: 310
Sun Nov 25 22:05:04 IST 2012	Message type: basicproposal
Sun Nov 25 22:05:04 IST 2012	Chips to send by proposer: { chips  'CTRed':0 'CTPurple':0 'CTGreen':0 'grey78':0 'CTYellow':1 }
Sun Nov 25 22:05:04 IST 2012	Chips to send by responder: { chips  'CTRed':0 'CTPurple':0 'CTGreen':0 'grey78':1 'CTYellow':0 }
Sun Nov 25 22:05:15 IST 2012	Received communication message 
Sun Nov 25 22:05:15 IST 2012	From player: 310
Sun Nov 25 22:05:15 IST 2012	To player: 337
Sun Nov 25 22:05:15 IST 2012	Message type: basicproposaldiscussion
Sun Nov 25 22:05:15 IST 2012	Player 310 rejected offer
Sun Nov 25 22:05:15 IST 2012	Set counter offers count to: 0
Sun Nov 25 22:05:15 IST 2012	A Phase Ended: Communication Phase
Sun Nov 25 22:05:15 IST 2012	Protocol: A New Phase Began: Exchange Phase
Sun Nov 25 22:05:15 IST 2012	Protocol: Exchange phase, Round: 11
Sun Nov 25 22:05:15 IST 2012	In begin exch.phase, get counter offers returned: 0
Sun Nov 25 22:05:55 IST 2012	A Phase Ended: Exchange Phase
Sun Nov 25 22:05:55 IST 2012	Proposer 337 sent: { chips  }
Sun Nov 25 22:05:55 IST 2012	Protocol: A New Phase Began: Movement Phase
Sun Nov 25 22:05:55 IST 2012	Protocol: Movement phase, Round: 11
Sun Nov 25 22:05:55 IST 2012	Player 310 moved to (R:0,C:2)
Sun Nov 25 22:05:59 IST 2012	Slept 4 seconds
Sun Nov 25 22:05:59 IST 2012	Player 310 got to goal, advance the other and end game
Sun Nov 25 22:06:00 IST 2012	Player: 337 ,role: Proposer score is: 45
Sun Nov 25 22:06:00 IST 2012	Player: 310 ,role: Responder score is: 200
