filename,round,propID,respID,IsPropCustomer,chipsToSend,chipsToReceive,accept,propCurrentScore,respCurrentScore,actualSent,ActualRcvd,propResultingScore,respResultingScore,#ofCustomerMovesInRound,customerRowPositionAfterMovePhase,customerColPositionAfterMovePhase,Player100ChipsAfterMovePhase,Player100ScoreAfterMovePhase,Player200ChipsAfterMovePhase,Player200ScoreAfterMovePhase,Player300ChipsAfterMovePhase,Player300ScoreAfterMovePhase,generosityLevel,ClientReachedGoal
3playersLog_1387803165234.csv,1,300,100,false,{ chips  'CTRed':6 'CTPurple':2 },{ chips  },TRUE,200,120,{ chips  'CTRed':6 'CTPurple':2 'CTGreen':0 'grey78':0 'CTYellow':0 },{ chips  'CTRed':0 'CTPurple':0 'CTGreen':0 'grey78':0 'CTYellow':0 },160,160,2,(R:4,C:3),{ chips  'CTRed':6 'CTGreen':0 'CTPurple':2 'grey78':10 'CTYellow':12 },150,{ chips  'CTRed':33 'CTGreen':0 'CTPurple':7 'grey78':0 'CTYellow':0 },200,{ chips  'CTRed':27 'CTGreen':0 'CTPurple':5 'grey78':0 'CTYellow':0 },160
3playersLog_1387803165234.csv,2,100,200,true,{ chips  'CTPurple':2 },{ chips  },TRUE,150,200,{ chips  'CTRed':0 'CTPurple':2 'CTGreen':0 'grey78':0 'CTYellow':0 },{ chips  'CTRed':0 'CTPurple':0 'CTGreen':0 'grey78':0 'CTYellow':0 },140,210,2,(R:3,C:2),{ chips  'CTRed':6 'CTGreen':0 'CTPurple':0 'grey78':8 'CTYellow':12 },130,{ chips  'CTRed':33 'CTGreen':0 'CTPurple':9 'grey78':0 'CTYellow':0 },210,{ chips  'CTRed':27 'CTGreen':0 'CTPurple':5 'grey78':0 'CTYellow':0 },160
3playersLog_1387803165234.csv,3,300,100,false,{ chips  'CTRed':3 },{ chips  'CTYellow':2 },TRUE,160,130,{ chips  'CTRed':3 'CTPurple':0 'CTGreen':0 'grey78':0 'CTYellow':0 },{ chips  'CTRed':0 'CTPurple':0 'CTGreen':0 'grey78':0 'CTYellow':2 },155,135,1,(R:4,C:2),{ chips  'CTRed':9 'CTGreen':0 'CTPurple':0 'grey78':7 'CTYellow':10 },130,{ chips  'CTRed':33 'CTGreen':0 'CTPurple':9 'grey78':0 'CTYellow':0 },210,{ chips  'CTRed':24 'CTGreen':0 'CTPurple':5 'grey78':0 'CTYellow':2 },155
3playersLog_1387803165234.csv,4,100,200,true,{ chips  },{ chips  'CTRed':12 'CTPurple':9 },FALSE,130,210,,,,,1,(R:3,C:2),{ chips  'CTRed':9 'CTGreen':0 'CTPurple':0 'grey78':6 'CTYellow':10 },125,{ chips  'CTRed':33 'CTGreen':0 'CTPurple':9 'grey78':0 'CTYellow':0 },210,{ chips  'CTRed':24 'CTGreen':0 'CTPurple':5 'grey78':0 'CTYellow':2 },155
3playersLog_1387803165234.csv,5,300,100,false,{ chips  'CTRed':10 },{ chips  'CTYellow':10 },IGNORED,155,125,,,,,1,(R:3,C:1),{ chips  'CTRed':9 'CTGreen':0 'CTPurple':0 'grey78':5 'CTYellow':10 },120,{ chips  'CTRed':33 'CTGreen':0 'CTPurple':9 'grey78':0 'CTYellow':0 },210,{ chips  'CTRed':24 'CTGreen':0 'CTPurple':5 'grey78':0 'CTYellow':2 },155
3playersLog_1387803165234.csv,6,100,300,true,{ chips  },{ chips  'CTRed':10 'CTPurple':4 },FALSE,120,155,,,,,1,(R:2,C:1),{ chips  'CTRed':9 'CTGreen':0 'CTPurple':0 'grey78':4 'CTYellow':10 },115,{ chips  'CTRed':33 'CTGreen':0 'CTPurple':9 'grey78':0 'CTYellow':0 },210,{ chips  'CTRed':24 'CTGreen':0 'CTPurple':5 'grey78':0 'CTYellow':2 },155
3playersLog_1387803165234.csv,7,300,100,false,{ chips  'CTRed':9 },{ chips  'CTYellow':9 },IGNORED,155,115,,,,,0,(R:2,C:1),{ chips  'CTRed':9 'CTGreen':0 'CTPurple':0 'grey78':4 'CTYellow':10 },115,{ chips  'CTRed':33 'CTGreen':0 'CTPurple':9 'grey78':0 'CTYellow':0 },210,{ chips  'CTRed':24 'CTGreen':0 'CTPurple':5 'grey78':0 'CTYellow':2 },155
3playersLog_1387803165234.csv,8,100,200,true,{ chips  'CTYellow':7 },{ chips  'CTPurple':9 },TRUE,115,210,{ chips  'CTRed':0 'CTPurple':0 'CTGreen':0 'grey78':0 'CTYellow':7 },{ chips  'CTRed':0 'CTPurple':9 'CTGreen':0 'grey78':0 'CTYellow':0 },125,200,0,(R:2,C:1),{ chips  'CTRed':9 'CTGreen':0 'CTPurple':9 'grey78':4 'CTYellow':3 },125,{ chips  'CTRed':33 'CTGreen':0 'CTPurple':0 'grey78':0 'CTYellow':7 },200,{ chips  'CTRed':24 'CTGreen':0 'CTPurple':5 'grey78':0 'CTYellow':2 },155
3playersLog_1387803165234.csv,,,,,,,,,,,,,,,,,,,,,,,,false
