filename,round,propID,respID,IsPropCustomer,chipsToSend,chipsToReceive,accept,propCurrentScore,respCurrentScore,actualSent,ActualRcvd,propResultingScore,respResultingScore,#ofCustomerMovesInRound,customerRowPositionAfterMovePhase,customerColPositionAfterMovePhase,Player100ChipsAfterMovePhase,Player100ScoreAfterMovePhase,Player200ChipsAfterMovePhase,Player200ScoreAfterMovePhase,Player300ChipsAfterMovePhase,Player300ScoreAfterMovePhase,generosityLevel,ClientReachedGoal
3playersLog_1378204380041.csv,1,530,500,false,{ chips  'CTRed':33 'CTPurple':7 },{ chips  'grey78':11 },TRUE,200,120,{ chips  'CTRed':33 'CTPurple':7 'CTYellow':0 },{ chips  'grey78':11 },55,265,4,(R:3,C:6),{ chips  'CTRed':33 'CTGreen':0 'CTPurple':7 'grey78':1 'CTYellow':8 },245,{ chips  'CTRed':0 'CTGreen':0 'CTPurple':0 'grey78':11 'CTYellow':0 },55,{ chips  'CTRed':33 'CTGreen':0 'CTPurple':7 'grey78':0 'CTYellow':0 },200
3playersLog_1378204380041.csv,2,500,540,true,{ chips  'CTYellow':1 },{ chips  'CTRed':33 },FALSE,245,200,,,,,4,(R:1,C:8),{ chips  'CTRed':33 'CTGreen':0 'CTPurple':7 'grey78':1 'CTYellow':4 },225,{ chips  'CTRed':0 'CTGreen':0 'CTPurple':0 'grey78':11 'CTYellow':0 },55,{ chips  'CTRed':33 'CTGreen':0 'CTPurple':7 'grey78':0 'CTYellow':0 },200
3playersLog_1378204380041.csv,3,530,500,false,{ chips  },{ chips  },FALSE,55,225,,,,,0,(R:1,C:8),{ chips  'CTRed':33 'CTGreen':0 'CTPurple':7 'grey78':1 'CTYellow':4 },225,{ chips  'CTRed':0 'CTGreen':0 'CTPurple':0 'grey78':11 'CTYellow':0 },55,{ chips  'CTRed':33 'CTGreen':0 'CTPurple':7 'grey78':0 'CTYellow':0 },200
3playersLog_1378204380041.csv,3,540,500,false,{ chips  'CTRed':2 },{ chips  'grey78':1 },FALSE,200,225,,,,,0,(R:1,C:8),{ chips  'CTRed':33 'CTGreen':0 'CTPurple':7 'grey78':1 'CTYellow':4 },225,{ chips  'CTRed':0 'CTGreen':0 'CTPurple':0 'grey78':11 'CTYellow':0 },55,{ chips  'CTRed':33 'CTGreen':0 'CTPurple':7 'grey78':0 'CTYellow':0 },200
3playersLog_1378204380041.csv,4,500,530,true,{ chips  'CTRed':6 },{ chips  'grey78':1 },IGNORED,225,55,,,,,1,(R:1,C:7),{ chips  'CTRed':33 'CTGreen':0 'CTPurple':6 'grey78':1 'CTYellow':4 },220,{ chips  'CTRed':0 'CTGreen':0 'CTPurple':0 'grey78':11 'CTYellow':0 },55,{ chips  'CTRed':33 'CTGreen':0 'CTPurple':7 'grey78':0 'CTYellow':0 },200
3playersLog_1378204380041.csv,5,530,500,false,{ chips  },{ chips  },FALSE,55,220,,,,,0,(R:1,C:7),{ chips  'CTRed':38 'CTGreen':0 'CTPurple':6 'grey78':0 'CTYellow':1 },225,{ chips  'CTRed':0 'CTGreen':0 'CTPurple':0 'grey78':11 'CTYellow':0 },55,{ chips  'CTRed':28 'CTGreen':0 'CTPurple':7 'grey78':1 'CTYellow':3 },195
3playersLog_1378204380041.csv,5,540,500,false,{ chips  'CTRed':5 },{ chips  'grey78':1 'CTYellow':3 },TRUE,200,220,{ chips  'CTRed':5 'CTPurple':0 'CTGreen':0 'grey78':0 'CTYellow':0 },{ chips  'CTRed':0 'CTPurple':0 'CTGreen':0 'grey78':1 'CTYellow':3 },195,225,0,(R:1,C:7),{ chips  'CTRed':38 'CTGreen':0 'CTPurple':6 'grey78':0 'CTYellow':1 },225,{ chips  'CTRed':0 'CTGreen':0 'CTPurple':0 'grey78':11 'CTYellow':0 },55,{ chips  'CTRed':28 'CTGreen':0 'CTPurple':7 'grey78':1 'CTYellow':3 },195
3playersLog_1378204380041.csv,6,500,530,true,{ chips  'CTRed':10 },{ chips  'grey78':2 },IGNORED,225,55,,,,,1,(R:1,C:6),{ chips  'CTRed':38 'CTGreen':0 'CTPurple':5 'grey78':0 'CTYellow':1 },220,{ chips  'CTRed':0 'CTGreen':0 'CTPurple':0 'grey78':11 'CTYellow':0 },55,{ chips  'CTRed':28 'CTGreen':0 'CTPurple':7 'grey78':1 'CTYellow':3 },195
3playersLog_1378204380041.csv,7,530,500,false,{ chips  },{ chips  },TRUE,55,220,{ chips  'grey78':0 },{ chips  'CTRed':0 'CTPurple':0 },55,220,0,(R:1,C:6),{ chips  'CTRed':38 'CTGreen':0 'CTPurple':5 'grey78':0 'CTYellow':1 },220,{ chips  'CTRed':0 'CTGreen':0 'CTPurple':0 'grey78':11 'CTYellow':0 },55,{ chips  'CTRed':28 'CTGreen':0 'CTPurple':7 'grey78':1 'CTYellow':3 },195
3playersLog_1378204380041.csv,8,500,540,true,{ chips  'CTRed':38 },{ chips  'CTYellow':2 },TRUE,220,55,{ chips  'CTRed':38 'CTPurple':0 'CTGreen':0 'grey78':0 'CTYellow':0 },{ chips  'CTRed':0 'CTPurple':0 'CTGreen':0 'grey78':0 'CTYellow':2 },40,375,3,(R:0,C:8),{ chips  'CTRed':0 'CTGreen':0 'CTPurple':4 'grey78':0 'CTYellow':1 },175,{ chips  'CTRed':0 'CTGreen':0 'CTPurple':0 'grey78':11 'CTYellow':0 },205,{ chips  'CTRed':66 'CTGreen':0 'CTPurple':7 'grey78':1 'CTYellow':1 },375
3playersLog_1378204380041.csv,,,,,,,,,,,,,,,,,,,,,,,,true
