Tue Jan 21 13:49:39 IST 2014	This is the CT debug logger; svn version 638; sep 27 09
Tue Jan 21 13:49:39 IST 2014	Tue Jan 21 13:49:39 IST 2014
Tue Jan 21 13:49:39 IST 2014	ID Number: 69548
Tue Jan 21 13:49:39 IST 2014	Creating board
Tue Jan 21 13:49:39 IST 2014	<colors>
Tue Jan 21 13:49:39 IST 2014	{ GamePalette  'CTPurple':0 'CTRed':1 'CTGreen':2 'grey78':3 'CTYellow':4 }
Tue Jan 21 13:49:39 IST 2014	<rows>
Tue Jan 21 13:49:39 IST 2014	6
Tue Jan 21 13:49:39 IST 2014	<columns>
Tue Jan 21 13:49:39 IST 2014	9
Tue Jan 21 13:49:39 IST 2014	<squaresColors>
Tue Jan 21 13:49:39 IST 2014	grey78 CTGreen CTGreen CTGreen CTGreen CTGreen CTGreen CTGreen CTYellow 
Tue Jan 21 13:49:39 IST 2014	grey78 CTPurple CTPurple CTPurple CTPurple CTPurple CTPurple CTPurple CTYellow 
Tue Jan 21 13:49:39 IST 2014	grey78 grey78 CTGreen CTGreen CTGreen CTGreen CTGreen CTYellow CTYellow 
Tue Jan 21 13:49:39 IST 2014	CTGreen grey78 grey78 CTPurple CTPurple CTPurple CTYellow CTYellow CTGreen 
Tue Jan 21 13:49:39 IST 2014	CTGreen CTGreen grey78 grey78 CTGreen CTYellow CTYellow CTGreen CTGreen 
Tue Jan 21 13:49:39 IST 2014	CTGreen CTGreen CTGreen grey78 CTGreen CTYellow CTGreen CTGreen CTGreen 
Tue Jan 21 13:49:39 IST 2014	</squareColors>
Tue Jan 21 13:49:39 IST 2014	<goalPosition>
Tue Jan 21 13:49:39 IST 2014	Goal position: (R:0,C:0)
Tue Jan 21 13:49:39 IST 2014	<goalPosition>
Tue Jan 21 13:49:39 IST 2014	Goal position: (R:0,C:0)
Tue Jan 21 13:49:39 IST 2014	<firstPlayerPossibleGoal1>
Tue Jan 21 13:49:39 IST 2014	0.5
Tue Jan 21 13:49:39 IST 2014	0
Tue Jan 21 13:49:39 IST 2014	0
Tue Jan 21 13:49:39 IST 2014	</firstPlayerPossibleGoal1>
Tue Jan 21 13:49:39 IST 2014	<firstPlayerPossibleGoal2>
Tue Jan 21 13:49:39 IST 2014	0.5
Tue Jan 21 13:49:39 IST 2014	0
Tue Jan 21 13:49:39 IST 2014	8
Tue Jan 21 13:49:39 IST 2014	</firstPlayerPossibleGoal2>
Tue Jan 21 13:49:39 IST 2014	<numberOfPlayers>
Tue Jan 21 13:49:39 IST 2014	3
Tue Jan 21 13:49:39 IST 2014	<firstPlayerChips>
Tue Jan 21 13:49:39 IST 2014	Setting chips for player: 500 id:0
Tue Jan 21 13:49:39 IST 2014	{ chips  'CTRed':0 'CTGreen':0 'CTPurple':0 'grey78':12 'CTYellow':12 }
Tue Jan 21 13:49:39 IST 2014	Player position: (R:5,C:4)
Tue Jan 21 13:49:39 IST 2014	Setting chips for player: 560 id:1
Tue Jan 21 13:49:39 IST 2014	{ chips  'CTRed':33 'CTGreen':0 'CTPurple':7 'grey78':0 'CTYellow':0 }
Tue Jan 21 13:49:39 IST 2014	Player position: (R:0,C:8)
Tue Jan 21 13:49:39 IST 2014	Setting chips for player: 540 id:2
Tue Jan 21 13:49:39 IST 2014	{ chips  'CTRed':33 'CTGreen':0 'CTPurple':7 'grey78':0 'CTYellow':0 }
Tue Jan 21 13:49:39 IST 2014	Player position: (R:0,C:0)
Tue Jan 21 13:49:39 IST 2014	Protocol: A New Phase Began: Strategy Prep Phase. loop is true
Tue Jan 21 13:49:39 IST 2014	---------- Beginning Strategy Prep Phase at round 0 ----------
Tue Jan 21 13:50:39 IST 2014	A Phase Ended: Strategy Prep Phase
Tue Jan 21 13:50:39 IST 2014	Protocol: A New Phase Began: Communication Phase. loop is true
Tue Jan 21 13:50:39 IST 2014	---------- Beginning Communication Phase at round 1 ----------
Tue Jan 21 13:50:39 IST 2014	Received communication message 
Tue Jan 21 13:50:39 IST 2014	From player: 560
Tue Jan 21 13:50:39 IST 2014	To player: 500
Tue Jan 21 13:50:39 IST 2014	Chips to send by proposer: { chips  'CTRed':14 }
Tue Jan 21 13:50:39 IST 2014	Chips to send by responder: { chips  'grey78':0 }
Tue Jan 21 13:53:29 IST 2014	Received communication message 
Tue Jan 21 13:53:29 IST 2014	From player: 540
Tue Jan 21 13:53:29 IST 2014	To player: 500
Tue Jan 21 13:53:29 IST 2014	Chips to send by proposer: { chips  'CTRed':3 'CTPurple':2 'CTGreen':0 'grey78':0 'CTYellow':0 }
Tue Jan 21 13:53:29 IST 2014	Chips to send by responder: { chips  'CTRed':0 'CTPurple':0 'CTGreen':0 'grey78':0 'CTYellow':5 }
Tue Jan 21 13:53:38 IST 2014	Received communication message 
Tue Jan 21 13:53:38 IST 2014	Proposer 0 accepted? true
Tue Jan 21 13:53:38 IST 2014	A Phase Ended: Communication Phase
Tue Jan 21 13:53:38 IST 2014	Protocol: A New Phase Began: Movement Phase. loop is true
Tue Jan 21 13:53:38 IST 2014	---------- Beginning Movement Phase at round 1 ----------
Tue Jan 21 13:53:38 IST 2014	remove strategy phase. 
Tue Jan 21 13:54:23 IST 2014	A Phase Ended: Movement Phase
Tue Jan 21 13:54:23 IST 2014	Protocol: A New Phase Began: Feedback Phase. loop is true
Tue Jan 21 13:54:23 IST 2014	---------- Beginning Feedback Phase at round 1 ----------
Tue Jan 21 13:54:23 IST 2014	Number of consecutive no movements for player 500 is 0
Tue Jan 21 13:54:23 IST 2014	TDPlayerPosition is(R:1,C:0)goal location 0(R:0,C:0)goal location 1(R:0,C:8)
Tue Jan 21 13:54:23 IST 2014	ended is false
Tue Jan 21 13:54:28 IST 2014	A Phase Ended: Feedback Phase
Tue Jan 21 13:54:28 IST 2014	 numberofMoves in round 1 is 8
Tue Jan 21 13:54:28 IST 2014	Swaping roles:
Tue Jan 21 13:54:28 IST 2014	Protocol: A New Phase Began: Communication Phase. loop is true
Tue Jan 21 13:54:28 IST 2014	---------- Beginning Communication Phase at round 2 ----------
Tue Jan 21 13:56:56 IST 2014	Received communication message 
Tue Jan 21 13:56:56 IST 2014	From player: 500
Tue Jan 21 13:56:56 IST 2014	To player: 540
Tue Jan 21 13:56:56 IST 2014	Chips to send by proposer: { chips  'CTRed':6 'CTPurple':0 'CTGreen':0 'grey78':0 'CTYellow':0 }
Tue Jan 21 13:56:56 IST 2014	Chips to send by responder: { chips  'CTRed':0 'CTPurple':7 'CTGreen':0 'grey78':0 'CTYellow':0 }
Tue Jan 21 13:57:28 IST 2014	Received communication message 
Tue Jan 21 13:57:28 IST 2014	Proposer 1 accepted? true
Tue Jan 21 13:57:28 IST 2014	A Phase Ended: Communication Phase
Tue Jan 21 13:57:28 IST 2014	Protocol: A New Phase Began: Movement Phase. loop is true
Tue Jan 21 13:57:28 IST 2014	---------- Beginning Movement Phase at round 2 ----------
Tue Jan 21 13:58:12 IST 2014	A Phase Ended: Movement Phase
Tue Jan 21 13:58:12 IST 2014	Protocol: A New Phase Began: Feedback Phase. loop is true
Tue Jan 21 13:58:12 IST 2014	---------- Beginning Feedback Phase at round 2 ----------
Tue Jan 21 13:58:12 IST 2014	The TD player reached the goal, end the game
Tue Jan 21 13:58:12 IST 2014	ended is true
Tue Jan 21 13:58:17 IST 2014	A Phase Ended: Feedback Phase
Tue Jan 21 13:58:17 IST 2014	 numberofMoves in round 2 is 1
Tue Jan 21 13:58:17 IST 2014	Loop status: false
Tue Jan 21 13:58:17 IST 2014	Player: 500 ,role: Proposer score is: 300
Tue Jan 21 13:58:17 IST 2014	Player: 500Game Ended
Tue Jan 21 13:58:17 IST 2014	Player: 560 ,role: Responder score is: 130
Tue Jan 21 13:58:17 IST 2014	Player: 560Game Ended
Tue Jan 21 13:58:17 IST 2014	Player: 540 ,role: Responder score is: 345
Tue Jan 21 13:58:17 IST 2014	Player: 540Game Ended
Tue Jan 21 13:58:17 IST 2014	Protocol: A New Phase Began: Communication Phase. loop is false
Tue Jan 21 13:58:17 IST 2014	---------- Beginning Communication Phase at round 2 ----------
