@relation LogsAnalysys_BOTH_DD_offers_PAL_Acceptance_Model-weka.filters.unsupervised.attribute.Remove-R1-2

@attribute playerI_CS numeric
@attribute playerI_RS numeric
@attribute playerJ_CS numeric
@attribute playerJ_RS numeric
@attribute offerGenerosity numeric
@attribute playerINeededchips numeric
@attribute playerIOtherchips numeric
@attribute playerJNeededchips numeric
@attribute playerJOtherchips numeric
@attribute acceptance {FALSE,TRUE}

@data
45,55,45,55,0.5,1,0,1,0,TRUE
45,55,45,55,0.5,1,0,1,0,TRUE
55,180,55,180,0.5,2,0,2,0,FALSE
55,180,55,180,0.5,2,0,2,0,FALSE
55,65,55,65,0.5,1,0,1,0,FALSE
55,65,55,65,0.5,1,0,1,0,FALSE
55,65,55,65,0.5,1,0,1,0,FALSE
55,65,55,65,0.5,1,0,1,0,FALSE
55,180,55,180,0.5,2,0,2,0,FALSE
55,180,55,180,0.5,2,0,2,0,FALSE
45,65,45,65,0.5,2,0,2,0,TRUE
45,65,45,65,0.5,2,0,2,0,TRUE
50,170,70,190,0,2,0,1,2,TRUE
50,170,70,190,0,2,0,1,2,TRUE
45,165,75,195,1,2,0,1,2,TRUE
45,165,75,195,1,2,0,1,2,TRUE
45,55,45,55,0.5,1,0,1,0,TRUE
45,55,45,55,0.5,1,0,1,0,TRUE
55,180,55,180,0.5,2,0,2,0,FALSE
55,180,55,180,0.5,2,0,2,0,FALSE
55,65,55,65,0.5,1,0,1,0,FALSE
55,65,55,65,0.5,1,0,1,0,FALSE
55,65,55,65,0.5,1,0,1,0,FALSE
55,65,55,65,0.5,1,0,1,0,FALSE
55,180,55,180,0.5,2,0,2,0,TRUE
55,180,55,180,0.5,2,0,2,0,TRUE
45,65,45,65,0.5,2,0,2,0,TRUE
45,65,45,65,0.5,2,0,2,0,TRUE
50,55,70,190,0,1,0,1,1,FALSE
50,55,70,190,0,1,0,1,1,FALSE
50,180,70,180,0,2,0,1,0,TRUE
50,180,70,180,0,2,0,1,0,TRUE
45,155,75,205,1,2,0,1,4,TRUE
45,155,75,205,1,2,0,1,4,TRUE
45,65,45,65,0.5,2,0,2,0,TRUE
45,65,45,65,0.5,2,0,2,0,TRUE
65,180,65,180,0.5,1,0,1,0,TRUE
65,180,65,180,0.5,1,0,1,0,TRUE
45,185,45,60,0,3,0,2,0,FALSE
45,185,45,60,0,3,0,2,0,FALSE
45,65,45,65,0.5,2,0,2,0,TRUE
45,65,45,65,0.5,2,0,2,0,TRUE
65,180,65,180,0.5,1,0,1,0,FALSE
65,180,65,180,0.5,1,0,1,0,FALSE
65,190,65,170,0,1,2,1,0,TRUE
65,190,65,170,0,1,2,1,0,TRUE
65,55,180,190,1,1,0,0,3,FALSE
65,55,180,190,1,1,0,0,3,FALSE
65,160,180,200,0,1,0,0,5,TRUE
65,160,180,200,0,1,0,0,5,TRUE
45,65,45,65,0.5,2,0,2,0,TRUE
45,65,45,65,0.5,2,0,2,0,TRUE
65,180,65,180,0.5,1,0,1,0,TRUE
65,180,65,180,0.5,1,0,1,0,TRUE
45,65,45,65,0.5,2,0,2,0,TRUE
45,65,45,65,0.5,2,0,2,0,TRUE
65,180,65,180,0.5,1,0,1,0,TRUE
65,180,65,180,0.5,1,0,1,0,TRUE
45,65,45,65,0.5,2,0,2,0,TRUE
45,65,45,65,0.5,2,0,2,0,TRUE
65,180,65,180,0.5,1,0,1,0,FALSE
65,180,65,180,0.5,1,0,1,0,FALSE
65,185,65,175,0,1,1,1,0,TRUE
65,185,65,175,0,1,1,1,0,TRUE
190,205,55,155,0,0,4,1,0,TRUE
190,205,55,155,0,0,4,1,0,TRUE
45,65,45,65,0.5,2,0,2,0,TRUE
45,65,45,65,0.5,2,0,2,0,TRUE
65,180,65,180,0.5,1,0,1,0,TRUE
65,180,65,180,0.5,1,0,1,0,TRUE
45,55,45,55,0.5,1,0,1,0,TRUE
45,55,45,55,0.5,1,0,1,0,TRUE
55,180,55,180,0.5,2,0,2,0,TRUE
55,180,55,180,0.5,2,0,2,0,TRUE
45,55,45,55,0.5,1,0,1,0,TRUE
45,55,45,55,0.5,1,0,1,0,TRUE
55,180,55,180,0.5,2,0,2,0,TRUE
55,180,55,180,0.5,2,0,2,0,TRUE
45,170,190,190,0.5,2,0,0,2,FALSE
45,170,190,190,0.5,2,0,0,2,FALSE
45,160,190,200,0,2,0,0,4,TRUE
45,160,190,200,0,2,0,0,4,TRUE
45,70,45,50,0,2,0,1,0,FALSE
45,70,45,50,0,2,0,1,0,FALSE
45,65,45,65,0.5,2,0,2,0,TRUE
45,65,45,65,0.5,2,0,2,0,TRUE
65,180,65,180,0.5,1,0,1,0,FALSE
65,180,65,180,0.5,1,0,1,0,FALSE
65,210,65,150,0,1,6,1,0,FALSE
65,210,65,150,0,1,6,1,0,FALSE
65,190,65,170,0,1,4,1,2,TRUE
65,190,65,170,0,1,4,1,2,TRUE
45,65,45,65,0.5,2,0,2,0,TRUE
45,65,45,65,0.5,2,0,2,0,TRUE
65,180,65,180,0.5,1,0,1,0,FALSE
65,180,65,180,0.5,1,0,1,0,FALSE
65,190,65,170,0,1,3,1,1,TRUE
65,190,65,170,0,1,3,1,1,TRUE
45,185,45,60,0,3,0,2,0,FALSE
45,185,45,60,0,3,0,2,0,FALSE
45,65,45,65,0.5,2,0,2,0,TRUE
45,65,45,65,0.5,2,0,2,0,TRUE
65,180,65,180,0.5,1,0,1,0,FALSE
65,180,65,180,0.5,1,0,1,0,FALSE
65,195,65,165,0,1,7,1,4,TRUE
65,195,65,165,0,1,7,1,4,TRUE
45,70,45,60,0,2,1,2,0,TRUE
45,70,45,60,0,2,1,2,0,TRUE
70,185,60,175,0.5,1,0,1,0,FALSE
70,185,60,175,0.5,1,0,1,0,FALSE
70,195,60,165,0,1,2,1,0,TRUE
70,195,60,165,0,1,2,1,0,TRUE
70,165,175,195,1,1,0,0,5,TRUE
70,165,175,195,1,1,0,0,5,TRUE
45,65,45,65,0.5,2,0,2,0,TRUE
45,65,45,65,0.5,2,0,2,0,TRUE
65,180,65,180,0.5,1,0,1,0,FALSE
65,180,65,180,0.5,1,0,1,0,FALSE
65,175,65,185,1,1,5,1,6,TRUE
65,175,65,185,1,1,5,1,6,TRUE
45,70,45,50,0,2,0,1,0,FALSE
45,70,45,50,0,2,0,1,0,FALSE
45,65,45,65,0.5,2,0,2,0,FALSE
45,65,45,65,0.5,2,0,2,0,FALSE
45,65,45,65,0.5,2,0,2,0,FALSE
45,65,45,65,0.5,2,0,2,0,FALSE
45,75,45,55,0,2,2,2,0,TRUE
45,75,45,55,0,2,2,2,0,TRUE
75,200,55,160,0,1,2,1,0,TRUE
75,200,55,160,0,1,2,1,0,TRUE
45,60,45,50,0,1,1,1,0,FALSE
45,60,45,50,0,1,1,1,0,FALSE
45,65,45,65,0.5,2,0,2,0,TRUE
45,65,45,65,0.5,2,0,2,0,TRUE
65,180,65,180,0.5,1,0,1,0,FALSE
65,180,65,180,0.5,1,0,1,0,FALSE
65,190,65,170,0,1,2,1,0,TRUE
65,190,65,170,0,1,2,1,0,TRUE
45,65,45,45,0,1,2,1,0,FALSE
45,65,45,45,0,1,2,1,0,FALSE
45,65,45,65,0.5,2,0,2,0,TRUE
45,65,45,65,0.5,2,0,2,0,TRUE
65,180,65,180,0.5,1,0,1,0,FALSE
65,180,65,180,0.5,1,0,1,0,FALSE
65,185,65,175,0,1,3,1,2,TRUE
65,185,65,175,0,1,3,1,2,TRUE
45,195,45,50,0,3,2,2,0,FALSE
45,195,45,50,0,3,2,2,0,FALSE
45,65,45,65,0.5,2,0,2,0,FALSE
45,65,45,65,0.5,2,0,2,0,FALSE
45,65,45,65,0.5,2,0,2,0,FALSE
45,65,45,65,0.5,2,0,2,0,FALSE
45,75,45,55,0,2,2,2,0,TRUE
45,75,45,55,0,2,2,2,0,TRUE
75,200,55,160,0,1,4,1,2,TRUE
75,200,55,160,0,1,4,1,2,TRUE
45,60,45,50,0,1,1,1,0,FALSE
45,60,45,50,0,1,1,1,0,FALSE
45,65,45,65,0.5,2,0,2,0,TRUE
45,65,45,65,0.5,2,0,2,0,TRUE
65,180,65,180,0.5,1,0,1,0,FALSE
65,180,65,180,0.5,1,0,1,0,FALSE
65,195,65,165,0,1,5,1,2,TRUE
65,195,65,165,0,1,5,1,2,TRUE
45,55,45,55,0.5,1,0,1,0,TRUE
45,55,45,55,0.5,1,0,1,0,TRUE
55,180,55,180,0.5,2,0,2,0,TRUE
55,180,55,180,0.5,2,0,2,0,TRUE
45,165,190,195,1,2,0,0,3,FALSE
45,165,190,195,1,2,0,0,3,FALSE
45,155,190,205,0,2,0,0,5,TRUE
45,155,190,205,0,2,0,0,5,TRUE
45,60,45,50,0,1,1,1,0,FALSE
45,60,45,50,0,1,1,1,0,FALSE
45,65,45,65,0.5,2,0,2,0,TRUE
45,65,45,65,0.5,2,0,2,0,TRUE
65,180,65,180,0.5,1,0,1,0,FALSE
65,180,65,180,0.5,1,0,1,0,FALSE
65,195,65,165,0,1,5,1,2,TRUE
65,195,65,165,0,1,5,1,2,TRUE
45,55,45,55,0.5,1,0,1,0,TRUE
45,55,45,55,0.5,1,0,1,0,TRUE
55,180,55,180,0.5,2,0,2,0,FALSE
55,180,55,180,0.5,2,0,2,0,FALSE
55,195,55,165,0,2,5,2,2,TRUE
55,195,55,165,0,2,5,2,2,TRUE
45,185,45,60,0,3,0,2,0,FALSE
45,185,45,60,0,3,0,2,0,FALSE
45,65,45,65,0.5,2,0,2,0,FALSE
45,65,45,65,0.5,2,0,2,0,FALSE
45,65,45,65,0.5,2,0,2,0,FALSE
45,65,45,65,0.5,2,0,2,0,FALSE
45,80,45,50,0,2,3,2,0,FALSE
45,80,45,50,0,2,3,2,0,FALSE
45,75,45,55,0,2,2,2,0,TRUE
45,75,45,55,0,2,2,2,0,TRUE
45,65,45,65,0.5,2,0,2,0,TRUE
45,65,45,65,0.5,2,0,2,0,TRUE
65,180,65,180,0.5,1,0,1,0,FALSE
65,180,65,180,0.5,1,0,1,0,FALSE
65,205,65,155,0,1,5,1,0,FALSE
65,205,65,155,0,1,5,1,0,FALSE
65,200,65,160,0,1,4,1,0,FALSE
65,200,65,160,0,1,4,1,0,FALSE
65,180,65,180,0.5,1,0,1,0,FALSE
65,180,65,180,0.5,1,0,1,0,FALSE
45,70,45,60,0,2,1,2,0,TRUE
45,70,45,60,0,2,1,2,0,TRUE
70,185,60,175,0.5,1,0,1,0,FALSE
70,185,60,175,0.5,1,0,1,0,FALSE
70,195,60,165,0,1,2,1,0,TRUE
70,195,60,165,0,1,2,1,0,TRUE
45,180,45,180,0.5,3,0,3,0,FALSE
45,180,45,180,0.5,3,0,3,0,FALSE
45,65,45,65,0.5,2,0,2,0,TRUE
45,65,45,65,0.5,2,0,2,0,TRUE
65,180,65,180,0.5,1,0,1,0,FALSE
65,180,65,180,0.5,1,0,1,0,FALSE
65,200,65,160,0,1,6,1,2,TRUE
65,200,65,160,0,1,6,1,2,TRUE
45,70,45,50,0,2,0,1,0,FALSE
45,70,45,50,0,2,0,1,0,FALSE
45,65,45,65,0.5,2,0,2,0,TRUE
45,65,45,65,0.5,2,0,2,0,TRUE
65,180,65,180,0.5,1,0,1,0,TRUE
65,180,65,180,0.5,1,0,1,0,TRUE
45,65,45,65,0.5,2,0,2,0,TRUE
45,65,45,65,0.5,2,0,2,0,TRUE
65,180,65,180,0.5,1,0,1,0,FALSE
65,180,65,180,0.5,1,0,1,0,FALSE
65,185,65,175,0,1,1,1,0,TRUE
65,185,65,175,0,1,1,1,0,TRUE
45,65,45,65,0.5,2,0,2,0,TRUE
45,65,45,65,0.5,2,0,2,0,TRUE
65,180,65,180,0.5,1,0,1,0,TRUE
65,180,65,180,0.5,1,0,1,0,TRUE
45,65,45,65,0.5,2,0,2,0,TRUE
45,65,45,65,0.5,2,0,2,0,TRUE
65,180,65,180,0.5,1,0,1,0,FALSE
65,180,65,180,0.5,1,0,1,0,FALSE
65,185,65,175,0,1,3,1,2,TRUE
65,185,65,175,0,1,3,1,2,TRUE
45,55,45,55,0.5,1,0,1,0,TRUE
45,55,45,55,0.5,1,0,1,0,TRUE
55,180,55,180,0.5,2,0,2,0,TRUE
55,180,55,180,0.5,2,0,2,0,TRUE
45,165,190,195,1,2,0,0,3,FALSE
45,165,190,195,1,2,0,0,3,FALSE
45,160,190,200,0,2,0,0,4,TRUE
45,160,190,200,0,2,0,0,4,TRUE
45,65,45,65,0.5,2,0,2,0,TRUE
45,65,45,65,0.5,2,0,2,0,TRUE
75,190,35,170,0.5,1,2,3,0,TRUE
75,190,35,170,0.5,1,2,3,0,TRUE
65,55,65,55,0.5,1,1,1,1,FALSE
65,55,65,55,0.5,1,1,1,1,FALSE
65,180,65,180,0.5,1,0,1,0,TRUE
65,180,65,180,0.5,1,0,1,0,TRUE
45,180,45,180,0.5,3,0,3,0,FALSE
45,180,45,180,0.5,3,0,3,0,FALSE
45,65,45,65,0.5,2,0,2,0,TRUE
45,65,45,65,0.5,2,0,2,0,TRUE
65,180,65,180,0.5,1,0,1,0,TRUE
65,180,65,180,0.5,1,0,1,0,TRUE
60,175,185,185,0.5,1,0,0,1,FALSE
60,175,185,185,0.5,1,0,0,1,FALSE
60,160,185,200,0,1,0,0,4,FALSE
60,160,185,200,0,1,0,0,4,FALSE
45,65,45,65,0.5,2,0,2,0,TRUE
45,65,45,65,0.5,2,0,2,0,TRUE
50,55,70,190,0,1,0,1,1,FALSE
50,55,70,190,0,1,0,1,1,FALSE
50,180,70,180,0,2,0,1,0,FALSE
50,180,70,180,0,2,0,1,0,FALSE
50,175,70,185,0.5,2,0,1,1,TRUE
50,175,70,185,0.5,2,0,1,1,TRUE
45,180,45,180,0.5,3,0,3,0,FALSE
45,180,45,180,0.5,3,0,3,0,FALSE
45,65,45,65,0.5,2,0,2,0,TRUE
45,65,45,65,0.5,2,0,2,0,TRUE
50,55,70,190,0,1,0,1,1,FALSE
50,55,70,190,0,1,0,1,1,FALSE
50,175,70,185,0.5,2,0,1,1,TRUE
50,175,70,185,0.5,2,0,1,1,TRUE
50,175,70,185,0.5,2,0,1,1,TRUE
50,175,70,185,0.5,2,0,1,1,TRUE
45,75,45,55,0,2,2,2,0,TRUE
45,75,45,55,0,2,2,2,0,TRUE
75,190,55,170,0.5,1,0,1,0,FALSE
75,190,55,170,0.5,1,0,1,0,FALSE
75,195,55,165,0,1,1,1,0,TRUE
75,195,55,165,0,1,1,1,0,TRUE
45,65,45,65,0.5,2,0,2,0,TRUE
45,65,45,65,0.5,2,0,2,0,TRUE
65,180,65,180,0.5,1,0,1,0,FALSE
65,180,65,180,0.5,1,0,1,0,FALSE
65,185,65,175,0,1,2,1,1,TRUE
65,185,65,175,0,1,2,1,1,TRUE
45,75,45,55,0,2,2,2,0,TRUE
45,75,45,55,0,2,2,2,0,TRUE
75,190,55,170,0.5,1,0,1,0,FALSE
75,190,55,170,0.5,1,0,1,0,FALSE
75,200,55,160,0,1,4,1,2,TRUE
75,200,55,160,0,1,4,1,2,TRUE
45,55,45,55,0.5,1,0,1,0,TRUE
45,55,45,55,0.5,1,0,1,0,TRUE
55,180,55,180,0.5,2,0,2,0,TRUE
55,180,55,180,0.5,2,0,2,0,TRUE
45,175,190,185,0,2,0,0,1,FALSE
45,175,190,185,0,2,0,0,1,FALSE
45,155,190,205,0,2,0,0,5,TRUE
45,155,190,205,0,2,0,0,5,TRUE
45,55,45,55,0.5,1,0,1,0,TRUE
45,55,45,55,0.5,1,0,1,0,TRUE
60,185,40,175,0.5,2,1,3,0,TRUE
60,185,40,175,0.5,2,1,3,0,TRUE
45,65,45,65,0.5,2,0,2,0,FALSE
45,65,45,65,0.5,2,0,2,0,FALSE
45,180,45,180,0.5,3,0,3,0,TRUE
45,180,45,180,0.5,3,0,3,0,TRUE
45,55,45,55,0.5,1,0,1,0,TRUE
45,55,45,55,0.5,1,0,1,0,TRUE
55,180,55,180,0.5,2,0,2,0,TRUE
55,180,55,180,0.5,2,0,2,0,TRUE
50,180,70,180,0,2,0,1,0,TRUE
50,180,70,180,0,2,0,1,0,TRUE
45,50,45,60,0,3,3,2,0,FALSE
45,50,45,60,0,3,3,2,0,FALSE
45,65,45,65,0.5,2,0,2,0,TRUE
45,65,45,65,0.5,2,0,2,0,TRUE
50,170,70,190,0,2,0,1,2,TRUE
50,170,70,190,0,2,0,1,2,TRUE
40,165,80,195,0.5,2,0,1,1,TRUE
40,165,80,195,0.5,2,0,1,1,TRUE
45,165,45,195,1,3,0,3,3,FALSE
45,165,45,195,1,3,0,3,3,FALSE
45,65,45,65,0.5,2,0,2,0,TRUE
45,65,45,65,0.5,2,0,2,0,TRUE
50,170,70,190,0,2,0,1,2,FALSE
50,170,70,190,0,2,0,1,2,FALSE
50,170,70,190,1,2,0,1,2,TRUE
50,170,70,190,1,2,0,1,2,TRUE
35,160,200,200,0.5,2,0,0,2,FALSE
35,160,200,200,0.5,2,0,0,2,FALSE
35,150,200,210,0,2,0,0,4,TRUE
35,150,200,210,0,2,0,0,4,TRUE
45,65,45,65,0.5,2,0,2,0,TRUE
45,65,45,65,0.5,2,0,2,0,TRUE
50,55,70,190,0,1,0,1,1,FALSE
50,55,70,190,0,1,0,1,1,FALSE
50,170,70,190,1,2,0,1,2,TRUE
50,170,70,190,1,2,0,1,2,TRUE
40,155,80,205,1,2,0,1,3,TRUE
40,155,80,205,1,2,0,1,3,TRUE
45,65,45,65,0.5,2,0,2,0,TRUE
45,65,45,65,0.5,2,0,2,0,TRUE
50,55,70,190,0,1,0,1,1,FALSE
50,55,70,190,0,1,0,1,1,FALSE
50,175,70,185,0.5,2,0,1,1,TRUE
50,175,70,185,0.5,2,0,1,1,TRUE
45,140,190,220,1,2,0,0,8,TRUE
45,140,190,220,1,2,0,0,8,TRUE
45,70,45,50,0,2,0,1,0,FALSE
45,70,45,50,0,2,0,1,0,FALSE
45,65,45,65,0.5,2,0,2,0,TRUE
45,65,45,65,0.5,2,0,2,0,TRUE
50,55,70,190,0,1,0,1,1,TRUE
50,55,70,190,0,1,0,1,1,TRUE
45,175,75,185,0,2,0,1,0,TRUE
45,175,75,185,0,2,0,1,0,TRUE
45,180,45,180,0.5,3,0,3,0,FALSE
45,180,45,180,0.5,3,0,3,0,FALSE
45,65,45,65,0.5,2,0,2,0,TRUE
45,65,45,65,0.5,2,0,2,0,TRUE
50,170,70,190,0,2,0,1,2,TRUE
50,170,70,190,0,2,0,1,2,TRUE
35,175,85,185,0,3,1,1,0,FALSE
35,175,85,185,0,3,1,1,0,FALSE
35,155,85,205,0,3,0,1,3,TRUE
35,155,85,205,0,3,0,1,3,TRUE
45,65,45,65,0.5,2,0,2,0,TRUE
45,65,45,65,0.5,2,0,2,0,TRUE
55,180,55,180,0.5,2,0,2,0,TRUE
55,180,55,180,0.5,2,0,2,0,TRUE
45,65,45,65,0.5,2,0,2,0,TRUE
45,65,45,65,0.5,2,0,2,0,TRUE
55,180,55,180,0.5,2,0,2,0,TRUE
55,180,55,180,0.5,2,0,2,0,TRUE
45,135,190,225,1,2,0,0,9,TRUE
45,135,190,225,1,2,0,0,9,TRUE
45,55,45,55,0.5,1,0,1,0,TRUE
45,55,45,55,0.5,1,0,1,0,TRUE
55,180,55,180,0.5,2,0,2,0,TRUE
55,180,55,180,0.5,2,0,2,0,TRUE
45,180,190,180,0,2,0,0,0,FALSE
45,180,190,180,0,2,0,0,0,FALSE
45,160,190,200,0,2,0,0,4,FALSE
45,160,190,200,0,2,0,0,4,FALSE
45,55,45,55,0.5,1,0,1,0,TRUE
45,55,45,55,0.5,1,0,1,0,TRUE
55,180,55,180,0.5,2,0,2,0,TRUE
55,180,55,180,0.5,2,0,2,0,TRUE
45,170,190,190,0.5,2,0,0,2,FALSE
45,170,190,190,0.5,2,0,0,2,FALSE
45,155,190,205,0,2,0,0,5,FALSE
45,155,190,205,0,2,0,0,5,FALSE
45,50,45,60,1,1,0,1,1,TRUE
45,50,45,60,1,1,0,1,1,TRUE
50,175,60,185,0.5,2,0,2,0,TRUE
50,175,60,185,0.5,2,0,2,0,TRUE
50,60,60,70,0.5,1,0,1,0,FALSE
50,60,60,70,0.5,1,0,1,0,FALSE
50,175,60,185,0.5,2,0,2,0,TRUE
50,175,60,185,0.5,2,0,2,0,TRUE
45,180,45,180,0.5,3,0,3,0,FALSE
45,180,45,180,0.5,3,0,3,0,FALSE
45,65,45,65,0.5,2,0,2,0,FALSE
45,65,45,65,0.5,2,0,2,0,FALSE
45,65,45,65,0.5,2,0,2,0,TRUE
45,65,45,65,0.5,2,0,2,0,TRUE
60,185,40,60,0.5,2,0,2,0,FALSE
60,185,40,60,0.5,2,0,2,0,FALSE
60,185,40,175,0.5,2,1,3,0,TRUE
60,185,40,175,0.5,2,1,3,0,TRUE
45,180,45,180,0.5,3,0,3,0,FALSE
45,180,45,180,0.5,3,0,3,0,FALSE
45,65,45,65,0.5,2,0,2,0,TRUE
45,65,45,65,0.5,2,0,2,0,TRUE
50,55,70,190,0,1,0,1,1,FALSE
50,55,70,190,0,1,0,1,1,FALSE
50,60,70,185,0.5,1,0,1,0,FALSE
50,60,70,185,0.5,1,0,1,0,FALSE
50,60,70,185,0.5,1,0,1,0,TRUE
50,60,70,185,0.5,1,0,1,0,TRUE
45,65,45,65,0.5,2,0,2,0,TRUE
45,65,45,65,0.5,2,0,2,0,TRUE
50,170,70,190,0,2,0,1,2,TRUE
50,170,70,190,0,2,0,1,2,TRUE
40,45,80,210,1,2,0,1,4,TRUE
40,45,80,210,1,2,0,1,4,TRUE
45,55,45,75,1,2,0,2,2,TRUE
45,55,45,75,1,2,0,2,2,TRUE
40,160,80,200,0,2,0,1,2,TRUE
40,160,80,200,0,2,0,1,2,TRUE
20,50,90,90,0.5,3,0,1,3,FALSE
20,50,90,90,0.5,3,0,1,3,FALSE
20,150,90,210,0,3,0,1,3,TRUE
20,150,90,210,0,3,0,1,3,TRUE
45,65,45,65,0.5,2,0,2,0,TRUE
45,65,45,65,0.5,2,0,2,0,TRUE
50,170,70,190,0,2,0,1,2,TRUE
50,170,70,190,0,2,0,1,2,TRUE
35,150,200,210,1,2,0,0,4,FALSE
35,150,200,210,1,2,0,0,4,FALSE
35,145,200,215,0,2,0,0,5,TRUE
35,145,200,215,0,2,0,0,5,TRUE
45,55,45,55,0.5,1,0,1,0,TRUE
45,55,45,55,0.5,1,0,1,0,TRUE
55,180,55,180,0.5,2,0,2,0,TRUE
55,180,55,180,0.5,2,0,2,0,TRUE
45,165,190,195,1,2,0,0,3,FALSE
45,165,190,195,1,2,0,0,3,FALSE
45,155,190,205,0,2,0,0,5,TRUE
45,155,190,205,0,2,0,0,5,TRUE
45,180,45,180,0.5,3,0,3,0,FALSE
45,180,45,180,0.5,3,0,3,0,FALSE
45,65,45,65,0.5,2,0,2,0,TRUE
45,65,45,65,0.5,2,0,2,0,TRUE
50,170,70,190,0,2,0,1,2,FALSE
50,170,70,190,0,2,0,1,2,FALSE
50,180,70,180,0,2,0,1,0,FALSE
50,180,70,180,0,2,0,1,0,FALSE
50,175,70,185,0.5,2,0,1,1,TRUE
50,175,70,185,0.5,2,0,1,1,TRUE
45,65,45,65,0.5,2,0,2,0,TRUE
45,65,45,65,0.5,2,0,2,0,TRUE
50,170,70,190,0,2,0,1,2,TRUE
50,170,70,190,0,2,0,1,2,TRUE
35,110,200,250,1,2,0,0,12,TRUE
35,110,200,250,1,2,0,0,12,TRUE
45,55,45,55,0.5,1,0,1,0,TRUE
45,55,45,55,0.5,1,0,1,0,TRUE
55,180,55,180,0.5,2,0,2,0,TRUE
55,180,55,180,0.5,2,0,2,0,TRUE
45,40,190,195,1,0,0,0,1,FALSE
45,40,190,195,1,0,0,0,1,FALSE
45,160,190,200,0,2,0,0,4,TRUE
45,160,190,200,0,2,0,0,4,TRUE
45,175,45,185,1,3,0,3,1,FALSE
45,175,45,185,1,3,0,3,1,FALSE
45,65,45,65,0.5,2,0,2,0,TRUE
45,65,45,65,0.5,2,0,2,0,TRUE
50,170,70,190,0,2,0,1,2,TRUE
50,170,70,190,0,2,0,1,2,TRUE
35,130,200,230,1,2,0,0,8,TRUE
35,130,200,230,1,2,0,0,8,TRUE
45,55,45,55,0.5,1,0,1,0,TRUE
45,55,45,55,0.5,1,0,1,0,TRUE
60,185,40,175,0.5,2,1,3,0,TRUE
60,185,40,175,0.5,2,1,3,0,TRUE
40,160,195,200,1,2,0,0,3,FALSE
40,160,195,200,1,2,0,0,3,FALSE
40,150,195,210,0,2,0,0,5,TRUE
40,150,195,210,0,2,0,0,5,TRUE
45,65,45,65,0.5,2,0,2,0,TRUE
45,65,45,65,0.5,2,0,2,0,TRUE
50,170,70,190,0,2,0,1,2,TRUE
50,170,70,190,0,2,0,1,2,TRUE
45,145,75,215,1,2,0,1,6,TRUE
45,145,75,215,1,2,0,1,6,TRUE
45,185,45,60,0,3,0,2,0,FALSE
45,185,45,60,0,3,0,2,0,FALSE
45,65,45,65,0.5,2,0,2,0,TRUE
45,65,45,65,0.5,2,0,2,0,TRUE
50,170,70,190,0,2,0,1,2,TRUE
50,170,70,190,0,2,0,1,2,TRUE
45,175,190,185,0,2,0,0,1,FALSE
45,175,190,185,0,2,0,0,1,FALSE
45,155,190,205,0,2,0,0,5,TRUE
45,155,190,205,0,2,0,0,5,TRUE
45,65,45,65,0.5,2,0,2,0,TRUE
45,65,45,65,0.5,2,0,2,0,TRUE
75,190,35,170,0.5,1,2,3,0,TRUE
75,190,35,170,0.5,1,2,3,0,TRUE
65,55,65,55,0.5,1,1,1,1,FALSE
65,55,65,55,0.5,1,1,1,1,FALSE
65,180,65,180,0.5,1,0,1,0,TRUE
65,180,65,180,0.5,1,0,1,0,TRUE
45,180,45,180,0.5,3,0,3,0,FALSE
45,180,45,180,0.5,3,0,3,0,FALSE
45,65,45,65,0.5,2,0,2,0,TRUE
45,65,45,65,0.5,2,0,2,0,TRUE
65,180,65,180,0.5,1,0,1,0,TRUE
65,180,65,180,0.5,1,0,1,0,TRUE
60,175,185,185,0.5,1,0,0,1,FALSE
60,175,185,185,0.5,1,0,0,1,FALSE
60,160,185,200,0,1,0,0,4,FALSE
60,160,185,200,0,1,0,0,4,FALSE
45,65,45,65,0.5,2,0,2,0,TRUE
45,65,45,65,0.5,2,0,2,0,TRUE
50,170,70,190,0,2,0,1,2,TRUE
50,170,70,190,0,2,0,1,2,TRUE
45,175,75,185,0,2,0,1,0,TRUE
45,175,75,185,0,2,0,1,0,TRUE
45,180,45,180,0.5,3,0,3,0,FALSE
45,180,45,180,0.5,3,0,3,0,FALSE
45,65,45,65,0.5,2,0,2,0,TRUE
45,65,45,65,0.5,2,0,2,0,TRUE
50,55,70,190,0,1,0,1,1,TRUE
50,55,70,190,0,1,0,1,1,TRUE
40,-5,195,240,1,2,2,0,11,FALSE
40,-5,195,240,1,2,2,0,11,FALSE
40,155,195,205,0,2,0,0,4,TRUE
40,155,195,205,0,2,0,0,4,TRUE