Wed Dec 25 20:22:06 CST 2013	This is the CT debug logger; svn version 638; sep 27 09
Wed Dec 25 20:22:06 CST 2013	Wed Dec 25 20:22:06 CST 2013
Wed Dec 25 20:22:06 CST 2013	ID Number: 66716
Wed Dec 25 20:22:06 CST 2013	Creating board
Wed Dec 25 20:22:06 CST 2013	<colors>
Wed Dec 25 20:22:06 CST 2013	{ GamePalette  'CTPurple':0 'CTRed':1 'CTGreen':2 'grey78':3 'CTYellow':4 }
Wed Dec 25 20:22:06 CST 2013	<rows>
Wed Dec 25 20:22:06 CST 2013	6
Wed Dec 25 20:22:06 CST 2013	<columns>
Wed Dec 25 20:22:06 CST 2013	9
Wed Dec 25 20:22:06 CST 2013	<squaresColors>
Wed Dec 25 20:22:06 CST 2013	grey78 CTGreen CTGreen CTGreen CTGreen CTGreen CTGreen CTGreen CTYellow 
Wed Dec 25 20:22:06 CST 2013	grey78 CTPurple CTPurple CTPurple CTPurple CTPurple CTPurple CTPurple CTYellow 
Wed Dec 25 20:22:06 CST 2013	grey78 grey78 CTGreen CTGreen CTGreen CTGreen CTGreen CTYellow CTYellow 
Wed Dec 25 20:22:06 CST 2013	CTGreen grey78 grey78 CTPurple CTPurple CTPurple CTYellow CTYellow CTGreen 
Wed Dec 25 20:22:06 CST 2013	CTGreen CTGreen grey78 grey78 CTGreen CTYellow CTYellow CTGreen CTGreen 
Wed Dec 25 20:22:06 CST 2013	CTGreen CTGreen CTGreen grey78 CTGreen CTYellow CTGreen CTGreen CTGreen 
Wed Dec 25 20:22:06 CST 2013	</squareColors>
Wed Dec 25 20:22:06 CST 2013	<goalPosition>
Wed Dec 25 20:22:06 CST 2013	Goal position: (R:0,C:0)
Wed Dec 25 20:22:06 CST 2013	<goalPosition>
Wed Dec 25 20:22:06 CST 2013	Goal position: (R:0,C:0)
Wed Dec 25 20:22:06 CST 2013	<firstPlayerPossibleGoal1>
Wed Dec 25 20:22:06 CST 2013	0.5
Wed Dec 25 20:22:06 CST 2013	0
Wed Dec 25 20:22:06 CST 2013	0
Wed Dec 25 20:22:06 CST 2013	</firstPlayerPossibleGoal1>
Wed Dec 25 20:22:06 CST 2013	<firstPlayerPossibleGoal2>
Wed Dec 25 20:22:06 CST 2013	0.5
Wed Dec 25 20:22:06 CST 2013	0
Wed Dec 25 20:22:06 CST 2013	8
Wed Dec 25 20:22:06 CST 2013	</firstPlayerPossibleGoal2>
Wed Dec 25 20:22:06 CST 2013	<numberOfPlayers>
Wed Dec 25 20:22:06 CST 2013	3
Wed Dec 25 20:22:06 CST 2013	<firstPlayerChips>
Wed Dec 25 20:22:06 CST 2013	Setting chips for player: 510 id:0
Wed Dec 25 20:22:06 CST 2013	{ chips  'CTRed':0 'CTGreen':0 'CTPurple':0 'grey78':12 'CTYellow':12 }
Wed Dec 25 20:22:06 CST 2013	Player position: (R:5,C:4)
Wed Dec 25 20:22:06 CST 2013	Setting chips for player: 520 id:1
Wed Dec 25 20:22:06 CST 2013	{ chips  'CTRed':33 'CTGreen':0 'CTPurple':7 'grey78':0 'CTYellow':0 }
Wed Dec 25 20:22:06 CST 2013	Player position: (R:0,C:8)
Wed Dec 25 20:22:06 CST 2013	Setting chips for player: 540 id:2
Wed Dec 25 20:22:06 CST 2013	{ chips  'CTRed':33 'CTGreen':0 'CTPurple':7 'grey78':0 'CTYellow':0 }
Wed Dec 25 20:22:06 CST 2013	Player position: (R:0,C:0)
Wed Dec 25 20:22:06 CST 2013	Protocol: A New Phase Began: Strategy Prep Phase. loop is true
Wed Dec 25 20:22:06 CST 2013	---------- Beginning Strategy Prep Phase at round 0 ----------
Wed Dec 25 20:23:06 CST 2013	A Phase Ended: Strategy Prep Phase
Wed Dec 25 20:23:06 CST 2013	Protocol: A New Phase Began: Communication Phase. loop is true
Wed Dec 25 20:23:06 CST 2013	---------- Beginning Communication Phase at round 1 ----------
Wed Dec 25 20:23:29 CST 2013	Received communication message 
Wed Dec 25 20:23:29 CST 2013	From player: 520
Wed Dec 25 20:23:29 CST 2013	To player: 510
Wed Dec 25 20:23:29 CST 2013	Chips to send by proposer: { chips  'CTRed':3 'CTPurple':0 'CTGreen':0 'grey78':0 'CTYellow':0 }
Wed Dec 25 20:23:29 CST 2013	Chips to send by responder: { chips  'CTRed':0 'CTPurple':0 'CTGreen':0 'grey78':0 'CTYellow':1 }
Wed Dec 25 20:23:47 CST 2013	Received communication message 
Wed Dec 25 20:23:47 CST 2013	From player: 540
Wed Dec 25 20:23:47 CST 2013	To player: 510
Wed Dec 25 20:23:47 CST 2013	Chips to send by proposer: { chips  'CTRed':0 'CTPurple':0 'CTGreen':0 'grey78':0 'CTYellow':0 }
Wed Dec 25 20:23:47 CST 2013	Chips to send by responder: { chips  'CTRed':0 'CTPurple':0 'CTGreen':0 'grey78':0 'CTYellow':0 }
Wed Dec 25 20:23:48 CST 2013	Received communication message 
Wed Dec 25 20:23:48 CST 2013	Proposer 0 accepted? true
Wed Dec 25 20:23:48 CST 2013	A Phase Ended: Communication Phase
Wed Dec 25 20:23:48 CST 2013	Protocol: A New Phase Began: Movement Phase. loop is true
Wed Dec 25 20:23:48 CST 2013	---------- Beginning Movement Phase at round 1 ----------
Wed Dec 25 20:23:48 CST 2013	remove strategy phase. 
Wed Dec 25 20:23:48 CST 2013	Received communication message 
Wed Dec 25 20:23:48 CST 2013	Proposer 1 accepted? false
Wed Dec 25 20:24:33 CST 2013	A Phase Ended: Movement Phase
Wed Dec 25 20:24:33 CST 2013	Protocol: A New Phase Began: Feedback Phase. loop is true
Wed Dec 25 20:24:33 CST 2013	---------- Beginning Feedback Phase at round 1 ----------
Wed Dec 25 20:24:33 CST 2013	Number of consecutive no movements for player 510 is 1
Wed Dec 25 20:24:33 CST 2013	TDPlayerPosition is(R:5,C:4)goal location 0(R:0,C:0)goal location 1(R:0,C:8)
Wed Dec 25 20:24:33 CST 2013	ended is false
Wed Dec 25 20:24:38 CST 2013	A Phase Ended: Feedback Phase
Wed Dec 25 20:24:38 CST 2013	 numberofMoves in round 1 is 0
Wed Dec 25 20:24:38 CST 2013	Swaping roles:
Wed Dec 25 20:24:38 CST 2013	Protocol: A New Phase Began: Communication Phase. loop is true
Wed Dec 25 20:24:38 CST 2013	---------- Beginning Communication Phase at round 2 ----------
Wed Dec 25 20:24:44 CST 2013	Received communication message 
Wed Dec 25 20:24:44 CST 2013	From player: 510
Wed Dec 25 20:24:44 CST 2013	To player: 540
Wed Dec 25 20:24:44 CST 2013	Chips to send by proposer: { chips  'CTYellow':11 }
Wed Dec 25 20:24:44 CST 2013	Chips to send by responder: { chips  'CTRed':33 'CTPurple':7 'grey78':0 }
Wed Dec 25 20:25:00 CST 2013	Received communication message 
Wed Dec 25 20:25:00 CST 2013	Proposer 1 accepted? false
Wed Dec 25 20:25:00 CST 2013	case that we had one reject, and one accept
Wed Dec 25 20:25:00 CST 2013	A Phase Ended: Communication Phase
Wed Dec 25 20:25:00 CST 2013	Protocol: A New Phase Began: Movement Phase. loop is true
Wed Dec 25 20:25:00 CST 2013	---------- Beginning Movement Phase at round 2 ----------
Wed Dec 25 20:25:45 CST 2013	A Phase Ended: Movement Phase
Wed Dec 25 20:25:45 CST 2013	Protocol: A New Phase Began: Feedback Phase. loop is true
Wed Dec 25 20:25:45 CST 2013	---------- Beginning Feedback Phase at round 2 ----------
Wed Dec 25 20:25:45 CST 2013	Number of consecutive no movements for player 510 is 0
Wed Dec 25 20:25:45 CST 2013	TDPlayerPosition is(R:5,C:5)goal location 0(R:0,C:0)goal location 1(R:0,C:8)
Wed Dec 25 20:25:45 CST 2013	ended is false
Wed Dec 25 20:25:50 CST 2013	A Phase Ended: Feedback Phase
Wed Dec 25 20:25:50 CST 2013	 numberofMoves in round 2 is 1
Wed Dec 25 20:25:50 CST 2013	Swaping roles:
Wed Dec 25 20:25:50 CST 2013	Protocol: A New Phase Began: Communication Phase. loop is true
Wed Dec 25 20:25:50 CST 2013	---------- Beginning Communication Phase at round 3 ----------
Wed Dec 25 20:26:21 CST 2013	Received communication message 
Wed Dec 25 20:26:21 CST 2013	From player: 540
Wed Dec 25 20:26:21 CST 2013	To player: 510
Wed Dec 25 20:26:21 CST 2013	Chips to send by proposer: { chips  'CTRed':0 'CTPurple':0 'CTGreen':0 'grey78':0 'CTYellow':0 }
Wed Dec 25 20:26:21 CST 2013	Chips to send by responder: { chips  'CTRed':0 'CTPurple':0 'CTGreen':0 'grey78':0 'CTYellow':0 }
Wed Dec 25 20:26:32 CST 2013	Received communication message 
Wed Dec 25 20:26:32 CST 2013	From player: 520
Wed Dec 25 20:26:32 CST 2013	To player: 510
Wed Dec 25 20:26:32 CST 2013	Chips to send by proposer: { chips  'CTRed':1 'CTPurple':1 'CTGreen':0 'grey78':0 'CTYellow':0 }
Wed Dec 25 20:26:32 CST 2013	Chips to send by responder: { chips  'CTRed':0 'CTPurple':0 'CTGreen':0 'grey78':0 'CTYellow':2 }
Wed Dec 25 20:26:32 CST 2013	Received communication message 
Wed Dec 25 20:26:32 CST 2013	Proposer 0 accepted? false
Wed Dec 25 20:26:32 CST 2013	case that we had one reject, and one accept
Wed Dec 25 20:26:32 CST 2013	Received communication message 
Wed Dec 25 20:26:32 CST 2013	Proposer 1 accepted? false
Wed Dec 25 20:26:32 CST 2013	case that we had one reject, and one accept
Wed Dec 25 20:26:32 CST 2013	A Phase Ended: Communication Phase
Wed Dec 25 20:26:32 CST 2013	Protocol: A New Phase Began: Movement Phase. loop is true
Wed Dec 25 20:26:32 CST 2013	---------- Beginning Movement Phase at round 3 ----------
Wed Dec 25 20:27:17 CST 2013	A Phase Ended: Movement Phase
Wed Dec 25 20:27:17 CST 2013	Protocol: A New Phase Began: Feedback Phase. loop is true
Wed Dec 25 20:27:17 CST 2013	---------- Beginning Feedback Phase at round 3 ----------
Wed Dec 25 20:27:17 CST 2013	Number of consecutive no movements for player 510 is 1
Wed Dec 25 20:27:17 CST 2013	TDPlayerPosition is(R:5,C:5)goal location 0(R:0,C:0)goal location 1(R:0,C:8)
Wed Dec 25 20:27:17 CST 2013	ended is false
Wed Dec 25 20:27:22 CST 2013	A Phase Ended: Feedback Phase
Wed Dec 25 20:27:22 CST 2013	 numberofMoves in round 3 is 0
Wed Dec 25 20:27:22 CST 2013	Swaping roles:
Wed Dec 25 20:27:22 CST 2013	Protocol: A New Phase Began: Communication Phase. loop is true
Wed Dec 25 20:27:22 CST 2013	---------- Beginning Communication Phase at round 4 ----------
Wed Dec 25 20:27:24 CST 2013	Received communication message 
Wed Dec 25 20:27:25 CST 2013	From player: 510
Wed Dec 25 20:27:25 CST 2013	To player: 520
Wed Dec 25 20:27:25 CST 2013	Chips to send by proposer: { chips  'grey78':11 }
Wed Dec 25 20:27:25 CST 2013	Chips to send by responder: { chips  'CTRed':30 'CTPurple':7 'CTYellow':1 }
Wed Dec 25 20:27:58 CST 2013	Received communication message 
Wed Dec 25 20:27:58 CST 2013	Proposer 0 accepted? false
Wed Dec 25 20:27:58 CST 2013	case that we had one reject, and one accept
Wed Dec 25 20:27:58 CST 2013	A Phase Ended: Communication Phase
Wed Dec 25 20:27:58 CST 2013	Protocol: A New Phase Began: Movement Phase. loop is true
Wed Dec 25 20:27:58 CST 2013	---------- Beginning Movement Phase at round 4 ----------
Wed Dec 25 20:28:43 CST 2013	A Phase Ended: Movement Phase
Wed Dec 25 20:28:43 CST 2013	Protocol: A New Phase Began: Feedback Phase. loop is true
Wed Dec 25 20:28:43 CST 2013	---------- Beginning Feedback Phase at round 4 ----------
Wed Dec 25 20:28:43 CST 2013	Number of consecutive no movements for player 510 is 0
Wed Dec 25 20:28:43 CST 2013	TDPlayerPosition is(R:4,C:5)goal location 0(R:0,C:0)goal location 1(R:0,C:8)
Wed Dec 25 20:28:43 CST 2013	ended is false
Wed Dec 25 20:28:48 CST 2013	A Phase Ended: Feedback Phase
Wed Dec 25 20:28:48 CST 2013	 numberofMoves in round 4 is 1
Wed Dec 25 20:28:48 CST 2013	Swaping roles:
Wed Dec 25 20:28:48 CST 2013	Protocol: A New Phase Began: Communication Phase. loop is true
Wed Dec 25 20:28:48 CST 2013	---------- Beginning Communication Phase at round 5 ----------
Wed Dec 25 20:29:02 CST 2013	Received communication message 
Wed Dec 25 20:29:02 CST 2013	From player: 520
Wed Dec 25 20:29:02 CST 2013	To player: 510
Wed Dec 25 20:29:02 CST 2013	Chips to send by proposer: { chips  'CTRed':3 'CTPurple':0 'CTGreen':0 'grey78':0 'CTYellow':0 }
Wed Dec 25 20:29:02 CST 2013	Chips to send by responder: { chips  'CTRed':0 'CTPurple':0 'CTGreen':0 'grey78':0 'CTYellow':2 }
Wed Dec 25 20:29:02 CST 2013	Received communication message 
Wed Dec 25 20:29:02 CST 2013	From player: 540
Wed Dec 25 20:29:02 CST 2013	To player: 510
Wed Dec 25 20:29:02 CST 2013	Chips to send by proposer: { chips  'CTRed':0 'CTPurple':0 'CTGreen':0 'grey78':0 'CTYellow':0 }
Wed Dec 25 20:29:02 CST 2013	Chips to send by responder: { chips  'CTRed':0 'CTPurple':0 'CTGreen':0 'grey78':0 'CTYellow':0 }
Wed Dec 25 20:29:02 CST 2013	Received communication message 
Wed Dec 25 20:29:02 CST 2013	Proposer 0 accepted? true
Wed Dec 25 20:29:02 CST 2013	A Phase Ended: Communication Phase
Wed Dec 25 20:29:02 CST 2013	Protocol: A New Phase Began: Movement Phase. loop is true
Wed Dec 25 20:29:02 CST 2013	---------- Beginning Movement Phase at round 5 ----------
Wed Dec 25 20:29:02 CST 2013	Received communication message 
Wed Dec 25 20:29:02 CST 2013	Proposer 1 accepted? false
Wed Dec 25 20:29:47 CST 2013	A Phase Ended: Movement Phase
Wed Dec 25 20:29:47 CST 2013	Protocol: A New Phase Began: Feedback Phase. loop is true
Wed Dec 25 20:29:47 CST 2013	---------- Beginning Feedback Phase at round 5 ----------
Wed Dec 25 20:29:47 CST 2013	Number of consecutive no movements for player 510 is 1
Wed Dec 25 20:29:47 CST 2013	TDPlayerPosition is(R:4,C:5)goal location 0(R:0,C:0)goal location 1(R:0,C:8)
Wed Dec 25 20:29:47 CST 2013	ended is false
Wed Dec 25 20:29:52 CST 2013	A Phase Ended: Feedback Phase
Wed Dec 25 20:29:52 CST 2013	 numberofMoves in round 5 is 0
Wed Dec 25 20:29:52 CST 2013	Swaping roles:
Wed Dec 25 20:29:52 CST 2013	Protocol: A New Phase Began: Communication Phase. loop is true
Wed Dec 25 20:29:52 CST 2013	---------- Beginning Communication Phase at round 6 ----------
Wed Dec 25 20:29:55 CST 2013	Received communication message 
Wed Dec 25 20:29:55 CST 2013	From player: 510
Wed Dec 25 20:29:55 CST 2013	To player: 520
Wed Dec 25 20:29:55 CST 2013	Chips to send by proposer: { chips  'grey78':11 }
Wed Dec 25 20:29:55 CST 2013	Chips to send by responder: { chips  'CTRed':27 'CTPurple':7 'CTYellow':3 }
Wed Dec 25 20:30:02 CST 2013	Received communication message 
Wed Dec 25 20:30:02 CST 2013	Proposer 0 accepted? false
Wed Dec 25 20:30:02 CST 2013	case that we had one reject, and one accept
Wed Dec 25 20:30:02 CST 2013	A Phase Ended: Communication Phase
Wed Dec 25 20:30:02 CST 2013	Protocol: A New Phase Began: Movement Phase. loop is true
Wed Dec 25 20:30:02 CST 2013	---------- Beginning Movement Phase at round 6 ----------
Wed Dec 25 20:30:46 CST 2013	A Phase Ended: Movement Phase
Wed Dec 25 20:30:46 CST 2013	Protocol: A New Phase Began: Feedback Phase. loop is true
Wed Dec 25 20:30:46 CST 2013	---------- Beginning Feedback Phase at round 6 ----------
Wed Dec 25 20:30:46 CST 2013	Number of consecutive no movements for player 510 is 0
Wed Dec 25 20:30:46 CST 2013	TDPlayerPosition is(R:4,C:6)goal location 0(R:0,C:0)goal location 1(R:0,C:8)
Wed Dec 25 20:30:46 CST 2013	ended is false
Wed Dec 25 20:30:51 CST 2013	A Phase Ended: Feedback Phase
Wed Dec 25 20:30:51 CST 2013	 numberofMoves in round 6 is 1
Wed Dec 25 20:30:51 CST 2013	Swaping roles:
Wed Dec 25 20:30:51 CST 2013	Protocol: A New Phase Began: Communication Phase. loop is true
Wed Dec 25 20:30:51 CST 2013	---------- Beginning Communication Phase at round 7 ----------
Wed Dec 25 20:30:55 CST 2013	Received communication message 
Wed Dec 25 20:30:55 CST 2013	From player: 540
Wed Dec 25 20:30:55 CST 2013	To player: 510
Wed Dec 25 20:30:55 CST 2013	Chips to send by proposer: { chips  'CTRed':0 'CTPurple':0 'CTGreen':0 'grey78':0 'CTYellow':0 }
Wed Dec 25 20:30:55 CST 2013	Chips to send by responder: { chips  'CTRed':0 'CTPurple':0 'CTGreen':0 'grey78':0 'CTYellow':0 }
Wed Dec 25 20:31:31 CST 2013	Received communication message 
Wed Dec 25 20:31:31 CST 2013	From player: 520
Wed Dec 25 20:31:31 CST 2013	To player: 510
Wed Dec 25 20:31:31 CST 2013	Chips to send by proposer: { chips  'CTRed':2 'CTPurple':0 'CTGreen':0 'grey78':0 'CTYellow':0 }
Wed Dec 25 20:31:31 CST 2013	Chips to send by responder: { chips  'CTRed':0 'CTPurple':0 'CTGreen':0 'grey78':0 'CTYellow':3 }
Wed Dec 25 20:31:31 CST 2013	Received communication message 
Wed Dec 25 20:31:31 CST 2013	Proposer 0 accepted? false
Wed Dec 25 20:31:31 CST 2013	case that we had one reject, and one accept
Wed Dec 25 20:31:31 CST 2013	Received communication message 
Wed Dec 25 20:31:31 CST 2013	Proposer 1 accepted? false
Wed Dec 25 20:31:31 CST 2013	case that we had one reject, and one accept
Wed Dec 25 20:31:31 CST 2013	A Phase Ended: Communication Phase
Wed Dec 25 20:31:31 CST 2013	Protocol: A New Phase Began: Movement Phase. loop is true
Wed Dec 25 20:31:31 CST 2013	---------- Beginning Movement Phase at round 7 ----------
Wed Dec 25 20:32:16 CST 2013	A Phase Ended: Movement Phase
Wed Dec 25 20:32:16 CST 2013	Protocol: A New Phase Began: Feedback Phase. loop is true
Wed Dec 25 20:32:16 CST 2013	---------- Beginning Feedback Phase at round 7 ----------
Wed Dec 25 20:32:16 CST 2013	Number of consecutive no movements for player 510 is 1
Wed Dec 25 20:32:16 CST 2013	TDPlayerPosition is(R:4,C:6)goal location 0(R:0,C:0)goal location 1(R:0,C:8)
Wed Dec 25 20:32:16 CST 2013	ended is false
Wed Dec 25 20:32:21 CST 2013	A Phase Ended: Feedback Phase
Wed Dec 25 20:32:21 CST 2013	 numberofMoves in round 7 is 0
Wed Dec 25 20:32:21 CST 2013	Swaping roles:
Wed Dec 25 20:32:21 CST 2013	Protocol: A New Phase Began: Communication Phase. loop is true
Wed Dec 25 20:32:21 CST 2013	---------- Beginning Communication Phase at round 8 ----------
Wed Dec 25 20:32:24 CST 2013	Received communication message 
Wed Dec 25 20:32:24 CST 2013	From player: 510
Wed Dec 25 20:32:24 CST 2013	To player: 520
Wed Dec 25 20:32:24 CST 2013	Chips to send by proposer: { chips  'grey78':11 }
Wed Dec 25 20:32:24 CST 2013	Chips to send by responder: { chips  'CTRed':27 'CTPurple':7 'CTYellow':3 }
Wed Dec 25 20:32:33 CST 2013	Received communication message 
Wed Dec 25 20:32:33 CST 2013	Proposer 0 accepted? false
Wed Dec 25 20:32:33 CST 2013	case that we had one reject, and one accept
Wed Dec 25 20:32:33 CST 2013	A Phase Ended: Communication Phase
Wed Dec 25 20:32:33 CST 2013	Protocol: A New Phase Began: Movement Phase. loop is true
Wed Dec 25 20:32:33 CST 2013	---------- Beginning Movement Phase at round 8 ----------
Wed Dec 25 20:33:17 CST 2013	A Phase Ended: Movement Phase
Wed Dec 25 20:33:17 CST 2013	Protocol: A New Phase Began: Feedback Phase. loop is true
Wed Dec 25 20:33:17 CST 2013	---------- Beginning Feedback Phase at round 8 ----------
Wed Dec 25 20:33:17 CST 2013	Number of consecutive no movements for player 510 is 0
Wed Dec 25 20:33:17 CST 2013	TDPlayerPosition is(R:3,C:6)goal location 0(R:0,C:0)goal location 1(R:0,C:8)
Wed Dec 25 20:33:17 CST 2013	ended is false
Wed Dec 25 20:33:22 CST 2013	A Phase Ended: Feedback Phase
Wed Dec 25 20:33:22 CST 2013	 numberofMoves in round 8 is 1
Wed Dec 25 20:33:22 CST 2013	Swaping roles:
Wed Dec 25 20:33:22 CST 2013	Protocol: A New Phase Began: Communication Phase. loop is true
Wed Dec 25 20:33:22 CST 2013	---------- Beginning Communication Phase at round 9 ----------
Wed Dec 25 20:33:54 CST 2013	Received communication message 
Wed Dec 25 20:33:54 CST 2013	From player: 540
Wed Dec 25 20:33:54 CST 2013	To player: 510
Wed Dec 25 20:33:54 CST 2013	Chips to send by proposer: { chips  'CTRed':0 'CTPurple':0 'CTGreen':0 'grey78':0 'CTYellow':0 }
Wed Dec 25 20:33:54 CST 2013	Chips to send by responder: { chips  'CTRed':0 'CTPurple':0 'CTGreen':0 'grey78':0 'CTYellow':0 }
Wed Dec 25 20:35:03 CST 2013	Received communication message 
Wed Dec 25 20:35:03 CST 2013	From player: 520
Wed Dec 25 20:35:03 CST 2013	To player: 510
Wed Dec 25 20:35:03 CST 2013	Chips to send by proposer: { chips  'CTRed':3 'CTPurple':0 'CTGreen':0 'grey78':0 'CTYellow':0 }
Wed Dec 25 20:35:03 CST 2013	Chips to send by responder: { chips  'CTRed':0 'CTPurple':0 'CTGreen':0 'grey78':3 'CTYellow':0 }
Wed Dec 25 20:35:03 CST 2013	Received communication message 
Wed Dec 25 20:35:03 CST 2013	Proposer 0 accepted? false
Wed Dec 25 20:35:03 CST 2013	case that we had one reject, and one accept
Wed Dec 25 20:35:03 CST 2013	Received communication message 
Wed Dec 25 20:35:03 CST 2013	Proposer 1 accepted? false
Wed Dec 25 20:35:03 CST 2013	case that we had one reject, and one accept
Wed Dec 25 20:35:03 CST 2013	A Phase Ended: Communication Phase
Wed Dec 25 20:35:03 CST 2013	Protocol: A New Phase Began: Movement Phase. loop is true
Wed Dec 25 20:35:03 CST 2013	---------- Beginning Movement Phase at round 9 ----------
Wed Dec 25 20:35:47 CST 2013	A Phase Ended: Movement Phase
Wed Dec 25 20:35:47 CST 2013	Protocol: A New Phase Began: Feedback Phase. loop is true
Wed Dec 25 20:35:47 CST 2013	---------- Beginning Feedback Phase at round 9 ----------
Wed Dec 25 20:35:47 CST 2013	Number of consecutive no movements for player 510 is 1
Wed Dec 25 20:35:47 CST 2013	TDPlayerPosition is(R:3,C:6)goal location 0(R:0,C:0)goal location 1(R:0,C:8)
Wed Dec 25 20:35:47 CST 2013	ended is false
Wed Dec 25 20:35:52 CST 2013	A Phase Ended: Feedback Phase
Wed Dec 25 20:35:52 CST 2013	 numberofMoves in round 9 is 0
Wed Dec 25 20:35:52 CST 2013	Swaping roles:
Wed Dec 25 20:35:52 CST 2013	Protocol: A New Phase Began: Communication Phase. loop is true
Wed Dec 25 20:35:52 CST 2013	---------- Beginning Communication Phase at round 10 ----------
Wed Dec 25 20:35:54 CST 2013	Received communication message 
Wed Dec 25 20:35:54 CST 2013	From player: 510
Wed Dec 25 20:35:54 CST 2013	To player: 520
Wed Dec 25 20:35:54 CST 2013	Chips to send by proposer: { chips  'grey78':11 }
Wed Dec 25 20:35:54 CST 2013	Chips to send by responder: { chips  'CTRed':27 'CTPurple':7 'CTYellow':3 }
Wed Dec 25 20:36:02 CST 2013	Received communication message 
Wed Dec 25 20:36:02 CST 2013	Proposer 0 accepted? false
Wed Dec 25 20:36:02 CST 2013	case that we had one reject, and one accept
Wed Dec 25 20:36:02 CST 2013	A Phase Ended: Communication Phase
Wed Dec 25 20:36:02 CST 2013	Protocol: A New Phase Began: Movement Phase. loop is true
Wed Dec 25 20:36:02 CST 2013	---------- Beginning Movement Phase at round 10 ----------
Wed Dec 25 20:36:47 CST 2013	A Phase Ended: Movement Phase
Wed Dec 25 20:36:47 CST 2013	Protocol: A New Phase Began: Feedback Phase. loop is true
Wed Dec 25 20:36:47 CST 2013	---------- Beginning Feedback Phase at round 10 ----------
Wed Dec 25 20:36:47 CST 2013	Number of consecutive no movements for player 510 is 0
Wed Dec 25 20:36:47 CST 2013	TDPlayerPosition is(R:3,C:7)goal location 0(R:0,C:0)goal location 1(R:0,C:8)
Wed Dec 25 20:36:47 CST 2013	ended is false
Wed Dec 25 20:36:52 CST 2013	A Phase Ended: Feedback Phase
Wed Dec 25 20:36:52 CST 2013	 numberofMoves in round 10 is 1
Wed Dec 25 20:36:52 CST 2013	Swaping roles:
Wed Dec 25 20:36:52 CST 2013	Protocol: A New Phase Began: Communication Phase. loop is true
Wed Dec 25 20:36:52 CST 2013	---------- Beginning Communication Phase at round 11 ----------
Wed Dec 25 20:37:21 CST 2013	Received communication message 
Wed Dec 25 20:37:21 CST 2013	From player: 540
Wed Dec 25 20:37:21 CST 2013	To player: 510
Wed Dec 25 20:37:21 CST 2013	Chips to send by proposer: { chips  'CTRed':0 'CTPurple':0 'CTGreen':0 'grey78':0 'CTYellow':0 }
Wed Dec 25 20:37:21 CST 2013	Chips to send by responder: { chips  'CTRed':0 'CTPurple':0 'CTGreen':0 'grey78':0 'CTYellow':0 }
Wed Dec 25 20:37:22 CST 2013	Received communication message 
Wed Dec 25 20:37:22 CST 2013	From player: 520
Wed Dec 25 20:37:22 CST 2013	To player: 510
Wed Dec 25 20:37:22 CST 2013	Chips to send by proposer: { chips  'CTRed':11 'CTPurple':0 'CTGreen':0 'grey78':0 'CTYellow':0 }
Wed Dec 25 20:37:22 CST 2013	Chips to send by responder: { chips  'CTRed':0 'CTPurple':0 'CTGreen':0 'grey78':12 'CTYellow':0 }
Wed Dec 25 20:37:25 CST 2013	Received communication message 
Wed Dec 25 20:37:25 CST 2013	Proposer 0 accepted? false
Wed Dec 25 20:37:25 CST 2013	case that we had one reject, and one accept
Wed Dec 25 20:37:25 CST 2013	Received communication message 
Wed Dec 25 20:37:25 CST 2013	Proposer 1 accepted? false
Wed Dec 25 20:37:25 CST 2013	case that we had one reject, and one accept
Wed Dec 25 20:37:25 CST 2013	A Phase Ended: Communication Phase
Wed Dec 25 20:37:25 CST 2013	Protocol: A New Phase Began: Movement Phase. loop is true
Wed Dec 25 20:37:25 CST 2013	---------- Beginning Movement Phase at round 11 ----------
Wed Dec 25 20:38:10 CST 2013	A Phase Ended: Movement Phase
Wed Dec 25 20:38:10 CST 2013	Protocol: A New Phase Began: Feedback Phase. loop is true
Wed Dec 25 20:38:10 CST 2013	---------- Beginning Feedback Phase at round 11 ----------
Wed Dec 25 20:38:10 CST 2013	Number of consecutive no movements for player 510 is 1
Wed Dec 25 20:38:10 CST 2013	TDPlayerPosition is(R:3,C:7)goal location 0(R:0,C:0)goal location 1(R:0,C:8)
Wed Dec 25 20:38:10 CST 2013	ended is false
Wed Dec 25 20:38:15 CST 2013	A Phase Ended: Feedback Phase
Wed Dec 25 20:38:15 CST 2013	 numberofMoves in round 11 is 0
Wed Dec 25 20:38:15 CST 2013	Swaping roles:
Wed Dec 25 20:38:15 CST 2013	Protocol: A New Phase Began: Communication Phase. loop is true
Wed Dec 25 20:38:15 CST 2013	---------- Beginning Communication Phase at round 12 ----------
Wed Dec 25 20:38:16 CST 2013	Received communication message 
Wed Dec 25 20:38:16 CST 2013	From player: 510
Wed Dec 25 20:38:16 CST 2013	To player: 520
Wed Dec 25 20:38:16 CST 2013	Chips to send by proposer: { chips  'grey78':11 }
Wed Dec 25 20:38:16 CST 2013	Chips to send by responder: { chips  'CTRed':27 'CTPurple':7 'CTYellow':3 }
Wed Dec 25 20:38:25 CST 2013	Received communication message 
Wed Dec 25 20:38:25 CST 2013	Proposer 0 accepted? false
Wed Dec 25 20:38:25 CST 2013	case that we had one reject, and one accept
Wed Dec 25 20:38:25 CST 2013	A Phase Ended: Communication Phase
Wed Dec 25 20:38:25 CST 2013	Protocol: A New Phase Began: Movement Phase. loop is true
Wed Dec 25 20:38:25 CST 2013	---------- Beginning Movement Phase at round 12 ----------
Wed Dec 25 20:39:10 CST 2013	A Phase Ended: Movement Phase
Wed Dec 25 20:39:10 CST 2013	Protocol: A New Phase Began: Feedback Phase. loop is true
Wed Dec 25 20:39:10 CST 2013	---------- Beginning Feedback Phase at round 12 ----------
Wed Dec 25 20:39:10 CST 2013	Number of consecutive no movements for player 510 is 0
Wed Dec 25 20:39:10 CST 2013	TDPlayerPosition is(R:2,C:7)goal location 0(R:0,C:0)goal location 1(R:0,C:8)
Wed Dec 25 20:39:10 CST 2013	ended is false
Wed Dec 25 20:39:15 CST 2013	A Phase Ended: Feedback Phase
Wed Dec 25 20:39:15 CST 2013	 numberofMoves in round 12 is 1
Wed Dec 25 20:39:15 CST 2013	Swaping roles:
Wed Dec 25 20:39:15 CST 2013	Protocol: A New Phase Began: Communication Phase. loop is true
Wed Dec 25 20:39:15 CST 2013	---------- Beginning Communication Phase at round 13 ----------
Wed Dec 25 20:39:19 CST 2013	Received communication message 
Wed Dec 25 20:39:19 CST 2013	From player: 540
Wed Dec 25 20:39:19 CST 2013	To player: 510
Wed Dec 25 20:39:19 CST 2013	Chips to send by proposer: { chips  'CTRed':0 'CTPurple':0 'CTGreen':0 'grey78':0 'CTYellow':0 }
Wed Dec 25 20:39:19 CST 2013	Chips to send by responder: { chips  'CTRed':0 'CTPurple':0 'CTGreen':0 'grey78':0 'CTYellow':0 }
Wed Dec 25 20:40:01 CST 2013	Received communication message 
Wed Dec 25 20:40:01 CST 2013	From player: 520
Wed Dec 25 20:40:01 CST 2013	To player: 510
Wed Dec 25 20:40:01 CST 2013	Chips to send by proposer: { chips  'CTRed':5 'CTPurple':0 'CTGreen':0 'grey78':0 'CTYellow':0 }
Wed Dec 25 20:40:01 CST 2013	Chips to send by responder: { chips  'CTRed':3 'CTPurple':0 'CTGreen':0 'grey78':0 'CTYellow':3 }
Wed Dec 25 20:40:01 CST 2013	Received communication message 
Wed Dec 25 20:40:01 CST 2013	Proposer 0 accepted? false
Wed Dec 25 20:40:01 CST 2013	case that we had one reject, and one accept
Wed Dec 25 20:40:01 CST 2013	Received communication message 
Wed Dec 25 20:40:01 CST 2013	Proposer 1 accepted? false
Wed Dec 25 20:40:01 CST 2013	case that we had one reject, and one accept
Wed Dec 25 20:40:01 CST 2013	A Phase Ended: Communication Phase
Wed Dec 25 20:40:01 CST 2013	Protocol: A New Phase Began: Movement Phase. loop is true
Wed Dec 25 20:40:01 CST 2013	---------- Beginning Movement Phase at round 13 ----------
Wed Dec 25 20:40:45 CST 2013	A Phase Ended: Movement Phase
Wed Dec 25 20:40:45 CST 2013	Protocol: A New Phase Began: Feedback Phase. loop is true
Wed Dec 25 20:40:45 CST 2013	---------- Beginning Feedback Phase at round 13 ----------
Wed Dec 25 20:40:45 CST 2013	Number of consecutive no movements for player 510 is 1
Wed Dec 25 20:40:45 CST 2013	TDPlayerPosition is(R:2,C:7)goal location 0(R:0,C:0)goal location 1(R:0,C:8)
Wed Dec 25 20:40:45 CST 2013	ended is false
Wed Dec 25 20:40:50 CST 2013	A Phase Ended: Feedback Phase
Wed Dec 25 20:40:50 CST 2013	 numberofMoves in round 13 is 0
Wed Dec 25 20:40:50 CST 2013	Swaping roles:
Wed Dec 25 20:40:50 CST 2013	Protocol: A New Phase Began: Communication Phase. loop is true
Wed Dec 25 20:40:50 CST 2013	---------- Beginning Communication Phase at round 14 ----------
Wed Dec 25 20:40:51 CST 2013	Received communication message 
Wed Dec 25 20:40:51 CST 2013	From player: 510
Wed Dec 25 20:40:51 CST 2013	To player: 520
Wed Dec 25 20:40:51 CST 2013	Chips to send by proposer: { chips  'grey78':11 }
Wed Dec 25 20:40:51 CST 2013	Chips to send by responder: { chips  'CTRed':27 'CTPurple':7 'CTYellow':3 }
Wed Dec 25 20:40:55 CST 2013	Received communication message 
Wed Dec 25 20:40:55 CST 2013	Proposer 0 accepted? false
Wed Dec 25 20:40:55 CST 2013	case that we had one reject, and one accept
Wed Dec 25 20:40:55 CST 2013	A Phase Ended: Communication Phase
Wed Dec 25 20:40:55 CST 2013	Protocol: A New Phase Began: Movement Phase. loop is true
Wed Dec 25 20:40:55 CST 2013	---------- Beginning Movement Phase at round 14 ----------
Wed Dec 25 20:41:39 CST 2013	A Phase Ended: Movement Phase
Wed Dec 25 20:41:39 CST 2013	Protocol: A New Phase Began: Feedback Phase. loop is true
Wed Dec 25 20:41:39 CST 2013	---------- Beginning Feedback Phase at round 14 ----------
Wed Dec 25 20:41:39 CST 2013	Number of consecutive no movements for player 510 is 0
Wed Dec 25 20:41:39 CST 2013	TDPlayerPosition is(R:2,C:8)goal location 0(R:0,C:0)goal location 1(R:0,C:8)
Wed Dec 25 20:41:39 CST 2013	ended is false
Wed Dec 25 20:41:44 CST 2013	A Phase Ended: Feedback Phase
Wed Dec 25 20:41:44 CST 2013	 numberofMoves in round 14 is 1
Wed Dec 25 20:41:44 CST 2013	Swaping roles:
Wed Dec 25 20:41:44 CST 2013	Protocol: A New Phase Began: Communication Phase. loop is true
Wed Dec 25 20:41:44 CST 2013	---------- Beginning Communication Phase at round 15 ----------
Wed Dec 25 20:42:05 CST 2013	Received communication message 
Wed Dec 25 20:42:05 CST 2013	From player: 520
Wed Dec 25 20:42:05 CST 2013	To player: 510
Wed Dec 25 20:42:05 CST 2013	Chips to send by proposer: { chips  'CTRed':0 'CTPurple':0 'CTGreen':0 'grey78':0 'CTYellow':2 }
Wed Dec 25 20:42:05 CST 2013	Chips to send by responder: { chips  'CTRed':1 'CTPurple':0 'CTGreen':0 'grey78':3 'CTYellow':0 }
Wed Dec 25 20:42:13 CST 2013	Received communication message 
Wed Dec 25 20:42:13 CST 2013	From player: 540
Wed Dec 25 20:42:13 CST 2013	To player: 510
Wed Dec 25 20:42:13 CST 2013	Chips to send by proposer: { chips  'CTRed':0 'CTPurple':0 'CTGreen':0 'grey78':0 'CTYellow':0 }
Wed Dec 25 20:42:13 CST 2013	Chips to send by responder: { chips  'CTRed':0 'CTPurple':0 'CTGreen':0 'grey78':0 'CTYellow':0 }
Wed Dec 25 20:42:13 CST 2013	Received communication message 
Wed Dec 25 20:42:13 CST 2013	Proposer 0 accepted? false
Wed Dec 25 20:42:13 CST 2013	case that we had one reject, and one accept
Wed Dec 25 20:42:13 CST 2013	Received communication message 
Wed Dec 25 20:42:13 CST 2013	Proposer 1 accepted? false
Wed Dec 25 20:42:13 CST 2013	case that we had one reject, and one accept
Wed Dec 25 20:42:13 CST 2013	A Phase Ended: Communication Phase
Wed Dec 25 20:42:13 CST 2013	Protocol: A New Phase Began: Movement Phase. loop is true
Wed Dec 25 20:42:13 CST 2013	---------- Beginning Movement Phase at round 15 ----------
Wed Dec 25 20:42:57 CST 2013	A Phase Ended: Movement Phase
Wed Dec 25 20:42:57 CST 2013	Protocol: A New Phase Began: Feedback Phase. loop is true
Wed Dec 25 20:42:57 CST 2013	---------- Beginning Feedback Phase at round 15 ----------
Wed Dec 25 20:42:57 CST 2013	Number of consecutive no movements for player 510 is 1
Wed Dec 25 20:42:57 CST 2013	TDPlayerPosition is(R:2,C:8)goal location 0(R:0,C:0)goal location 1(R:0,C:8)
Wed Dec 25 20:42:57 CST 2013	ended is false
Wed Dec 25 20:43:02 CST 2013	A Phase Ended: Feedback Phase
Wed Dec 25 20:43:02 CST 2013	 numberofMoves in round 15 is 0
Wed Dec 25 20:43:02 CST 2013	Swaping roles:
Wed Dec 25 20:43:02 CST 2013	Protocol: A New Phase Began: Communication Phase. loop is true
Wed Dec 25 20:43:02 CST 2013	---------- Beginning Communication Phase at round 16 ----------
Wed Dec 25 20:43:02 CST 2013	Received communication message 
Wed Dec 25 20:43:02 CST 2013	From player: 510
Wed Dec 25 20:43:02 CST 2013	To player: 520
Wed Dec 25 20:43:02 CST 2013	Chips to send by proposer: { chips  'grey78':11 }
Wed Dec 25 20:43:02 CST 2013	Chips to send by responder: { chips  'CTRed':27 'CTPurple':7 'CTYellow':3 }
Wed Dec 25 20:43:12 CST 2013	Received communication message 
Wed Dec 25 20:43:12 CST 2013	Proposer 0 accepted? false
Wed Dec 25 20:43:12 CST 2013	case that we had one reject, and one accept
Wed Dec 25 20:43:12 CST 2013	A Phase Ended: Communication Phase
Wed Dec 25 20:43:12 CST 2013	Protocol: A New Phase Began: Movement Phase. loop is true
Wed Dec 25 20:43:12 CST 2013	---------- Beginning Movement Phase at round 16 ----------
Wed Dec 25 20:43:57 CST 2013	A Phase Ended: Movement Phase
Wed Dec 25 20:43:57 CST 2013	Protocol: A New Phase Began: Feedback Phase. loop is true
Wed Dec 25 20:43:57 CST 2013	---------- Beginning Feedback Phase at round 16 ----------
Wed Dec 25 20:43:57 CST 2013	Number of consecutive no movements for player 510 is 0
Wed Dec 25 20:43:57 CST 2013	TDPlayerPosition is(R:1,C:8)goal location 0(R:0,C:0)goal location 1(R:0,C:8)
Wed Dec 25 20:43:57 CST 2013	ended is false
Wed Dec 25 20:44:02 CST 2013	A Phase Ended: Feedback Phase
Wed Dec 25 20:44:02 CST 2013	 numberofMoves in round 16 is 1
Wed Dec 25 20:44:02 CST 2013	Swaping roles:
Wed Dec 25 20:44:02 CST 2013	Protocol: A New Phase Began: Communication Phase. loop is true
Wed Dec 25 20:44:02 CST 2013	---------- Beginning Communication Phase at round 17 ----------
Wed Dec 25 20:44:26 CST 2013	Received communication message 
Wed Dec 25 20:44:26 CST 2013	From player: 520
Wed Dec 25 20:44:26 CST 2013	To player: 510
Wed Dec 25 20:44:26 CST 2013	Chips to send by proposer: { chips  'CTRed':7 'CTPurple':0 'CTGreen':0 'grey78':0 'CTYellow':0 }
Wed Dec 25 20:44:26 CST 2013	Chips to send by responder: { chips  'CTRed':0 'CTPurple':0 'CTGreen':0 'grey78':9 'CTYellow':0 }
Wed Dec 25 20:44:55 CST 2013	Received communication message 
Wed Dec 25 20:44:55 CST 2013	From player: 540
Wed Dec 25 20:44:55 CST 2013	To player: 510
Wed Dec 25 20:44:55 CST 2013	Chips to send by proposer: { chips  'CTRed':0 'CTPurple':0 'CTGreen':0 'grey78':0 'CTYellow':0 }
Wed Dec 25 20:44:55 CST 2013	Chips to send by responder: { chips  'CTRed':0 'CTPurple':0 'CTGreen':0 'grey78':0 'CTYellow':0 }
Wed Dec 25 20:44:55 CST 2013	Received communication message 
Wed Dec 25 20:44:55 CST 2013	Proposer 0 accepted? false
Wed Dec 25 20:44:55 CST 2013	case that we had one reject, and one accept
Wed Dec 25 20:44:55 CST 2013	Received communication message 
Wed Dec 25 20:44:55 CST 2013	Proposer 1 accepted? false
Wed Dec 25 20:44:55 CST 2013	case that we had one reject, and one accept
Wed Dec 25 20:44:55 CST 2013	A Phase Ended: Communication Phase
Wed Dec 25 20:44:55 CST 2013	Protocol: A New Phase Began: Movement Phase. loop is true
Wed Dec 25 20:44:55 CST 2013	---------- Beginning Movement Phase at round 17 ----------
Wed Dec 25 20:45:39 CST 2013	A Phase Ended: Movement Phase
Wed Dec 25 20:45:39 CST 2013	Protocol: A New Phase Began: Feedback Phase. loop is true
Wed Dec 25 20:45:39 CST 2013	---------- Beginning Feedback Phase at round 17 ----------
Wed Dec 25 20:45:39 CST 2013	Number of consecutive no movements for player 510 is 1
Wed Dec 25 20:45:39 CST 2013	TDPlayerPosition is(R:1,C:8)goal location 0(R:0,C:0)goal location 1(R:0,C:8)
Wed Dec 25 20:45:39 CST 2013	ended is false
Wed Dec 25 20:45:44 CST 2013	A Phase Ended: Feedback Phase
Wed Dec 25 20:45:44 CST 2013	 numberofMoves in round 17 is 0
Wed Dec 25 20:45:44 CST 2013	Swaping roles:
Wed Dec 25 20:45:44 CST 2013	Protocol: A New Phase Began: Communication Phase. loop is true
Wed Dec 25 20:45:44 CST 2013	---------- Beginning Communication Phase at round 18 ----------
Wed Dec 25 20:45:44 CST 2013	Received communication message 
Wed Dec 25 20:45:44 CST 2013	From player: 510
Wed Dec 25 20:45:44 CST 2013	To player: 520
Wed Dec 25 20:45:44 CST 2013	Chips to send by proposer: { chips  'grey78':11 }
Wed Dec 25 20:45:44 CST 2013	Chips to send by responder: { chips  'CTRed':27 'CTPurple':7 'CTYellow':3 }
Wed Dec 25 20:45:49 CST 2013	Received communication message 
Wed Dec 25 20:45:49 CST 2013	Proposer 0 accepted? false
Wed Dec 25 20:45:49 CST 2013	case that we had one reject, and one accept
Wed Dec 25 20:45:49 CST 2013	A Phase Ended: Communication Phase
Wed Dec 25 20:45:49 CST 2013	Protocol: A New Phase Began: Movement Phase. loop is true
Wed Dec 25 20:45:49 CST 2013	---------- Beginning Movement Phase at round 18 ----------
Wed Dec 25 20:46:33 CST 2013	A Phase Ended: Movement Phase
Wed Dec 25 20:46:33 CST 2013	Protocol: A New Phase Began: Feedback Phase. loop is true
Wed Dec 25 20:46:33 CST 2013	---------- Beginning Feedback Phase at round 18 ----------
Wed Dec 25 20:46:33 CST 2013	The TD player reached the goal, end the game
Wed Dec 25 20:46:33 CST 2013	ended is true
Wed Dec 25 20:46:38 CST 2013	A Phase Ended: Feedback Phase
Wed Dec 25 20:46:38 CST 2013	 numberofMoves in round 18 is 1
Wed Dec 25 20:46:38 CST 2013	Loop status: false
Wed Dec 25 20:46:38 CST 2013	Player: 540 ,role: Responder score is: 200
Wed Dec 25 20:46:38 CST 2013	Player: 540Game Ended
Wed Dec 25 20:46:38 CST 2013	Player: 510 ,role: Proposer score is: 240
Wed Dec 25 20:46:38 CST 2013	Player: 510Game Ended
Wed Dec 25 20:46:38 CST 2013	Player: 520 ,role: Responder score is: 335
Wed Dec 25 20:46:38 CST 2013	Player: 520Game Ended
Wed Dec 25 20:46:38 CST 2013	Protocol: A New Phase Began: Communication Phase. loop is false
Wed Dec 25 20:46:38 CST 2013	---------- Beginning Communication Phase at round 18 ----------
Wed Dec 25 20:49:38 CST 2013	A Phase Ended: Communication Phase
Wed Dec 25 20:49:38 CST 2013	Protocol: A New Phase Began: Movement Phase. loop is false
Wed Dec 25 20:49:38 CST 2013	---------- Beginning Movement Phase at round 18 ----------
Wed Dec 25 20:50:23 CST 2013	A Phase Ended: Movement Phase
Wed Dec 25 20:50:23 CST 2013	Protocol: A New Phase Began: Feedback Phase. loop is false
Wed Dec 25 20:50:23 CST 2013	---------- Beginning Feedback Phase at round 18 ----------
Wed Dec 25 20:50:23 CST 2013	The TD player reached the goal, end the game
Wed Dec 25 20:50:23 CST 2013	ended is true
Wed Dec 25 20:50:28 CST 2013	A Phase Ended: Feedback Phase
Wed Dec 25 20:50:28 CST 2013	 numberofMoves in round 18 is 0
Wed Dec 25 20:50:28 CST 2013	Loop status: false
Wed Dec 25 20:50:28 CST 2013	Player: 540 ,role: GameEnded score is: 200
Wed Dec 25 20:50:28 CST 2013	Player: 540Game Ended
Wed Dec 25 20:50:28 CST 2013	Player: 510 ,role: GameEnded score is: 240
Wed Dec 25 20:50:28 CST 2013	Player: 510Game Ended
Wed Dec 25 20:50:28 CST 2013	Player: 520 ,role: GameEnded score is: 335
Wed Dec 25 20:50:28 CST 2013	Player: 520Game Ended
