Thu Sep 12 10:54:27 IST 2013	This is the CT debug logger; svn version 638; sep 27 09
Thu Sep 12 10:54:27 IST 2013	Thu Sep 12 10:54:27 IST 2013
Thu Sep 12 10:54:27 IST 2013	ID Number: 67163
Thu Sep 12 10:54:27 IST 2013	Creating board
Thu Sep 12 10:54:27 IST 2013	<colors>
Thu Sep 12 10:54:27 IST 2013	{ GamePalette  'CTPurple':0 'CTRed':1 'CTGreen':2 'grey78':3 'CTYellow':4 }
Thu Sep 12 10:54:27 IST 2013	<rows>
Thu Sep 12 10:54:27 IST 2013	6
Thu Sep 12 10:54:27 IST 2013	<columns>
Thu Sep 12 10:54:27 IST 2013	9
Thu Sep 12 10:54:27 IST 2013	<squaresColors>
Thu Sep 12 10:54:27 IST 2013	grey78 CTGreen CTGreen CTGreen CTGreen CTGreen CTGreen CTGreen CTYellow 
Thu Sep 12 10:54:27 IST 2013	grey78 CTPurple CTPurple CTPurple CTPurple CTPurple CTPurple CTPurple CTYellow 
Thu Sep 12 10:54:27 IST 2013	grey78 grey78 CTGreen CTGreen CTGreen CTGreen CTGreen CTYellow CTYellow 
Thu Sep 12 10:54:27 IST 2013	CTGreen grey78 grey78 CTPurple CTPurple CTPurple CTYellow CTYellow CTGreen 
Thu Sep 12 10:54:27 IST 2013	CTGreen CTGreen grey78 grey78 CTGreen CTYellow CTYellow CTGreen CTGreen 
Thu Sep 12 10:54:27 IST 2013	CTGreen CTGreen CTGreen grey78 CTGreen CTYellow CTGreen CTGreen CTGreen 
Thu Sep 12 10:54:27 IST 2013	</squareColors>
Thu Sep 12 10:54:27 IST 2013	<goalPosition>
Thu Sep 12 10:54:27 IST 2013	Goal position: (R:0,C:0)
Thu Sep 12 10:54:27 IST 2013	<goalPosition>
Thu Sep 12 10:54:27 IST 2013	Goal position: (R:0,C:0)
Thu Sep 12 10:54:27 IST 2013	<firstPlayerPossibleGoal1>
Thu Sep 12 10:54:27 IST 2013	0.5
Thu Sep 12 10:54:27 IST 2013	0
Thu Sep 12 10:54:27 IST 2013	0
Thu Sep 12 10:54:27 IST 2013	</firstPlayerPossibleGoal1>
Thu Sep 12 10:54:27 IST 2013	<firstPlayerPossibleGoal2>
Thu Sep 12 10:54:27 IST 2013	0.5
Thu Sep 12 10:54:27 IST 2013	0
Thu Sep 12 10:54:27 IST 2013	8
Thu Sep 12 10:54:27 IST 2013	</firstPlayerPossibleGoal2>
Thu Sep 12 10:54:27 IST 2013	<numberOfPlayers>
Thu Sep 12 10:54:27 IST 2013	3
Thu Sep 12 10:54:27 IST 2013	<firstPlayerChips>
Thu Sep 12 10:54:27 IST 2013	Setting chips for player: 500 id:0
Thu Sep 12 10:54:27 IST 2013	{ chips  'CTRed':0 'CTGreen':0 'CTPurple':0 'grey78':12 'CTYellow':12 }
Thu Sep 12 10:54:27 IST 2013	Player position: (R:5,C:4)
Thu Sep 12 10:54:27 IST 2013	Setting chips for player: 530 id:1
Thu Sep 12 10:54:27 IST 2013	{ chips  'CTRed':33 'CTGreen':0 'CTPurple':7 'grey78':0 'CTYellow':0 }
Thu Sep 12 10:54:27 IST 2013	Player position: (R:0,C:8)
Thu Sep 12 10:54:27 IST 2013	Setting chips for player: 540 id:2
Thu Sep 12 10:54:27 IST 2013	{ chips  'CTRed':33 'CTGreen':0 'CTPurple':7 'grey78':0 'CTYellow':0 }
Thu Sep 12 10:54:27 IST 2013	Player position: (R:0,C:0)
Thu Sep 12 10:54:27 IST 2013	Protocol: A New Phase Began: Strategy Prep Phase. loop is true
Thu Sep 12 10:54:27 IST 2013	---------- Beginning Strategy Prep Phase at round 0 ----------
Thu Sep 12 10:55:27 IST 2013	A Phase Ended: Strategy Prep Phase
Thu Sep 12 10:55:27 IST 2013	Protocol: A New Phase Began: Communication Phase. loop is true
Thu Sep 12 10:55:27 IST 2013	---------- Beginning Communication Phase at round 1 ----------
Thu Sep 12 10:55:30 IST 2013	Received communication message 
Thu Sep 12 10:55:30 IST 2013	From player: 530
Thu Sep 12 10:55:30 IST 2013	To player: 500
Thu Sep 12 10:55:30 IST 2013	Chips to send by proposer: { chips  'CTRed':33 'CTPurple':7 'CTYellow':0 }
Thu Sep 12 10:55:30 IST 2013	Chips to send by responder: { chips  'grey78':11 }
Thu Sep 12 10:56:19 IST 2013	Received communication message 
Thu Sep 12 10:56:19 IST 2013	Proposer 0 accepted? false
Thu Sep 12 10:56:19 IST 2013	case that we had one reject, and one accept
Thu Sep 12 10:56:37 IST 2013	Received communication message 
Thu Sep 12 10:56:37 IST 2013	From player: 540
Thu Sep 12 10:56:37 IST 2013	To player: 500
Thu Sep 12 10:56:37 IST 2013	Chips to send by proposer: { chips  'CTRed':8 'CTPurple':0 'CTGreen':0 'grey78':0 'CTYellow':0 }
Thu Sep 12 10:56:37 IST 2013	Chips to send by responder: { chips  'CTRed':0 'CTPurple':0 'CTGreen':0 'grey78':0 'CTYellow':6 }
Thu Sep 12 10:56:56 IST 2013	Received communication message 
Thu Sep 12 10:56:56 IST 2013	Proposer 1 accepted? false
Thu Sep 12 10:56:56 IST 2013	case that we had one reject, and one accept
Thu Sep 12 10:56:56 IST 2013	A Phase Ended: Communication Phase
Thu Sep 12 10:56:56 IST 2013	Protocol: A New Phase Began: Movement Phase. loop is true
Thu Sep 12 10:56:56 IST 2013	---------- Beginning Movement Phase at round 1 ----------
Thu Sep 12 10:56:56 IST 2013	remove strategy phase. 
Thu Sep 12 10:57:40 IST 2013	A Phase Ended: Movement Phase
Thu Sep 12 10:57:40 IST 2013	Protocol: A New Phase Began: Feedback Phase. loop is true
Thu Sep 12 10:57:40 IST 2013	---------- Beginning Feedback Phase at round 1 ----------
Thu Sep 12 10:57:40 IST 2013	Number of consecutive no movements for player 500 is 1
Thu Sep 12 10:57:40 IST 2013	TDPlayerPosition is(R:5,C:4)goal location 0(R:0,C:0)goal location 1(R:0,C:8)
Thu Sep 12 10:57:40 IST 2013	ended is false
Thu Sep 12 10:57:45 IST 2013	A Phase Ended: Feedback Phase
Thu Sep 12 10:57:45 IST 2013	 numberofMoves in round 1 is 0
Thu Sep 12 10:57:45 IST 2013	Swaping roles:
Thu Sep 12 10:57:45 IST 2013	Protocol: A New Phase Began: Communication Phase. loop is true
Thu Sep 12 10:57:45 IST 2013	---------- Beginning Communication Phase at round 2 ----------
Thu Sep 12 10:58:17 IST 2013	Received communication message 
Thu Sep 12 10:58:17 IST 2013	From player: 500
Thu Sep 12 10:58:17 IST 2013	To player: 530
Thu Sep 12 10:58:17 IST 2013	Chips to send by proposer: { chips  'CTRed':0 'CTPurple':0 'CTGreen':0 'grey78':2 'CTYellow':0 }
Thu Sep 12 10:58:17 IST 2013	Chips to send by responder: { chips  'CTRed':0 'CTPurple':0 'CTGreen':0 'grey78':0 'CTYellow':0 }
Thu Sep 12 10:58:17 IST 2013	Received communication message 
Thu Sep 12 10:58:17 IST 2013	Proposer 0 accepted? true
Thu Sep 12 10:58:17 IST 2013	A Phase Ended: Communication Phase
Thu Sep 12 10:58:17 IST 2013	Protocol: A New Phase Began: Movement Phase. loop is true
Thu Sep 12 10:58:17 IST 2013	---------- Beginning Movement Phase at round 2 ----------
Thu Sep 12 10:59:02 IST 2013	A Phase Ended: Movement Phase
Thu Sep 12 10:59:02 IST 2013	Protocol: A New Phase Began: Feedback Phase. loop is true
Thu Sep 12 10:59:02 IST 2013	---------- Beginning Feedback Phase at round 2 ----------
Thu Sep 12 10:59:02 IST 2013	Number of consecutive no movements for player 500 is 0
Thu Sep 12 10:59:02 IST 2013	TDPlayerPosition is(R:5,C:5)goal location 0(R:0,C:0)goal location 1(R:0,C:8)
Thu Sep 12 10:59:02 IST 2013	ended is false
Thu Sep 12 10:59:07 IST 2013	A Phase Ended: Feedback Phase
Thu Sep 12 10:59:07 IST 2013	 numberofMoves in round 2 is 1
Thu Sep 12 10:59:07 IST 2013	Swaping roles:
Thu Sep 12 10:59:07 IST 2013	Protocol: A New Phase Began: Communication Phase. loop is true
Thu Sep 12 10:59:07 IST 2013	---------- Beginning Communication Phase at round 3 ----------
Thu Sep 12 10:59:08 IST 2013	Received communication message 
Thu Sep 12 10:59:08 IST 2013	From player: 530
Thu Sep 12 10:59:08 IST 2013	To player: 500
Thu Sep 12 10:59:08 IST 2013	Chips to send by proposer: { chips  'CTRed':33 'CTPurple':6 'CTYellow':0 }
Thu Sep 12 10:59:08 IST 2013	Chips to send by responder: { chips  'grey78':10 }
Thu Sep 12 10:59:43 IST 2013	Received communication message 
Thu Sep 12 10:59:43 IST 2013	Proposer 0 accepted? false
Thu Sep 12 10:59:43 IST 2013	case that we had one reject, and one accept
Thu Sep 12 11:00:05 IST 2013	Received communication message 
Thu Sep 12 11:00:05 IST 2013	From player: 540
Thu Sep 12 11:00:05 IST 2013	To player: 500
Thu Sep 12 11:00:05 IST 2013	Chips to send by proposer: { chips  'CTRed':2 'CTPurple':0 'CTGreen':0 'grey78':0 'CTYellow':0 }
Thu Sep 12 11:00:05 IST 2013	Chips to send by responder: { chips  'CTRed':0 'CTPurple':0 'CTGreen':0 'grey78':0 'CTYellow':5 }
Thu Sep 12 11:00:14 IST 2013	Received communication message 
Thu Sep 12 11:00:14 IST 2013	Proposer 1 accepted? false
Thu Sep 12 11:00:14 IST 2013	case that we had one reject, and one accept
Thu Sep 12 11:00:14 IST 2013	A Phase Ended: Communication Phase
Thu Sep 12 11:00:14 IST 2013	Protocol: A New Phase Began: Movement Phase. loop is true
Thu Sep 12 11:00:14 IST 2013	---------- Beginning Movement Phase at round 3 ----------
Thu Sep 12 11:00:59 IST 2013	A Phase Ended: Movement Phase
Thu Sep 12 11:00:59 IST 2013	Protocol: A New Phase Began: Feedback Phase. loop is true
Thu Sep 12 11:00:59 IST 2013	---------- Beginning Feedback Phase at round 3 ----------
Thu Sep 12 11:00:59 IST 2013	Number of consecutive no movements for player 500 is 0
Thu Sep 12 11:00:59 IST 2013	TDPlayerPosition is(R:4,C:5)goal location 0(R:0,C:0)goal location 1(R:0,C:8)
Thu Sep 12 11:00:59 IST 2013	ended is false
Thu Sep 12 11:01:04 IST 2013	A Phase Ended: Feedback Phase
Thu Sep 12 11:01:04 IST 2013	 numberofMoves in round 3 is 1
Thu Sep 12 11:01:04 IST 2013	Swaping roles:
Thu Sep 12 11:01:04 IST 2013	Protocol: A New Phase Began: Communication Phase. loop is true
Thu Sep 12 11:01:04 IST 2013	---------- Beginning Communication Phase at round 4 ----------
Thu Sep 12 11:02:00 IST 2013	Received communication message 
Thu Sep 12 11:02:00 IST 2013	From player: 500
Thu Sep 12 11:02:00 IST 2013	To player: 530
Thu Sep 12 11:02:00 IST 2013	Chips to send by proposer: { chips  'CTRed':0 'CTPurple':0 'CTGreen':0 'grey78':1 'CTYellow':0 }
Thu Sep 12 11:02:00 IST 2013	Chips to send by responder: { chips  'CTRed':33 'CTPurple':4 'CTGreen':0 'grey78':0 'CTYellow':0 }
Thu Sep 12 11:02:00 IST 2013	Received communication message 
Thu Sep 12 11:02:00 IST 2013	Proposer 0 accepted? false
Thu Sep 12 11:02:00 IST 2013	case that we had one reject, and one accept
Thu Sep 12 11:02:00 IST 2013	A Phase Ended: Communication Phase
Thu Sep 12 11:02:00 IST 2013	Protocol: A New Phase Began: Movement Phase. loop is true
Thu Sep 12 11:02:00 IST 2013	---------- Beginning Movement Phase at round 4 ----------
Thu Sep 12 11:02:44 IST 2013	A Phase Ended: Movement Phase
Thu Sep 12 11:02:44 IST 2013	Protocol: A New Phase Began: Feedback Phase. loop is true
Thu Sep 12 11:02:44 IST 2013	---------- Beginning Feedback Phase at round 4 ----------
Thu Sep 12 11:02:44 IST 2013	Number of consecutive no movements for player 500 is 0
Thu Sep 12 11:02:44 IST 2013	TDPlayerPosition is(R:5,C:5)goal location 0(R:0,C:0)goal location 1(R:0,C:8)
Thu Sep 12 11:02:44 IST 2013	ended is false
Thu Sep 12 11:02:49 IST 2013	A Phase Ended: Feedback Phase
Thu Sep 12 11:02:49 IST 2013	 numberofMoves in round 4 is 1
Thu Sep 12 11:02:49 IST 2013	Swaping roles:
Thu Sep 12 11:02:49 IST 2013	Protocol: A New Phase Began: Communication Phase. loop is true
Thu Sep 12 11:02:49 IST 2013	---------- Beginning Communication Phase at round 5 ----------
Thu Sep 12 11:02:50 IST 2013	Received communication message 
Thu Sep 12 11:02:50 IST 2013	From player: 530
Thu Sep 12 11:02:50 IST 2013	To player: 500
Thu Sep 12 11:02:50 IST 2013	Chips to send by proposer: { chips  'CTRed':33 'CTPurple':6 'CTYellow':0 }
Thu Sep 12 11:02:50 IST 2013	Chips to send by responder: { chips  'grey78':10 }
Thu Sep 12 11:03:17 IST 2013	Received communication message 
Thu Sep 12 11:03:17 IST 2013	Proposer 0 accepted? true
Thu Sep 12 11:03:17 IST 2013	A Phase Ended: Communication Phase
Thu Sep 12 11:03:17 IST 2013	Protocol: A New Phase Began: Movement Phase. loop is true
Thu Sep 12 11:03:17 IST 2013	---------- Beginning Movement Phase at round 5 ----------
Thu Sep 12 11:04:01 IST 2013	A Phase Ended: Movement Phase
Thu Sep 12 11:04:01 IST 2013	Protocol: A New Phase Began: Feedback Phase. loop is true
Thu Sep 12 11:04:01 IST 2013	---------- Beginning Feedback Phase at round 5 ----------
Thu Sep 12 11:04:01 IST 2013	Number of consecutive no movements for player 500 is 0
Thu Sep 12 11:04:01 IST 2013	TDPlayerPosition is(R:4,C:5)goal location 0(R:0,C:0)goal location 1(R:0,C:8)
Thu Sep 12 11:04:01 IST 2013	ended is false
Thu Sep 12 11:04:06 IST 2013	A Phase Ended: Feedback Phase
Thu Sep 12 11:04:06 IST 2013	 numberofMoves in round 5 is 1
Thu Sep 12 11:04:06 IST 2013	Swaping roles:
Thu Sep 12 11:04:06 IST 2013	Protocol: A New Phase Began: Communication Phase. loop is true
Thu Sep 12 11:04:06 IST 2013	---------- Beginning Communication Phase at round 6 ----------
Thu Sep 12 11:04:49 IST 2013	Received communication message 
Thu Sep 12 11:04:49 IST 2013	From player: 500
Thu Sep 12 11:04:49 IST 2013	To player: 530
Thu Sep 12 11:04:49 IST 2013	Chips to send by proposer: { chips  'CTRed':6 'CTPurple':1 'CTGreen':0 'grey78':0 'CTYellow':0 }
Thu Sep 12 11:04:49 IST 2013	Chips to send by responder: { chips  'CTRed':0 'CTPurple':0 'CTGreen':0 'grey78':3 'CTYellow':0 }
Thu Sep 12 11:04:49 IST 2013	Received communication message 
Thu Sep 12 11:04:49 IST 2013	Proposer 0 accepted? true
Thu Sep 12 11:04:49 IST 2013	A Phase Ended: Communication Phase
Thu Sep 12 11:04:49 IST 2013	Protocol: A New Phase Began: Movement Phase. loop is true
Thu Sep 12 11:04:49 IST 2013	---------- Beginning Movement Phase at round 6 ----------
Thu Sep 12 11:05:33 IST 2013	A Phase Ended: Movement Phase
Thu Sep 12 11:05:33 IST 2013	Protocol: A New Phase Began: Feedback Phase. loop is true
Thu Sep 12 11:05:33 IST 2013	---------- Beginning Feedback Phase at round 6 ----------
Thu Sep 12 11:05:33 IST 2013	Number of consecutive no movements for player 500 is 0
Thu Sep 12 11:05:33 IST 2013	TDPlayerPosition is(R:3,C:4)goal location 0(R:0,C:0)goal location 1(R:0,C:8)
Thu Sep 12 11:05:33 IST 2013	ended is false
Thu Sep 12 11:05:38 IST 2013	A Phase Ended: Feedback Phase
Thu Sep 12 11:05:38 IST 2013	 numberofMoves in round 6 is 2
Thu Sep 12 11:05:38 IST 2013	Swaping roles:
Thu Sep 12 11:05:38 IST 2013	Protocol: A New Phase Began: Communication Phase. loop is true
Thu Sep 12 11:05:38 IST 2013	---------- Beginning Communication Phase at round 7 ----------
Thu Sep 12 11:05:38 IST 2013	Received communication message 
Thu Sep 12 11:05:38 IST 2013	From player: 530
Thu Sep 12 11:05:38 IST 2013	To player: 500
Thu Sep 12 11:05:38 IST 2013	Chips to send by proposer: { chips  'CTRed':6 'CTPurple':2 'CTYellow':0 }
Thu Sep 12 11:05:38 IST 2013	Chips to send by responder: { chips  'grey78':2 }
Thu Sep 12 11:06:15 IST 2013	Received communication message 
Thu Sep 12 11:06:15 IST 2013	From player: 540
Thu Sep 12 11:06:15 IST 2013	To player: 500
Thu Sep 12 11:06:15 IST 2013	Chips to send by proposer: { chips  'CTRed':8 'CTPurple':0 'CTGreen':0 'grey78':0 'CTYellow':0 }
Thu Sep 12 11:06:15 IST 2013	Chips to send by responder: { chips  'CTRed':0 'CTPurple':0 'CTGreen':0 'grey78':0 'CTYellow':8 }
Thu Sep 12 11:06:37 IST 2013	Received communication message 
Thu Sep 12 11:06:37 IST 2013	Proposer 1 accepted? false
Thu Sep 12 11:06:37 IST 2013	case that we had one reject, and one accept
Thu Sep 12 11:06:38 IST 2013	Received communication message 
Thu Sep 12 11:06:38 IST 2013	Proposer 0 accepted? false
Thu Sep 12 11:06:38 IST 2013	case that we had one reject, and one accept
Thu Sep 12 11:06:38 IST 2013	A Phase Ended: Communication Phase
Thu Sep 12 11:06:38 IST 2013	Protocol: A New Phase Began: Movement Phase. loop is true
Thu Sep 12 11:06:38 IST 2013	---------- Beginning Movement Phase at round 7 ----------
Thu Sep 12 11:07:23 IST 2013	A Phase Ended: Movement Phase
Thu Sep 12 11:07:23 IST 2013	Protocol: A New Phase Began: Feedback Phase. loop is true
Thu Sep 12 11:07:23 IST 2013	---------- Beginning Feedback Phase at round 7 ----------
Thu Sep 12 11:07:23 IST 2013	Number of consecutive no movements for player 500 is 0
Thu Sep 12 11:07:23 IST 2013	TDPlayerPosition is(R:3,C:3)goal location 0(R:0,C:0)goal location 1(R:0,C:8)
Thu Sep 12 11:07:23 IST 2013	ended is false
Thu Sep 12 11:07:28 IST 2013	A Phase Ended: Feedback Phase
Thu Sep 12 11:07:28 IST 2013	 numberofMoves in round 7 is 1
Thu Sep 12 11:07:28 IST 2013	Swaping roles:
Thu Sep 12 11:07:28 IST 2013	Protocol: A New Phase Began: Communication Phase. loop is true
Thu Sep 12 11:07:28 IST 2013	---------- Beginning Communication Phase at round 8 ----------
Thu Sep 12 11:08:13 IST 2013	Received communication message 
Thu Sep 12 11:08:13 IST 2013	From player: 500
Thu Sep 12 11:08:13 IST 2013	To player: 540
Thu Sep 12 11:08:13 IST 2013	Chips to send by proposer: { chips  'CTRed':0 'CTPurple':0 'CTGreen':0 'grey78':1 'CTYellow':2 }
Thu Sep 12 11:08:13 IST 2013	Chips to send by responder: { chips  'CTRed':18 'CTPurple':1 'CTGreen':0 'grey78':0 'CTYellow':0 }
Thu Sep 12 11:08:26 IST 2013	Received communication message 
Thu Sep 12 11:08:26 IST 2013	Proposer 1 accepted? false
Thu Sep 12 11:08:26 IST 2013	case that we had one reject, and one accept
Thu Sep 12 11:08:26 IST 2013	A Phase Ended: Communication Phase
Thu Sep 12 11:08:26 IST 2013	Protocol: A New Phase Began: Movement Phase. loop is true
Thu Sep 12 11:08:26 IST 2013	---------- Beginning Movement Phase at round 8 ----------
Thu Sep 12 11:09:10 IST 2013	A Phase Ended: Movement Phase
Thu Sep 12 11:09:10 IST 2013	Protocol: A New Phase Began: Feedback Phase. loop is true
Thu Sep 12 11:09:10 IST 2013	---------- Beginning Feedback Phase at round 8 ----------
Thu Sep 12 11:09:10 IST 2013	Number of consecutive no movements for player 500 is 0
Thu Sep 12 11:09:10 IST 2013	TDPlayerPosition is(R:3,C:5)goal location 0(R:0,C:0)goal location 1(R:0,C:8)
Thu Sep 12 11:09:10 IST 2013	ended is false
Thu Sep 12 11:09:15 IST 2013	A Phase Ended: Feedback Phase
Thu Sep 12 11:09:15 IST 2013	 numberofMoves in round 8 is 2
Thu Sep 12 11:09:15 IST 2013	Swaping roles:
Thu Sep 12 11:09:15 IST 2013	Protocol: A New Phase Began: Communication Phase. loop is true
Thu Sep 12 11:09:15 IST 2013	---------- Beginning Communication Phase at round 9 ----------
Thu Sep 12 11:09:15 IST 2013	Received communication message 
Thu Sep 12 11:09:15 IST 2013	From player: 530
Thu Sep 12 11:09:15 IST 2013	To player: 500
Thu Sep 12 11:09:15 IST 2013	Chips to send by proposer: { chips  'CTRed':6 'CTPurple':2 'CTYellow':0 }
Thu Sep 12 11:09:15 IST 2013	Chips to send by responder: { chips  'grey78':2 }
Thu Sep 12 11:10:18 IST 2013	Received communication message 
Thu Sep 12 11:10:18 IST 2013	From player: 540
Thu Sep 12 11:10:18 IST 2013	To player: 500
Thu Sep 12 11:10:18 IST 2013	Chips to send by proposer: { chips  'CTRed':10 'CTPurple':0 'CTGreen':0 'grey78':0 'CTYellow':0 }
Thu Sep 12 11:10:18 IST 2013	Chips to send by responder: { chips  'CTRed':0 'CTPurple':0 'CTGreen':0 'grey78':0 'CTYellow':3 }
Thu Sep 12 11:10:45 IST 2013	Received communication message 
Thu Sep 12 11:10:45 IST 2013	Proposer 1 accepted? true
Thu Sep 12 11:10:45 IST 2013	A Phase Ended: Communication Phase
Thu Sep 12 11:10:45 IST 2013	Protocol: A New Phase Began: Movement Phase. loop is true
Thu Sep 12 11:10:45 IST 2013	---------- Beginning Movement Phase at round 9 ----------
Thu Sep 12 11:11:30 IST 2013	A Phase Ended: Movement Phase
Thu Sep 12 11:11:30 IST 2013	Protocol: A New Phase Began: Feedback Phase. loop is true
Thu Sep 12 11:11:30 IST 2013	---------- Beginning Feedback Phase at round 9 ----------
Thu Sep 12 11:11:30 IST 2013	Number of consecutive no movements for player 500 is 0
Thu Sep 12 11:11:30 IST 2013	TDPlayerPosition is(R:3,C:6)goal location 0(R:0,C:0)goal location 1(R:0,C:8)
Thu Sep 12 11:11:30 IST 2013	ended is false
Thu Sep 12 11:11:35 IST 2013	A Phase Ended: Feedback Phase
Thu Sep 12 11:11:35 IST 2013	 numberofMoves in round 9 is 1
Thu Sep 12 11:11:35 IST 2013	Swaping roles:
Thu Sep 12 11:11:35 IST 2013	Protocol: A New Phase Began: Communication Phase. loop is true
Thu Sep 12 11:11:35 IST 2013	---------- Beginning Communication Phase at round 10 ----------
Thu Sep 12 11:12:07 IST 2013	Received communication message 
Thu Sep 12 11:12:07 IST 2013	From player: 500
Thu Sep 12 11:12:07 IST 2013	To player: 540
Thu Sep 12 11:12:07 IST 2013	Chips to send by proposer: { chips  'CTRed':0 'CTPurple':0 'CTGreen':0 'grey78':0 'CTYellow':1 }
Thu Sep 12 11:12:07 IST 2013	Chips to send by responder: { chips  'CTRed':6 'CTPurple':4 'CTGreen':0 'grey78':0 'CTYellow':0 }
Thu Sep 12 11:12:45 IST 2013	Received communication message 
Thu Sep 12 11:12:45 IST 2013	Proposer 1 accepted? true
Thu Sep 12 11:12:45 IST 2013	A Phase Ended: Communication Phase
Thu Sep 12 11:12:45 IST 2013	Protocol: A New Phase Began: Movement Phase. loop is true
Thu Sep 12 11:12:45 IST 2013	---------- Beginning Movement Phase at round 10 ----------
Thu Sep 12 11:13:29 IST 2013	A Phase Ended: Movement Phase
Thu Sep 12 11:13:29 IST 2013	Protocol: A New Phase Began: Feedback Phase. loop is true
Thu Sep 12 11:13:29 IST 2013	---------- Beginning Feedback Phase at round 10 ----------
Thu Sep 12 11:13:29 IST 2013	Number of consecutive no movements for player 500 is 0
Thu Sep 12 11:13:29 IST 2013	TDPlayerPosition is(R:3,C:5)goal location 0(R:0,C:0)goal location 1(R:0,C:8)
Thu Sep 12 11:13:29 IST 2013	ended is false
Thu Sep 12 11:13:34 IST 2013	A Phase Ended: Feedback Phase
Thu Sep 12 11:13:34 IST 2013	 numberofMoves in round 10 is 2
Thu Sep 12 11:13:34 IST 2013	Swaping roles:
Thu Sep 12 11:13:34 IST 2013	Protocol: A New Phase Began: Communication Phase. loop is true
Thu Sep 12 11:13:34 IST 2013	---------- Beginning Communication Phase at round 11 ----------
Thu Sep 12 11:13:34 IST 2013	Received communication message 
Thu Sep 12 11:13:34 IST 2013	From player: 530
Thu Sep 12 11:13:34 IST 2013	To player: 500
Thu Sep 12 11:13:34 IST 2013	Chips to send by proposer: { chips  'grey78':0 }
Thu Sep 12 11:13:34 IST 2013	Chips to send by responder: { chips  'CTRed':0 'CTPurple':0 }
Thu Sep 12 11:14:34 IST 2013	Received communication message 
Thu Sep 12 11:14:34 IST 2013	From player: 540
Thu Sep 12 11:14:34 IST 2013	To player: 500
Thu Sep 12 11:14:34 IST 2013	Chips to send by proposer: { chips  'CTRed':5 'CTPurple':0 'CTGreen':0 'grey78':0 'CTYellow':0 }
Thu Sep 12 11:14:34 IST 2013	Chips to send by responder: { chips  'CTRed':15 'CTPurple':2 'CTGreen':0 'grey78':0 'CTYellow':1 }
Thu Sep 12 11:14:51 IST 2013	Received communication message 
Thu Sep 12 11:14:51 IST 2013	Proposer 0 accepted? true
Thu Sep 12 11:14:51 IST 2013	A Phase Ended: Communication Phase
Thu Sep 12 11:14:51 IST 2013	Protocol: A New Phase Began: Movement Phase. loop is true
Thu Sep 12 11:14:51 IST 2013	---------- Beginning Movement Phase at round 11 ----------
Thu Sep 12 11:15:36 IST 2013	A Phase Ended: Movement Phase
Thu Sep 12 11:15:36 IST 2013	Protocol: A New Phase Began: Feedback Phase. loop is true
Thu Sep 12 11:15:36 IST 2013	---------- Beginning Feedback Phase at round 11 ----------
Thu Sep 12 11:15:36 IST 2013	Number of consecutive no movements for player 500 is 0
Thu Sep 12 11:15:36 IST 2013	TDPlayerPosition is(R:3,C:7)goal location 0(R:0,C:0)goal location 1(R:0,C:8)
Thu Sep 12 11:15:36 IST 2013	ended is false
Thu Sep 12 11:15:41 IST 2013	A Phase Ended: Feedback Phase
Thu Sep 12 11:15:41 IST 2013	 numberofMoves in round 11 is 3
Thu Sep 12 11:15:41 IST 2013	Swaping roles:
Thu Sep 12 11:15:41 IST 2013	Protocol: A New Phase Began: Communication Phase. loop is true
Thu Sep 12 11:15:41 IST 2013	---------- Beginning Communication Phase at round 12 ----------
Thu Sep 12 11:17:44 IST 2013	Received communication message 
Thu Sep 12 11:17:44 IST 2013	From player: 500
Thu Sep 12 11:17:44 IST 2013	To player: 530
Thu Sep 12 11:17:44 IST 2013	Chips to send by proposer: { chips  'CTRed':4 'CTPurple':0 'CTGreen':0 'grey78':1 'CTYellow':0 }
Thu Sep 12 11:17:44 IST 2013	Chips to send by responder: { chips  'CTRed':6 'CTPurple':2 'CTGreen':0 'grey78':0 'CTYellow':0 }
Thu Sep 12 11:17:44 IST 2013	Received communication message 
Thu Sep 12 11:17:44 IST 2013	Proposer 0 accepted? true
Thu Sep 12 11:17:44 IST 2013	A Phase Ended: Communication Phase
Thu Sep 12 11:17:44 IST 2013	Protocol: A New Phase Began: Movement Phase. loop is true
Thu Sep 12 11:17:44 IST 2013	---------- Beginning Movement Phase at round 12 ----------
Thu Sep 12 11:18:28 IST 2013	A Phase Ended: Movement Phase
Thu Sep 12 11:18:28 IST 2013	Protocol: A New Phase Began: Feedback Phase. loop is true
Thu Sep 12 11:18:28 IST 2013	---------- Beginning Feedback Phase at round 12 ----------
Thu Sep 12 11:18:28 IST 2013	Number of consecutive no movements for player 500 is 0
Thu Sep 12 11:18:28 IST 2013	TDPlayerPosition is(R:1,C:5)goal location 0(R:0,C:0)goal location 1(R:0,C:8)
Thu Sep 12 11:18:28 IST 2013	ended is false
Thu Sep 12 11:18:33 IST 2013	A Phase Ended: Feedback Phase
Thu Sep 12 11:18:33 IST 2013	 numberofMoves in round 12 is 4
Thu Sep 12 11:18:33 IST 2013	Swaping roles:
Thu Sep 12 11:18:33 IST 2013	Protocol: A New Phase Began: Communication Phase. loop is true
Thu Sep 12 11:18:33 IST 2013	---------- Beginning Communication Phase at round 13 ----------
Thu Sep 12 11:18:33 IST 2013	Received communication message 
Thu Sep 12 11:18:33 IST 2013	From player: 530
Thu Sep 12 11:18:33 IST 2013	To player: 500
Thu Sep 12 11:18:33 IST 2013	Chips to send by proposer: { chips  'grey78':0 }
Thu Sep 12 11:18:33 IST 2013	Chips to send by responder: { chips  'CTRed':0 'CTPurple':0 }
Thu Sep 12 11:19:12 IST 2013	Received communication message 
Thu Sep 12 11:19:12 IST 2013	From player: 540
Thu Sep 12 11:19:12 IST 2013	To player: 500
Thu Sep 12 11:19:12 IST 2013	Chips to send by proposer: { chips  'CTRed':0 'CTPurple':1 'CTGreen':0 'grey78':0 'CTYellow':1 }
Thu Sep 12 11:19:12 IST 2013	Chips to send by responder: { chips  'CTRed':10 'CTPurple':0 'CTGreen':0 'grey78':0 'CTYellow':0 }
Thu Sep 12 11:19:22 IST 2013	Received communication message 
Thu Sep 12 11:19:22 IST 2013	Proposer 1 accepted? false
Thu Sep 12 11:19:22 IST 2013	case that we had one reject, and one accept
Thu Sep 12 11:19:26 IST 2013	Received communication message 
Thu Sep 12 11:19:26 IST 2013	Proposer 0 accepted? true
Thu Sep 12 11:19:26 IST 2013	A Phase Ended: Communication Phase
Thu Sep 12 11:19:26 IST 2013	Protocol: A New Phase Began: Movement Phase. loop is true
Thu Sep 12 11:19:26 IST 2013	---------- Beginning Movement Phase at round 13 ----------
Thu Sep 12 11:20:11 IST 2013	A Phase Ended: Movement Phase
Thu Sep 12 11:20:11 IST 2013	Protocol: A New Phase Began: Feedback Phase. loop is true
Thu Sep 12 11:20:11 IST 2013	---------- Beginning Feedback Phase at round 13 ----------
Thu Sep 12 11:20:11 IST 2013	Number of consecutive no movements for player 500 is 1
Thu Sep 12 11:20:11 IST 2013	TDPlayerPosition is(R:1,C:5)goal location 0(R:0,C:0)goal location 1(R:0,C:8)
Thu Sep 12 11:20:11 IST 2013	ended is false
Thu Sep 12 11:20:16 IST 2013	A Phase Ended: Feedback Phase
Thu Sep 12 11:20:16 IST 2013	 numberofMoves in round 13 is 0
Thu Sep 12 11:20:16 IST 2013	Swaping roles:
Thu Sep 12 11:20:16 IST 2013	Protocol: A New Phase Began: Communication Phase. loop is true
Thu Sep 12 11:20:16 IST 2013	---------- Beginning Communication Phase at round 14 ----------
Thu Sep 12 11:20:50 IST 2013	Received communication message 
Thu Sep 12 11:20:50 IST 2013	From player: 500
Thu Sep 12 11:20:50 IST 2013	To player: 540
Thu Sep 12 11:20:50 IST 2013	Chips to send by proposer: { chips  'CTRed':3 'CTPurple':0 'CTGreen':0 'grey78':2 'CTYellow':0 }
Thu Sep 12 11:20:50 IST 2013	Chips to send by responder: { chips  'CTRed':6 'CTPurple':3 'CTGreen':0 'grey78':0 'CTYellow':0 }
Thu Sep 12 11:21:05 IST 2013	Received communication message 
Thu Sep 12 11:21:05 IST 2013	Proposer 1 accepted? false
Thu Sep 12 11:21:05 IST 2013	case that we had one reject, and one accept
Thu Sep 12 11:21:05 IST 2013	A Phase Ended: Communication Phase
Thu Sep 12 11:21:05 IST 2013	Protocol: A New Phase Began: Movement Phase. loop is true
Thu Sep 12 11:21:05 IST 2013	---------- Beginning Movement Phase at round 14 ----------
Thu Sep 12 11:21:49 IST 2013	A Phase Ended: Movement Phase
Thu Sep 12 11:21:49 IST 2013	Protocol: A New Phase Began: Feedback Phase. loop is true
Thu Sep 12 11:21:49 IST 2013	---------- Beginning Feedback Phase at round 14 ----------
Thu Sep 12 11:21:49 IST 2013	ended is true
Thu Sep 12 11:21:54 IST 2013	A Phase Ended: Feedback Phase
Thu Sep 12 11:21:54 IST 2013	 numberofMoves in round 14 is 0
Thu Sep 12 11:21:54 IST 2013	Loop status: false
Thu Sep 12 11:21:54 IST 2013	Player: 500 ,role: Proposer score is: 235
Thu Sep 12 11:21:54 IST 2013	Player: 500Game Ended
Thu Sep 12 11:21:54 IST 2013	Player: 540 ,role: Responder score is: 120
Thu Sep 12 11:21:54 IST 2013	Player: 540Game Ended
Thu Sep 12 11:21:54 IST 2013	Player: 530 ,role: Responder score is: 70
Thu Sep 12 11:21:54 IST 2013	Player: 530Game Ended
Thu Sep 12 11:21:54 IST 2013	Protocol: A New Phase Began: Communication Phase. loop is false
Thu Sep 12 11:21:54 IST 2013	---------- Beginning Communication Phase at round 14 ----------
