Tue Sep 11 18:56:28 IDT 2012	This is the CT debug logger; svn version 638; sep 27 09
Tue Sep 11 18:56:28 IDT 2012	Tue Sep 11 18:56:28 IDT 2012
Tue Sep 11 18:56:28 IDT 2012	ID Number: 68890
Tue Sep 11 18:56:28 IDT 2012	Creating board
Tue Sep 11 18:56:28 IDT 2012	<colors>
Tue Sep 11 18:56:28 IDT 2012	{ GamePalette  'CTPurple':0 'CTRed':1 'CTGreen':2 'grey78':3 'CTYellow':4 }
Tue Sep 11 18:56:28 IDT 2012	<rows>
Tue Sep 11 18:56:28 IDT 2012	6
Tue Sep 11 18:56:28 IDT 2012	<columns>
Tue Sep 11 18:56:28 IDT 2012	9
Tue Sep 11 18:56:28 IDT 2012	<squaresColors>
Tue Sep 11 18:56:28 IDT 2012	grey78 CTGreen CTGreen CTGreen CTGreen CTGreen CTGreen CTGreen CTYellow 
Tue Sep 11 18:56:28 IDT 2012	grey78 CTPurple CTPurple CTPurple CTPurple CTPurple CTPurple CTPurple CTYellow 
Tue Sep 11 18:56:28 IDT 2012	grey78 grey78 CTGreen CTGreen CTGreen CTGreen CTGreen CTYellow CTYellow 
Tue Sep 11 18:56:28 IDT 2012	CTGreen grey78 grey78 CTPurple CTPurple CTPurple CTYellow CTYellow CTGreen 
Tue Sep 11 18:56:28 IDT 2012	CTGreen CTGreen grey78 grey78 CTGreen CTYellow CTYellow CTGreen CTGreen 
Tue Sep 11 18:56:28 IDT 2012	CTGreen CTGreen CTGreen grey78 CTGreen CTYellow CTGreen CTGreen CTGreen 
Tue Sep 11 18:56:28 IDT 2012	</squareColors>
Tue Sep 11 18:56:28 IDT 2012	<goalPosition>
Tue Sep 11 18:56:28 IDT 2012	Goal position: (R:0,C:0)
Tue Sep 11 18:56:28 IDT 2012	<goalPosition>
Tue Sep 11 18:56:28 IDT 2012	Goal position: (R:0,C:0)
Tue Sep 11 18:56:28 IDT 2012	<firstPlayerPossibleGoal1>
Tue Sep 11 18:56:28 IDT 2012	0.5
Tue Sep 11 18:56:28 IDT 2012	0
Tue Sep 11 18:56:28 IDT 2012	0
Tue Sep 11 18:56:28 IDT 2012	</firstPlayerPossibleGoal1>
Tue Sep 11 18:56:28 IDT 2012	<firstPlayerPossibleGoal2>
Tue Sep 11 18:56:28 IDT 2012	0.5
Tue Sep 11 18:56:28 IDT 2012	0
Tue Sep 11 18:56:28 IDT 2012	8
Tue Sep 11 18:56:28 IDT 2012	</firstPlayerPossibleGoal2>
Tue Sep 11 18:56:28 IDT 2012	<numberOfPlayers>
Tue Sep 11 18:56:28 IDT 2012	3
Tue Sep 11 18:56:28 IDT 2012	<firstPlayerChips>
Tue Sep 11 18:56:28 IDT 2012	Setting chips for player: 100 id:0
Tue Sep 11 18:56:28 IDT 2012	{ chips  'CTRed':18 'CTGreen':0 'CTPurple':0 'grey78':0 'CTYellow':0 }
Tue Sep 11 18:56:28 IDT 2012	Player position: (R:5,C:4)
Tue Sep 11 18:56:28 IDT 2012	Setting chips for player: 200 id:1
Tue Sep 11 18:56:28 IDT 2012	{ chips  'CTRed':33 'CTGreen':0 'CTPurple':7 'grey78':0 'CTYellow':9 }
Tue Sep 11 18:56:28 IDT 2012	Player position: (R:0,C:8)
Tue Sep 11 18:56:28 IDT 2012	Setting chips for player: 300 id:2
Tue Sep 11 18:56:28 IDT 2012	{ chips  'CTRed':33 'CTGreen':0 'CTPurple':7 'grey78':9 'CTYellow':0 }
Tue Sep 11 18:56:28 IDT 2012	Player position: (R:0,C:0)
Tue Sep 11 18:56:28 IDT 2012	Protocol: A New Phase Began: Strategy Prep Phase. loop is true
Tue Sep 11 18:56:28 IDT 2012	---------- Beginning Strategy Prep Phase at round 0 ----------
Tue Sep 11 18:57:28 IDT 2012	A Phase Ended: Strategy Prep Phase
Tue Sep 11 18:57:28 IDT 2012	Protocol: A New Phase Began: Communication Phase. loop is true
Tue Sep 11 18:57:28 IDT 2012	---------- Beginning Communication Phase at round 1 ----------
Tue Sep 11 18:58:19 IDT 2012	Received communication message 
Tue Sep 11 18:58:19 IDT 2012	From player: 300
Tue Sep 11 18:58:19 IDT 2012	To player: 100
Tue Sep 11 18:58:19 IDT 2012	Chips to send by proposer: { chips  'CTRed':3 'CTPurple':1 'CTGreen':0 'grey78':6 'CTYellow':0 }
Tue Sep 11 18:58:19 IDT 2012	Chips to send by responder: { chips  'CTRed':4 'CTPurple':0 'CTGreen':0 'grey78':0 'CTYellow':0 }
Tue Sep 11 19:01:39 IDT 2012	Received communication message 
Tue Sep 11 19:01:39 IDT 2012	Proposer 1 accepted? true
Tue Sep 11 19:01:39 IDT 2012	A Phase Ended: Communication Phase
Tue Sep 11 19:01:39 IDT 2012	Protocol: A New Phase Began: Movement Phase. loop is true
Tue Sep 11 19:01:39 IDT 2012	---------- Beginning Movement Phase at round 1 ----------
Tue Sep 11 19:02:23 IDT 2012	A Phase Ended: Movement Phase
Tue Sep 11 19:02:23 IDT 2012	Protocol: A New Phase Began: Feedback Phase. loop is true
Tue Sep 11 19:02:23 IDT 2012	---------- Beginning Feedback Phase at round 1 ----------
Tue Sep 11 19:02:23 IDT 2012	Number of consecutive no movements for player 100 is 0
Tue Sep 11 19:02:23 IDT 2012	TDPlayerPosition is(R:3,C:2)goal location 0(R:0,C:0)goal location 1(R:0,C:8)
Tue Sep 11 19:02:23 IDT 2012	ended is false
Tue Sep 11 19:02:28 IDT 2012	A Phase Ended: Feedback Phase
Tue Sep 11 19:02:28 IDT 2012	 numberofMoves in round 1 is 4
Tue Sep 11 19:02:28 IDT 2012	Swaping roles:
Tue Sep 11 19:02:28 IDT 2012	Protocol: A New Phase Began: Communication Phase. loop is true
Tue Sep 11 19:02:28 IDT 2012	---------- Beginning Communication Phase at round 2 ----------
Tue Sep 11 19:04:17 IDT 2012	Received communication message 
Tue Sep 11 19:04:17 IDT 2012	From player: 100
Tue Sep 11 19:04:17 IDT 2012	To player: 200
Tue Sep 11 19:04:17 IDT 2012	Chips to send by proposer: { chips  'CTRed':2 'CTPurple':1 'CTGreen':0 'grey78':0 'CTYellow':0 }
Tue Sep 11 19:04:17 IDT 2012	Chips to send by responder: { chips  'CTRed':9 'CTPurple':1 'CTGreen':0 'grey78':0 'CTYellow':0 }
Tue Sep 11 19:04:34 IDT 2012	Received communication message 
Tue Sep 11 19:04:34 IDT 2012	Proposer 0 accepted? false
Tue Sep 11 19:04:34 IDT 2012	case that we had one reject, and one accept
Tue Sep 11 19:04:34 IDT 2012	A Phase Ended: Communication Phase
Tue Sep 11 19:04:34 IDT 2012	Protocol: A New Phase Began: Movement Phase. loop is true
Tue Sep 11 19:04:34 IDT 2012	---------- Beginning Movement Phase at round 2 ----------
Tue Sep 11 19:05:18 IDT 2012	A Phase Ended: Movement Phase
Tue Sep 11 19:05:18 IDT 2012	Protocol: A New Phase Began: Feedback Phase. loop is true
Tue Sep 11 19:05:18 IDT 2012	---------- Beginning Feedback Phase at round 2 ----------
Tue Sep 11 19:05:18 IDT 2012	Number of consecutive no movements for player 100 is 0
Tue Sep 11 19:05:18 IDT 2012	TDPlayerPosition is(R:2,C:1)goal location 0(R:0,C:0)goal location 1(R:0,C:8)
Tue Sep 11 19:05:18 IDT 2012	ended is false
Tue Sep 11 19:05:23 IDT 2012	A Phase Ended: Feedback Phase
Tue Sep 11 19:05:23 IDT 2012	 numberofMoves in round 2 is 3
Tue Sep 11 19:05:23 IDT 2012	Swaping roles:
Tue Sep 11 19:05:23 IDT 2012	Protocol: A New Phase Began: Communication Phase. loop is true
Tue Sep 11 19:05:23 IDT 2012	---------- Beginning Communication Phase at round 3 ----------
Tue Sep 11 19:06:09 IDT 2012	Received communication message 
Tue Sep 11 19:06:09 IDT 2012	From player: 200
Tue Sep 11 19:06:09 IDT 2012	To player: 100
Tue Sep 11 19:06:09 IDT 2012	Chips to send by proposer: { chips  'CTRed':0 'CTPurple':2 'CTGreen':0 'grey78':0 'CTYellow':0 }
Tue Sep 11 19:06:09 IDT 2012	Chips to send by responder: { chips  'CTRed':9 'CTPurple':0 'CTGreen':0 'grey78':0 'CTYellow':0 }
Tue Sep 11 19:06:49 IDT 2012	Received communication message 
Tue Sep 11 19:06:49 IDT 2012	From player: 300
Tue Sep 11 19:06:49 IDT 2012	To player: 100
Tue Sep 11 19:06:49 IDT 2012	Chips to send by proposer: { chips  'CTRed':0 'CTPurple':0 'CTGreen':0 'grey78':2 'CTYellow':0 }
Tue Sep 11 19:06:49 IDT 2012	Chips to send by responder: { chips  'CTRed':9 'CTPurple':0 'CTGreen':0 'grey78':0 'CTYellow':0 }
Tue Sep 11 19:07:17 IDT 2012	Received communication message 
Tue Sep 11 19:07:17 IDT 2012	Proposer 1 accepted? false
Tue Sep 11 19:07:17 IDT 2012	case that we had one reject, and one accept
Tue Sep 11 19:07:18 IDT 2012	Received communication message 
Tue Sep 11 19:07:18 IDT 2012	Proposer 0 accepted? false
Tue Sep 11 19:07:18 IDT 2012	case that we had one reject, and one accept
Tue Sep 11 19:07:18 IDT 2012	A Phase Ended: Communication Phase
Tue Sep 11 19:07:18 IDT 2012	Protocol: A New Phase Began: Movement Phase. loop is true
Tue Sep 11 19:07:18 IDT 2012	---------- Beginning Movement Phase at round 3 ----------
Tue Sep 11 19:08:02 IDT 2012	A Phase Ended: Movement Phase
Tue Sep 11 19:08:02 IDT 2012	Protocol: A New Phase Began: Feedback Phase. loop is true
Tue Sep 11 19:08:02 IDT 2012	---------- Beginning Feedback Phase at round 3 ----------
Tue Sep 11 19:08:02 IDT 2012	Number of consecutive no movements for player 100 is 1
Tue Sep 11 19:08:02 IDT 2012	TDPlayerPosition is(R:1,C:1)goal location 0(R:0,C:0)goal location 1(R:0,C:8)
Tue Sep 11 19:08:02 IDT 2012	Ending game, TD Player move as much as it can towards goal
Tue Sep 11 19:08:02 IDT 2012	ended is true
Tue Sep 11 19:08:07 IDT 2012	A Phase Ended: Feedback Phase
Tue Sep 11 19:08:07 IDT 2012	 numberofMoves in round 3 is 0
Tue Sep 11 19:08:07 IDT 2012	Loop status: false
Tue Sep 11 19:08:07 IDT 2012	Player: 300 ,role: Proposer score is: 215
Tue Sep 11 19:08:07 IDT 2012	Player: 300Game Ended
Tue Sep 11 19:08:07 IDT 2012	Player: 200 ,role: Proposer score is: 245
Tue Sep 11 19:08:07 IDT 2012	Player: 200Game Ended
Tue Sep 11 19:08:07 IDT 2012	Player: 100 ,role: Responder score is: 65
Tue Sep 11 19:08:07 IDT 2012	Player: 100Game Ended
Tue Sep 11 19:08:07 IDT 2012	Protocol: A New Phase Began: Communication Phase. loop is false
Tue Sep 11 19:08:07 IDT 2012	---------- Beginning Communication Phase at round 3 ----------
