Tue Sep 03 16:41:47 IDT 2013	This is the CT debug logger; svn version 638; sep 27 09
Tue Sep 03 16:41:47 IDT 2013	Tue Sep 03 16:41:47 IDT 2013
Tue Sep 03 16:41:47 IDT 2013	ThreePlayersAgentPlayer(): entering.
Tue Sep 03 16:42:58 IDT 2013	phaseAdvanced(): entering.
Tue Sep 03 16:42:58 IDT 2013	phaseAdvanced(): new phase is 'Strategy Prep Phase'.
Tue Sep 03 16:43:58 IDT 2013	phaseAdvanced(): entering.
Tue Sep 03 16:43:58 IDT 2013	phaseAdvanced(): new phase is 'Communication Phase'.
Tue Sep 03 16:46:47 IDT 2013	onReceipt(): entering.
Tue Sep 03 16:46:47 IDT 2013	onReceipt(): opponent's proposal: ({ chips  'CTRed':12 'CTPurple':2 'CTGreen':0 'grey78':0 'CTYellow':0 }, { chips  'CTRed':0 'CTPurple':0 'CTGreen':0 'grey78':4 'CTYellow':1 }).
Tue Sep 03 16:46:47 IDT 2013	responseToSend(): entering.
Tue Sep 03 16:46:47 IDT 2013	compareProposals(): decision: 1 utility 165.0
Tue Sep 03 16:46:47 IDT 2013	responseToSend(): accepting proposal ({ chips  'CTRed':12 'CTPurple':2 'CTGreen':0 'grey78':0 'CTYellow':0 }, { chips  'CTRed':0 'CTPurple':0 'CTGreen':0 'grey78':4 'CTYellow':1 }).
Tue Sep 03 16:46:47 IDT 2013	phaseAdvanced(): entering.
Tue Sep 03 16:46:47 IDT 2013	phaseAdvanced(): new phase is 'Movement Phase'.
Tue Sep 03 16:47:31 IDT 2013	phaseAdvanced(): entering.
Tue Sep 03 16:47:31 IDT 2013	phaseAdvanced(): new phase is 'Feedback Phase'.
Tue Sep 03 16:47:36 IDT 2013	phaseAdvanced(): entering.
Tue Sep 03 16:47:36 IDT 2013	phaseAdvanced(): new phase is 'Communication Phase'.
Tue Sep 03 16:48:30 IDT 2013	onReceipt(): entering.
Tue Sep 03 16:48:30 IDT 2013	phaseAdvanced(): entering.
Tue Sep 03 16:48:30 IDT 2013	phaseAdvanced(): new phase is 'Movement Phase'.
Tue Sep 03 16:49:14 IDT 2013	phaseAdvanced(): entering.
Tue Sep 03 16:49:14 IDT 2013	phaseAdvanced(): new phase is 'Feedback Phase'.
Tue Sep 03 16:49:19 IDT 2013	phaseAdvanced(): entering.
Tue Sep 03 16:49:19 IDT 2013	phaseAdvanced(): new phase is 'Communication Phase'.
Tue Sep 03 16:49:43 IDT 2013	onReceipt(): entering.
Tue Sep 03 16:49:43 IDT 2013	onReceipt(): opponent's proposal: ({ chips  'CTRed':5 'CTPurple':0 'CTGreen':0 'grey78':0 'CTYellow':0 }, { chips  'CTRed':0 'CTPurple':0 'CTGreen':0 'grey78':0 'CTYellow':2 }).
Tue Sep 03 16:52:00 IDT 2013	responseToSend(): entering.
Tue Sep 03 16:52:00 IDT 2013	compareProposals(): decision: 0 utility 180.0
Tue Sep 03 16:52:00 IDT 2013	responseToSend(): accepting proposal ({ chips  'CTRed':5 'CTPurple':0 'CTGreen':0 'grey78':0 'CTYellow':0 }, { chips  'CTRed':0 'CTPurple':0 'CTGreen':0 'grey78':0 'CTYellow':2 }).
Tue Sep 03 16:52:00 IDT 2013	phaseAdvanced(): entering.
Tue Sep 03 16:52:00 IDT 2013	phaseAdvanced(): new phase is 'Movement Phase'.
Tue Sep 03 16:52:44 IDT 2013	phaseAdvanced(): entering.
Tue Sep 03 16:52:44 IDT 2013	phaseAdvanced(): new phase is 'Feedback Phase'.
Tue Sep 03 16:52:49 IDT 2013	phaseAdvanced(): entering.
Tue Sep 03 16:52:49 IDT 2013	phaseAdvanced(): new phase is 'Communication Phase'.
Tue Sep 03 16:53:46 IDT 2013	onReceipt(): entering.
Tue Sep 03 16:53:46 IDT 2013	phaseAdvanced(): entering.
Tue Sep 03 16:53:46 IDT 2013	phaseAdvanced(): new phase is 'Movement Phase'.
Tue Sep 03 16:54:31 IDT 2013	phaseAdvanced(): entering.
Tue Sep 03 16:54:31 IDT 2013	phaseAdvanced(): new phase is 'Feedback Phase'.
Tue Sep 03 16:54:36 IDT 2013	phaseAdvanced(): entering.
Tue Sep 03 16:54:36 IDT 2013	phaseAdvanced(): new phase is 'Communication Phase'.
Tue Sep 03 16:55:35 IDT 2013	onReceipt(): entering.
Tue Sep 03 16:55:35 IDT 2013	onReceipt(): opponent's proposal: ({ chips  'CTRed':15 'CTPurple':1 'CTGreen':0 'grey78':0 'CTYellow':0 }, { chips  'CTRed':0 'CTPurple':0 'CTGreen':0 'grey78':1 'CTYellow':1 }).
Tue Sep 03 16:55:43 IDT 2013	onReceipt(): entering.
Tue Sep 03 16:55:43 IDT 2013	onReceipt(): opponent's proposal: ({ chips  'CTRed':10 'CTPurple':1 'CTGreen':0 'grey78':0 'CTYellow':0 }, { chips  'CTRed':0 'CTPurple':0 'CTGreen':0 'grey78':6 'CTYellow':1 }).
Tue Sep 03 16:55:43 IDT 2013	responseToSend(): entering.
Tue Sep 03 16:55:43 IDT 2013	compareProposals(): decision: 1 utility 245.0
Tue Sep 03 16:55:43 IDT 2013	responseToSend(): accepting proposal ({ chips  'CTRed':15 'CTPurple':1 'CTGreen':0 'grey78':0 'CTYellow':0 }, { chips  'CTRed':0 'CTPurple':0 'CTGreen':0 'grey78':1 'CTYellow':1 }).
Tue Sep 03 16:55:43 IDT 2013	phaseAdvanced(): entering.
Tue Sep 03 16:55:43 IDT 2013	phaseAdvanced(): new phase is 'Movement Phase'.
Tue Sep 03 16:56:27 IDT 2013	phaseAdvanced(): entering.
Tue Sep 03 16:56:27 IDT 2013	phaseAdvanced(): new phase is 'Feedback Phase'.
Tue Sep 03 16:56:32 IDT 2013	phaseAdvanced(): entering.
Tue Sep 03 16:56:32 IDT 2013	phaseAdvanced(): new phase is 'Communication Phase'.
Tue Sep 03 16:57:10 IDT 2013	onReceipt(): entering.
Tue Sep 03 16:57:10 IDT 2013	phaseAdvanced(): entering.
Tue Sep 03 16:57:10 IDT 2013	phaseAdvanced(): new phase is 'Movement Phase'.
Tue Sep 03 16:57:54 IDT 2013	phaseAdvanced(): entering.
Tue Sep 03 16:57:54 IDT 2013	phaseAdvanced(): new phase is 'Feedback Phase'.
Tue Sep 03 16:57:59 IDT 2013	phaseAdvanced(): entering.
Tue Sep 03 16:57:59 IDT 2013	phaseAdvanced(): new phase is 'Communication Phase'.
Tue Sep 03 16:58:59 IDT 2013	onReceipt(): entering.
Tue Sep 03 16:58:59 IDT 2013	onReceipt(): opponent's proposal: ({ chips  'CTRed':4 'CTPurple':2 'CTGreen':0 'grey78':0 'CTYellow':0 }, { chips  'CTRed':0 'CTPurple':0 'CTGreen':0 'grey78':0 'CTYellow':2 }).
Tue Sep 03 16:59:42 IDT 2013	onReceipt(): entering.
Tue Sep 03 16:59:42 IDT 2013	onReceipt(): opponent's proposal: ({ chips  'CTRed':4 'CTPurple':2 'CTGreen':0 'grey78':0 'CTYellow':0 }, { chips  'CTRed':0 'CTPurple':2 'CTGreen':0 'grey78':3 'CTYellow':0 }).
Tue Sep 03 16:59:42 IDT 2013	responseToSend(): entering.
Tue Sep 03 16:59:42 IDT 2013	compareProposals(): decision: 1 utility 260.0
Tue Sep 03 16:59:42 IDT 2013	responseToSend(): accepting proposal ({ chips  'CTRed':4 'CTPurple':2 'CTGreen':0 'grey78':0 'CTYellow':0 }, { chips  'CTRed':0 'CTPurple':0 'CTGreen':0 'grey78':0 'CTYellow':2 }).
Tue Sep 03 16:59:42 IDT 2013	phaseAdvanced(): entering.
Tue Sep 03 16:59:42 IDT 2013	phaseAdvanced(): new phase is 'Movement Phase'.
Tue Sep 03 17:00:27 IDT 2013	phaseAdvanced(): entering.
Tue Sep 03 17:00:27 IDT 2013	phaseAdvanced(): new phase is 'Feedback Phase'.
Tue Sep 03 17:00:32 IDT 2013	phaseAdvanced(): entering.
Tue Sep 03 17:00:32 IDT 2013	phaseAdvanced(): new phase is 'Communication Phase'.
Tue Sep 03 17:02:44 IDT 2013	onReceipt(): entering.
Tue Sep 03 17:02:44 IDT 2013	phaseAdvanced(): entering.
Tue Sep 03 17:02:44 IDT 2013	phaseAdvanced(): new phase is 'Movement Phase'.
Tue Sep 03 17:03:28 IDT 2013	phaseAdvanced(): entering.
Tue Sep 03 17:03:28 IDT 2013	phaseAdvanced(): new phase is 'Feedback Phase'.
Tue Sep 03 17:03:33 IDT 2013	phaseAdvanced(): entering.
Tue Sep 03 17:03:33 IDT 2013	phaseAdvanced(): new phase is 'Communication Phase'.
Tue Sep 03 17:04:41 IDT 2013	onReceipt(): entering.
Tue Sep 03 17:04:41 IDT 2013	onReceipt(): opponent's proposal: ({ chips  'CTRed':10 'CTPurple':0 'CTGreen':0 'grey78':0 'CTYellow':0 }, { chips  'CTRed':0 'CTPurple':0 'CTGreen':0 'grey78':5 'CTYellow':0 }).
Tue Sep 03 17:05:29 IDT 2013	onReceipt(): entering.
Tue Sep 03 17:05:29 IDT 2013	onReceipt(): opponent's proposal: ({ chips  'CTRed':0 'CTPurple':0 'CTGreen':0 'grey78':0 'CTYellow':0 }, { chips  'CTRed':20 'CTPurple':0 'CTGreen':0 'grey78':0 'CTYellow':0 }).
Tue Sep 03 17:05:29 IDT 2013	responseToSend(): entering.
Tue Sep 03 17:05:29 IDT 2013	compareProposals(): decision: 0 utility 280.0
Tue Sep 03 17:05:29 IDT 2013	responseToSend(): accepting proposal ({ chips  'CTRed':10 'CTPurple':0 'CTGreen':0 'grey78':0 'CTYellow':0 }, { chips  'CTRed':0 'CTPurple':0 'CTGreen':0 'grey78':5 'CTYellow':0 }).
Tue Sep 03 17:05:29 IDT 2013	phaseAdvanced(): entering.
Tue Sep 03 17:05:29 IDT 2013	phaseAdvanced(): new phase is 'Movement Phase'.
Tue Sep 03 17:06:13 IDT 2013	phaseAdvanced(): entering.
Tue Sep 03 17:06:13 IDT 2013	phaseAdvanced(): new phase is 'Feedback Phase'.
Tue Sep 03 17:06:18 IDT 2013	phaseAdvanced(): entering.
Tue Sep 03 17:06:18 IDT 2013	phaseAdvanced(): new phase is 'Communication Phase'.
Tue Sep 03 17:06:39 IDT 2013	onReceipt(): entering.
Tue Sep 03 17:06:39 IDT 2013	phaseAdvanced(): entering.
Tue Sep 03 17:06:39 IDT 2013	phaseAdvanced(): new phase is 'Movement Phase'.
Tue Sep 03 17:07:23 IDT 2013	phaseAdvanced(): entering.
Tue Sep 03 17:07:23 IDT 2013	phaseAdvanced(): new phase is 'Feedback Phase'.
