Thu May 02 11:23:38 IDT 2013	This is the CT debug logger; svn version 638; sep 27 09
Thu May 02 11:23:38 IDT 2013	Thu May 02 11:23:38 IDT 2013
Thu May 02 11:23:38 IDT 2013	ID Number: 68882
Thu May 02 11:23:38 IDT 2013	Creating board
Thu May 02 11:23:38 IDT 2013	<colors>
Thu May 02 11:23:38 IDT 2013	{ GamePalette  'CTPurple':0 'CTRed':1 'CTGreen':2 'grey78':3 'CTYellow':4 }
Thu May 02 11:23:38 IDT 2013	<rows>
Thu May 02 11:23:38 IDT 2013	6
Thu May 02 11:23:38 IDT 2013	<columns>
Thu May 02 11:23:38 IDT 2013	9
Thu May 02 11:23:38 IDT 2013	<squaresColors>
Thu May 02 11:23:38 IDT 2013	grey78 CTGreen CTGreen CTGreen CTGreen CTGreen CTGreen CTGreen CTYellow 
Thu May 02 11:23:38 IDT 2013	grey78 CTPurple CTPurple CTPurple CTPurple CTPurple CTPurple CTPurple CTYellow 
Thu May 02 11:23:38 IDT 2013	grey78 grey78 CTGreen CTGreen CTGreen CTGreen CTGreen CTYellow CTYellow 
Thu May 02 11:23:38 IDT 2013	CTGreen grey78 grey78 CTPurple CTPurple CTPurple CTYellow CTYellow CTGreen 
Thu May 02 11:23:38 IDT 2013	CTGreen CTGreen grey78 grey78 CTGreen CTYellow CTYellow CTGreen CTGreen 
Thu May 02 11:23:38 IDT 2013	CTGreen CTGreen CTGreen grey78 CTGreen CTYellow CTGreen CTGreen CTGreen 
Thu May 02 11:23:38 IDT 2013	</squareColors>
Thu May 02 11:23:38 IDT 2013	<goalPosition>
Thu May 02 11:23:38 IDT 2013	Goal position: (R:0,C:0)
Thu May 02 11:23:38 IDT 2013	<goalPosition>
Thu May 02 11:23:38 IDT 2013	Goal position: (R:0,C:0)
Thu May 02 11:23:38 IDT 2013	<firstPlayerPossibleGoal1>
Thu May 02 11:23:38 IDT 2013	0.5
Thu May 02 11:23:38 IDT 2013	0
Thu May 02 11:23:38 IDT 2013	0
Thu May 02 11:23:38 IDT 2013	</firstPlayerPossibleGoal1>
Thu May 02 11:23:38 IDT 2013	<firstPlayerPossibleGoal2>
Thu May 02 11:23:38 IDT 2013	0.5
Thu May 02 11:23:38 IDT 2013	0
Thu May 02 11:23:38 IDT 2013	8
Thu May 02 11:23:38 IDT 2013	</firstPlayerPossibleGoal2>
Thu May 02 11:23:38 IDT 2013	<numberOfPlayers>
Thu May 02 11:23:38 IDT 2013	3
Thu May 02 11:23:38 IDT 2013	<firstPlayerChips>
Thu May 02 11:23:38 IDT 2013	Setting chips for player: 100 id:0
Thu May 02 11:23:38 IDT 2013	{ chips  'CTRed':0 'CTGreen':0 'CTPurple':0 'grey78':12 'CTYellow':12 }
Thu May 02 11:23:38 IDT 2013	Player position: (R:5,C:4)
Thu May 02 11:23:38 IDT 2013	Setting chips for player: 200 id:1
Thu May 02 11:23:38 IDT 2013	{ chips  'CTRed':33 'CTGreen':0 'CTPurple':7 'grey78':0 'CTYellow':0 }
Thu May 02 11:23:38 IDT 2013	Player position: (R:0,C:8)
Thu May 02 11:23:38 IDT 2013	Setting chips for player: 300 id:2
Thu May 02 11:23:38 IDT 2013	{ chips  'CTRed':33 'CTGreen':0 'CTPurple':7 'grey78':0 'CTYellow':0 }
Thu May 02 11:23:38 IDT 2013	Player position: (R:0,C:0)
Thu May 02 11:23:38 IDT 2013	Protocol: A New Phase Began: Strategy Prep Phase. loop is true
Thu May 02 11:23:38 IDT 2013	---------- Beginning Strategy Prep Phase at round 0 ----------
Thu May 02 11:24:39 IDT 2013	A Phase Ended: Strategy Prep Phase
Thu May 02 11:24:39 IDT 2013	Protocol: A New Phase Began: Communication Phase. loop is true
Thu May 02 11:24:39 IDT 2013	---------- Beginning Communication Phase at round 1 ----------
Thu May 02 11:25:33 IDT 2013	Received communication message 
Thu May 02 11:25:33 IDT 2013	From player: 200
Thu May 02 11:25:33 IDT 2013	To player: 100
Thu May 02 11:25:33 IDT 2013	Chips to send by proposer: { chips  'CTRed':0 'CTPurple':1 'CTGreen':0 'grey78':0 'CTYellow':0 }
Thu May 02 11:25:33 IDT 2013	Chips to send by responder: { chips  'CTRed':0 'CTPurple':0 'CTGreen':0 'grey78':1 'CTYellow':0 }
Thu May 02 11:25:37 IDT 2013	Received communication message 
Thu May 02 11:25:37 IDT 2013	From player: 300
Thu May 02 11:25:37 IDT 2013	To player: 100
Thu May 02 11:25:37 IDT 2013	Chips to send by proposer: { chips  'CTRed':3 'CTPurple':0 'CTGreen':0 'grey78':0 'CTYellow':0 }
Thu May 02 11:25:37 IDT 2013	Chips to send by responder: { chips  'CTRed':0 'CTPurple':0 'CTGreen':0 'grey78':0 'CTYellow':2 }
Thu May 02 11:27:28 IDT 2013	Received communication message 
Thu May 02 11:27:28 IDT 2013	Proposer 1 accepted? true
Thu May 02 11:27:28 IDT 2013	A Phase Ended: Communication Phase
Thu May 02 11:27:28 IDT 2013	Protocol: A New Phase Began: Movement Phase. loop is true
Thu May 02 11:27:28 IDT 2013	---------- Beginning Movement Phase at round 1 ----------
Thu May 02 11:27:28 IDT 2013	remove strategy phase. 
Thu May 02 11:28:13 IDT 2013	A Phase Ended: Movement Phase
Thu May 02 11:28:13 IDT 2013	Protocol: A New Phase Began: Feedback Phase. loop is true
Thu May 02 11:28:13 IDT 2013	---------- Beginning Feedback Phase at round 1 ----------
Thu May 02 11:28:13 IDT 2013	Number of consecutive no movements for player 100 is 1
Thu May 02 11:28:13 IDT 2013	TDPlayerPosition is(R:5,C:4)goal location 0(R:0,C:0)goal location 1(R:0,C:8)
Thu May 02 11:28:13 IDT 2013	ended is false
Thu May 02 11:28:18 IDT 2013	A Phase Ended: Feedback Phase
Thu May 02 11:28:18 IDT 2013	 numberofMoves in round 1 is 0
Thu May 02 11:28:18 IDT 2013	Swaping roles:
Thu May 02 11:28:18 IDT 2013	Protocol: A New Phase Began: Communication Phase. loop is true
Thu May 02 11:28:18 IDT 2013	---------- Beginning Communication Phase at round 2 ----------
Thu May 02 11:29:10 IDT 2013	Received communication message 
Thu May 02 11:29:10 IDT 2013	From player: 100
Thu May 02 11:29:10 IDT 2013	To player: 200
Thu May 02 11:29:10 IDT 2013	Chips to send by proposer: { chips  'CTRed':0 'CTPurple':0 'CTGreen':0 'grey78':1 'CTYellow':0 }
Thu May 02 11:29:10 IDT 2013	Chips to send by responder: { chips  'CTRed':0 'CTPurple':2 'CTGreen':0 'grey78':0 'CTYellow':0 }
Thu May 02 11:30:00 IDT 2013	Received communication message 
Thu May 02 11:30:00 IDT 2013	Proposer 0 accepted? true
Thu May 02 11:30:00 IDT 2013	A Phase Ended: Communication Phase
Thu May 02 11:30:00 IDT 2013	Protocol: A New Phase Began: Movement Phase. loop is true
Thu May 02 11:30:00 IDT 2013	---------- Beginning Movement Phase at round 2 ----------
Thu May 02 11:30:45 IDT 2013	A Phase Ended: Movement Phase
Thu May 02 11:30:45 IDT 2013	Protocol: A New Phase Began: Feedback Phase. loop is true
Thu May 02 11:30:45 IDT 2013	---------- Beginning Feedback Phase at round 2 ----------
Thu May 02 11:30:45 IDT 2013	Number of consecutive no movements for player 100 is 0
Thu May 02 11:30:45 IDT 2013	TDPlayerPosition is(R:5,C:5)goal location 0(R:0,C:0)goal location 1(R:0,C:8)
Thu May 02 11:30:45 IDT 2013	ended is false
Thu May 02 11:30:50 IDT 2013	A Phase Ended: Feedback Phase
Thu May 02 11:30:50 IDT 2013	 numberofMoves in round 2 is 1
Thu May 02 11:30:50 IDT 2013	Swaping roles:
Thu May 02 11:30:50 IDT 2013	Protocol: A New Phase Began: Communication Phase. loop is true
Thu May 02 11:30:50 IDT 2013	---------- Beginning Communication Phase at round 3 ----------
Thu May 02 11:31:23 IDT 2013	Received communication message 
Thu May 02 11:31:23 IDT 2013	From player: 300
Thu May 02 11:31:23 IDT 2013	To player: 100
Thu May 02 11:31:23 IDT 2013	Chips to send by proposer: { chips  'CTRed':5 'CTPurple':0 'CTGreen':0 'grey78':0 'CTYellow':0 }
Thu May 02 11:31:23 IDT 2013	Chips to send by responder: { chips  'CTRed':0 'CTPurple':0 'CTGreen':0 'grey78':0 'CTYellow':2 }
Thu May 02 11:32:11 IDT 2013	Received communication message 
Thu May 02 11:32:11 IDT 2013	Proposer 1 accepted? false
Thu May 02 11:32:11 IDT 2013	case that we had one reject, and one accept
Thu May 02 11:32:24 IDT 2013	Received communication message 
Thu May 02 11:32:24 IDT 2013	From player: 200
Thu May 02 11:32:24 IDT 2013	To player: 100
Thu May 02 11:32:24 IDT 2013	Chips to send by proposer: { chips  'CTRed':5 'CTPurple':0 'CTGreen':0 'grey78':0 'CTYellow':0 }
Thu May 02 11:32:24 IDT 2013	Chips to send by responder: { chips  'CTRed':0 'CTPurple':1 'CTGreen':0 'grey78':2 'CTYellow':0 }
Thu May 02 11:32:48 IDT 2013	Received communication message 
Thu May 02 11:32:48 IDT 2013	Proposer 0 accepted? false
Thu May 02 11:32:48 IDT 2013	case that we had one reject, and one accept
Thu May 02 11:32:48 IDT 2013	A Phase Ended: Communication Phase
Thu May 02 11:32:48 IDT 2013	Protocol: A New Phase Began: Movement Phase. loop is true
Thu May 02 11:32:48 IDT 2013	---------- Beginning Movement Phase at round 3 ----------
Thu May 02 11:33:33 IDT 2013	A Phase Ended: Movement Phase
Thu May 02 11:33:33 IDT 2013	Protocol: A New Phase Began: Feedback Phase. loop is true
Thu May 02 11:33:33 IDT 2013	---------- Beginning Feedback Phase at round 3 ----------
Thu May 02 11:33:33 IDT 2013	Number of consecutive no movements for player 100 is 1
Thu May 02 11:33:33 IDT 2013	TDPlayerPosition is(R:5,C:5)goal location 0(R:0,C:0)goal location 1(R:0,C:8)
Thu May 02 11:33:33 IDT 2013	ended is false
Thu May 02 11:33:38 IDT 2013	A Phase Ended: Feedback Phase
Thu May 02 11:33:38 IDT 2013	 numberofMoves in round 3 is 0
Thu May 02 11:33:38 IDT 2013	Swaping roles:
Thu May 02 11:33:38 IDT 2013	Protocol: A New Phase Began: Communication Phase. loop is true
Thu May 02 11:33:38 IDT 2013	---------- Beginning Communication Phase at round 4 ----------
Thu May 02 11:34:29 IDT 2013	Received communication message 
Thu May 02 11:34:29 IDT 2013	From player: 100
Thu May 02 11:34:29 IDT 2013	To player: 200
Thu May 02 11:34:29 IDT 2013	Chips to send by proposer: { chips  'CTRed':0 'CTPurple':0 'CTGreen':0 'grey78':2 'CTYellow':0 }
Thu May 02 11:34:29 IDT 2013	Chips to send by responder: { chips  'CTRed':5 'CTPurple':2 'CTGreen':0 'grey78':0 'CTYellow':0 }
Thu May 02 11:35:12 IDT 2013	Received communication message 
Thu May 02 11:35:12 IDT 2013	Proposer 0 accepted? false
Thu May 02 11:35:12 IDT 2013	case that we had one reject, and one accept
Thu May 02 11:35:12 IDT 2013	A Phase Ended: Communication Phase
Thu May 02 11:35:12 IDT 2013	Protocol: A New Phase Began: Movement Phase. loop is true
Thu May 02 11:35:12 IDT 2013	---------- Beginning Movement Phase at round 4 ----------
Thu May 02 11:35:57 IDT 2013	A Phase Ended: Movement Phase
Thu May 02 11:35:57 IDT 2013	Protocol: A New Phase Began: Feedback Phase. loop is true
Thu May 02 11:35:57 IDT 2013	---------- Beginning Feedback Phase at round 4 ----------
Thu May 02 11:35:57 IDT 2013	Number of consecutive no movements for player 100 is 0
Thu May 02 11:35:57 IDT 2013	TDPlayerPosition is(R:4,C:5)goal location 0(R:0,C:0)goal location 1(R:0,C:8)
Thu May 02 11:35:57 IDT 2013	ended is false
Thu May 02 11:36:02 IDT 2013	A Phase Ended: Feedback Phase
Thu May 02 11:36:02 IDT 2013	 numberofMoves in round 4 is 1
Thu May 02 11:36:02 IDT 2013	Swaping roles:
Thu May 02 11:36:02 IDT 2013	Protocol: A New Phase Began: Communication Phase. loop is true
Thu May 02 11:36:02 IDT 2013	---------- Beginning Communication Phase at round 5 ----------
Thu May 02 11:36:45 IDT 2013	Received communication message 
Thu May 02 11:36:45 IDT 2013	From player: 300
Thu May 02 11:36:45 IDT 2013	To player: 100
Thu May 02 11:36:45 IDT 2013	Chips to send by proposer: { chips  'CTRed':2 'CTPurple':1 'CTGreen':0 'grey78':0 'CTYellow':0 }
Thu May 02 11:36:45 IDT 2013	Chips to send by responder: { chips  'CTRed':0 'CTPurple':0 'CTGreen':0 'grey78':0 'CTYellow':1 }
Thu May 02 11:37:20 IDT 2013	Received communication message 
Thu May 02 11:37:20 IDT 2013	From player: 200
Thu May 02 11:37:20 IDT 2013	To player: 100
Thu May 02 11:37:20 IDT 2013	Chips to send by proposer: { chips  'CTRed':2 'CTPurple':0 'CTGreen':0 'grey78':0 'CTYellow':0 }
Thu May 02 11:37:20 IDT 2013	Chips to send by responder: { chips  'CTRed':0 'CTPurple':1 'CTGreen':0 'grey78':0 'CTYellow':0 }
Thu May 02 11:37:36 IDT 2013	Received communication message 
Thu May 02 11:37:36 IDT 2013	Proposer 1 accepted? true
Thu May 02 11:37:36 IDT 2013	A Phase Ended: Communication Phase
Thu May 02 11:37:36 IDT 2013	Protocol: A New Phase Began: Movement Phase. loop is true
Thu May 02 11:37:36 IDT 2013	---------- Beginning Movement Phase at round 5 ----------
Thu May 02 11:38:21 IDT 2013	A Phase Ended: Movement Phase
Thu May 02 11:38:21 IDT 2013	Protocol: A New Phase Began: Feedback Phase. loop is true
Thu May 02 11:38:21 IDT 2013	---------- Beginning Feedback Phase at round 5 ----------
Thu May 02 11:38:21 IDT 2013	Number of consecutive no movements for player 100 is 0
Thu May 02 11:38:21 IDT 2013	TDPlayerPosition is(R:3,C:5)goal location 0(R:0,C:0)goal location 1(R:0,C:8)
Thu May 02 11:38:21 IDT 2013	ended is false
Thu May 02 11:38:26 IDT 2013	A Phase Ended: Feedback Phase
Thu May 02 11:38:26 IDT 2013	 numberofMoves in round 5 is 1
Thu May 02 11:38:26 IDT 2013	Swaping roles:
Thu May 02 11:38:26 IDT 2013	Protocol: A New Phase Began: Communication Phase. loop is true
Thu May 02 11:38:26 IDT 2013	---------- Beginning Communication Phase at round 6 ----------
Thu May 02 11:40:10 IDT 2013	Received communication message 
Thu May 02 11:40:10 IDT 2013	From player: 100
Thu May 02 11:40:10 IDT 2013	To player: 200
Thu May 02 11:40:10 IDT 2013	Chips to send by proposer: { chips  'CTRed':0 'CTPurple':0 'CTGreen':0 'grey78':4 'CTYellow':0 }
Thu May 02 11:40:10 IDT 2013	Chips to send by responder: { chips  'CTRed':12 'CTPurple':1 'CTGreen':0 'grey78':0 'CTYellow':0 }
Thu May 02 11:40:54 IDT 2013	Received communication message 
Thu May 02 11:40:54 IDT 2013	Proposer 0 accepted? false
Thu May 02 11:40:54 IDT 2013	case that we had one reject, and one accept
Thu May 02 11:40:54 IDT 2013	A Phase Ended: Communication Phase
Thu May 02 11:40:54 IDT 2013	Protocol: A New Phase Began: Movement Phase. loop is true
Thu May 02 11:40:54 IDT 2013	---------- Beginning Movement Phase at round 6 ----------
Thu May 02 11:41:38 IDT 2013	A Phase Ended: Movement Phase
Thu May 02 11:41:38 IDT 2013	Protocol: A New Phase Began: Feedback Phase. loop is true
Thu May 02 11:41:38 IDT 2013	---------- Beginning Feedback Phase at round 6 ----------
Thu May 02 11:41:38 IDT 2013	Number of consecutive no movements for player 100 is 0
Thu May 02 11:41:38 IDT 2013	TDPlayerPosition is(R:3,C:4)goal location 0(R:0,C:0)goal location 1(R:0,C:8)
Thu May 02 11:41:38 IDT 2013	ended is false
Thu May 02 11:41:43 IDT 2013	A Phase Ended: Feedback Phase
Thu May 02 11:41:43 IDT 2013	 numberofMoves in round 6 is 1
Thu May 02 11:41:43 IDT 2013	Swaping roles:
Thu May 02 11:41:43 IDT 2013	Protocol: A New Phase Began: Communication Phase. loop is true
Thu May 02 11:41:43 IDT 2013	---------- Beginning Communication Phase at round 7 ----------
Thu May 02 11:42:39 IDT 2013	Received communication message 
Thu May 02 11:42:39 IDT 2013	From player: 300
Thu May 02 11:42:39 IDT 2013	To player: 100
Thu May 02 11:42:39 IDT 2013	Chips to send by proposer: { chips  'CTRed':3 'CTPurple':0 'CTGreen':0 'grey78':0 'CTYellow':0 }
Thu May 02 11:42:39 IDT 2013	Chips to send by responder: { chips  'CTRed':0 'CTPurple':0 'CTGreen':0 'grey78':0 'CTYellow':1 }
Thu May 02 11:42:48 IDT 2013	Received communication message 
Thu May 02 11:42:48 IDT 2013	From player: 200
Thu May 02 11:42:48 IDT 2013	To player: 100
Thu May 02 11:42:48 IDT 2013	Chips to send by proposer: { chips  'CTRed':4 'CTPurple':2 'CTGreen':0 'grey78':0 'CTYellow':0 }
Thu May 02 11:42:48 IDT 2013	Chips to send by responder: { chips  'CTRed':0 'CTPurple':0 'CTGreen':0 'grey78':3 'CTYellow':0 }
Thu May 02 11:43:34 IDT 2013	Received communication message 
Thu May 02 11:43:34 IDT 2013	Proposer 0 accepted? true
Thu May 02 11:43:34 IDT 2013	A Phase Ended: Communication Phase
Thu May 02 11:43:34 IDT 2013	Protocol: A New Phase Began: Movement Phase. loop is true
Thu May 02 11:43:34 IDT 2013	---------- Beginning Movement Phase at round 7 ----------
Thu May 02 11:44:20 IDT 2013	A Phase Ended: Movement Phase
Thu May 02 11:44:20 IDT 2013	Protocol: A New Phase Began: Feedback Phase. loop is true
Thu May 02 11:44:20 IDT 2013	---------- Beginning Feedback Phase at round 7 ----------
Thu May 02 11:44:20 IDT 2013	Number of consecutive no movements for player 100 is 1
Thu May 02 11:44:20 IDT 2013	TDPlayerPosition is(R:3,C:4)goal location 0(R:0,C:0)goal location 1(R:0,C:8)
Thu May 02 11:44:20 IDT 2013	ended is false
Thu May 02 11:44:25 IDT 2013	A Phase Ended: Feedback Phase
Thu May 02 11:44:25 IDT 2013	 numberofMoves in round 7 is 0
Thu May 02 11:44:25 IDT 2013	Swaping roles:
Thu May 02 11:44:25 IDT 2013	Protocol: A New Phase Began: Communication Phase. loop is true
Thu May 02 11:44:25 IDT 2013	---------- Beginning Communication Phase at round 8 ----------
Thu May 02 11:45:25 IDT 2013	Received communication message 
Thu May 02 11:45:25 IDT 2013	From player: 100
Thu May 02 11:45:25 IDT 2013	To player: 300
Thu May 02 11:45:25 IDT 2013	Chips to send by proposer: { chips  'CTRed':0 'CTPurple':0 'CTGreen':0 'grey78':0 'CTYellow':3 }
Thu May 02 11:45:25 IDT 2013	Chips to send by responder: { chips  'CTRed':5 'CTPurple':2 'CTGreen':0 'grey78':0 'CTYellow':0 }
Thu May 02 11:45:55 IDT 2013	Received communication message 
Thu May 02 11:45:55 IDT 2013	Proposer 1 accepted? true
Thu May 02 11:45:55 IDT 2013	A Phase Ended: Communication Phase
Thu May 02 11:45:55 IDT 2013	Protocol: A New Phase Began: Movement Phase. loop is true
Thu May 02 11:45:55 IDT 2013	---------- Beginning Movement Phase at round 8 ----------
Thu May 02 11:46:40 IDT 2013	A Phase Ended: Movement Phase
Thu May 02 11:46:40 IDT 2013	Protocol: A New Phase Began: Feedback Phase. loop is true
Thu May 02 11:46:40 IDT 2013	---------- Beginning Feedback Phase at round 8 ----------
Thu May 02 11:46:40 IDT 2013	Number of consecutive no movements for player 100 is 0
Thu May 02 11:46:40 IDT 2013	TDPlayerPosition is(R:3,C:5)goal location 0(R:0,C:0)goal location 1(R:0,C:8)
Thu May 02 11:46:40 IDT 2013	ended is false
Thu May 02 11:46:45 IDT 2013	A Phase Ended: Feedback Phase
Thu May 02 11:46:45 IDT 2013	 numberofMoves in round 8 is 1
Thu May 02 11:46:45 IDT 2013	Swaping roles:
Thu May 02 11:46:45 IDT 2013	Protocol: A New Phase Began: Communication Phase. loop is true
Thu May 02 11:46:45 IDT 2013	---------- Beginning Communication Phase at round 9 ----------
Thu May 02 11:47:19 IDT 2013	Received communication message 
Thu May 02 11:47:19 IDT 2013	From player: 300
Thu May 02 11:47:19 IDT 2013	To player: 100
Thu May 02 11:47:19 IDT 2013	Chips to send by proposer: { chips  'CTRed':3 'CTPurple':0 'CTGreen':0 'grey78':0 'CTYellow':0 }
Thu May 02 11:47:19 IDT 2013	Chips to send by responder: { chips  'CTRed':0 'CTPurple':0 'CTGreen':0 'grey78':0 'CTYellow':1 }
Thu May 02 11:48:23 IDT 2013	Received communication message 
Thu May 02 11:48:23 IDT 2013	From player: 200
Thu May 02 11:48:23 IDT 2013	To player: 100
Thu May 02 11:48:23 IDT 2013	Chips to send by proposer: { chips  'CTRed':3 'CTPurple':2 'CTGreen':0 'grey78':0 'CTYellow':0 }
Thu May 02 11:48:23 IDT 2013	Chips to send by responder: { chips  'CTRed':0 'CTPurple':0 'CTGreen':0 'grey78':3 'CTYellow':0 }
Thu May 02 11:49:13 IDT 2013	Received communication message 
Thu May 02 11:49:13 IDT 2013	Proposer 1 accepted? true
Thu May 02 11:49:13 IDT 2013	A Phase Ended: Communication Phase
Thu May 02 11:49:13 IDT 2013	Protocol: A New Phase Began: Movement Phase. loop is true
Thu May 02 11:49:13 IDT 2013	---------- Beginning Movement Phase at round 9 ----------
Thu May 02 11:49:58 IDT 2013	A Phase Ended: Movement Phase
Thu May 02 11:49:58 IDT 2013	Protocol: A New Phase Began: Feedback Phase. loop is true
Thu May 02 11:49:58 IDT 2013	---------- Beginning Feedback Phase at round 9 ----------
Thu May 02 11:49:58 IDT 2013	Number of consecutive no movements for player 100 is 0
Thu May 02 11:49:58 IDT 2013	TDPlayerPosition is(R:3,C:3)goal location 0(R:0,C:0)goal location 1(R:0,C:8)
Thu May 02 11:49:58 IDT 2013	ended is false
Thu May 02 11:50:03 IDT 2013	A Phase Ended: Feedback Phase
Thu May 02 11:50:03 IDT 2013	 numberofMoves in round 9 is 2
Thu May 02 11:50:03 IDT 2013	Swaping roles:
Thu May 02 11:50:03 IDT 2013	Protocol: A New Phase Began: Communication Phase. loop is true
Thu May 02 11:50:03 IDT 2013	---------- Beginning Communication Phase at round 10 ----------
Thu May 02 11:50:45 IDT 2013	Received communication message 
Thu May 02 11:50:45 IDT 2013	From player: 100
Thu May 02 11:50:45 IDT 2013	To player: 200
Thu May 02 11:50:45 IDT 2013	Chips to send by proposer: { chips  'CTRed':0 'CTPurple':0 'CTGreen':0 'grey78':1 'CTYellow':0 }
Thu May 02 11:50:45 IDT 2013	Chips to send by responder: { chips  'CTRed':10 'CTPurple':3 'CTGreen':0 'grey78':0 'CTYellow':0 }
Thu May 02 11:51:25 IDT 2013	Received communication message 
Thu May 02 11:51:25 IDT 2013	Proposer 0 accepted? false
Thu May 02 11:51:25 IDT 2013	case that we had one reject, and one accept
Thu May 02 11:51:25 IDT 2013	A Phase Ended: Communication Phase
Thu May 02 11:51:25 IDT 2013	Protocol: A New Phase Began: Movement Phase. loop is true
Thu May 02 11:51:25 IDT 2013	---------- Beginning Movement Phase at round 10 ----------
Thu May 02 11:52:10 IDT 2013	A Phase Ended: Movement Phase
Thu May 02 11:52:10 IDT 2013	Protocol: A New Phase Began: Feedback Phase. loop is true
Thu May 02 11:52:10 IDT 2013	---------- Beginning Feedback Phase at round 10 ----------
Thu May 02 11:52:10 IDT 2013	Number of consecutive no movements for player 100 is 0
Thu May 02 11:52:10 IDT 2013	TDPlayerPosition is(R:2,C:1)goal location 0(R:0,C:0)goal location 1(R:0,C:8)
Thu May 02 11:52:10 IDT 2013	ended is false
Thu May 02 11:52:15 IDT 2013	A Phase Ended: Feedback Phase
Thu May 02 11:52:15 IDT 2013	 numberofMoves in round 10 is 3
Thu May 02 11:52:15 IDT 2013	Swaping roles:
Thu May 02 11:52:15 IDT 2013	Protocol: A New Phase Began: Communication Phase. loop is true
Thu May 02 11:52:15 IDT 2013	---------- Beginning Communication Phase at round 11 ----------
Thu May 02 11:53:16 IDT 2013	Received communication message 
Thu May 02 11:53:16 IDT 2013	From player: 300
Thu May 02 11:53:16 IDT 2013	To player: 100
Thu May 02 11:53:16 IDT 2013	Chips to send by proposer: { chips  'CTRed':3 'CTPurple':0 'CTGreen':0 'grey78':0 'CTYellow':0 }
Thu May 02 11:53:16 IDT 2013	Chips to send by responder: { chips  'CTRed':0 'CTPurple':0 'CTGreen':0 'grey78':1 'CTYellow':0 }
Thu May 02 11:53:47 IDT 2013	Received communication message 
Thu May 02 11:53:47 IDT 2013	From player: 200
Thu May 02 11:53:47 IDT 2013	To player: 100
Thu May 02 11:53:47 IDT 2013	Chips to send by proposer: { chips  'CTRed':0 'CTPurple':1 'CTGreen':0 'grey78':0 'CTYellow':0 }
Thu May 02 11:53:47 IDT 2013	Chips to send by responder: { chips  'CTRed':10 'CTPurple':0 'CTGreen':0 'grey78':0 'CTYellow':0 }
Thu May 02 11:54:24 IDT 2013	Received communication message 
Thu May 02 11:54:24 IDT 2013	Proposer 1 accepted? true
Thu May 02 11:54:24 IDT 2013	A Phase Ended: Communication Phase
Thu May 02 11:54:24 IDT 2013	Protocol: A New Phase Began: Movement Phase. loop is true
Thu May 02 11:54:24 IDT 2013	---------- Beginning Movement Phase at round 11 ----------
Thu May 02 11:55:10 IDT 2013	A Phase Ended: Movement Phase
Thu May 02 11:55:10 IDT 2013	Protocol: A New Phase Began: Feedback Phase. loop is true
Thu May 02 11:55:10 IDT 2013	---------- Beginning Feedback Phase at round 11 ----------
Thu May 02 11:55:10 IDT 2013	Number of consecutive no movements for player 100 is 1
Thu May 02 11:55:10 IDT 2013	TDPlayerPosition is(R:2,C:1)goal location 0(R:0,C:0)goal location 1(R:0,C:8)
Thu May 02 11:55:10 IDT 2013	ended is false
Thu May 02 11:55:15 IDT 2013	A Phase Ended: Feedback Phase
Thu May 02 11:55:15 IDT 2013	 numberofMoves in round 11 is 0
Thu May 02 11:55:15 IDT 2013	Swaping roles:
Thu May 02 11:55:15 IDT 2013	Protocol: A New Phase Began: Communication Phase. loop is true
Thu May 02 11:55:15 IDT 2013	---------- Beginning Communication Phase at round 12 ----------
Thu May 02 11:56:09 IDT 2013	Received communication message 
Thu May 02 11:56:09 IDT 2013	From player: 100
Thu May 02 11:56:09 IDT 2013	To player: 200
Thu May 02 11:56:09 IDT 2013	Chips to send by proposer: { chips  'CTRed':0 'CTPurple':0 'CTGreen':0 'grey78':2 'CTYellow':3 }
Thu May 02 11:56:09 IDT 2013	Chips to send by responder: { chips  'CTRed':10 'CTPurple':3 'CTGreen':0 'grey78':0 'CTYellow':0 }
Thu May 02 11:57:52 IDT 2013	Received communication message 
Thu May 02 11:57:52 IDT 2013	Proposer 0 accepted? true
Thu May 02 11:57:52 IDT 2013	A Phase Ended: Communication Phase
Thu May 02 11:57:52 IDT 2013	Protocol: A New Phase Began: Movement Phase. loop is true
Thu May 02 11:57:52 IDT 2013	---------- Beginning Movement Phase at round 12 ----------
Thu May 02 11:58:37 IDT 2013	A Phase Ended: Movement Phase
Thu May 02 11:58:37 IDT 2013	Protocol: A New Phase Began: Feedback Phase. loop is true
Thu May 02 11:58:37 IDT 2013	---------- Beginning Feedback Phase at round 12 ----------
Thu May 02 11:58:37 IDT 2013	Number of consecutive no movements for player 100 is 0
Thu May 02 11:58:37 IDT 2013	TDPlayerPosition is(R:1,C:2)goal location 0(R:0,C:0)goal location 1(R:0,C:8)
Thu May 02 11:58:37 IDT 2013	ended is false
Thu May 02 11:58:43 IDT 2013	A Phase Ended: Feedback Phase
Thu May 02 11:58:43 IDT 2013	 numberofMoves in round 12 is 2
Thu May 02 11:58:43 IDT 2013	Swaping roles:
Thu May 02 11:58:43 IDT 2013	Protocol: A New Phase Began: Communication Phase. loop is true
Thu May 02 11:58:43 IDT 2013	---------- Beginning Communication Phase at round 13 ----------
Thu May 02 11:59:45 IDT 2013	Received communication message 
Thu May 02 11:59:45 IDT 2013	From player: 200
Thu May 02 11:59:45 IDT 2013	To player: 100
Thu May 02 11:59:45 IDT 2013	Chips to send by proposer: { chips  'CTRed':0 'CTPurple':0 'CTGreen':0 'grey78':1 'CTYellow':1 }
Thu May 02 11:59:45 IDT 2013	Chips to send by responder: { chips  'CTRed':6 'CTPurple':0 'CTGreen':0 'grey78':0 'CTYellow':0 }
Thu May 02 11:59:47 IDT 2013	Received communication message 
Thu May 02 11:59:47 IDT 2013	From player: 300
Thu May 02 11:59:47 IDT 2013	To player: 100
Thu May 02 11:59:47 IDT 2013	Chips to send by proposer: { chips  'CTRed':0 'CTPurple':1 'CTGreen':0 'grey78':0 'CTYellow':0 }
Thu May 02 11:59:47 IDT 2013	Chips to send by responder: { chips  'CTRed':3 'CTPurple':0 'CTGreen':0 'grey78':0 'CTYellow':0 }
Thu May 02 12:00:49 IDT 2013	Received communication message 
Thu May 02 12:00:49 IDT 2013	Proposer 1 accepted? true
Thu May 02 12:00:49 IDT 2013	A Phase Ended: Communication Phase
Thu May 02 12:00:49 IDT 2013	Protocol: A New Phase Began: Movement Phase. loop is true
Thu May 02 12:00:49 IDT 2013	---------- Beginning Movement Phase at round 13 ----------
Thu May 02 12:01:34 IDT 2013	A Phase Ended: Movement Phase
Thu May 02 12:01:34 IDT 2013	Protocol: A New Phase Began: Feedback Phase. loop is true
Thu May 02 12:01:34 IDT 2013	---------- Beginning Feedback Phase at round 13 ----------
Thu May 02 12:01:34 IDT 2013	Number of consecutive no movements for player 100 is 1
Thu May 02 12:01:34 IDT 2013	TDPlayerPosition is(R:1,C:2)goal location 0(R:0,C:0)goal location 1(R:0,C:8)
Thu May 02 12:01:34 IDT 2013	ended is false
Thu May 02 12:01:39 IDT 2013	A Phase Ended: Feedback Phase
Thu May 02 12:01:39 IDT 2013	 numberofMoves in round 13 is 0
Thu May 02 12:01:39 IDT 2013	Swaping roles:
Thu May 02 12:01:39 IDT 2013	Protocol: A New Phase Began: Communication Phase. loop is true
Thu May 02 12:01:39 IDT 2013	---------- Beginning Communication Phase at round 14 ----------
Thu May 02 12:02:08 IDT 2013	Received communication message 
Thu May 02 12:02:08 IDT 2013	From player: 100
Thu May 02 12:02:08 IDT 2013	To player: 200
Thu May 02 12:02:08 IDT 2013	Chips to send by proposer: { chips  'CTRed':0 'CTPurple':0 'CTGreen':0 'grey78':0 'CTYellow':0 }
Thu May 02 12:02:08 IDT 2013	Chips to send by responder: { chips  'CTRed':10 'CTPurple':0 'CTGreen':0 'grey78':0 'CTYellow':0 }
Thu May 02 12:02:20 IDT 2013	Received communication message 
Thu May 02 12:02:20 IDT 2013	Proposer 0 accepted? false
Thu May 02 12:02:20 IDT 2013	case that we had one reject, and one accept
Thu May 02 12:02:20 IDT 2013	A Phase Ended: Communication Phase
Thu May 02 12:02:20 IDT 2013	Protocol: A New Phase Began: Movement Phase. loop is true
Thu May 02 12:02:20 IDT 2013	---------- Beginning Movement Phase at round 14 ----------
Thu May 02 12:03:05 IDT 2013	A Phase Ended: Movement Phase
Thu May 02 12:03:05 IDT 2013	Protocol: A New Phase Began: Feedback Phase. loop is true
Thu May 02 12:03:05 IDT 2013	---------- Beginning Feedback Phase at round 14 ----------
Thu May 02 12:03:05 IDT 2013	Number of consecutive no movements for player 100 is 0
Thu May 02 12:03:05 IDT 2013	TDPlayerPosition is(R:1,C:3)goal location 0(R:0,C:0)goal location 1(R:0,C:8)
Thu May 02 12:03:05 IDT 2013	ended is false
Thu May 02 12:03:10 IDT 2013	A Phase Ended: Feedback Phase
Thu May 02 12:03:10 IDT 2013	 numberofMoves in round 14 is 1
Thu May 02 12:03:10 IDT 2013	Swaping roles:
Thu May 02 12:03:10 IDT 2013	Protocol: A New Phase Began: Communication Phase. loop is true
Thu May 02 12:03:10 IDT 2013	---------- Beginning Communication Phase at round 15 ----------
Thu May 02 12:03:14 IDT 2013	Received communication message 
Thu May 02 12:03:14 IDT 2013	From player: 300
Thu May 02 12:03:14 IDT 2013	To player: 100
Thu May 02 12:03:14 IDT 2013	Chips to send by proposer: { chips  'CTRed':0 'CTPurple':0 'CTGreen':0 'grey78':0 'CTYellow':0 }
Thu May 02 12:03:14 IDT 2013	Chips to send by responder: { chips  'CTRed':2 'CTPurple':0 'CTGreen':0 'grey78':0 'CTYellow':0 }
Thu May 02 12:04:19 IDT 2013	Received communication message 
Thu May 02 12:04:19 IDT 2013	From player: 200
Thu May 02 12:04:19 IDT 2013	To player: 100
Thu May 02 12:04:19 IDT 2013	Chips to send by proposer: { chips  'CTRed':0 'CTPurple':0 'CTGreen':0 'grey78':0 'CTYellow':0 }
Thu May 02 12:04:19 IDT 2013	Chips to send by responder: { chips  'CTRed':0 'CTPurple':0 'CTGreen':0 'grey78':2 'CTYellow':0 }
Thu May 02 12:04:56 IDT 2013	Received communication message 
Thu May 02 12:04:56 IDT 2013	Proposer 0 accepted? false
Thu May 02 12:04:56 IDT 2013	case that we had one reject, and one accept
Thu May 02 12:05:00 IDT 2013	Received communication message 
Thu May 02 12:05:00 IDT 2013	Proposer 1 accepted? false
Thu May 02 12:05:00 IDT 2013	case that we had one reject, and one accept
Thu May 02 12:05:00 IDT 2013	A Phase Ended: Communication Phase
Thu May 02 12:05:00 IDT 2013	Protocol: A New Phase Began: Movement Phase. loop is true
Thu May 02 12:05:00 IDT 2013	---------- Beginning Movement Phase at round 15 ----------
Thu May 02 12:05:45 IDT 2013	A Phase Ended: Movement Phase
Thu May 02 12:05:45 IDT 2013	Protocol: A New Phase Began: Feedback Phase. loop is true
Thu May 02 12:05:45 IDT 2013	---------- Beginning Feedback Phase at round 15 ----------
Thu May 02 12:05:45 IDT 2013	Number of consecutive no movements for player 100 is 1
Thu May 02 12:05:45 IDT 2013	TDPlayerPosition is(R:1,C:3)goal location 0(R:0,C:0)goal location 1(R:0,C:8)
Thu May 02 12:05:45 IDT 2013	ended is false
Thu May 02 12:05:50 IDT 2013	A Phase Ended: Feedback Phase
Thu May 02 12:05:50 IDT 2013	 numberofMoves in round 15 is 0
Thu May 02 12:05:50 IDT 2013	Swaping roles:
Thu May 02 12:05:50 IDT 2013	Protocol: A New Phase Began: Communication Phase. loop is true
Thu May 02 12:05:50 IDT 2013	---------- Beginning Communication Phase at round 16 ----------
Thu May 02 12:06:33 IDT 2013	Received communication message 
Thu May 02 12:06:33 IDT 2013	From player: 100
Thu May 02 12:06:33 IDT 2013	To player: 300
Thu May 02 12:06:33 IDT 2013	Chips to send by proposer: { chips  'CTRed':0 'CTPurple':0 'CTGreen':0 'grey78':0 'CTYellow':0 }
Thu May 02 12:06:33 IDT 2013	Chips to send by responder: { chips  'CTRed':2 'CTPurple':2 'CTGreen':0 'grey78':0 'CTYellow':0 }
Thu May 02 12:06:43 IDT 2013	Received communication message 
Thu May 02 12:06:43 IDT 2013	Proposer 1 accepted? false
Thu May 02 12:06:43 IDT 2013	case that we had one reject, and one accept
Thu May 02 12:06:43 IDT 2013	A Phase Ended: Communication Phase
Thu May 02 12:06:43 IDT 2013	Protocol: A New Phase Began: Movement Phase. loop is true
Thu May 02 12:06:43 IDT 2013	---------- Beginning Movement Phase at round 16 ----------
Thu May 02 12:07:28 IDT 2013	A Phase Ended: Movement Phase
Thu May 02 12:07:28 IDT 2013	Protocol: A New Phase Began: Feedback Phase. loop is true
Thu May 02 12:07:28 IDT 2013	---------- Beginning Feedback Phase at round 16 ----------
Thu May 02 12:07:28 IDT 2013	Number of consecutive no movements for player 100 is 0
Thu May 02 12:07:28 IDT 2013	TDPlayerPosition is(R:1,C:4)goal location 0(R:0,C:0)goal location 1(R:0,C:8)
Thu May 02 12:07:28 IDT 2013	ended is false
Thu May 02 12:07:33 IDT 2013	A Phase Ended: Feedback Phase
Thu May 02 12:07:33 IDT 2013	 numberofMoves in round 16 is 1
Thu May 02 12:07:33 IDT 2013	Swaping roles:
Thu May 02 12:07:33 IDT 2013	Protocol: A New Phase Began: Communication Phase. loop is true
Thu May 02 12:07:33 IDT 2013	---------- Beginning Communication Phase at round 17 ----------
Thu May 02 12:07:48 IDT 2013	Received communication message 
Thu May 02 12:07:48 IDT 2013	From player: 300
Thu May 02 12:07:48 IDT 2013	To player: 100
Thu May 02 12:07:48 IDT 2013	Chips to send by proposer: { chips  'CTRed':0 'CTPurple':0 'CTGreen':0 'grey78':0 'CTYellow':0 }
Thu May 02 12:07:48 IDT 2013	Chips to send by responder: { chips  'CTRed':0 'CTPurple':0 'CTGreen':0 'grey78':0 'CTYellow':0 }
Thu May 02 12:09:45 IDT 2013	Received communication message 
Thu May 02 12:09:45 IDT 2013	Proposer 1 accepted? true
Thu May 02 12:09:45 IDT 2013	A Phase Ended: Communication Phase
Thu May 02 12:09:45 IDT 2013	Protocol: A New Phase Began: Movement Phase. loop is true
Thu May 02 12:09:45 IDT 2013	---------- Beginning Movement Phase at round 17 ----------
Thu May 02 12:10:29 IDT 2013	A Phase Ended: Movement Phase
Thu May 02 12:10:29 IDT 2013	Protocol: A New Phase Began: Feedback Phase. loop is true
Thu May 02 12:10:29 IDT 2013	---------- Beginning Feedback Phase at round 17 ----------
Thu May 02 12:10:29 IDT 2013	Number of consecutive no movements for player 100 is 0
Thu May 02 12:10:29 IDT 2013	TDPlayerPosition is(R:1,C:3)goal location 0(R:0,C:0)goal location 1(R:0,C:8)
Thu May 02 12:10:29 IDT 2013	ended is false
Thu May 02 12:10:34 IDT 2013	A Phase Ended: Feedback Phase
Thu May 02 12:10:34 IDT 2013	 numberofMoves in round 17 is 1
Thu May 02 12:10:34 IDT 2013	Swaping roles:
Thu May 02 12:10:34 IDT 2013	Protocol: A New Phase Began: Communication Phase. loop is true
Thu May 02 12:10:34 IDT 2013	---------- Beginning Communication Phase at round 18 ----------
Thu May 02 12:11:00 IDT 2013	Received communication message 
Thu May 02 12:11:00 IDT 2013	From player: 100
Thu May 02 12:11:00 IDT 2013	To player: 300
Thu May 02 12:11:00 IDT 2013	Chips to send by proposer: { chips  'CTRed':0 'CTPurple':0 'CTGreen':0 'grey78':0 'CTYellow':0 }
Thu May 02 12:11:00 IDT 2013	Chips to send by responder: { chips  'CTRed':1 'CTPurple':3 'CTGreen':0 'grey78':0 'CTYellow':0 }
Thu May 02 12:11:07 IDT 2013	Received communication message 
Thu May 02 12:11:07 IDT 2013	Proposer 1 accepted? false
Thu May 02 12:11:07 IDT 2013	case that we had one reject, and one accept
Thu May 02 12:11:07 IDT 2013	A Phase Ended: Communication Phase
Thu May 02 12:11:07 IDT 2013	Protocol: A New Phase Began: Movement Phase. loop is true
Thu May 02 12:11:07 IDT 2013	---------- Beginning Movement Phase at round 18 ----------
Thu May 02 12:11:51 IDT 2013	A Phase Ended: Movement Phase
Thu May 02 12:11:51 IDT 2013	Protocol: A New Phase Began: Feedback Phase. loop is true
Thu May 02 12:11:51 IDT 2013	---------- Beginning Feedback Phase at round 18 ----------
Thu May 02 12:11:51 IDT 2013	Number of consecutive no movements for player 100 is 0
Thu May 02 12:11:51 IDT 2013	TDPlayerPosition is(R:1,C:2)goal location 0(R:0,C:0)goal location 1(R:0,C:8)
Thu May 02 12:11:51 IDT 2013	ended is false
Thu May 02 12:11:56 IDT 2013	A Phase Ended: Feedback Phase
Thu May 02 12:11:56 IDT 2013	 numberofMoves in round 18 is 1
Thu May 02 12:11:56 IDT 2013	Swaping roles:
Thu May 02 12:11:56 IDT 2013	Protocol: A New Phase Began: Communication Phase. loop is true
Thu May 02 12:11:56 IDT 2013	---------- Beginning Communication Phase at round 19 ----------
Thu May 02 12:12:12 IDT 2013	Received communication message 
Thu May 02 12:12:12 IDT 2013	From player: 300
Thu May 02 12:12:12 IDT 2013	To player: 100
Thu May 02 12:12:12 IDT 2013	Chips to send by proposer: { chips  'CTRed':0 'CTPurple':1 'CTGreen':0 'grey78':0 'CTYellow':0 }
Thu May 02 12:12:12 IDT 2013	Chips to send by responder: { chips  'CTRed':4 'CTPurple':0 'CTGreen':0 'grey78':0 'CTYellow':0 }
Thu May 02 12:12:42 IDT 2013	Received communication message 
Thu May 02 12:12:42 IDT 2013	Proposer 1 accepted? false
Thu May 02 12:12:42 IDT 2013	case that we had one reject, and one accept
Thu May 02 12:12:54 IDT 2013	Received communication message 
Thu May 02 12:12:54 IDT 2013	From player: 200
Thu May 02 12:12:54 IDT 2013	To player: 100
Thu May 02 12:12:54 IDT 2013	Chips to send by proposer: { chips  'CTRed':0 'CTPurple':0 'CTGreen':0 'grey78':1 'CTYellow':0 }
Thu May 02 12:12:54 IDT 2013	Chips to send by responder: { chips  'CTRed':3 'CTPurple':0 'CTGreen':0 'grey78':0 'CTYellow':0 }
Thu May 02 12:13:06 IDT 2013	Received communication message 
Thu May 02 12:13:06 IDT 2013	Proposer 0 accepted? false
Thu May 02 12:13:06 IDT 2013	case that we had one reject, and one accept
Thu May 02 12:13:06 IDT 2013	A Phase Ended: Communication Phase
Thu May 02 12:13:06 IDT 2013	Protocol: A New Phase Began: Movement Phase. loop is true
Thu May 02 12:13:06 IDT 2013	---------- Beginning Movement Phase at round 19 ----------
Thu May 02 12:13:51 IDT 2013	A Phase Ended: Movement Phase
Thu May 02 12:13:51 IDT 2013	Protocol: A New Phase Began: Feedback Phase. loop is true
Thu May 02 12:13:51 IDT 2013	---------- Beginning Feedback Phase at round 19 ----------
Thu May 02 12:13:51 IDT 2013	Number of consecutive no movements for player 100 is 1
Thu May 02 12:13:51 IDT 2013	TDPlayerPosition is(R:1,C:2)goal location 0(R:0,C:0)goal location 1(R:0,C:8)
Thu May 02 12:13:51 IDT 2013	ended is false
Thu May 02 12:13:56 IDT 2013	A Phase Ended: Feedback Phase
Thu May 02 12:13:56 IDT 2013	 numberofMoves in round 19 is 0
Thu May 02 12:13:56 IDT 2013	Swaping roles:
Thu May 02 12:13:56 IDT 2013	Protocol: A New Phase Began: Communication Phase. loop is true
Thu May 02 12:13:56 IDT 2013	---------- Beginning Communication Phase at round 20 ----------
Thu May 02 12:14:19 IDT 2013	Received communication message 
Thu May 02 12:14:19 IDT 2013	From player: 100
Thu May 02 12:14:19 IDT 2013	To player: 300
Thu May 02 12:14:19 IDT 2013	Chips to send by proposer: { chips  'CTRed':0 'CTPurple':0 'CTGreen':0 'grey78':0 'CTYellow':0 }
Thu May 02 12:14:19 IDT 2013	Chips to send by responder: { chips  'CTRed':3 'CTPurple':1 'CTGreen':0 'grey78':0 'CTYellow':0 }
Thu May 02 12:14:28 IDT 2013	Received communication message 
Thu May 02 12:14:28 IDT 2013	Proposer 1 accepted? false
Thu May 02 12:14:28 IDT 2013	case that we had one reject, and one accept
Thu May 02 12:14:28 IDT 2013	A Phase Ended: Communication Phase
Thu May 02 12:14:28 IDT 2013	Protocol: A New Phase Began: Movement Phase. loop is true
Thu May 02 12:14:28 IDT 2013	---------- Beginning Movement Phase at round 20 ----------
Thu May 02 12:15:12 IDT 2013	A Phase Ended: Movement Phase
Thu May 02 12:15:12 IDT 2013	Protocol: A New Phase Began: Feedback Phase. loop is true
Thu May 02 12:15:12 IDT 2013	---------- Beginning Feedback Phase at round 20 ----------
Thu May 02 12:15:12 IDT 2013	ended is true
Thu May 02 12:15:17 IDT 2013	A Phase Ended: Feedback Phase
Thu May 02 12:15:17 IDT 2013	 numberofMoves in round 20 is 0
Thu May 02 12:15:17 IDT 2013	Loop status: false
Thu May 02 12:15:17 IDT 2013	Player: 200 ,role: Responder score is: 140
Thu May 02 12:15:17 IDT 2013	Player: 200Game Ended
Thu May 02 12:15:17 IDT 2013	Player: 100 ,role: Proposer score is: 145
Thu May 02 12:15:17 IDT 2013	Player: 100Game Ended
Thu May 02 12:15:17 IDT 2013	Player: 300 ,role: Responder score is: 155
Thu May 02 12:15:17 IDT 2013	Player: 300Game Ended
Thu May 02 12:15:17 IDT 2013	Protocol: A New Phase Began: Communication Phase. loop is false
Thu May 02 12:15:17 IDT 2013	---------- Beginning Communication Phase at round 20 ----------
Thu May 02 12:18:20 IDT 2013	A Phase Ended: Communication Phase
Thu May 02 12:18:20 IDT 2013	Protocol: A New Phase Began: Movement Phase. loop is false
Thu May 02 12:18:20 IDT 2013	---------- Beginning Movement Phase at round 20 ----------
Thu May 02 12:19:05 IDT 2013	A Phase Ended: Movement Phase
Thu May 02 12:19:05 IDT 2013	Protocol: A New Phase Began: Feedback Phase. loop is false
Thu May 02 12:19:05 IDT 2013	---------- Beginning Feedback Phase at round 20 ----------
Thu May 02 12:19:05 IDT 2013	ended is true
Thu May 02 12:19:10 IDT 2013	A Phase Ended: Feedback Phase
Thu May 02 12:19:10 IDT 2013	 numberofMoves in round 20 is 0
Thu May 02 12:19:10 IDT 2013	Loop status: false
Thu May 02 12:19:10 IDT 2013	Player: 200 ,role: GameEnded score is: 140
Thu May 02 12:19:10 IDT 2013	Player: 200Game Ended
Thu May 02 12:19:10 IDT 2013	Player: 100 ,role: GameEnded score is: 145
Thu May 02 12:19:10 IDT 2013	Player: 100Game Ended
Thu May 02 12:19:10 IDT 2013	Player: 300 ,role: GameEnded score is: 155
Thu May 02 12:19:10 IDT 2013	Player: 300Game Ended
