Thu Aug 22 17:06:00 IDT 2013	This is the CT debug logger; svn version 638; sep 27 09
Thu Aug 22 17:06:00 IDT 2013	Thu Aug 22 17:06:00 IDT 2013
Thu Aug 22 17:06:00 IDT 2013	ID Number: 60296
Thu Aug 22 17:06:00 IDT 2013	Creating board
Thu Aug 22 17:06:00 IDT 2013	<colors>
Thu Aug 22 17:06:00 IDT 2013	{ GamePalette  'CTPurple':0 'CTRed':1 'CTGreen':2 'grey78':3 'CTYellow':4 }
Thu Aug 22 17:06:00 IDT 2013	<rows>
Thu Aug 22 17:06:00 IDT 2013	6
Thu Aug 22 17:06:00 IDT 2013	<columns>
Thu Aug 22 17:06:00 IDT 2013	9
Thu Aug 22 17:06:00 IDT 2013	<squaresColors>
Thu Aug 22 17:06:00 IDT 2013	grey78 CTGreen CTGreen CTGreen CTGreen CTGreen CTGreen CTGreen CTYellow 
Thu Aug 22 17:06:00 IDT 2013	grey78 CTPurple CTPurple CTPurple CTPurple CTPurple CTPurple CTPurple CTYellow 
Thu Aug 22 17:06:00 IDT 2013	grey78 grey78 CTGreen CTGreen CTGreen CTGreen CTGreen CTYellow CTYellow 
Thu Aug 22 17:06:00 IDT 2013	CTGreen grey78 grey78 CTPurple CTPurple CTPurple CTYellow CTYellow CTGreen 
Thu Aug 22 17:06:00 IDT 2013	CTGreen CTGreen grey78 grey78 CTGreen CTYellow CTYellow CTGreen CTGreen 
Thu Aug 22 17:06:00 IDT 2013	CTGreen CTGreen CTGreen grey78 CTGreen CTYellow CTGreen CTGreen CTGreen 
Thu Aug 22 17:06:00 IDT 2013	</squareColors>
Thu Aug 22 17:06:00 IDT 2013	<goalPosition>
Thu Aug 22 17:06:00 IDT 2013	Goal position: (R:0,C:0)
Thu Aug 22 17:06:00 IDT 2013	<goalPosition>
Thu Aug 22 17:06:00 IDT 2013	Goal position: (R:0,C:0)
Thu Aug 22 17:06:00 IDT 2013	<firstPlayerPossibleGoal1>
Thu Aug 22 17:06:00 IDT 2013	0.5
Thu Aug 22 17:06:00 IDT 2013	0
Thu Aug 22 17:06:00 IDT 2013	0
Thu Aug 22 17:06:00 IDT 2013	</firstPlayerPossibleGoal1>
Thu Aug 22 17:06:00 IDT 2013	<firstPlayerPossibleGoal2>
Thu Aug 22 17:06:00 IDT 2013	0.5
Thu Aug 22 17:06:00 IDT 2013	0
Thu Aug 22 17:06:00 IDT 2013	8
Thu Aug 22 17:06:00 IDT 2013	</firstPlayerPossibleGoal2>
Thu Aug 22 17:06:00 IDT 2013	<numberOfPlayers>
Thu Aug 22 17:06:00 IDT 2013	3
Thu Aug 22 17:06:00 IDT 2013	<firstPlayerChips>
Thu Aug 22 17:06:00 IDT 2013	Setting chips for player: 510 id:0
Thu Aug 22 17:06:00 IDT 2013	{ chips  'CTRed':0 'CTGreen':0 'CTPurple':0 'grey78':12 'CTYellow':12 }
Thu Aug 22 17:06:00 IDT 2013	Player position: (R:5,C:4)
Thu Aug 22 17:06:00 IDT 2013	Setting chips for player: 520 id:1
Thu Aug 22 17:06:00 IDT 2013	{ chips  'CTRed':33 'CTGreen':0 'CTPurple':7 'grey78':0 'CTYellow':0 }
Thu Aug 22 17:06:00 IDT 2013	Player position: (R:0,C:8)
Thu Aug 22 17:06:00 IDT 2013	Setting chips for player: 540 id:2
Thu Aug 22 17:06:00 IDT 2013	{ chips  'CTRed':33 'CTGreen':0 'CTPurple':7 'grey78':0 'CTYellow':0 }
Thu Aug 22 17:06:00 IDT 2013	Player position: (R:0,C:0)
Thu Aug 22 17:06:00 IDT 2013	Protocol: A New Phase Began: Strategy Prep Phase. loop is true
Thu Aug 22 17:06:00 IDT 2013	---------- Beginning Strategy Prep Phase at round 0 ----------
Thu Aug 22 17:07:00 IDT 2013	A Phase Ended: Strategy Prep Phase
Thu Aug 22 17:07:00 IDT 2013	Protocol: A New Phase Began: Communication Phase. loop is true
Thu Aug 22 17:07:00 IDT 2013	---------- Beginning Communication Phase at round 1 ----------
Thu Aug 22 17:07:50 IDT 2013	Received communication message 
Thu Aug 22 17:07:50 IDT 2013	From player: 520
Thu Aug 22 17:07:50 IDT 2013	To player: 510
Thu Aug 22 17:07:50 IDT 2013	Chips to send by proposer: { chips  'CTRed':15 'CTPurple':3 'CTGreen':0 'grey78':0 'CTYellow':0 }
Thu Aug 22 17:07:50 IDT 2013	Chips to send by responder: { chips  'CTRed':0 'CTPurple':0 'CTGreen':0 'grey78':0 'CTYellow':0 }
Thu Aug 22 17:07:53 IDT 2013	Received communication message 
Thu Aug 22 17:07:53 IDT 2013	From player: 540
Thu Aug 22 17:07:53 IDT 2013	To player: 510
Thu Aug 22 17:07:53 IDT 2013	Chips to send by proposer: { chips  'CTRed':0 'CTPurple':4 'CTGreen':0 'grey78':0 'CTYellow':0 }
Thu Aug 22 17:07:53 IDT 2013	Chips to send by responder: { chips  'CTRed':0 'CTPurple':0 'CTGreen':0 'grey78':3 'CTYellow':0 }
Thu Aug 22 17:07:53 IDT 2013	Received communication message 
Thu Aug 22 17:07:53 IDT 2013	Proposer 0 accepted? true
Thu Aug 22 17:07:53 IDT 2013	A Phase Ended: Communication Phase
Thu Aug 22 17:07:53 IDT 2013	Protocol: A New Phase Began: Movement Phase. loop is true
Thu Aug 22 17:07:53 IDT 2013	---------- Beginning Movement Phase at round 1 ----------
Thu Aug 22 17:07:53 IDT 2013	remove strategy phase. 
Thu Aug 22 17:07:53 IDT 2013	Received communication message 
Thu Aug 22 17:07:53 IDT 2013	Proposer 1 accepted? false
Thu Aug 22 17:08:38 IDT 2013	A Phase Ended: Movement Phase
Thu Aug 22 17:08:38 IDT 2013	Protocol: A New Phase Began: Feedback Phase. loop is true
Thu Aug 22 17:08:38 IDT 2013	---------- Beginning Feedback Phase at round 1 ----------
Thu Aug 22 17:08:38 IDT 2013	Number of consecutive no movements for player 510 is 1
Thu Aug 22 17:08:38 IDT 2013	TDPlayerPosition is(R:5,C:4)goal location 0(R:0,C:0)goal location 1(R:0,C:8)
Thu Aug 22 17:08:38 IDT 2013	ended is false
Thu Aug 22 17:08:43 IDT 2013	A Phase Ended: Feedback Phase
Thu Aug 22 17:08:43 IDT 2013	 numberofMoves in round 1 is 0
Thu Aug 22 17:08:43 IDT 2013	Swaping roles:
Thu Aug 22 17:08:43 IDT 2013	Protocol: A New Phase Began: Communication Phase. loop is true
Thu Aug 22 17:08:43 IDT 2013	---------- Beginning Communication Phase at round 2 ----------
Thu Aug 22 17:08:46 IDT 2013	Received communication message 
Thu Aug 22 17:08:46 IDT 2013	From player: 510
Thu Aug 22 17:08:46 IDT 2013	To player: 540
Thu Aug 22 17:08:46 IDT 2013	Chips to send by proposer: { chips  'CTYellow':11 }
Thu Aug 22 17:08:46 IDT 2013	Chips to send by responder: { chips  'CTRed':33 'CTPurple':7 }
Thu Aug 22 17:08:55 IDT 2013	Received communication message 
Thu Aug 22 17:08:55 IDT 2013	Proposer 1 accepted? false
Thu Aug 22 17:08:55 IDT 2013	case that we had one reject, and one accept
Thu Aug 22 17:08:55 IDT 2013	A Phase Ended: Communication Phase
Thu Aug 22 17:08:55 IDT 2013	Protocol: A New Phase Began: Movement Phase. loop is true
Thu Aug 22 17:08:55 IDT 2013	---------- Beginning Movement Phase at round 2 ----------
Thu Aug 22 17:09:39 IDT 2013	A Phase Ended: Movement Phase
Thu Aug 22 17:09:39 IDT 2013	Protocol: A New Phase Began: Feedback Phase. loop is true
Thu Aug 22 17:09:39 IDT 2013	---------- Beginning Feedback Phase at round 2 ----------
Thu Aug 22 17:09:39 IDT 2013	Number of consecutive no movements for player 510 is 0
Thu Aug 22 17:09:39 IDT 2013	TDPlayerPosition is(R:5,C:3)goal location 0(R:0,C:0)goal location 1(R:0,C:8)
Thu Aug 22 17:09:39 IDT 2013	ended is false
Thu Aug 22 17:09:44 IDT 2013	A Phase Ended: Feedback Phase
Thu Aug 22 17:09:44 IDT 2013	 numberofMoves in round 2 is 1
Thu Aug 22 17:09:44 IDT 2013	Swaping roles:
Thu Aug 22 17:09:44 IDT 2013	Protocol: A New Phase Began: Communication Phase. loop is true
Thu Aug 22 17:09:44 IDT 2013	---------- Beginning Communication Phase at round 3 ----------
Thu Aug 22 17:10:12 IDT 2013	Received communication message 
Thu Aug 22 17:10:12 IDT 2013	From player: 520
Thu Aug 22 17:10:12 IDT 2013	To player: 510
Thu Aug 22 17:10:12 IDT 2013	Chips to send by proposer: { chips  'CTRed':5 'CTPurple':1 'CTGreen':0 'grey78':0 'CTYellow':0 }
Thu Aug 22 17:10:12 IDT 2013	Chips to send by responder: { chips  'CTRed':0 'CTPurple':0 'CTGreen':0 'grey78':0 'CTYellow':0 }
Thu Aug 22 17:10:57 IDT 2013	Received communication message 
Thu Aug 22 17:10:57 IDT 2013	From player: 540
Thu Aug 22 17:10:57 IDT 2013	To player: 510
Thu Aug 22 17:10:57 IDT 2013	Chips to send by proposer: { chips  'CTRed':0 'CTPurple':3 'CTGreen':0 'grey78':0 'CTYellow':0 }
Thu Aug 22 17:10:57 IDT 2013	Chips to send by responder: { chips  'CTRed':4 'CTPurple':0 'CTGreen':0 'grey78':0 'CTYellow':0 }
Thu Aug 22 17:10:57 IDT 2013	Received communication message 
Thu Aug 22 17:10:57 IDT 2013	Proposer 0 accepted? true
Thu Aug 22 17:10:57 IDT 2013	A Phase Ended: Communication Phase
Thu Aug 22 17:10:57 IDT 2013	Protocol: A New Phase Began: Movement Phase. loop is true
Thu Aug 22 17:10:57 IDT 2013	---------- Beginning Movement Phase at round 3 ----------
Thu Aug 22 17:10:57 IDT 2013	Received communication message 
Thu Aug 22 17:10:57 IDT 2013	Proposer 1 accepted? false
Thu Aug 22 17:11:42 IDT 2013	A Phase Ended: Movement Phase
Thu Aug 22 17:11:42 IDT 2013	Protocol: A New Phase Began: Feedback Phase. loop is true
Thu Aug 22 17:11:42 IDT 2013	---------- Beginning Feedback Phase at round 3 ----------
Thu Aug 22 17:11:42 IDT 2013	Number of consecutive no movements for player 510 is 1
Thu Aug 22 17:11:42 IDT 2013	TDPlayerPosition is(R:5,C:3)goal location 0(R:0,C:0)goal location 1(R:0,C:8)
Thu Aug 22 17:11:42 IDT 2013	ended is false
Thu Aug 22 17:11:47 IDT 2013	A Phase Ended: Feedback Phase
Thu Aug 22 17:11:47 IDT 2013	 numberofMoves in round 3 is 0
Thu Aug 22 17:11:47 IDT 2013	Swaping roles:
Thu Aug 22 17:11:47 IDT 2013	Protocol: A New Phase Began: Communication Phase. loop is true
Thu Aug 22 17:11:47 IDT 2013	---------- Beginning Communication Phase at round 4 ----------
Thu Aug 22 17:11:49 IDT 2013	Received communication message 
Thu Aug 22 17:11:49 IDT 2013	From player: 510
Thu Aug 22 17:11:49 IDT 2013	To player: 540
Thu Aug 22 17:11:49 IDT 2013	Chips to send by proposer: { chips  'CTYellow':11 }
Thu Aug 22 17:11:49 IDT 2013	Chips to send by responder: { chips  'CTRed':33 'CTPurple':7 }
Thu Aug 22 17:12:27 IDT 2013	Received communication message 
Thu Aug 22 17:12:27 IDT 2013	Proposer 1 accepted? false
Thu Aug 22 17:12:27 IDT 2013	case that we had one reject, and one accept
Thu Aug 22 17:12:27 IDT 2013	A Phase Ended: Communication Phase
Thu Aug 22 17:12:27 IDT 2013	Protocol: A New Phase Began: Movement Phase. loop is true
Thu Aug 22 17:12:27 IDT 2013	---------- Beginning Movement Phase at round 4 ----------
Thu Aug 22 17:13:11 IDT 2013	A Phase Ended: Movement Phase
Thu Aug 22 17:13:11 IDT 2013	Protocol: A New Phase Began: Feedback Phase. loop is true
Thu Aug 22 17:13:11 IDT 2013	---------- Beginning Feedback Phase at round 4 ----------
Thu Aug 22 17:13:11 IDT 2013	Number of consecutive no movements for player 510 is 0
Thu Aug 22 17:13:11 IDT 2013	TDPlayerPosition is(R:4,C:3)goal location 0(R:0,C:0)goal location 1(R:0,C:8)
Thu Aug 22 17:13:11 IDT 2013	ended is false
Thu Aug 22 17:13:16 IDT 2013	A Phase Ended: Feedback Phase
Thu Aug 22 17:13:16 IDT 2013	 numberofMoves in round 4 is 1
Thu Aug 22 17:13:16 IDT 2013	Swaping roles:
Thu Aug 22 17:13:16 IDT 2013	Protocol: A New Phase Began: Communication Phase. loop is true
Thu Aug 22 17:13:16 IDT 2013	---------- Beginning Communication Phase at round 5 ----------
Thu Aug 22 17:14:11 IDT 2013	Received communication message 
Thu Aug 22 17:14:11 IDT 2013	From player: 540
Thu Aug 22 17:14:11 IDT 2013	To player: 510
Thu Aug 22 17:14:11 IDT 2013	Chips to send by proposer: { chips  'CTRed':3 'CTPurple':3 'CTGreen':0 'grey78':0 'CTYellow':0 }
Thu Aug 22 17:14:11 IDT 2013	Chips to send by responder: { chips  'CTRed':0 'CTPurple':0 'CTGreen':0 'grey78':0 'CTYellow':0 }
Thu Aug 22 17:15:57 IDT 2013	Received communication message 
Thu Aug 22 17:15:57 IDT 2013	Proposer 1 accepted? true
Thu Aug 22 17:15:57 IDT 2013	A Phase Ended: Communication Phase
Thu Aug 22 17:15:57 IDT 2013	Protocol: A New Phase Began: Movement Phase. loop is true
Thu Aug 22 17:15:57 IDT 2013	---------- Beginning Movement Phase at round 5 ----------
Thu Aug 22 17:16:41 IDT 2013	A Phase Ended: Movement Phase
Thu Aug 22 17:16:41 IDT 2013	Protocol: A New Phase Began: Feedback Phase. loop is true
Thu Aug 22 17:16:41 IDT 2013	---------- Beginning Feedback Phase at round 5 ----------
Thu Aug 22 17:16:41 IDT 2013	Number of consecutive no movements for player 510 is 1
Thu Aug 22 17:16:41 IDT 2013	TDPlayerPosition is(R:4,C:3)goal location 0(R:0,C:0)goal location 1(R:0,C:8)
Thu Aug 22 17:16:41 IDT 2013	ended is false
Thu Aug 22 17:16:46 IDT 2013	A Phase Ended: Feedback Phase
Thu Aug 22 17:16:46 IDT 2013	 numberofMoves in round 5 is 0
Thu Aug 22 17:16:46 IDT 2013	Swaping roles:
Thu Aug 22 17:16:46 IDT 2013	Protocol: A New Phase Began: Communication Phase. loop is true
Thu Aug 22 17:16:46 IDT 2013	---------- Beginning Communication Phase at round 6 ----------
Thu Aug 22 17:16:47 IDT 2013	Received communication message 
Thu Aug 22 17:16:47 IDT 2013	From player: 510
Thu Aug 22 17:16:47 IDT 2013	To player: 540
Thu Aug 22 17:16:47 IDT 2013	Chips to send by proposer: { chips  'CTYellow':11 }
Thu Aug 22 17:16:47 IDT 2013	Chips to send by responder: { chips  'CTRed':30 'CTPurple':4 }
Thu Aug 22 17:17:06 IDT 2013	Received communication message 
Thu Aug 22 17:17:06 IDT 2013	Proposer 1 accepted? true
Thu Aug 22 17:17:06 IDT 2013	A Phase Ended: Communication Phase
Thu Aug 22 17:17:06 IDT 2013	Protocol: A New Phase Began: Movement Phase. loop is true
Thu Aug 22 17:17:06 IDT 2013	---------- Beginning Movement Phase at round 6 ----------
Thu Aug 22 17:17:51 IDT 2013	A Phase Ended: Movement Phase
Thu Aug 22 17:17:51 IDT 2013	Protocol: A New Phase Began: Feedback Phase. loop is true
Thu Aug 22 17:17:51 IDT 2013	---------- Beginning Feedback Phase at round 6 ----------
Thu Aug 22 17:17:51 IDT 2013	The TD player reached the goal, end the game
Thu Aug 22 17:17:51 IDT 2013	ended is true
Thu Aug 22 17:17:56 IDT 2013	A Phase Ended: Feedback Phase
Thu Aug 22 17:17:56 IDT 2013	 numberofMoves in round 6 is 7
Thu Aug 22 17:17:56 IDT 2013	Loop status: false
Thu Aug 22 17:17:56 IDT 2013	Player: 520 ,role: Responder score is: 80
Thu Aug 22 17:17:56 IDT 2013	Player: 520Game Ended
Thu Aug 22 17:17:56 IDT 2013	Player: 510 ,role: Proposer score is: 490
Thu Aug 22 17:17:56 IDT 2013	Player: 510Game Ended
Thu Aug 22 17:17:56 IDT 2013	Player: 540 ,role: Responder score is: 205
Thu Aug 22 17:17:56 IDT 2013	Player: 540Game Ended
Thu Aug 22 17:17:56 IDT 2013	Protocol: A New Phase Began: Communication Phase. loop is false
Thu Aug 22 17:17:56 IDT 2013	---------- Beginning Communication Phase at round 6 ----------
Thu Aug 22 17:20:56 IDT 2013	A Phase Ended: Communication Phase
Thu Aug 22 17:20:56 IDT 2013	Protocol: A New Phase Began: Movement Phase. loop is false
Thu Aug 22 17:20:56 IDT 2013	---------- Beginning Movement Phase at round 6 ----------
Thu Aug 22 17:21:41 IDT 2013	A Phase Ended: Movement Phase
Thu Aug 22 17:21:41 IDT 2013	Protocol: A New Phase Began: Feedback Phase. loop is false
Thu Aug 22 17:21:41 IDT 2013	---------- Beginning Feedback Phase at round 6 ----------
Thu Aug 22 17:21:41 IDT 2013	The TD player reached the goal, end the game
Thu Aug 22 17:21:41 IDT 2013	ended is true
Thu Aug 22 17:21:46 IDT 2013	A Phase Ended: Feedback Phase
Thu Aug 22 17:21:46 IDT 2013	 numberofMoves in round 6 is 0
Thu Aug 22 17:21:46 IDT 2013	Loop status: false
Thu Aug 22 17:21:46 IDT 2013	Player: 520 ,role: GameEnded score is: 80
Thu Aug 22 17:21:46 IDT 2013	Player: 520Game Ended
Thu Aug 22 17:21:46 IDT 2013	Player: 510 ,role: GameEnded score is: 490
Thu Aug 22 17:21:46 IDT 2013	Player: 510Game Ended
Thu Aug 22 17:21:46 IDT 2013	Player: 540 ,role: GameEnded score is: 205
Thu Aug 22 17:21:46 IDT 2013	Player: 540Game Ended
