Participant Number ,Ip-Server,Date,Gender,Age,Nationality,Religion,Major,Year,How religious,Marital
200,C3,Tue Nov 19 2013 14:43:14 GMT-0500 (Eastern Standard Time),F,19,US,none,History & Literature,Sophomore,1,Single
300,c5,Tue Nov 19 2013 14:46:01 GMT-0500 (Eastern Standard Time),Female,20,American,Agnostic,Writing for film and TV,Senior,1,Single
100,C1,Tue Nov 19 2013 14:48:14 GMT-0500 (Eastern Standard Time),Female,20,American,agnostic,philosophy,junior,3,unmarried
