filename,round,propID,respID,IsPropCustomer,chipsToSend,chipsToReceive,accept,propCurrentScore,respCurrentScore,actualSent,ActualRcvd,propResultingScore,respResultingScore,#ofCustomerMovesInRound,customerRowPositionAfterMovePhase,customerColPositionAfterMovePhase,Player100ChipsAfterMovePhase,Player100ScoreAfterMovePhase,Player200ChipsAfterMovePhase,Player200ScoreAfterMovePhase,Player300ChipsAfterMovePhase,Player300ScoreAfterMovePhase,generosityLevel,ClientReachedGoal
3playersLog_1391716184649.csv,1,530,500,false,{ chips  'CTRed':33 'CTPurple':7 },{ chips  'grey78':11 },TRUE,200,120,{ chips  'CTRed':33 'CTPurple':7 'CTYellow':0 },{ chips  'grey78':11 },55,265,0,(R:5,C:4),{ chips  'CTRed':33 'CTGreen':0 'CTPurple':7 'grey78':1 'CTYellow':12 },265,{ chips  'CTRed':0 'CTGreen':0 'CTPurple':0 'grey78':11 'CTYellow':0 },55,{ chips  'CTRed':33 'CTGreen':0 'CTPurple':7 'grey78':0 'CTYellow':0 },200
3playersLog_1391716184649.csv,2,500,530,true,{ chips  'CTRed':10 },{ chips  'grey78':2 },TRUE,265,55,{ chips  'CTRed':10 'CTPurple':0 'CTGreen':0 'grey78':0 'CTYellow':0 },{ chips  'CTRed':0 'CTPurple':0 'CTGreen':0 'grey78':2 'CTYellow':0 },225,95,8,(R:1,C:8),{ chips  'CTRed':23 'CTGreen':0 'CTPurple':7 'grey78':3 'CTYellow':4 },185,{ chips  'CTRed':10 'CTGreen':0 'CTPurple':0 'grey78':9 'CTYellow':0 },95,{ chips  'CTRed':33 'CTGreen':0 'CTPurple':7 'grey78':0 'CTYellow':0 },200
3playersLog_1391716184649.csv,3,530,500,false,{ chips  'CTRed':10 },{ chips  'grey78':2 },FALSE,95,185,,,,,4,(R:1,C:4),{ chips  'CTRed':30 'CTGreen':0 'CTPurple':10 'grey78':3 'CTYellow':4 },235,{ chips  'CTRed':10 'CTGreen':0 'CTPurple':0 'grey78':9 'CTYellow':0 },95,{ chips  'CTRed':26 'CTGreen':0 'CTPurple':0 'grey78':0 'CTYellow':0 },130
3playersLog_1391716184649.csv,3,540,500,false,{ chips  'CTRed':7 'CTPurple':7 },{ chips  },TRUE,200,185,{ chips  'CTRed':7 'CTPurple':7 'CTGreen':0 'grey78':0 'CTYellow':0 },{ chips  'CTRed':0 'CTPurple':0 'CTGreen':0 'grey78':0 'CTYellow':0 },130,255,4,(R:1,C:4),{ chips  'CTRed':30 'CTGreen':0 'CTPurple':10 'grey78':3 'CTYellow':4 },235,{ chips  'CTRed':10 'CTGreen':0 'CTPurple':0 'grey78':9 'CTYellow':0 },95,{ chips  'CTRed':26 'CTGreen':0 'CTPurple':0 'grey78':0 'CTYellow':0 },130
3playersLog_1391716184649.csv,4,500,540,true,{ chips  'CTYellow':3 },{ chips  'CTRed':26 },FALSE,235,130,,,,,0,(R:1,C:4),{ chips  'CTRed':30 'CTGreen':0 'CTPurple':10 'grey78':3 'CTYellow':4 },235,{ chips  'CTRed':10 'CTGreen':0 'CTPurple':0 'grey78':9 'CTYellow':0 },95,{ chips  'CTRed':26 'CTGreen':0 'CTPurple':0 'grey78':0 'CTYellow':0 },130
3playersLog_1391716184649.csv,5,530,500,false,{ chips  'CTRed':10 },{ chips  'grey78':2 },TRUE,95,235,{ chips  'CTRed':10 'CTPurple':0 'CTYellow':0 },{ chips  'grey78':2 },55,275,5,(R:0,C:8),{ chips  'CTRed':40 'CTGreen':0 'CTPurple':7 'grey78':1 'CTYellow':2 },400,{ chips  'CTRed':0 'CTGreen':0 'CTPurple':0 'grey78':11 'CTYellow':0 },205,{ chips  'CTRed':26 'CTGreen':0 'CTPurple':0 'grey78':0 'CTYellow':0 },130
3playersLog_1391716184649.csv,5,540,500,false,{ chips  'CTRed':2 },{ chips  'CTRed':2 'CTPurple':2 'grey78':1 'CTYellow':1 },FALSE,130,235,,,,,5,(R:0,C:8),{ chips  'CTRed':40 'CTGreen':0 'CTPurple':7 'grey78':1 'CTYellow':2 },400,{ chips  'CTRed':0 'CTGreen':0 'CTPurple':0 'grey78':11 'CTYellow':0 },205,{ chips  'CTRed':26 'CTGreen':0 'CTPurple':0 'grey78':0 'CTYellow':0 },130
3playersLog_1391716184649.csv,,,,,,,,,,,,,,,,,,,,,,,,true
