filename,round,propID,respID,IsPropCustomer,chipsToSend,chipsToReceive,accept,propCurrentScore,respCurrentScore,actualSent,ActualRcvd,propResultingScore,respResultingScore,#ofCustomerMovesInRound,customerRowPositionAfterMovePhase,customerColPositionAfterMovePhase,Player100ChipsAfterMovePhase,Player100ScoreAfterMovePhase,Player200ChipsAfterMovePhase,Player200ScoreAfterMovePhase,Player300ChipsAfterMovePhase,Player300ScoreAfterMovePhase,generosityLevel,ClientReachedGoal
3playersLog_1377180047084.csv,1,530,500,false,{ chips  'CTRed':33 'CTPurple':7 },{ chips  'grey78':11 },FALSE,200,120,,,,,9,(R:0,C:0),{ chips  'CTRed':0 'CTGreen':0 'CTPurple':3 'grey78':1 'CTYellow':11 },225,{ chips  'CTRed':33 'CTGreen':0 'CTPurple':7 'grey78':0 'CTYellow':0 },200,{ chips  'CTRed':33 'CTGreen':0 'CTPurple':4 'grey78':2 'CTYellow':1 },350
3playersLog_1377180047084.csv,1,540,500,false,{ chips  'CTPurple':3 },{ chips  'grey78':2 'CTYellow':1 },TRUE,200,120,{ chips  'CTRed':0 'CTPurple':3 'CTGreen':0 'grey78':0 'CTYellow':0 },{ chips  'CTRed':0 'CTPurple':0 'CTGreen':0 'grey78':2 'CTYellow':1 },200,120,9,(R:0,C:0),{ chips  'CTRed':0 'CTGreen':0 'CTPurple':3 'grey78':1 'CTYellow':11 },225,{ chips  'CTRed':33 'CTGreen':0 'CTPurple':7 'grey78':0 'CTYellow':0 },200,{ chips  'CTRed':33 'CTGreen':0 'CTPurple':4 'grey78':2 'CTYellow':1 },350
3playersLog_1377180047084.csv,,,,,,,,,,,,,,,,,,,,,,,,true
filename,round,propID,respID,IsPropCustomer,chipsToSend,chipsToReceive,accept,propCurrentScore,respCurrentScore,actualSent,ActualRcvd,propResultingScore,respResultingScore,#ofCustomerMovesInRound,customerRowPositionAfterMovePhase,customerColPositionAfterMovePhase,Player100ChipsAfterMovePhase,Player100ScoreAfterMovePhase,Player200ChipsAfterMovePhase,Player200ScoreAfterMovePhase,Player300ChipsAfterMovePhase,Player300ScoreAfterMovePhase,generosityLevel,ClientReachedGoal
3playersLog_1377183378640.csv,1,530,500,false,{ chips  'CTRed':33 'CTPurple':7 },{ chips  'grey78':11 },FALSE,200,120,,,,,0,(R:5,C:4),{ chips  'CTRed':0 'CTGreen':0 'CTPurple':0 'grey78':12 'CTYellow':12 },120,{ chips  'CTRed':33 'CTGreen':0 'CTPurple':7 'grey78':0 'CTYellow':0 },200,{ chips  'CTRed':33 'CTGreen':0 'CTPurple':7 'grey78':0 'CTYellow':0 },200
3playersLog_1377183378640.csv,1,540,500,false,{ chips  'CTRed':20 'CTPurple':5 },{ chips  'CTYellow':12 },FALSE,200,120,,,,,0,(R:5,C:4),{ chips  'CTRed':0 'CTGreen':0 'CTPurple':0 'grey78':12 'CTYellow':12 },120,{ chips  'CTRed':33 'CTGreen':0 'CTPurple':7 'grey78':0 'CTYellow':0 },200,{ chips  'CTRed':33 'CTGreen':0 'CTPurple':7 'grey78':0 'CTYellow':0 },200
3playersLog_1377183378640.csv,2,500,530,true,{ chips  'CTYellow':6 },{ chips  'CTPurple':7 },FALSE,120,200,,,,,7,(R:2,C:0),{ chips  'CTRed':0 'CTGreen':0 'CTPurple':0 'grey78':5 'CTYellow':12 },85,{ chips  'CTRed':33 'CTGreen':0 'CTPurple':7 'grey78':0 'CTYellow':0 },200,{ chips  'CTRed':33 'CTGreen':0 'CTPurple':7 'grey78':0 'CTYellow':0 },200
3playersLog_1377183378640.csv,3,530,500,false,{ chips  },{ chips  },IGNORED,200,80,,,,,1,(R:2,C:0),{ chips  'CTRed':24 'CTGreen':0 'CTPurple':0 'grey78':3 'CTYellow':0 },135,{ chips  'CTRed':33 'CTGreen':0 'CTPurple':7 'grey78':0 'CTYellow':0 },200,{ chips  'CTRed':9 'CTGreen':0 'CTPurple':7 'grey78':0 'CTYellow':12 },140
3playersLog_1377183378640.csv,3,540,500,false,{ chips  'CTRed':24 },{ chips  'CTYellow':12 },TRUE,200,80,{ chips  'CTRed':24 'CTPurple':0 'CTGreen':0 'grey78':0 'CTYellow':0 },{ chips  'CTRed':0 'CTPurple':0 'CTGreen':0 'grey78':0 'CTYellow':12 },140,140,1,(R:2,C:0),{ chips  'CTRed':24 'CTGreen':0 'CTPurple':0 'grey78':3 'CTYellow':0 },135,{ chips  'CTRed':33 'CTGreen':0 'CTPurple':7 'grey78':0 'CTYellow':0 },200,{ chips  'CTRed':9 'CTGreen':0 'CTPurple':7 'grey78':0 'CTYellow':12 },140
3playersLog_1377183378640.csv,4,500,540,true,{ chips  'CTRed':7 },{ chips  'CTPurple':7 },FALSE,135,140,,,,,0,(R:2,C:0),{ chips  'CTRed':24 'CTGreen':0 'CTPurple':0 'grey78':3 'CTYellow':0 },135,{ chips  'CTRed':33 'CTGreen':0 'CTPurple':7 'grey78':0 'CTYellow':0 },200,{ chips  'CTRed':9 'CTGreen':0 'CTPurple':7 'grey78':0 'CTYellow':12 },140
3playersLog_1377183378640.csv,5,530,500,false,{ chips  },{ chips  },FALSE,200,135,,,,,1,(R:1,C:0),{ chips  'CTRed':24 'CTGreen':0 'CTPurple':0 'grey78':2 'CTYellow':0 },130,{ chips  'CTRed':33 'CTGreen':0 'CTPurple':7 'grey78':0 'CTYellow':0 },200,{ chips  'CTRed':9 'CTGreen':0 'CTPurple':7 'grey78':0 'CTYellow':12 },140
3playersLog_1377183378640.csv,5,540,500,false,{ chips  'CTPurple':7 },{ chips  'CTRed':24 },FALSE,140,135,,,,,1,(R:1,C:0),{ chips  'CTRed':24 'CTGreen':0 'CTPurple':0 'grey78':2 'CTYellow':0 },130,{ chips  'CTRed':33 'CTGreen':0 'CTPurple':7 'grey78':0 'CTYellow':0 },200,{ chips  'CTRed':9 'CTGreen':0 'CTPurple':7 'grey78':0 'CTYellow':12 },140
3playersLog_1377183378640.csv,6,500,540,true,{ chips  'CTRed':7 },{ chips  'CTPurple':7 },FALSE,130,140,,,,,0,(R:1,C:0),{ chips  'CTRed':24 'CTGreen':0 'CTPurple':0 'grey78':2 'CTYellow':0 },130,{ chips  'CTRed':33 'CTGreen':0 'CTPurple':7 'grey78':0 'CTYellow':0 },200,{ chips  'CTRed':9 'CTGreen':0 'CTPurple':7 'grey78':0 'CTYellow':12 },140
3playersLog_1377183378640.csv,7,530,500,false,{ chips  },{ chips  },FALSE,200,130,,,,,1,(R:0,C:0),{ chips  'CTRed':24 'CTGreen':0 'CTPurple':0 'grey78':1 'CTYellow':0 },275,{ chips  'CTRed':33 'CTGreen':0 'CTPurple':7 'grey78':0 'CTYellow':0 },200,{ chips  'CTRed':9 'CTGreen':0 'CTPurple':7 'grey78':0 'CTYellow':12 },290
3playersLog_1377183378640.csv,7,540,500,false,{ chips  'CTPurple':2 },{ chips  'CTRed':10 },FALSE,140,130,,,,,1,(R:0,C:0),{ chips  'CTRed':24 'CTGreen':0 'CTPurple':0 'grey78':1 'CTYellow':0 },275,{ chips  'CTRed':33 'CTGreen':0 'CTPurple':7 'grey78':0 'CTYellow':0 },200,{ chips  'CTRed':9 'CTGreen':0 'CTPurple':7 'grey78':0 'CTYellow':12 },290
3playersLog_1377183378640.csv,,,,,,,,,,,,,,,,,,,,,,,,true
filename,round,propID,respID,IsPropCustomer,chipsToSend,chipsToReceive,accept,propCurrentScore,respCurrentScore,actualSent,ActualRcvd,propResultingScore,respResultingScore,#ofCustomerMovesInRound,customerRowPositionAfterMovePhase,customerColPositionAfterMovePhase,Player100ChipsAfterMovePhase,Player100ScoreAfterMovePhase,Player200ChipsAfterMovePhase,Player200ScoreAfterMovePhase,Player300ChipsAfterMovePhase,Player300ScoreAfterMovePhase,generosityLevel,ClientReachedGoal
3playersLog_1377183385501.csv,1,530,500,false,{ chips  'CTRed':33 'CTPurple':7 },{ chips  'grey78':11 },IGNORED,200,A120,,,,,0,(R:5,C:4),{ chips  'CTRed':0 'CTGreen':0 'CTPurple':0 'grey78':12 'CTYellow':12 },120,{ chips  'CTRed':33 'CTGreen':0 'CTPurple':7 'grey78':0 'CTYellow':0 },200,{ chips  'CTRed':33 'CTGreen':0 'CTPurple':7 'grey78':0 'CTYellow':0 },200
3playersLog_1377183385501.csv,1,540,500,false,{ chips  'CTRed':3 'CTPurple':1 },{ chips  'grey78':5 },IGNORED,200,B120,,,,,0,(R:5,C:4),{ chips  'CTRed':0 'CTGreen':0 'CTPurple':0 'grey78':12 'CTYellow':12 },120,{ chips  'CTRed':33 'CTGreen':0 'CTPurple':7 'grey78':0 'CTYellow':0 },200,{ chips  'CTRed':33 'CTGreen':0 'CTPurple':7 'grey78':0 'CTYellow':0 },200
3playersLog_1377183385501.csv,2,500,540,true,{ chips  'grey78':2 'CTYellow':3 },{ chips  'CTRed':6 },TRUE,120,200,{ chips  'CTRed':0 'CTPurple':0 'CTGreen':0 'grey78':2 'CTYellow':3 },{ chips  'CTRed':6 'CTPurple':0 'CTGreen':0 'grey78':0 'CTYellow':0 },125,195,0,(R:5,C:4),{ chips  'CTRed':6 'CTGreen':0 'CTPurple':0 'grey78':10 'CTYellow':9 },125,{ chips  'CTRed':33 'CTGreen':0 'CTPurple':7 'grey78':0 'CTYellow':0 },200,{ chips  'CTRed':27 'CTGreen':0 'CTPurple':7 'grey78':2 'CTYellow':3 },195
3playersLog_1377183385501.csv,,,,,,,,,,,,,,,,,,,,,,,,false
