Thu Apr 25 10:31:45 IDT 2013	This is the CT debug logger; svn version 638; sep 27 09
Thu Apr 25 10:31:45 IDT 2013	Thu Apr 25 10:31:45 IDT 2013
Thu Apr 25 10:31:45 IDT 2013	ID Number: 65425
Thu Apr 25 10:31:45 IDT 2013	Creating board
Thu Apr 25 10:31:45 IDT 2013	<colors>
Thu Apr 25 10:31:45 IDT 2013	{ GamePalette  'CTPurple':0 'CTRed':1 'CTGreen':2 'grey78':3 'CTYellow':4 }
Thu Apr 25 10:31:45 IDT 2013	<rows>
Thu Apr 25 10:31:45 IDT 2013	6
Thu Apr 25 10:31:45 IDT 2013	<columns>
Thu Apr 25 10:31:45 IDT 2013	9
Thu Apr 25 10:31:45 IDT 2013	<squaresColors>
Thu Apr 25 10:31:45 IDT 2013	grey78 CTGreen CTGreen CTGreen CTGreen CTGreen CTGreen CTGreen CTYellow 
Thu Apr 25 10:31:45 IDT 2013	grey78 CTPurple CTPurple CTPurple CTPurple CTPurple CTPurple CTPurple CTYellow 
Thu Apr 25 10:31:45 IDT 2013	grey78 grey78 CTGreen CTGreen CTGreen CTGreen CTGreen CTYellow CTYellow 
Thu Apr 25 10:31:45 IDT 2013	CTGreen grey78 grey78 CTPurple CTPurple CTPurple CTYellow CTYellow CTGreen 
Thu Apr 25 10:31:45 IDT 2013	CTGreen CTGreen grey78 grey78 CTGreen CTYellow CTYellow CTGreen CTGreen 
Thu Apr 25 10:31:45 IDT 2013	CTGreen CTGreen CTGreen grey78 CTGreen CTYellow CTGreen CTGreen CTGreen 
Thu Apr 25 10:31:45 IDT 2013	</squareColors>
Thu Apr 25 10:31:45 IDT 2013	<goalPosition>
Thu Apr 25 10:31:45 IDT 2013	Goal position: (R:0,C:0)
Thu Apr 25 10:31:45 IDT 2013	<goalPosition>
Thu Apr 25 10:31:45 IDT 2013	Goal position: (R:0,C:0)
Thu Apr 25 10:31:45 IDT 2013	<firstPlayerPossibleGoal1>
Thu Apr 25 10:31:45 IDT 2013	0.5
Thu Apr 25 10:31:45 IDT 2013	0
Thu Apr 25 10:31:45 IDT 2013	0
Thu Apr 25 10:31:45 IDT 2013	</firstPlayerPossibleGoal1>
Thu Apr 25 10:31:45 IDT 2013	<firstPlayerPossibleGoal2>
Thu Apr 25 10:31:45 IDT 2013	0.5
Thu Apr 25 10:31:45 IDT 2013	0
Thu Apr 25 10:31:45 IDT 2013	8
Thu Apr 25 10:31:45 IDT 2013	</firstPlayerPossibleGoal2>
Thu Apr 25 10:31:45 IDT 2013	<numberOfPlayers>
Thu Apr 25 10:31:45 IDT 2013	3
Thu Apr 25 10:31:45 IDT 2013	<firstPlayerChips>
Thu Apr 25 10:31:45 IDT 2013	Setting chips for player: 100 id:0
Thu Apr 25 10:31:45 IDT 2013	{ chips  'CTRed':0 'CTGreen':0 'CTPurple':0 'grey78':12 'CTYellow':12 }
Thu Apr 25 10:31:45 IDT 2013	Player position: (R:5,C:4)
Thu Apr 25 10:31:45 IDT 2013	Setting chips for player: 200 id:1
Thu Apr 25 10:31:45 IDT 2013	{ chips  'CTRed':33 'CTGreen':0 'CTPurple':7 'grey78':0 'CTYellow':0 }
Thu Apr 25 10:31:45 IDT 2013	Player position: (R:0,C:8)
Thu Apr 25 10:31:45 IDT 2013	Setting chips for player: 300 id:2
Thu Apr 25 10:31:45 IDT 2013	{ chips  'CTRed':33 'CTGreen':0 'CTPurple':7 'grey78':0 'CTYellow':0 }
Thu Apr 25 10:31:45 IDT 2013	Player position: (R:0,C:0)
Thu Apr 25 10:31:45 IDT 2013	Protocol: A New Phase Began: Strategy Prep Phase. loop is true
Thu Apr 25 10:31:45 IDT 2013	---------- Beginning Strategy Prep Phase at round 0 ----------
Thu Apr 25 10:32:46 IDT 2013	A Phase Ended: Strategy Prep Phase
Thu Apr 25 10:32:46 IDT 2013	Protocol: A New Phase Began: Communication Phase. loop is true
Thu Apr 25 10:32:46 IDT 2013	---------- Beginning Communication Phase at round 1 ----------
Thu Apr 25 10:33:42 IDT 2013	Received communication message 
Thu Apr 25 10:33:42 IDT 2013	From player: 200
Thu Apr 25 10:33:42 IDT 2013	To player: 100
Thu Apr 25 10:33:42 IDT 2013	Chips to send by proposer: { chips  'CTRed':6 'CTPurple':0 'CTGreen':0 'grey78':0 'CTYellow':0 }
Thu Apr 25 10:33:42 IDT 2013	Chips to send by responder: { chips  'CTRed':0 'CTPurple':0 'CTGreen':0 'grey78':3 'CTYellow':0 }
Thu Apr 25 10:33:44 IDT 2013	Received communication message 
Thu Apr 25 10:33:44 IDT 2013	From player: 300
Thu Apr 25 10:33:44 IDT 2013	To player: 100
Thu Apr 25 10:33:44 IDT 2013	Chips to send by proposer: { chips  'CTRed':15 'CTPurple':0 'CTGreen':0 'grey78':0 'CTYellow':0 }
Thu Apr 25 10:33:44 IDT 2013	Chips to send by responder: { chips  'CTRed':0 'CTPurple':0 'CTGreen':0 'grey78':0 'CTYellow':5 }
Thu Apr 25 10:34:23 IDT 2013	Received communication message 
Thu Apr 25 10:34:23 IDT 2013	Proposer 0 accepted? false
Thu Apr 25 10:34:23 IDT 2013	case that we had one reject, and one accept
Thu Apr 25 10:34:24 IDT 2013	Received communication message 
Thu Apr 25 10:34:24 IDT 2013	Proposer 1 accepted? false
Thu Apr 25 10:34:24 IDT 2013	case that we had one reject, and one accept
Thu Apr 25 10:34:24 IDT 2013	A Phase Ended: Communication Phase
Thu Apr 25 10:34:24 IDT 2013	Protocol: A New Phase Began: Movement Phase. loop is true
Thu Apr 25 10:34:24 IDT 2013	---------- Beginning Movement Phase at round 1 ----------
Thu Apr 25 10:34:24 IDT 2013	remove strategy phase. 
Thu Apr 25 10:35:09 IDT 2013	A Phase Ended: Movement Phase
Thu Apr 25 10:35:09 IDT 2013	Protocol: A New Phase Began: Feedback Phase. loop is true
Thu Apr 25 10:35:09 IDT 2013	---------- Beginning Feedback Phase at round 1 ----------
Thu Apr 25 10:35:09 IDT 2013	Number of consecutive no movements for player 100 is 0
Thu Apr 25 10:35:09 IDT 2013	TDPlayerPosition is(R:3,C:2)goal location 0(R:0,C:0)goal location 1(R:0,C:8)
Thu Apr 25 10:35:09 IDT 2013	ended is false
Thu Apr 25 10:35:14 IDT 2013	A Phase Ended: Feedback Phase
Thu Apr 25 10:35:14 IDT 2013	 numberofMoves in round 1 is 4
Thu Apr 25 10:35:14 IDT 2013	Swaping roles:
Thu Apr 25 10:35:14 IDT 2013	Protocol: A New Phase Began: Communication Phase. loop is true
Thu Apr 25 10:35:14 IDT 2013	---------- Beginning Communication Phase at round 2 ----------
Thu Apr 25 10:36:49 IDT 2013	Received communication message 
Thu Apr 25 10:36:49 IDT 2013	From player: 100
Thu Apr 25 10:36:49 IDT 2013	To player: 200
Thu Apr 25 10:36:49 IDT 2013	Chips to send by proposer: { chips  'CTRed':0 'CTPurple':0 'CTGreen':0 'grey78':3 'CTYellow':0 }
Thu Apr 25 10:36:49 IDT 2013	Chips to send by responder: { chips  'CTRed':0 'CTPurple':0 'CTGreen':0 'grey78':0 'CTYellow':0 }
Thu Apr 25 10:37:25 IDT 2013	Received communication message 
Thu Apr 25 10:37:25 IDT 2013	Proposer 0 accepted? true
Thu Apr 25 10:37:25 IDT 2013	A Phase Ended: Communication Phase
Thu Apr 25 10:37:25 IDT 2013	Protocol: A New Phase Began: Movement Phase. loop is true
Thu Apr 25 10:37:25 IDT 2013	---------- Beginning Movement Phase at round 2 ----------
Thu Apr 25 10:38:10 IDT 2013	A Phase Ended: Movement Phase
Thu Apr 25 10:38:10 IDT 2013	Protocol: A New Phase Began: Feedback Phase. loop is true
Thu Apr 25 10:38:10 IDT 2013	---------- Beginning Feedback Phase at round 2 ----------
Thu Apr 25 10:38:10 IDT 2013	Number of consecutive no movements for player 100 is 1
Thu Apr 25 10:38:10 IDT 2013	TDPlayerPosition is(R:3,C:2)goal location 0(R:0,C:0)goal location 1(R:0,C:8)
Thu Apr 25 10:38:10 IDT 2013	ended is false
Thu Apr 25 10:38:15 IDT 2013	A Phase Ended: Feedback Phase
Thu Apr 25 10:38:15 IDT 2013	 numberofMoves in round 2 is 0
Thu Apr 25 10:38:15 IDT 2013	Swaping roles:
Thu Apr 25 10:38:15 IDT 2013	Protocol: A New Phase Began: Communication Phase. loop is true
Thu Apr 25 10:38:15 IDT 2013	---------- Beginning Communication Phase at round 3 ----------
Thu Apr 25 10:38:56 IDT 2013	Received communication message 
Thu Apr 25 10:38:56 IDT 2013	From player: 300
Thu Apr 25 10:38:56 IDT 2013	To player: 100
Thu Apr 25 10:38:56 IDT 2013	Chips to send by proposer: { chips  'CTRed':20 'CTPurple':0 'CTGreen':0 'grey78':0 'CTYellow':0 }
Thu Apr 25 10:38:56 IDT 2013	Chips to send by responder: { chips  'CTRed':0 'CTPurple':0 'CTGreen':0 'grey78':0 'CTYellow':7 }
Thu Apr 25 10:39:33 IDT 2013	Received communication message 
Thu Apr 25 10:39:33 IDT 2013	From player: 200
Thu Apr 25 10:39:33 IDT 2013	To player: 100
Thu Apr 25 10:39:33 IDT 2013	Chips to send by proposer: { chips  'CTRed':20 'CTPurple':3 'CTGreen':0 'grey78':0 'CTYellow':0 }
Thu Apr 25 10:39:33 IDT 2013	Chips to send by responder: { chips  'CTRed':0 'CTPurple':0 'CTGreen':0 'grey78':1 'CTYellow':0 }
Thu Apr 25 10:40:01 IDT 2013	Received communication message 
Thu Apr 25 10:40:01 IDT 2013	Proposer 0 accepted? true
Thu Apr 25 10:40:01 IDT 2013	A Phase Ended: Communication Phase
Thu Apr 25 10:40:01 IDT 2013	Protocol: A New Phase Began: Movement Phase. loop is true
Thu Apr 25 10:40:01 IDT 2013	---------- Beginning Movement Phase at round 3 ----------
Thu Apr 25 10:40:46 IDT 2013	A Phase Ended: Movement Phase
Thu Apr 25 10:40:46 IDT 2013	Protocol: A New Phase Began: Feedback Phase. loop is true
Thu Apr 25 10:40:46 IDT 2013	---------- Beginning Feedback Phase at round 3 ----------
Thu Apr 25 10:40:47 IDT 2013	Number of consecutive no movements for player 100 is 0
Thu Apr 25 10:40:47 IDT 2013	TDPlayerPosition is(R:3,C:3)goal location 0(R:0,C:0)goal location 1(R:0,C:8)
Thu Apr 25 10:40:47 IDT 2013	ended is false
Thu Apr 25 10:40:52 IDT 2013	A Phase Ended: Feedback Phase
Thu Apr 25 10:40:52 IDT 2013	 numberofMoves in round 3 is 1
Thu Apr 25 10:40:52 IDT 2013	Swaping roles:
Thu Apr 25 10:40:52 IDT 2013	Protocol: A New Phase Began: Communication Phase. loop is true
Thu Apr 25 10:40:52 IDT 2013	---------- Beginning Communication Phase at round 4 ----------
Thu Apr 25 10:43:25 IDT 2013	Received communication message 
Thu Apr 25 10:43:25 IDT 2013	From player: 100
Thu Apr 25 10:43:25 IDT 2013	To player: 200
Thu Apr 25 10:43:25 IDT 2013	Chips to send by proposer: { chips  'CTRed':0 'CTPurple':0 'CTGreen':0 'grey78':0 'CTYellow':0 }
Thu Apr 25 10:43:25 IDT 2013	Chips to send by responder: { chips  'CTRed':0 'CTPurple':4 'CTGreen':0 'grey78':0 'CTYellow':0 }
Thu Apr 25 10:43:34 IDT 2013	Received communication message 
Thu Apr 25 10:43:34 IDT 2013	Proposer 0 accepted? false
Thu Apr 25 10:43:34 IDT 2013	case that we had one reject, and one accept
Thu Apr 25 10:43:34 IDT 2013	A Phase Ended: Communication Phase
Thu Apr 25 10:43:34 IDT 2013	Protocol: A New Phase Began: Movement Phase. loop is true
Thu Apr 25 10:43:34 IDT 2013	---------- Beginning Movement Phase at round 4 ----------
Thu Apr 25 10:44:19 IDT 2013	A Phase Ended: Movement Phase
Thu Apr 25 10:44:19 IDT 2013	Protocol: A New Phase Began: Feedback Phase. loop is true
Thu Apr 25 10:44:19 IDT 2013	---------- Beginning Feedback Phase at round 4 ----------
Thu Apr 25 10:44:19 IDT 2013	Number of consecutive no movements for player 100 is 0
Thu Apr 25 10:44:19 IDT 2013	TDPlayerPosition is(R:3,C:2)goal location 0(R:0,C:0)goal location 1(R:0,C:8)
Thu Apr 25 10:44:19 IDT 2013	ended is false
Thu Apr 25 10:44:25 IDT 2013	A Phase Ended: Feedback Phase
Thu Apr 25 10:44:25 IDT 2013	 numberofMoves in round 4 is 1
Thu Apr 25 10:44:25 IDT 2013	Swaping roles:
Thu Apr 25 10:44:25 IDT 2013	Protocol: A New Phase Began: Communication Phase. loop is true
Thu Apr 25 10:44:25 IDT 2013	---------- Beginning Communication Phase at round 5 ----------
Thu Apr 25 10:45:28 IDT 2013	Received communication message 
Thu Apr 25 10:45:28 IDT 2013	From player: 200
Thu Apr 25 10:45:28 IDT 2013	To player: 100
Thu Apr 25 10:45:28 IDT 2013	Chips to send by proposer: { chips  'CTRed':0 'CTPurple':1 'CTGreen':0 'grey78':0 'CTYellow':0 }
Thu Apr 25 10:45:28 IDT 2013	Chips to send by responder: { chips  'CTRed':0 'CTPurple':0 'CTGreen':0 'grey78':0 'CTYellow':0 }
Thu Apr 25 10:45:42 IDT 2013	Received communication message 
Thu Apr 25 10:45:42 IDT 2013	From player: 300
Thu Apr 25 10:45:42 IDT 2013	To player: 100
Thu Apr 25 10:45:42 IDT 2013	Chips to send by proposer: { chips  'CTRed':7 'CTPurple':0 'CTGreen':0 'grey78':0 'CTYellow':0 }
Thu Apr 25 10:45:42 IDT 2013	Chips to send by responder: { chips  'CTRed':0 'CTPurple':1 'CTGreen':0 'grey78':0 'CTYellow':0 }
Thu Apr 25 10:47:21 IDT 2013	Received communication message 
Thu Apr 25 10:47:21 IDT 2013	Proposer 1 accepted? true
Thu Apr 25 10:47:21 IDT 2013	A Phase Ended: Communication Phase
Thu Apr 25 10:47:21 IDT 2013	Protocol: A New Phase Began: Movement Phase. loop is true
Thu Apr 25 10:47:21 IDT 2013	---------- Beginning Movement Phase at round 5 ----------
Thu Apr 25 10:48:06 IDT 2013	A Phase Ended: Movement Phase
Thu Apr 25 10:48:06 IDT 2013	Protocol: A New Phase Began: Feedback Phase. loop is true
Thu Apr 25 10:48:06 IDT 2013	---------- Beginning Feedback Phase at round 5 ----------
Thu Apr 25 10:48:06 IDT 2013	Number of consecutive no movements for player 100 is 0
Thu Apr 25 10:48:06 IDT 2013	TDPlayerPosition is(R:3,C:1)goal location 0(R:0,C:0)goal location 1(R:0,C:8)
Thu Apr 25 10:48:06 IDT 2013	ended is false
Thu Apr 25 10:48:11 IDT 2013	A Phase Ended: Feedback Phase
Thu Apr 25 10:48:11 IDT 2013	 numberofMoves in round 5 is 1
Thu Apr 25 10:48:11 IDT 2013	Swaping roles:
Thu Apr 25 10:48:11 IDT 2013	Protocol: A New Phase Began: Communication Phase. loop is true
Thu Apr 25 10:48:11 IDT 2013	---------- Beginning Communication Phase at round 6 ----------
Thu Apr 25 10:49:48 IDT 2013	Received communication message 
Thu Apr 25 10:49:48 IDT 2013	From player: 100
Thu Apr 25 10:49:48 IDT 2013	To player: 200
Thu Apr 25 10:49:48 IDT 2013	Chips to send by proposer: { chips  'CTRed':0 'CTPurple':0 'CTGreen':0 'grey78':0 'CTYellow':0 }
Thu Apr 25 10:49:48 IDT 2013	Chips to send by responder: { chips  'CTRed':10 'CTPurple':4 'CTGreen':0 'grey78':0 'CTYellow':0 }
Thu Apr 25 10:50:15 IDT 2013	Received communication message 
Thu Apr 25 10:50:15 IDT 2013	Proposer 0 accepted? false
Thu Apr 25 10:50:15 IDT 2013	case that we had one reject, and one accept
Thu Apr 25 10:50:15 IDT 2013	A Phase Ended: Communication Phase
Thu Apr 25 10:50:15 IDT 2013	Protocol: A New Phase Began: Movement Phase. loop is true
Thu Apr 25 10:50:15 IDT 2013	---------- Beginning Movement Phase at round 6 ----------
Thu Apr 25 10:51:00 IDT 2013	A Phase Ended: Movement Phase
Thu Apr 25 10:51:00 IDT 2013	Protocol: A New Phase Began: Feedback Phase. loop is true
Thu Apr 25 10:51:00 IDT 2013	---------- Beginning Feedback Phase at round 6 ----------
Thu Apr 25 10:51:00 IDT 2013	Number of consecutive no movements for player 100 is 1
Thu Apr 25 10:51:00 IDT 2013	TDPlayerPosition is(R:3,C:1)goal location 0(R:0,C:0)goal location 1(R:0,C:8)
Thu Apr 25 10:51:00 IDT 2013	ended is false
Thu Apr 25 10:51:05 IDT 2013	A Phase Ended: Feedback Phase
Thu Apr 25 10:51:05 IDT 2013	 numberofMoves in round 6 is 0
Thu Apr 25 10:51:05 IDT 2013	Swaping roles:
Thu Apr 25 10:51:05 IDT 2013	Protocol: A New Phase Began: Communication Phase. loop is true
Thu Apr 25 10:51:05 IDT 2013	---------- Beginning Communication Phase at round 7 ----------
Thu Apr 25 10:51:57 IDT 2013	Received communication message 
Thu Apr 25 10:51:57 IDT 2013	From player: 300
Thu Apr 25 10:51:57 IDT 2013	To player: 100
Thu Apr 25 10:51:57 IDT 2013	Chips to send by proposer: { chips  'CTRed':26 'CTPurple':0 'CTGreen':0 'grey78':0 'CTYellow':0 }
Thu Apr 25 10:51:57 IDT 2013	Chips to send by responder: { chips  'CTRed':0 'CTPurple':0 'CTGreen':0 'grey78':0 'CTYellow':7 }
Thu Apr 25 10:52:43 IDT 2013	Received communication message 
Thu Apr 25 10:52:43 IDT 2013	From player: 200
Thu Apr 25 10:52:43 IDT 2013	To player: 100
Thu Apr 25 10:52:43 IDT 2013	Chips to send by proposer: { chips  'CTRed':0 'CTPurple':0 'CTGreen':0 'grey78':1 'CTYellow':0 }
Thu Apr 25 10:52:43 IDT 2013	Chips to send by responder: { chips  'CTRed':8 'CTPurple':0 'CTGreen':0 'grey78':0 'CTYellow':2 }
Thu Apr 25 10:53:00 IDT 2013	Received communication message 
Thu Apr 25 10:53:00 IDT 2013	Proposer 1 accepted? true
Thu Apr 25 10:53:00 IDT 2013	A Phase Ended: Communication Phase
Thu Apr 25 10:53:00 IDT 2013	Protocol: A New Phase Began: Movement Phase. loop is true
Thu Apr 25 10:53:00 IDT 2013	---------- Beginning Movement Phase at round 7 ----------
Thu Apr 25 10:53:45 IDT 2013	A Phase Ended: Movement Phase
Thu Apr 25 10:53:45 IDT 2013	Protocol: A New Phase Began: Feedback Phase. loop is true
Thu Apr 25 10:53:45 IDT 2013	---------- Beginning Feedback Phase at round 7 ----------
Thu Apr 25 10:53:45 IDT 2013	Number of consecutive no movements for player 100 is 0
Thu Apr 25 10:53:45 IDT 2013	TDPlayerPosition is(R:2,C:1)goal location 0(R:0,C:0)goal location 1(R:0,C:8)
Thu Apr 25 10:53:45 IDT 2013	ended is false
Thu Apr 25 10:53:50 IDT 2013	A Phase Ended: Feedback Phase
Thu Apr 25 10:53:50 IDT 2013	 numberofMoves in round 7 is 1
Thu Apr 25 10:53:50 IDT 2013	Swaping roles:
Thu Apr 25 10:53:50 IDT 2013	Protocol: A New Phase Began: Communication Phase. loop is true
Thu Apr 25 10:53:50 IDT 2013	---------- Beginning Communication Phase at round 8 ----------
Thu Apr 25 10:55:01 IDT 2013	Received communication message 
Thu Apr 25 10:55:01 IDT 2013	From player: 100
Thu Apr 25 10:55:01 IDT 2013	To player: 200
Thu Apr 25 10:55:01 IDT 2013	Chips to send by proposer: { chips  'CTRed':25 'CTPurple':0 'CTGreen':0 'grey78':0 'CTYellow':0 }
Thu Apr 25 10:55:01 IDT 2013	Chips to send by responder: { chips  'CTRed':0 'CTPurple':0 'CTGreen':0 'grey78':2 'CTYellow':0 }
Thu Apr 25 10:56:21 IDT 2013	Received communication message 
Thu Apr 25 10:56:21 IDT 2013	Proposer 0 accepted? false
Thu Apr 25 10:56:21 IDT 2013	case that we had one reject, and one accept
Thu Apr 25 10:56:21 IDT 2013	A Phase Ended: Communication Phase
Thu Apr 25 10:56:21 IDT 2013	Protocol: A New Phase Began: Movement Phase. loop is true
Thu Apr 25 10:56:21 IDT 2013	---------- Beginning Movement Phase at round 8 ----------
Thu Apr 25 10:57:06 IDT 2013	A Phase Ended: Movement Phase
Thu Apr 25 10:57:06 IDT 2013	Protocol: A New Phase Began: Feedback Phase. loop is true
Thu Apr 25 10:57:06 IDT 2013	---------- Beginning Feedback Phase at round 8 ----------
Thu Apr 25 10:57:06 IDT 2013	Number of consecutive no movements for player 100 is 1
Thu Apr 25 10:57:06 IDT 2013	TDPlayerPosition is(R:2,C:1)goal location 0(R:0,C:0)goal location 1(R:0,C:8)
Thu Apr 25 10:57:06 IDT 2013	ended is false
Thu Apr 25 10:57:11 IDT 2013	A Phase Ended: Feedback Phase
Thu Apr 25 10:57:11 IDT 2013	 numberofMoves in round 8 is 0
Thu Apr 25 10:57:11 IDT 2013	Swaping roles:
Thu Apr 25 10:57:11 IDT 2013	Protocol: A New Phase Began: Communication Phase. loop is true
Thu Apr 25 10:57:11 IDT 2013	---------- Beginning Communication Phase at round 9 ----------
Thu Apr 25 10:59:06 IDT 2013	Received communication message 
Thu Apr 25 10:59:06 IDT 2013	From player: 300
Thu Apr 25 10:59:06 IDT 2013	To player: 100
Thu Apr 25 10:59:06 IDT 2013	Chips to send by proposer: { chips  'CTRed':0 'CTPurple':1 'CTGreen':0 'grey78':0 'CTYellow':0 }
Thu Apr 25 10:59:06 IDT 2013	Chips to send by responder: { chips  'CTRed':7 'CTPurple':0 'CTGreen':0 'grey78':0 'CTYellow':0 }
Thu Apr 25 10:59:17 IDT 2013	Received communication message 
Thu Apr 25 10:59:17 IDT 2013	From player: 200
Thu Apr 25 10:59:17 IDT 2013	To player: 100
Thu Apr 25 10:59:17 IDT 2013	Chips to send by proposer: { chips  'CTRed':0 'CTPurple':0 'CTGreen':0 'grey78':1 'CTYellow':0 }
Thu Apr 25 10:59:17 IDT 2013	Chips to send by responder: { chips  'CTRed':12 'CTPurple':0 'CTGreen':0 'grey78':0 'CTYellow':0 }
Thu Apr 25 11:00:02 IDT 2013	Received communication message 
Thu Apr 25 11:00:02 IDT 2013	Proposer 0 accepted? false
Thu Apr 25 11:00:02 IDT 2013	case that we had one reject, and one accept
Thu Apr 25 11:00:03 IDT 2013	Received communication message 
Thu Apr 25 11:00:03 IDT 2013	Proposer 1 accepted? false
Thu Apr 25 11:00:03 IDT 2013	case that we had one reject, and one accept
Thu Apr 25 11:00:03 IDT 2013	A Phase Ended: Communication Phase
Thu Apr 25 11:00:03 IDT 2013	Protocol: A New Phase Began: Movement Phase. loop is true
Thu Apr 25 11:00:03 IDT 2013	---------- Beginning Movement Phase at round 9 ----------
Thu Apr 25 11:00:48 IDT 2013	A Phase Ended: Movement Phase
Thu Apr 25 11:00:48 IDT 2013	Protocol: A New Phase Began: Feedback Phase. loop is true
Thu Apr 25 11:00:48 IDT 2013	---------- Beginning Feedback Phase at round 9 ----------
Thu Apr 25 11:00:48 IDT 2013	ended is true
Thu Apr 25 11:00:53 IDT 2013	A Phase Ended: Feedback Phase
Thu Apr 25 11:00:53 IDT 2013	 numberofMoves in round 9 is 0
Thu Apr 25 11:00:53 IDT 2013	Loop status: false
Thu Apr 25 11:00:53 IDT 2013	Player: 300 ,role: Proposer score is: 75
Thu Apr 25 11:00:53 IDT 2013	Player: 300Game Ended
Thu Apr 25 11:00:53 IDT 2013	Player: 200 ,role: Proposer score is: 105
Thu Apr 25 11:00:53 IDT 2013	Player: 200Game Ended
Thu Apr 25 11:00:53 IDT 2013	Player: 100 ,role: Responder score is: 300
Thu Apr 25 11:00:53 IDT 2013	Player: 100Game Ended
Thu Apr 25 11:00:53 IDT 2013	Protocol: A New Phase Began: Communication Phase. loop is false
Thu Apr 25 11:00:53 IDT 2013	---------- Beginning Communication Phase at round 9 ----------
Thu Apr 25 11:03:56 IDT 2013	A Phase Ended: Communication Phase
Thu Apr 25 11:03:56 IDT 2013	Protocol: A New Phase Began: Movement Phase. loop is false
Thu Apr 25 11:03:56 IDT 2013	---------- Beginning Movement Phase at round 9 ----------
Thu Apr 25 11:04:41 IDT 2013	A Phase Ended: Movement Phase
Thu Apr 25 11:04:41 IDT 2013	Protocol: A New Phase Began: Feedback Phase. loop is false
Thu Apr 25 11:04:41 IDT 2013	---------- Beginning Feedback Phase at round 9 ----------
Thu Apr 25 11:04:41 IDT 2013	ended is true
Thu Apr 25 11:04:46 IDT 2013	A Phase Ended: Feedback Phase
Thu Apr 25 11:04:46 IDT 2013	 numberofMoves in round 9 is 0
Thu Apr 25 11:04:46 IDT 2013	Loop status: false
Thu Apr 25 11:04:46 IDT 2013	Player: 300 ,role: GameEnded score is: 75
Thu Apr 25 11:04:46 IDT 2013	Player: 300Game Ended
Thu Apr 25 11:04:46 IDT 2013	Player: 200 ,role: GameEnded score is: 105
Thu Apr 25 11:04:46 IDT 2013	Player: 200Game Ended
Thu Apr 25 11:04:46 IDT 2013	Player: 100 ,role: GameEnded score is: 300
Thu Apr 25 11:04:46 IDT 2013	Player: 100Game Ended
