Wed Jul 18 22:29:31 IDT 2012	This is the CT debug logger; svn version 638; sep 27 09
Wed Jul 18 22:29:31 IDT 2012	Wed Jul 18 22:29:31 IDT 2012
Wed Jul 18 22:29:31 IDT 2012	ID Number: 61171
Wed Jul 18 22:29:31 IDT 2012	Creating board
Wed Jul 18 22:29:31 IDT 2012	<colors>
Wed Jul 18 22:29:31 IDT 2012	{ GamePalette  'CTPurple':0 'CTRed':1 'CTGreen':2 'grey78':3 'CTYellow':4 }
Wed Jul 18 22:29:31 IDT 2012	<rows>
Wed Jul 18 22:29:31 IDT 2012	6
Wed Jul 18 22:29:31 IDT 2012	<columns>
Wed Jul 18 22:29:31 IDT 2012	9
Wed Jul 18 22:29:31 IDT 2012	<squaresColors>
Wed Jul 18 22:29:31 IDT 2012	grey78 CTGreen CTGreen CTGreen CTGreen CTGreen CTGreen CTGreen CTYellow 
Wed Jul 18 22:29:31 IDT 2012	grey78 CTPurple CTPurple CTPurple CTPurple CTPurple CTPurple CTPurple CTYellow 
Wed Jul 18 22:29:31 IDT 2012	grey78 grey78 CTGreen CTGreen CTGreen CTGreen CTGreen CTYellow CTYellow 
Wed Jul 18 22:29:31 IDT 2012	CTGreen grey78 grey78 CTPurple CTPurple CTPurple CTYellow CTYellow CTGreen 
Wed Jul 18 22:29:31 IDT 2012	CTGreen CTGreen grey78 grey78 CTGreen CTYellow CTYellow CTGreen CTGreen 
Wed Jul 18 22:29:31 IDT 2012	CTGreen CTGreen CTGreen grey78 CTGreen CTYellow CTGreen CTGreen CTGreen 
Wed Jul 18 22:29:31 IDT 2012	</squareColors>
Wed Jul 18 22:29:31 IDT 2012	<goalPosition>
Wed Jul 18 22:29:31 IDT 2012	Goal position: (R:0,C:0)
Wed Jul 18 22:29:31 IDT 2012	<goalPosition>
Wed Jul 18 22:29:31 IDT 2012	Goal position: (R:0,C:0)
Wed Jul 18 22:29:31 IDT 2012	<firstPlayerPossibleGoal1>
Wed Jul 18 22:29:31 IDT 2012	0.5
Wed Jul 18 22:29:31 IDT 2012	0
Wed Jul 18 22:29:31 IDT 2012	0
Wed Jul 18 22:29:31 IDT 2012	</firstPlayerPossibleGoal1>
Wed Jul 18 22:29:31 IDT 2012	<firstPlayerPossibleGoal2>
Wed Jul 18 22:29:31 IDT 2012	0.5
Wed Jul 18 22:29:31 IDT 2012	0
Wed Jul 18 22:29:31 IDT 2012	8
Wed Jul 18 22:29:31 IDT 2012	</firstPlayerPossibleGoal2>
Wed Jul 18 22:29:31 IDT 2012	<numberOfPlayers>
Wed Jul 18 22:29:31 IDT 2012	3
Wed Jul 18 22:29:31 IDT 2012	<firstPlayerChips>
Wed Jul 18 22:29:31 IDT 2012	Setting chips for player: 100 id:0
Wed Jul 18 22:29:31 IDT 2012	{ chips  'CTRed':10 'CTGreen':0 'CTPurple':39 'grey78':0 'CTYellow':0 }
Wed Jul 18 22:29:31 IDT 2012	Player position: (R:5,C:4)
Wed Jul 18 22:29:31 IDT 2012	Setting chips for player: 200 id:1
Wed Jul 18 22:29:31 IDT 2012	{ chips  'CTRed':10 'CTGreen':0 'CTPurple':30 'grey78':0 'CTYellow':9 }
Wed Jul 18 22:29:31 IDT 2012	Player position: (R:0,C:8)
Wed Jul 18 22:29:31 IDT 2012	Setting chips for player: 300 id:2
Wed Jul 18 22:29:31 IDT 2012	{ chips  'CTRed':10 'CTGreen':0 'CTPurple':30 'grey78':9 'CTYellow':0 }
Wed Jul 18 22:29:31 IDT 2012	Player position: (R:0,C:0)
Wed Jul 18 22:29:31 IDT 2012	Protocol: A New Phase Began: Strategy Prep Phase. loop is true
Wed Jul 18 22:29:31 IDT 2012	---------- Beginning Strategy Prep Phase at round 0 ----------
Wed Jul 18 22:29:51 IDT 2012	A Phase Ended: Strategy Prep Phase
Wed Jul 18 22:29:51 IDT 2012	Protocol: A New Phase Began: Communication Phase. loop is true
Wed Jul 18 22:29:51 IDT 2012	---------- Beginning Communication Phase at round 1 ----------
Wed Jul 18 22:30:40 IDT 2012	Received communication message 
Wed Jul 18 22:30:40 IDT 2012	From player: 300
Wed Jul 18 22:30:40 IDT 2012	To player: 100
Wed Jul 18 22:30:40 IDT 2012	Chips to send by proposer: { chips  'CTRed':3 'CTPurple':0 'CTGreen':0 'grey78':3 'CTYellow':0 }
Wed Jul 18 22:30:40 IDT 2012	Chips to send by responder: { chips  'CTRed':0 'CTPurple':0 'CTGreen':0 'grey78':0 'CTYellow':0 }
Wed Jul 18 22:31:16 IDT 2012	Received communication message 
Wed Jul 18 22:31:16 IDT 2012	From player: 200
Wed Jul 18 22:31:16 IDT 2012	To player: 100
Wed Jul 18 22:31:16 IDT 2012	Chips to send by proposer: { chips  'CTRed':0 'CTPurple':0 'CTGreen':0 'grey78':0 'CTYellow':5 }
Wed Jul 18 22:31:16 IDT 2012	Chips to send by responder: { chips  'CTRed':0 'CTPurple':0 'CTGreen':0 'grey78':0 'CTYellow':0 }
Wed Jul 18 22:32:01 IDT 2012	Received communication message 
Wed Jul 18 22:32:01 IDT 2012	Proposer 1 accepted? true
Wed Jul 18 22:32:01 IDT 2012	A Phase Ended: Communication Phase
Wed Jul 18 22:32:01 IDT 2012	Protocol: A New Phase Began: Movement Phase. loop is true
Wed Jul 18 22:32:01 IDT 2012	---------- Beginning Movement Phase at round 1 ----------
Wed Jul 18 22:32:40 IDT 2012	A Phase Ended: Movement Phase
Wed Jul 18 22:32:40 IDT 2012	Protocol: A New Phase Began: Feedback Phase. loop is true
Wed Jul 18 22:32:40 IDT 2012	---------- Beginning Feedback Phase at round 1 ----------
Wed Jul 18 22:32:40 IDT 2012	Number of consecutive no movements for player 100 is 2
Wed Jul 18 22:32:40 IDT 2012	TDPlayerPosition is(R:3,C:3)goal location 0(R:0,C:0)goal location 1(R:0,C:8)
Wed Jul 18 22:32:40 IDT 2012	ended is false
Wed Jul 18 22:32:45 IDT 2012	A Phase Ended: Feedback Phase
Wed Jul 18 22:32:45 IDT 2012	Swaping roles:
Wed Jul 18 22:32:45 IDT 2012	Protocol: A New Phase Began: Communication Phase. loop is true
Wed Jul 18 22:32:45 IDT 2012	---------- Beginning Communication Phase at round 2 ----------
Wed Jul 18 22:33:38 IDT 2012	Received communication message 
Wed Jul 18 22:33:38 IDT 2012	From player: 100
Wed Jul 18 22:33:38 IDT 2012	To player: 200
Wed Jul 18 22:33:38 IDT 2012	Chips to send by proposer: { chips  'CTRed':0 'CTPurple':0 'CTGreen':0 'grey78':0 'CTYellow':0 }
Wed Jul 18 22:33:38 IDT 2012	Chips to send by responder: { chips  'CTRed':0 'CTPurple':2 'CTGreen':0 'grey78':0 'CTYellow':6 }
Wed Jul 18 22:33:45 IDT 2012	Received communication message 
Wed Jul 18 22:33:45 IDT 2012	Proposer 0 accepted? true
Wed Jul 18 22:33:45 IDT 2012	A Phase Ended: Communication Phase
Wed Jul 18 22:33:45 IDT 2012	Protocol: A New Phase Began: Movement Phase. loop is true
Wed Jul 18 22:33:45 IDT 2012	---------- Beginning Movement Phase at round 2 ----------
Wed Jul 18 22:34:24 IDT 2012	A Phase Ended: Movement Phase
Wed Jul 18 22:34:24 IDT 2012	Protocol: A New Phase Began: Feedback Phase. loop is true
Wed Jul 18 22:34:24 IDT 2012	---------- Beginning Feedback Phase at round 2 ----------
Wed Jul 18 22:34:24 IDT 2012	Number of consecutive no movements for player 100 is 2
Wed Jul 18 22:34:24 IDT 2012	TDPlayerPosition is(R:3,C:4)goal location 0(R:0,C:0)goal location 1(R:0,C:8)
Wed Jul 18 22:34:24 IDT 2012	ended is false
Wed Jul 18 22:34:29 IDT 2012	A Phase Ended: Feedback Phase
Wed Jul 18 22:34:29 IDT 2012	Swaping roles:
Wed Jul 18 22:34:29 IDT 2012	Protocol: A New Phase Began: Communication Phase. loop is true
Wed Jul 18 22:34:29 IDT 2012	---------- Beginning Communication Phase at round 3 ----------
Wed Jul 18 22:34:46 IDT 2012	Received communication message 
Wed Jul 18 22:34:46 IDT 2012	From player: 300
Wed Jul 18 22:34:46 IDT 2012	To player: 100
Wed Jul 18 22:34:46 IDT 2012	Chips to send by proposer: { chips  'CTRed':0 'CTPurple':1 'CTGreen':0 'grey78':5 'CTYellow':0 }
Wed Jul 18 22:34:46 IDT 2012	Chips to send by responder: { chips  'CTRed':0 'CTPurple':0 'CTGreen':0 'grey78':0 'CTYellow':0 }
Wed Jul 18 22:35:07 IDT 2012	Received communication message 
Wed Jul 18 22:35:07 IDT 2012	From player: 200
Wed Jul 18 22:35:07 IDT 2012	To player: 100
Wed Jul 18 22:35:07 IDT 2012	Chips to send by proposer: { chips  'CTRed':0 'CTPurple':2 'CTGreen':0 'grey78':0 'CTYellow':0 }
Wed Jul 18 22:35:07 IDT 2012	Chips to send by responder: { chips  'CTRed':0 'CTPurple':0 'CTGreen':0 'grey78':0 'CTYellow':0 }
Wed Jul 18 22:35:11 IDT 2012	Received communication message 
Wed Jul 18 22:35:11 IDT 2012	Proposer 1 accepted? true
Wed Jul 18 22:35:11 IDT 2012	A Phase Ended: Communication Phase
Wed Jul 18 22:35:11 IDT 2012	Protocol: A New Phase Began: Movement Phase. loop is true
Wed Jul 18 22:35:11 IDT 2012	---------- Beginning Movement Phase at round 3 ----------
Wed Jul 18 22:35:50 IDT 2012	A Phase Ended: Movement Phase
Wed Jul 18 22:35:50 IDT 2012	Protocol: A New Phase Began: Feedback Phase. loop is true
Wed Jul 18 22:35:50 IDT 2012	---------- Beginning Feedback Phase at round 3 ----------
Wed Jul 18 22:35:50 IDT 2012	Number of consecutive no movements for player 100 is 2
Wed Jul 18 22:35:50 IDT 2012	TDPlayerPosition is(R:3,C:3)goal location 0(R:0,C:0)goal location 1(R:0,C:8)
Wed Jul 18 22:35:50 IDT 2012	ended is false
Wed Jul 18 22:35:55 IDT 2012	A Phase Ended: Feedback Phase
Wed Jul 18 22:35:55 IDT 2012	Swaping roles:
Wed Jul 18 22:35:55 IDT 2012	Protocol: A New Phase Began: Communication Phase. loop is true
Wed Jul 18 22:35:55 IDT 2012	---------- Beginning Communication Phase at round 4 ----------
Wed Jul 18 22:36:15 IDT 2012	Received communication message 
Wed Jul 18 22:36:15 IDT 2012	From player: 100
Wed Jul 18 22:36:15 IDT 2012	To player: 200
Wed Jul 18 22:36:15 IDT 2012	Chips to send by proposer: { chips  'CTRed':0 'CTPurple':0 'CTGreen':0 'grey78':0 'CTYellow':0 }
Wed Jul 18 22:36:15 IDT 2012	Chips to send by responder: { chips  'CTRed':0 'CTPurple':10 'CTGreen':0 'grey78':0 'CTYellow':0 }
Wed Jul 18 22:36:25 IDT 2012	Received communication message 
Wed Jul 18 22:36:25 IDT 2012	Proposer 0 accepted? false
Wed Jul 18 22:36:25 IDT 2012	case that we had one reject, and one accept
Wed Jul 18 22:36:25 IDT 2012	A Phase Ended: Communication Phase
Wed Jul 18 22:36:25 IDT 2012	Protocol: A New Phase Began: Movement Phase. loop is true
Wed Jul 18 22:36:25 IDT 2012	---------- Beginning Movement Phase at round 4 ----------
Wed Jul 18 22:37:04 IDT 2012	A Phase Ended: Movement Phase
Wed Jul 18 22:37:04 IDT 2012	Protocol: A New Phase Began: Feedback Phase. loop is true
Wed Jul 18 22:37:04 IDT 2012	---------- Beginning Feedback Phase at round 4 ----------
Wed Jul 18 22:37:04 IDT 2012	Number of consecutive no movements for player 100 is 2
Wed Jul 18 22:37:04 IDT 2012	TDPlayerPosition is(R:3,C:2)goal location 0(R:0,C:0)goal location 1(R:0,C:8)
Wed Jul 18 22:37:04 IDT 2012	ended is false
Wed Jul 18 22:37:09 IDT 2012	A Phase Ended: Feedback Phase
Wed Jul 18 22:37:09 IDT 2012	Swaping roles:
Wed Jul 18 22:37:10 IDT 2012	Protocol: A New Phase Began: Communication Phase. loop is true
Wed Jul 18 22:37:10 IDT 2012	---------- Beginning Communication Phase at round 5 ----------
Wed Jul 18 22:38:15 IDT 2012	Received communication message 
Wed Jul 18 22:38:15 IDT 2012	From player: 200
Wed Jul 18 22:38:15 IDT 2012	To player: 100
Wed Jul 18 22:38:15 IDT 2012	Chips to send by proposer: { chips  'CTRed':0 'CTPurple':15 'CTGreen':0 'grey78':0 'CTYellow':0 }
Wed Jul 18 22:38:15 IDT 2012	Chips to send by responder: { chips  'CTRed':0 'CTPurple':0 'CTGreen':0 'grey78':5 'CTYellow':0 }
Wed Jul 18 22:38:23 IDT 2012	Received communication message 
Wed Jul 18 22:38:23 IDT 2012	Proposer 0 accepted? true
Wed Jul 18 22:38:23 IDT 2012	A Phase Ended: Communication Phase
Wed Jul 18 22:38:23 IDT 2012	Protocol: A New Phase Began: Movement Phase. loop is true
Wed Jul 18 22:38:23 IDT 2012	---------- Beginning Movement Phase at round 5 ----------
Wed Jul 18 22:39:02 IDT 2012	A Phase Ended: Movement Phase
Wed Jul 18 22:39:02 IDT 2012	Protocol: A New Phase Began: Feedback Phase. loop is true
Wed Jul 18 22:39:02 IDT 2012	---------- Beginning Feedback Phase at round 5 ----------
Wed Jul 18 22:39:02 IDT 2012	Number of consecutive no movements for player 100 is 2
Wed Jul 18 22:39:02 IDT 2012	TDPlayerPosition is(R:0,C:8)goal location 0(R:0,C:0)goal location 1(R:0,C:8)
Wed Jul 18 22:39:02 IDT 2012	The TD player reached the goal, end the game
Wed Jul 18 22:39:02 IDT 2012	ended is true
Wed Jul 18 22:39:07 IDT 2012	A Phase Ended: Feedback Phase
Wed Jul 18 22:39:07 IDT 2012	Loop status: false
Wed Jul 18 22:39:08 IDT 2012	Player: 300 ,role: Proposer score is: 185
Wed Jul 18 22:39:08 IDT 2012	Player: 300Game Ended
Wed Jul 18 22:39:08 IDT 2012	Player: 100 ,role: Responder score is: 470
Wed Jul 18 22:39:08 IDT 2012	Player: 100Game Ended
Wed Jul 18 22:39:08 IDT 2012	Player: 200 ,role: Proposer score is: 305
Wed Jul 18 22:39:08 IDT 2012	Player: 200Game Ended
Wed Jul 18 22:39:08 IDT 2012	Protocol: A New Phase Began: Communication Phase. loop is false
Wed Jul 18 22:39:08 IDT 2012	---------- Beginning Communication Phase at round 6 ----------
