filename,propID,respID,chipsToSend,chipsToReceive,accept,propCurrentScore,respCurrentScore,actualSent,ActualRcvd,propResultingScore,respResultingScore,generosityLevel,ClientReachedGoal,PlayerA,scoreA,PlayerB,ScoreB,PlayerC,ScoreC
CT_DbgLog_Agent_1342639040234.csv,200,100,{ chips  'CTYellow':9 },{ chips  },true,245,155,{ chips  'CTRed':0 'CTPurple':0 'CTGreen':0 'grey78':0 'CTYellow':9 },{ chips  'CTRed':0 'CTPurple':0 'CTGreen':0 'grey78':0 'CTYellow':0 },200,200,,,,,,,
CT_DbgLog_Agent_1342639040234.csv,300,100,{ chips  'grey78':9 },{ chips  'CTPurple':2 },IGNORED,245,200,
CT_DbgLog_Agent_1342639040234.csv,100,300,{ chips  },{ chips  'CTPurple':2 'grey78':9 },true,215,245,{ chips  'CTRed':0 'CTPurple':0 'CTGreen':0 'grey78':0 'CTYellow':0 },{ chips  'CTRed':0 'CTPurple':2 'CTGreen':0 'grey78':9 'CTYellow':0 },270,190,,,,,,,
CT_DbgLog_Agent_1342639040234.csv,200,100,{ chips  'CTPurple':4 },{ chips  },true,200,255,{ chips  'CTRed':0 'CTPurple':4 'CTGreen':0 'grey78':0 'CTYellow':0 },{ chips  'CTRed':0 'CTPurple':0 'CTGreen':0 'grey78':0 'CTYellow':0 },180,275,,,,,,,
CT_DbgLog_Agent_1342639040234.csv,300,100,{ chips  'CTPurple':2 },{ chips  },IGNORED,190,275,
CT_DbgLog_Agent_1342639040234.csv,100,300,{ chips  'CTYellow':6 },{ chips  'CTPurple':15 },true,280,190,{ chips  'CTRed':0 'CTPurple':0 'CTGreen':0 'grey78':0 'CTYellow':6 },{ chips  'CTRed':0 'CTPurple':15 'CTGreen':0 'grey78':0 'CTYellow':0 },325,145,,,,,,,
CT_DbgLog_Agent_1342639040234.csv,,,,,,,,,,,,,true,100,495,200,180,300,295
