@relation 'IsraelHVsHAndHVsAOffers_TI_TD_HUMAN_TD_HumanRequiredAttributes-weka.filters.unsupervised.attribute.Reorder-R2,3,4,5,6,7,8,9,10,11,12,13,14,15,1-weka.filters.unsupervised.attribute.Remove-R1-2,12-14'

@attribute playerI_CS numeric
@attribute playerI_RS numeric
@attribute playerJ_CS numeric
@attribute playerJ_RS numeric
@attribute offerGenerosity numeric
@attribute P1NeededColors numeric
@attribute P1OtherColors numeric
@attribute P2NeededColors numeric
@attribute P2OtherColors numeric
@attribute accepted {FALSE,TRUE}

@data
-5,20,185,180,0,2,0,0,1,TRUE
185,180,-5,20,0,0,1,2,0,TRUE
-5,5,80,80,0.5,1,0,0,1,TRUE
80,80,-5,5,0.5,0,1,1,0,TRUE
25,140,70,70,0.5,1,0,0,1,TRUE
70,70,25,140,0.5,0,1,1,0,TRUE
145,155,65,160,0,0,3,0,1,TRUE
65,160,145,155,0,0,1,0,3,TRUE
0,-10,180,220,1,3,0,0,11,TRUE
180,220,0,-10,1,0,11,3,0,TRUE
-25,-50,205,230,1,0,0,0,5,TRUE
205,230,-25,-50,1,0,5,0,0,TRUE
-20,-20,200,220,1,2,0,0,6,TRUE
200,220,-20,-20,1,0,6,2,0,TRUE
-30,-20,210,220,1,2,0,0,4,TRUE
210,220,-30,-20,1,0,4,2,0,TRUE
0,135,180,180,0.5,3,0,0,3,TRUE
180,180,0,135,0.5,0,3,3,0,TRUE
5,-35,195,225,1,0,0,1,5,TRUE
195,225,5,-35,1,1,5,0,0,TRUE
-20,-35,220,225,1,0,0,1,0,TRUE
220,225,-20,-35,1,1,0,0,0,TRUE
0,0,180,190,1,1,0,0,3,FALSE
180,190,0,0,1,0,3,1,0,FALSE
0,115,180,200,1,6,0,0,10,TRUE
180,200,0,115,1,0,10,6,0,TRUE
-30,-10,210,90,0,8,0,0,7,TRUE
210,90,-30,-10,0,0,7,8,0,TRUE
-30,100,210,215,1,3,0,0,4,FALSE
210,215,-30,100,1,0,4,3,0,FALSE
-15,-10,205,215,1,2,0,0,4,TRUE
205,215,-15,-10,1,0,4,2,0,TRUE
-10,125,210,75,0,6,0,0,2,FALSE
210,75,-10,125,0,0,2,6,0,FALSE
-15,105,215,210,0,1,0,0,0,FALSE
215,210,-15,105,0,0,0,1,0,FALSE
0,20,180,180,0.5,2,0,0,2,TRUE
180,180,0,20,0.5,0,2,2,0,TRUE
-10,135,190,180,0,3,0,0,1,FALSE
190,180,-10,135,0,0,1,3,0,FALSE
-5,130,185,185,0.5,3,0,0,3,FALSE
185,185,-5,130,0.5,0,3,3,0,FALSE
-5,15,185,185,0.5,2,0,0,2,FALSE
185,185,-5,15,0.5,0,2,2,0,FALSE
0,160,180,155,0,5,0,0,0,TRUE
180,155,0,160,0,0,0,5,0,TRUE
0,155,180,160,0,4,0,0,0,FALSE
180,160,0,155,0,0,0,4,0,FALSE
0,155,180,160,0,4,0,0,0,FALSE
180,160,0,155,0,0,0,4,0,FALSE
0,125,180,190,1,3,0,0,5,FALSE
180,190,0,125,1,0,5,3,0,FALSE
10,20,180,180,0.5,1,0,0,1,FALSE
180,180,10,20,0.5,0,1,1,0,FALSE
10,-5,180,205,1,1,0,0,6,TRUE
180,205,10,-5,1,0,6,1,0,TRUE
5,115,185,200,1,2,0,0,5,FALSE
185,200,5,115,1,0,5,2,0,FALSE
20,125,180,190,1,1,0,0,3,FALSE
180,190,20,125,1,0,3,1,0,FALSE
0,135,180,180,0.5,3,0,0,3,FALSE
180,180,0,135,0.5,0,3,3,0,FALSE
30,100,170,215,1,1,0,0,10,FALSE
170,215,30,100,1,0,10,1,0,FALSE
30,125,170,190,1,1,0,0,5,FALSE
170,190,30,125,1,0,5,1,0,FALSE
30,100,170,215,1,1,0,0,10,TRUE
170,215,30,100,1,0,10,1,0,TRUE
30,135,170,180,1,1,0,0,3,FALSE
170,180,30,135,1,0,3,1,0,FALSE
30,125,170,190,1,1,0,0,5,TRUE
170,190,30,125,1,0,5,1,0,TRUE
0,130,180,185,1,3,0,0,4,FALSE
180,185,0,130,1,0,4,3,0,FALSE
-50,100,230,215,0,3,0,0,0,TRUE
230,215,-50,100,0,0,0,3,0,TRUE
0,120,180,195,1,3,0,0,6,TRUE
180,195,0,120,1,0,6,3,0,TRUE
0,140,180,175,0,3,0,0,2,FALSE
180,175,0,140,0,0,2,3,0,FALSE
10,160,170,155,0,3,0,0,0,FALSE
170,155,10,160,0,0,0,3,0,FALSE
10,50,170,160,0,3,0,0,1,FALSE
170,160,10,50,0,0,1,3,0,FALSE
0,120,180,195,1,3,0,0,6,FALSE
180,195,0,120,1,0,6,3,0,FALSE
15,120,175,195,1,3,0,0,7,FALSE
175,195,15,120,1,0,7,3,0,FALSE
15,120,185,195,1,1,0,0,3,FALSE
185,195,15,120,1,0,3,1,0,FALSE
15,105,185,210,1,1,0,0,6,FALSE
185,210,15,105,1,0,6,1,0,FALSE
15,100,185,215,1,1,0,0,7,FALSE
185,215,15,100,1,0,7,1,0,FALSE
15,15,185,185,0.5,0,0,0,0,TRUE
185,185,15,15,0.5,0,0,0,0,TRUE
15,135,185,180,0,1,0,0,0,FALSE
185,180,15,135,0,0,0,1,0,FALSE
0,135,180,180,0.5,3,0,0,3,FALSE
180,180,0,135,0.5,0,3,3,0,FALSE
0,135,180,180,0.5,3,0,0,3,FALSE
180,180,0,135,0.5,0,3,3,0,FALSE
0,5,180,185,1,1,0,0,2,FALSE
180,185,0,5,1,0,2,1,0,FALSE
0,5,180,185,1,1,0,0,2,FALSE
180,185,0,5,1,0,2,1,0,FALSE
0,135,180,180,0.5,3,0,0,3,FALSE
180,180,0,135,0.5,0,3,3,0,FALSE
-5,130,195,185,0,2,0,0,0,FALSE
195,185,-5,130,0,0,0,2,0,FALSE
0,100,180,215,1,3,0,0,10,TRUE
180,215,0,100,1,0,10,3,0,TRUE
-50,-20,230,225,0,3,0,0,2,FALSE
230,225,-50,-20,0,0,2,3,0,FALSE
-50,100,230,215,0,3,0,0,0,FALSE
230,215,-50,100,0,0,0,3,0,FALSE
-35,100,225,215,0,2,0,0,0,FALSE
225,215,-35,100,0,0,0,2,0,FALSE
-35,100,225,215,0,2,0,0,0,FALSE
225,215,-35,100,0,0,0,2,0,FALSE
0,10,180,190,1,2,0,0,4,FALSE
180,190,0,10,1,0,4,2,0,FALSE
5,120,185,195,1,2,0,0,4,FALSE
185,195,5,120,1,0,4,2,0,FALSE
0,0,190,200,1,1,0,0,3,FALSE
190,200,0,0,1,0,3,1,0,FALSE
5,115,195,200,1,2,0,0,3,FALSE
195,200,5,115,1,0,3,2,0,FALSE
5,110,195,205,1,2,0,0,4,FALSE
195,205,5,110,1,0,4,2,0,FALSE
-10,100,210,215,1,1,0,0,2,TRUE
210,215,-10,100,1,0,2,1,0,TRUE
0,105,180,210,1,4,0,0,10,TRUE
180,210,0,105,1,0,10,4,0,TRUE
0,15,180,185,1,2,0,0,3,FALSE
180,185,0,15,1,0,3,2,0,FALSE
-15,15,195,185,0,2,0,0,0,FALSE
195,185,-15,15,0,0,0,2,0,FALSE
0,-5,190,205,1,1,0,0,4,TRUE
190,205,0,-5,1,0,4,1,0,TRUE
-5,-10,195,210,1,1,0,0,4,TRUE
195,210,-5,-10,1,0,4,1,0,TRUE
15,-15,185,220,1,1,0,0,8,TRUE
185,220,15,-15,1,0,8,1,0,TRUE
15,5,185,200,1,2,0,0,5,TRUE
185,200,15,5,1,0,5,2,0,TRUE
10,125,190,190,0.5,1,0,0,1,FALSE
190,190,10,125,0.5,0,1,1,0,FALSE
0,30,180,180,0.5,3,0,0,3,TRUE
180,180,0,30,0.5,0,3,3,0,TRUE
0,145,180,170,0,5,0,0,3,FALSE
180,170,0,145,0,0,3,5,0,FALSE
-10,120,190,195,1,3,0,0,4,FALSE
190,195,-10,120,1,0,4,3,0,FALSE
-10,120,190,195,1,3,0,0,4,FALSE
190,195,-10,120,1,0,4,3,0,FALSE
0,125,180,190,1,4,0,0,6,FALSE
180,190,0,125,1,0,6,4,0,FALSE
0,25,180,185,1,4,0,0,5,FALSE
180,185,0,25,1,0,5,4,0,FALSE
5,120,195,195,0.5,2,0,0,2,FALSE
195,195,5,120,0.5,0,2,2,0,FALSE
180,215,0,100,0,0,10,3,0,TRUE
0,100,180,215,0,3,0,0,10,TRUE
0,125,180,190,1,3,0,0,5,FALSE
180,190,0,125,1,0,5,3,0,FALSE
5,130,175,185,1,3,0,0,5,TRUE
175,185,5,130,1,0,5,3,0,TRUE
0,25,180,175,0,2,0,0,1,FALSE
180,175,0,25,0,0,1,2,0,FALSE
0,20,180,180,0.5,2,0,0,2,TRUE
180,180,0,20,0.5,0,2,2,0,TRUE
15,125,185,190,1,1,0,0,2,FALSE
185,190,15,125,1,0,2,1,0,FALSE
15,115,185,200,1,1,0,0,4,FALSE
185,200,15,115,1,0,4,1,0,FALSE
15,105,185,210,1,1,0,0,6,TRUE
185,210,15,105,1,0,6,1,0,TRUE
15,130,185,185,0.5,1,0,0,1,TRUE
185,185,15,130,0.5,0,1,1,0,TRUE
0,10,180,190,0,2,0,0,4,FALSE
0,130,180,185,1,3,0,0,4,FALSE
-5,15,185,185,0.5,2,0,0,2,FALSE
-5,0,185,200,0,2,0,0,5,TRUE
15,115,185,200,0,1,0,0,4,TRUE
0,5,180,195,0,2,0,0,5,TRUE
25,125,175,190,1,1,0,0,4,TRUE
0,135,180,180,0.5,3,0,0,3,FALSE
0,10,180,190,0,2,0,0,4,TRUE
30,130,170,185,0,1,0,0,4,FALSE
30,140,170,175,1,1,0,0,2,FALSE
25,135,175,180,1,1,0,0,2,FALSE
25,125,175,190,0,1,0,0,4,FALSE
25,120,175,195,0,1,0,0,5,FALSE
25,140,175,175,0.5,2,0,0,2,FALSE
10,130,180,185,1,2,0,0,3,TRUE
10,120,180,195,0,2,0,0,5,FALSE
10,135,180,180,0.5,2,0,0,2,FALSE
5,120,185,195,1,2,0,0,4,TRUE
0,135,180,180,0.5,3,0,0,3,FALSE
0,10,180,190,0,2,0,0,4,TRUE
10,105,190,210,0,1,0,0,5,FALSE
10,120,190,195,1,1,0,0,2,FALSE
10,125,190,190,0.5,5,0,0,5,FALSE
10,105,190,210,0,1,0,0,5,TRUE
0,10,180,190,1,2,0,0,4,TRUE
10,105,190,210,0,1,0,0,5,TRUE
0,20,180,180,0.5,2,0,0,2,FALSE
0,5,180,195,0,2,0,0,5,FALSE
0,10,180,190,0,2,0,0,4,FALSE
0,15,180,185,1,2,0,0,3,FALSE
0,10,180,190,1,2,0,0,4,TRUE
15,110,185,205,0,1,0,0,5,TRUE
0,120,180,195,1,3,0,0,6,FALSE
0,5,180,195,0,2,0,0,5,TRUE
10,105,190,210,0,1,0,0,5,FALSE
10,115,190,200,1,1,0,0,3,FALSE
10,115,190,200,1,1,0,0,3,FALSE
10,105,190,210,0,1,0,0,5,TRUE
0,135,180,180,0.5,3,0,0,3,FALSE
0,5,180,195,0,2,0,0,5,FALSE
0,5,180,195,0,2,0,0,5,FALSE
0,125,180,190,1,3,0,0,5,FALSE
0,115,180,200,1,3,0,0,7,FALSE
0,5,180,195,0,2,0,0,5,TRUE
15,110,185,205,0,1,0,0,5,FALSE
15,135,185,180,0,2,0,0,1,FALSE
15,135,185,180,0,3,0,0,2,FALSE
15,110,185,205,0,1,0,0,5,FALSE
15,110,185,205,0,1,0,0,5,FALSE
15,115,185,200,1,1,0,0,4,TRUE
0,30,180,175,0,3,0,0,2,FALSE
0,10,180,190,0,2,0,0,4,TRUE
25,120,175,195,0,1,0,0,5,FALSE
25,25,175,175,0.5,0,0,0,0,FALSE
25,150,175,165,0,2,0,0,0,FALSE
25,125,175,190,0,1,0,0,4,FALSE
25,120,175,195,0,1,0,0,5,FALSE
25,140,175,175,0.5,1,0,0,1,FALSE
20,135,180,180,0.5,1,0,0,1,FALSE
20,115,180,200,0,1,0,0,5,TRUE
0,20,180,180,0.5,2,0,0,2,FALSE
0,5,180,195,0,2,0,0,5,FALSE
-5,5,185,195,0,2,0,0,4,FALSE
-5,125,185,190,1,3,0,0,4,FALSE
-5,15,185,185,0.5,2,0,0,2,FALSE
-5,5,185,195,0,2,0,0,4,TRUE
5,100,195,215,0,1,0,0,5,TRUE
0,125,180,190,1,3,0,0,5,FALSE
0,5,180,195,0,2,0,0,5,TRUE
15,115,185,200,0,1,0,0,4,FALSE
15,125,185,190,1,2,0,0,3,FALSE
15,120,185,195,1,1,0,0,3,TRUE
0,145,180,170,0,3,0,0,1,FALSE
0,10,180,190,0,2,0,0,4,TRUE
20,115,180,200,0,1,0,0,5,FALSE
20,135,180,180,0.5,1,0,0,1,FALSE
20,130,180,185,1,1,0,0,2,FALSE
20,120,180,195,0,1,0,0,4,FALSE
20,115,180,200,0,1,0,0,5,TRUE