Tue Sep 03 14:15:27 IDT 2013	This is the CT debug logger; svn version 638; sep 27 09
Tue Sep 03 14:15:27 IDT 2013	Tue Sep 03 14:15:27 IDT 2013
Tue Sep 03 14:15:27 IDT 2013	ThreePlayersAgentPlayer(): entering.
Tue Sep 03 14:15:36 IDT 2013	phaseAdvanced(): entering.
Tue Sep 03 14:15:36 IDT 2013	phaseAdvanced(): new phase is 'Strategy Prep Phase'.
Tue Sep 03 14:16:36 IDT 2013	phaseAdvanced(): entering.
Tue Sep 03 14:16:36 IDT 2013	phaseAdvanced(): new phase is 'Communication Phase'.
Tue Sep 03 14:17:30 IDT 2013	onReceipt(): entering.
Tue Sep 03 14:17:30 IDT 2013	phaseAdvanced(): entering.
Tue Sep 03 14:17:30 IDT 2013	phaseAdvanced(): new phase is 'Movement Phase'.
Tue Sep 03 14:18:15 IDT 2013	phaseAdvanced(): entering.
Tue Sep 03 14:18:15 IDT 2013	phaseAdvanced(): new phase is 'Feedback Phase'.
Tue Sep 03 14:18:20 IDT 2013	phaseAdvanced(): entering.
Tue Sep 03 14:18:20 IDT 2013	phaseAdvanced(): new phase is 'Communication Phase'.
Tue Sep 03 14:18:53 IDT 2013	onReceipt(): entering.
Tue Sep 03 14:18:53 IDT 2013	onReceipt(): opponent's proposal: ({ chips  'CTRed':0 'CTPurple':0 'CTGreen':0 'grey78':0 'CTYellow':0 }, { chips  'CTRed':0 'CTPurple':0 'CTGreen':0 'grey78':11 'CTYellow':0 }).
Tue Sep 03 14:18:53 IDT 2013	respondToProposal(): entering.
Tue Sep 03 14:18:53 IDT 2013	respondToProposal(): my chips: ({ chips  'CTRed':0 'CTPurple':0 'CTGreen':0 'grey78':11 'CTYellow':0 }).
Tue Sep 03 14:18:53 IDT 2013	responseToSend(): entering.
Tue Sep 03 14:18:53 IDT 2013	responseToSend(): rejecting proposal
Tue Sep 03 14:18:53 IDT 2013	phaseAdvanced(): entering.
Tue Sep 03 14:18:53 IDT 2013	phaseAdvanced(): new phase is 'Movement Phase'.
Tue Sep 03 14:19:38 IDT 2013	phaseAdvanced(): entering.
Tue Sep 03 14:19:38 IDT 2013	phaseAdvanced(): new phase is 'Feedback Phase'.
