Wed Feb 05 10:23:04 EST 2014	This is the CT debug logger; svn version 638; sep 27 09
Wed Feb 05 10:23:04 EST 2014	Wed Feb 05 10:23:04 EST 2014
Wed Feb 05 10:23:04 EST 2014	ID Number: 64383
Wed Feb 05 10:23:04 EST 2014	Creating board
Wed Feb 05 10:23:04 EST 2014	<colors>
Wed Feb 05 10:23:04 EST 2014	{ GamePalette  'CTPurple':0 'CTRed':1 'CTGreen':2 'grey78':3 'CTYellow':4 }
Wed Feb 05 10:23:04 EST 2014	<rows>
Wed Feb 05 10:23:04 EST 2014	6
Wed Feb 05 10:23:04 EST 2014	<columns>
Wed Feb 05 10:23:04 EST 2014	9
Wed Feb 05 10:23:04 EST 2014	<squaresColors>
Wed Feb 05 10:23:04 EST 2014	grey78 CTGreen CTGreen CTGreen CTGreen CTGreen CTGreen CTGreen CTYellow 
Wed Feb 05 10:23:04 EST 2014	grey78 CTPurple CTPurple CTPurple CTPurple CTPurple CTPurple CTPurple CTYellow 
Wed Feb 05 10:23:04 EST 2014	grey78 grey78 CTGreen CTGreen CTGreen CTGreen CTGreen CTYellow CTYellow 
Wed Feb 05 10:23:04 EST 2014	CTGreen grey78 grey78 CTPurple CTPurple CTPurple CTYellow CTYellow CTGreen 
Wed Feb 05 10:23:04 EST 2014	CTGreen CTGreen grey78 grey78 CTGreen CTYellow CTYellow CTGreen CTGreen 
Wed Feb 05 10:23:04 EST 2014	CTGreen CTGreen CTGreen grey78 CTGreen CTYellow CTGreen CTGreen CTGreen 
Wed Feb 05 10:23:04 EST 2014	</squareColors>
Wed Feb 05 10:23:04 EST 2014	<goalPosition>
Wed Feb 05 10:23:04 EST 2014	Goal position: (R:0,C:0)
Wed Feb 05 10:23:04 EST 2014	<goalPosition>
Wed Feb 05 10:23:04 EST 2014	Goal position: (R:0,C:0)
Wed Feb 05 10:23:04 EST 2014	<firstPlayerPossibleGoal1>
Wed Feb 05 10:23:04 EST 2014	0.5
Wed Feb 05 10:23:04 EST 2014	0
Wed Feb 05 10:23:04 EST 2014	0
Wed Feb 05 10:23:04 EST 2014	</firstPlayerPossibleGoal1>
Wed Feb 05 10:23:04 EST 2014	<firstPlayerPossibleGoal2>
Wed Feb 05 10:23:04 EST 2014	0.5
Wed Feb 05 10:23:04 EST 2014	0
Wed Feb 05 10:23:04 EST 2014	8
Wed Feb 05 10:23:04 EST 2014	</firstPlayerPossibleGoal2>
Wed Feb 05 10:23:04 EST 2014	<numberOfPlayers>
Wed Feb 05 10:23:04 EST 2014	3
Wed Feb 05 10:23:04 EST 2014	<firstPlayerChips>
Wed Feb 05 10:23:04 EST 2014	Setting chips for player: 500 id:0
Wed Feb 05 10:23:04 EST 2014	{ chips  'CTRed':0 'CTGreen':0 'CTPurple':0 'grey78':12 'CTYellow':12 }
Wed Feb 05 10:23:04 EST 2014	Player position: (R:5,C:4)
Wed Feb 05 10:23:04 EST 2014	Setting chips for player: 530 id:1
Wed Feb 05 10:23:04 EST 2014	{ chips  'CTRed':33 'CTGreen':0 'CTPurple':7 'grey78':0 'CTYellow':0 }
Wed Feb 05 10:23:04 EST 2014	Player position: (R:0,C:8)
Wed Feb 05 10:23:04 EST 2014	Setting chips for player: 540 id:2
Wed Feb 05 10:23:04 EST 2014	{ chips  'CTRed':33 'CTGreen':0 'CTPurple':7 'grey78':0 'CTYellow':0 }
Wed Feb 05 10:23:04 EST 2014	Player position: (R:0,C:0)
Wed Feb 05 10:23:04 EST 2014	Protocol: A New Phase Began: Strategy Prep Phase. loop is true
Wed Feb 05 10:23:04 EST 2014	---------- Beginning Strategy Prep Phase at round 0 ----------
Wed Feb 05 10:24:04 EST 2014	A Phase Ended: Strategy Prep Phase
Wed Feb 05 10:24:04 EST 2014	Protocol: A New Phase Began: Communication Phase. loop is true
Wed Feb 05 10:24:04 EST 2014	---------- Beginning Communication Phase at round 1 ----------
Wed Feb 05 10:24:09 EST 2014	Received communication message 
Wed Feb 05 10:24:09 EST 2014	From player: 530
Wed Feb 05 10:24:09 EST 2014	To player: 500
Wed Feb 05 10:24:09 EST 2014	Chips to send by proposer: { chips  'CTRed':33 'CTPurple':7 'CTYellow':0 }
Wed Feb 05 10:24:09 EST 2014	Chips to send by responder: { chips  'grey78':11 }
Wed Feb 05 10:25:11 EST 2014	Received communication message 
Wed Feb 05 10:25:11 EST 2014	Proposer 0 accepted? true
Wed Feb 05 10:25:11 EST 2014	A Phase Ended: Communication Phase
Wed Feb 05 10:25:11 EST 2014	Protocol: A New Phase Began: Movement Phase. loop is true
Wed Feb 05 10:25:11 EST 2014	---------- Beginning Movement Phase at round 1 ----------
Wed Feb 05 10:25:11 EST 2014	remove strategy phase. 
Wed Feb 05 10:25:55 EST 2014	A Phase Ended: Movement Phase
Wed Feb 05 10:25:55 EST 2014	Protocol: A New Phase Began: Feedback Phase. loop is true
Wed Feb 05 10:25:55 EST 2014	---------- Beginning Feedback Phase at round 1 ----------
Wed Feb 05 10:25:55 EST 2014	Number of consecutive no movements for player 500 is 0
Wed Feb 05 10:25:55 EST 2014	TDPlayerPosition is(R:5,C:5)goal location 0(R:0,C:0)goal location 1(R:0,C:8)
Wed Feb 05 10:25:55 EST 2014	ended is false
Wed Feb 05 10:26:00 EST 2014	A Phase Ended: Feedback Phase
Wed Feb 05 10:26:00 EST 2014	 numberofMoves in round 1 is 1
Wed Feb 05 10:26:00 EST 2014	Swaping roles:
Wed Feb 05 10:26:00 EST 2014	Protocol: A New Phase Began: Communication Phase. loop is true
Wed Feb 05 10:26:00 EST 2014	---------- Beginning Communication Phase at round 2 ----------
Wed Feb 05 10:27:13 EST 2014	Received communication message 
Wed Feb 05 10:27:13 EST 2014	From player: 500
Wed Feb 05 10:27:13 EST 2014	To player: 540
Wed Feb 05 10:27:13 EST 2014	Chips to send by proposer: { chips  'CTRed':0 'CTPurple':0 'CTGreen':0 'grey78':0 'CTYellow':2 }
Wed Feb 05 10:27:13 EST 2014	Chips to send by responder: { chips  'CTRed':0 'CTPurple':3 'CTGreen':0 'grey78':0 'CTYellow':0 }
Wed Feb 05 10:27:25 EST 2014	Received communication message 
Wed Feb 05 10:27:25 EST 2014	Proposer 1 accepted? true
Wed Feb 05 10:27:25 EST 2014	A Phase Ended: Communication Phase
Wed Feb 05 10:27:25 EST 2014	Protocol: A New Phase Began: Movement Phase. loop is true
Wed Feb 05 10:27:25 EST 2014	---------- Beginning Movement Phase at round 2 ----------
Wed Feb 05 10:28:10 EST 2014	A Phase Ended: Movement Phase
Wed Feb 05 10:28:10 EST 2014	Protocol: A New Phase Began: Feedback Phase. loop is true
Wed Feb 05 10:28:10 EST 2014	---------- Beginning Feedback Phase at round 2 ----------
Wed Feb 05 10:28:10 EST 2014	Number of consecutive no movements for player 500 is 0
Wed Feb 05 10:28:10 EST 2014	TDPlayerPosition is(R:3,C:6)goal location 0(R:0,C:0)goal location 1(R:0,C:8)
Wed Feb 05 10:28:10 EST 2014	ended is false
Wed Feb 05 10:28:15 EST 2014	A Phase Ended: Feedback Phase
Wed Feb 05 10:28:15 EST 2014	 numberofMoves in round 2 is 3
Wed Feb 05 10:28:15 EST 2014	Swaping roles:
Wed Feb 05 10:28:15 EST 2014	Protocol: A New Phase Began: Communication Phase. loop is true
Wed Feb 05 10:28:15 EST 2014	---------- Beginning Communication Phase at round 3 ----------
Wed Feb 05 10:28:15 EST 2014	Received communication message 
Wed Feb 05 10:28:15 EST 2014	From player: 530
Wed Feb 05 10:28:15 EST 2014	To player: 500
Wed Feb 05 10:28:15 EST 2014	Chips to send by proposer: { chips  'CTRed':0 'CTPurple':0 'CTYellow':0 }
Wed Feb 05 10:28:15 EST 2014	Chips to send by responder: { chips  'grey78':0 }
Wed Feb 05 10:29:03 EST 2014	Received communication message 
Wed Feb 05 10:29:03 EST 2014	From player: 540
Wed Feb 05 10:29:03 EST 2014	To player: 500
Wed Feb 05 10:29:03 EST 2014	Chips to send by proposer: { chips  'CTRed':1 'CTPurple':0 'CTGreen':0 'grey78':0 'CTYellow':0 }
Wed Feb 05 10:29:03 EST 2014	Chips to send by responder: { chips  'CTRed':0 'CTPurple':3 'CTGreen':0 'grey78':0 'CTYellow':5 }
Wed Feb 05 10:29:19 EST 2014	Received communication message 
Wed Feb 05 10:29:19 EST 2014	Proposer 1 accepted? false
Wed Feb 05 10:29:19 EST 2014	case that we had one reject, and one accept
Wed Feb 05 10:29:20 EST 2014	Received communication message 
Wed Feb 05 10:29:20 EST 2014	Proposer 0 accepted? false
Wed Feb 05 10:29:20 EST 2014	case that we had one reject, and one accept
Wed Feb 05 10:29:20 EST 2014	A Phase Ended: Communication Phase
Wed Feb 05 10:29:20 EST 2014	Protocol: A New Phase Began: Movement Phase. loop is true
Wed Feb 05 10:29:20 EST 2014	---------- Beginning Movement Phase at round 3 ----------
Wed Feb 05 10:30:05 EST 2014	A Phase Ended: Movement Phase
Wed Feb 05 10:30:05 EST 2014	Protocol: A New Phase Began: Feedback Phase. loop is true
Wed Feb 05 10:30:05 EST 2014	---------- Beginning Feedback Phase at round 3 ----------
Wed Feb 05 10:30:05 EST 2014	Number of consecutive no movements for player 500 is 0
Wed Feb 05 10:30:05 EST 2014	TDPlayerPosition is(R:3,C:7)goal location 0(R:0,C:0)goal location 1(R:0,C:8)
Wed Feb 05 10:30:05 EST 2014	ended is false
Wed Feb 05 10:30:10 EST 2014	A Phase Ended: Feedback Phase
Wed Feb 05 10:30:10 EST 2014	 numberofMoves in round 3 is 1
Wed Feb 05 10:30:10 EST 2014	Swaping roles:
Wed Feb 05 10:30:10 EST 2014	Protocol: A New Phase Began: Communication Phase. loop is true
Wed Feb 05 10:30:10 EST 2014	---------- Beginning Communication Phase at round 4 ----------
Wed Feb 05 10:31:11 EST 2014	Received communication message 
Wed Feb 05 10:31:11 EST 2014	From player: 500
Wed Feb 05 10:31:11 EST 2014	To player: 540
Wed Feb 05 10:31:11 EST 2014	Chips to send by proposer: { chips  'CTRed':0 'CTPurple':0 'CTGreen':0 'grey78':0 'CTYellow':4 }
Wed Feb 05 10:31:11 EST 2014	Chips to send by responder: { chips  'CTRed':33 'CTPurple':4 'CTGreen':0 'grey78':0 'CTYellow':0 }
Wed Feb 05 10:31:48 EST 2014	Received communication message 
Wed Feb 05 10:31:48 EST 2014	Proposer 1 accepted? true
Wed Feb 05 10:31:48 EST 2014	A Phase Ended: Communication Phase
Wed Feb 05 10:31:48 EST 2014	Protocol: A New Phase Began: Movement Phase. loop is true
Wed Feb 05 10:31:48 EST 2014	---------- Beginning Movement Phase at round 4 ----------
Wed Feb 05 10:32:32 EST 2014	A Phase Ended: Movement Phase
Wed Feb 05 10:32:32 EST 2014	Protocol: A New Phase Began: Feedback Phase. loop is true
Wed Feb 05 10:32:32 EST 2014	---------- Beginning Feedback Phase at round 4 ----------
Wed Feb 05 10:32:32 EST 2014	Number of consecutive no movements for player 500 is 0
Wed Feb 05 10:32:32 EST 2014	TDPlayerPosition is(R:1,C:2)goal location 0(R:0,C:0)goal location 1(R:0,C:8)
Wed Feb 05 10:32:32 EST 2014	ended is false
Wed Feb 05 10:32:37 EST 2014	A Phase Ended: Feedback Phase
Wed Feb 05 10:32:37 EST 2014	 numberofMoves in round 4 is 12
Wed Feb 05 10:32:37 EST 2014	Swaping roles:
Wed Feb 05 10:32:37 EST 2014	Protocol: A New Phase Began: Communication Phase. loop is true
Wed Feb 05 10:32:37 EST 2014	Received communication message 
Wed Feb 05 10:32:37 EST 2014	From player: 530
Wed Feb 05 10:32:37 EST 2014	To player: 500
Wed Feb 05 10:32:37 EST 2014	Chips to send by proposer: { chips  'grey78':0 }
Wed Feb 05 10:32:37 EST 2014	Chips to send by responder: { chips  'CTRed':0 'CTPurple':0 }
Wed Feb 05 10:32:37 EST 2014	---------- Beginning Communication Phase at round 5 ----------
Wed Feb 05 10:32:40 EST 2014	Received communication message 
Wed Feb 05 10:32:40 EST 2014	Proposer 0 accepted? false
Wed Feb 05 10:32:40 EST 2014	case that we had one reject, and one accept
Wed Feb 05 10:33:08 EST 2014	Received communication message 
Wed Feb 05 10:33:08 EST 2014	From player: 540
Wed Feb 05 10:33:08 EST 2014	To player: 500
Wed Feb 05 10:33:08 EST 2014	Chips to send by proposer: { chips  'CTRed':0 'CTPurple':0 'CTGreen':0 'grey78':0 'CTYellow':2 }
Wed Feb 05 10:33:08 EST 2014	Chips to send by responder: { chips  'CTRed':0 'CTPurple':0 'CTGreen':0 'grey78':0 'CTYellow':0 }
Wed Feb 05 10:33:22 EST 2014	Received communication message 
Wed Feb 05 10:33:22 EST 2014	Proposer 1 accepted? true
Wed Feb 05 10:33:22 EST 2014	A Phase Ended: Communication Phase
Wed Feb 05 10:33:22 EST 2014	Protocol: A New Phase Began: Movement Phase. loop is true
Wed Feb 05 10:33:22 EST 2014	---------- Beginning Movement Phase at round 5 ----------
Wed Feb 05 10:34:06 EST 2014	A Phase Ended: Movement Phase
Wed Feb 05 10:34:06 EST 2014	Protocol: A New Phase Began: Feedback Phase. loop is true
Wed Feb 05 10:34:06 EST 2014	---------- Beginning Feedback Phase at round 5 ----------
Wed Feb 05 10:34:06 EST 2014	The TD player reached the goal, end the game
Wed Feb 05 10:34:06 EST 2014	ended is true
Wed Feb 05 10:34:11 EST 2014	A Phase Ended: Feedback Phase
Wed Feb 05 10:34:11 EST 2014	 numberofMoves in round 5 is 6
Wed Feb 05 10:34:11 EST 2014	Loop status: false
Wed Feb 05 10:34:11 EST 2014	Player: 500 ,role: Responder score is: 480
Wed Feb 05 10:34:11 EST 2014	Player: 500Game Ended
Wed Feb 05 10:34:11 EST 2014	Player: 530 ,role: Proposer score is: 205
Wed Feb 05 10:34:11 EST 2014	Player: 530Game Ended
Wed Feb 05 10:34:11 EST 2014	Player: 540 ,role: Proposer score is: 20
Wed Feb 05 10:34:11 EST 2014	Player: 540Game Ended
Wed Feb 05 10:34:11 EST 2014	Protocol: A New Phase Began: Communication Phase. loop is false
Wed Feb 05 10:34:11 EST 2014	---------- Beginning Communication Phase at round 5 ----------
Wed Feb 05 10:37:12 EST 2014	A Phase Ended: Communication Phase
Wed Feb 05 10:37:12 EST 2014	Protocol: A New Phase Began: Movement Phase. loop is false
Wed Feb 05 10:37:12 EST 2014	---------- Beginning Movement Phase at round 5 ----------
Wed Feb 05 10:37:57 EST 2014	A Phase Ended: Movement Phase
Wed Feb 05 10:37:57 EST 2014	Protocol: A New Phase Began: Feedback Phase. loop is false
Wed Feb 05 10:37:57 EST 2014	---------- Beginning Feedback Phase at round 5 ----------
Wed Feb 05 10:37:57 EST 2014	The TD player reached the goal, end the game
Wed Feb 05 10:37:57 EST 2014	ended is true
