filename,round,propID,respID,IsPropCustomer,chipsToSend,chipsToReceive,accept,propCurrentScore,respCurrentScore,actualSent,ActualRcvd,propResultingScore,respResultingScore,#ofCustomerMovesInRound,customerRowPositionAfterMovePhase,customerColPositionAfterMovePhase,Player100ChipsAfterMovePhase,Player100ScoreAfterMovePhase,Player200ChipsAfterMovePhase,Player200ScoreAfterMovePhase,Player300ChipsAfterMovePhase,Player300ScoreAfterMovePhase,generosityLevel,ClientReachedGoal
3playersLog_1391618088557.csv,1,530,500,false,{ chips  'CTRed':33 'CTPurple':7 },{ chips  'grey78':11 },FALSE,200,120,,,,,8,(R:1,C:0),{ chips  'CTRed':0 'CTGreen':0 'CTPurple':0 'grey78':4 'CTYellow':12 },80,{ chips  'CTRed':33 'CTGreen':0 'CTPurple':7 'grey78':0 'CTYellow':0 },200,{ chips  'CTRed':33 'CTGreen':0 'CTPurple':7 'grey78':0 'CTYellow':0 },200
3playersLog_1391618088557.csv,1,540,500,false,{ chips  'CTRed':3 'CTPurple':2 },{ chips  'CTYellow':2 },FALSE,200,120,,,,,8,(R:1,C:0),{ chips  'CTRed':0 'CTGreen':0 'CTPurple':0 'grey78':4 'CTYellow':12 },80,{ chips  'CTRed':33 'CTGreen':0 'CTPurple':7 'grey78':0 'CTYellow':0 },200,{ chips  'CTRed':33 'CTGreen':0 'CTPurple':7 'grey78':0 'CTYellow':0 },200
3playersLog_1391618088557.csv,2,500,540,true,{ chips  'CTYellow':2 },{ chips  'CTPurple':7 },FALSE,80,200,,,,,1,(R:0,C:0),{ chips  'CTRed':0 'CTGreen':0 'CTPurple':0 'grey78':3 'CTYellow':12 },225,{ chips  'CTRed':33 'CTGreen':0 'CTPurple':7 'grey78':0 'CTYellow':0 },200,{ chips  'CTRed':33 'CTGreen':0 'CTPurple':7 'grey78':0 'CTYellow':0 },350
3playersLog_1391618088557.csv,,,,,,,,,,,,,,,,,,,,,,,,true
