Thu Sep 12 09:26:23 IDT 2013	This is the CT debug logger; svn version 638; sep 27 09
Thu Sep 12 09:26:23 IDT 2013	Thu Sep 12 09:26:23 IDT 2013
Thu Sep 12 09:26:23 IDT 2013	ID Number: 63201
Thu Sep 12 09:26:23 IDT 2013	Creating board
Thu Sep 12 09:26:23 IDT 2013	<colors>
Thu Sep 12 09:26:23 IDT 2013	{ GamePalette  'CTPurple':0 'CTRed':1 'CTGreen':2 'grey78':3 'CTYellow':4 }
Thu Sep 12 09:26:23 IDT 2013	<rows>
Thu Sep 12 09:26:23 IDT 2013	6
Thu Sep 12 09:26:23 IDT 2013	<columns>
Thu Sep 12 09:26:23 IDT 2013	9
Thu Sep 12 09:26:23 IDT 2013	<squaresColors>
Thu Sep 12 09:26:23 IDT 2013	grey78 CTGreen CTGreen CTGreen CTGreen CTGreen CTGreen CTGreen CTYellow 
Thu Sep 12 09:26:23 IDT 2013	grey78 CTPurple CTPurple CTPurple CTPurple CTPurple CTPurple CTPurple CTYellow 
Thu Sep 12 09:26:23 IDT 2013	grey78 grey78 CTGreen CTGreen CTGreen CTGreen CTGreen CTYellow CTYellow 
Thu Sep 12 09:26:23 IDT 2013	CTGreen grey78 grey78 CTPurple CTPurple CTPurple CTYellow CTYellow CTGreen 
Thu Sep 12 09:26:23 IDT 2013	CTGreen CTGreen grey78 grey78 CTGreen CTYellow CTYellow CTGreen CTGreen 
Thu Sep 12 09:26:23 IDT 2013	CTGreen CTGreen CTGreen grey78 CTGreen CTYellow CTGreen CTGreen CTGreen 
Thu Sep 12 09:26:23 IDT 2013	</squareColors>
Thu Sep 12 09:26:23 IDT 2013	<goalPosition>
Thu Sep 12 09:26:23 IDT 2013	Goal position: (R:0,C:0)
Thu Sep 12 09:26:23 IDT 2013	<goalPosition>
Thu Sep 12 09:26:23 IDT 2013	Goal position: (R:0,C:0)
Thu Sep 12 09:26:23 IDT 2013	<firstPlayerPossibleGoal1>
Thu Sep 12 09:26:23 IDT 2013	0.5
Thu Sep 12 09:26:23 IDT 2013	0
Thu Sep 12 09:26:23 IDT 2013	0
Thu Sep 12 09:26:23 IDT 2013	</firstPlayerPossibleGoal1>
Thu Sep 12 09:26:23 IDT 2013	<firstPlayerPossibleGoal2>
Thu Sep 12 09:26:23 IDT 2013	0.5
Thu Sep 12 09:26:23 IDT 2013	0
Thu Sep 12 09:26:23 IDT 2013	8
Thu Sep 12 09:26:23 IDT 2013	</firstPlayerPossibleGoal2>
Thu Sep 12 09:26:23 IDT 2013	<numberOfPlayers>
Thu Sep 12 09:26:23 IDT 2013	3
Thu Sep 12 09:26:23 IDT 2013	<firstPlayerChips>
Thu Sep 12 09:26:23 IDT 2013	Setting chips for player: 510 id:0
Thu Sep 12 09:26:23 IDT 2013	{ chips  'CTRed':0 'CTGreen':0 'CTPurple':0 'grey78':12 'CTYellow':12 }
Thu Sep 12 09:26:23 IDT 2013	Player position: (R:5,C:4)
Thu Sep 12 09:26:23 IDT 2013	Setting chips for player: 520 id:1
Thu Sep 12 09:26:23 IDT 2013	{ chips  'CTRed':33 'CTGreen':0 'CTPurple':7 'grey78':0 'CTYellow':0 }
Thu Sep 12 09:26:23 IDT 2013	Player position: (R:0,C:8)
Thu Sep 12 09:26:23 IDT 2013	Setting chips for player: 540 id:2
Thu Sep 12 09:26:23 IDT 2013	{ chips  'CTRed':33 'CTGreen':0 'CTPurple':7 'grey78':0 'CTYellow':0 }
Thu Sep 12 09:26:23 IDT 2013	Player position: (R:0,C:0)
Thu Sep 12 09:26:23 IDT 2013	Protocol: A New Phase Began: Strategy Prep Phase. loop is true
Thu Sep 12 09:26:23 IDT 2013	---------- Beginning Strategy Prep Phase at round 0 ----------
Thu Sep 12 09:27:23 IDT 2013	A Phase Ended: Strategy Prep Phase
Thu Sep 12 09:27:23 IDT 2013	Protocol: A New Phase Began: Communication Phase. loop is true
Thu Sep 12 09:27:23 IDT 2013	---------- Beginning Communication Phase at round 1 ----------
Thu Sep 12 09:27:53 IDT 2013	Received communication message 
Thu Sep 12 09:27:53 IDT 2013	From player: 520
Thu Sep 12 09:27:53 IDT 2013	To player: 510
Thu Sep 12 09:27:53 IDT 2013	Chips to send by proposer: { chips  'CTRed':0 'CTPurple':2 'CTGreen':0 'grey78':0 'CTYellow':0 }
Thu Sep 12 09:27:53 IDT 2013	Chips to send by responder: { chips  'CTRed':0 'CTPurple':0 'CTGreen':0 'grey78':0 'CTYellow':0 }
Thu Sep 12 09:28:51 IDT 2013	Received communication message 
Thu Sep 12 09:28:51 IDT 2013	From player: 540
Thu Sep 12 09:28:51 IDT 2013	To player: 510
Thu Sep 12 09:28:51 IDT 2013	Chips to send by proposer: { chips  'CTRed':0 'CTPurple':2 'CTGreen':0 'grey78':0 'CTYellow':0 }
Thu Sep 12 09:28:51 IDT 2013	Chips to send by responder: { chips  'CTRed':0 'CTPurple':0 'CTGreen':0 'grey78':0 'CTYellow':0 }
Thu Sep 12 09:28:51 IDT 2013	Received communication message 
Thu Sep 12 09:28:51 IDT 2013	Proposer 1 accepted? true
Thu Sep 12 09:28:51 IDT 2013	A Phase Ended: Communication Phase
Thu Sep 12 09:28:51 IDT 2013	Protocol: A New Phase Began: Movement Phase. loop is true
Thu Sep 12 09:28:51 IDT 2013	---------- Beginning Movement Phase at round 1 ----------
Thu Sep 12 09:28:51 IDT 2013	remove strategy phase. 
Thu Sep 12 09:28:51 IDT 2013	Received communication message 
Thu Sep 12 09:28:51 IDT 2013	Proposer 0 accepted? false
Thu Sep 12 09:29:36 IDT 2013	A Phase Ended: Movement Phase
Thu Sep 12 09:29:36 IDT 2013	Protocol: A New Phase Began: Feedback Phase. loop is true
Thu Sep 12 09:29:36 IDT 2013	---------- Beginning Feedback Phase at round 1 ----------
Thu Sep 12 09:29:36 IDT 2013	Number of consecutive no movements for player 510 is 1
Thu Sep 12 09:29:36 IDT 2013	TDPlayerPosition is(R:5,C:4)goal location 0(R:0,C:0)goal location 1(R:0,C:8)
Thu Sep 12 09:29:36 IDT 2013	ended is false
Thu Sep 12 09:29:41 IDT 2013	A Phase Ended: Feedback Phase
Thu Sep 12 09:29:41 IDT 2013	 numberofMoves in round 1 is 0
Thu Sep 12 09:29:41 IDT 2013	Swaping roles:
Thu Sep 12 09:29:41 IDT 2013	Protocol: A New Phase Began: Communication Phase. loop is true
Thu Sep 12 09:29:41 IDT 2013	---------- Beginning Communication Phase at round 2 ----------
Thu Sep 12 09:29:44 IDT 2013	Received communication message 
Thu Sep 12 09:29:44 IDT 2013	From player: 510
Thu Sep 12 09:29:44 IDT 2013	To player: 540
Thu Sep 12 09:29:44 IDT 2013	Chips to send by proposer: { chips  'CTYellow':11 }
Thu Sep 12 09:29:44 IDT 2013	Chips to send by responder: { chips  'CTRed':33 'CTPurple':5 'grey78':0 }
Thu Sep 12 09:30:16 IDT 2013	Received communication message 
Thu Sep 12 09:30:16 IDT 2013	Proposer 1 accepted? true
Thu Sep 12 09:30:16 IDT 2013	A Phase Ended: Communication Phase
Thu Sep 12 09:30:16 IDT 2013	Protocol: A New Phase Began: Movement Phase. loop is true
Thu Sep 12 09:30:16 IDT 2013	---------- Beginning Movement Phase at round 2 ----------
Thu Sep 12 09:31:00 IDT 2013	A Phase Ended: Movement Phase
Thu Sep 12 09:31:00 IDT 2013	Protocol: A New Phase Began: Feedback Phase. loop is true
Thu Sep 12 09:31:00 IDT 2013	---------- Beginning Feedback Phase at round 2 ----------
Thu Sep 12 09:31:00 IDT 2013	The TD player reached the goal, end the game
Thu Sep 12 09:31:00 IDT 2013	ended is true
Thu Sep 12 09:31:05 IDT 2013	A Phase Ended: Feedback Phase
Thu Sep 12 09:31:05 IDT 2013	 numberofMoves in round 2 is 9
Thu Sep 12 09:31:05 IDT 2013	Loop status: false
Thu Sep 12 09:31:05 IDT 2013	Player: 540 ,role: Responder score is: 205
Thu Sep 12 09:31:05 IDT 2013	Player: 540Game Ended
Thu Sep 12 09:31:05 IDT 2013	Player: 510 ,role: Proposer score is: 370
Thu Sep 12 09:31:05 IDT 2013	Player: 510Game Ended
Thu Sep 12 09:31:05 IDT 2013	Player: 520 ,role: Responder score is: 200
Thu Sep 12 09:31:05 IDT 2013	Player: 520Game Ended
Thu Sep 12 09:31:05 IDT 2013	Protocol: A New Phase Began: Communication Phase. loop is false
Thu Sep 12 09:31:05 IDT 2013	---------- Beginning Communication Phase at round 2 ----------
