Mon Dec 09 16:31:17 EST 2013	This is the CT debug logger; svn version 638; sep 27 09
Mon Dec 09 16:31:17 EST 2013	Mon Dec 09 16:31:17 EST 2013
Mon Dec 09 16:31:17 EST 2013	ID Number: 67425
Mon Dec 09 16:31:17 EST 2013	Creating board
Mon Dec 09 16:31:17 EST 2013	<colors>
Mon Dec 09 16:31:17 EST 2013	{ GamePalette  'CTPurple':0 'CTRed':1 'CTGreen':2 'grey78':3 'CTYellow':4 }
Mon Dec 09 16:31:17 EST 2013	<rows>
Mon Dec 09 16:31:17 EST 2013	6
Mon Dec 09 16:31:17 EST 2013	<columns>
Mon Dec 09 16:31:17 EST 2013	9
Mon Dec 09 16:31:17 EST 2013	<squaresColors>
Mon Dec 09 16:31:17 EST 2013	grey78 CTGreen CTGreen CTGreen CTGreen CTGreen CTGreen CTGreen CTYellow 
Mon Dec 09 16:31:17 EST 2013	grey78 CTPurple CTPurple CTPurple CTPurple CTPurple CTPurple CTPurple CTYellow 
Mon Dec 09 16:31:17 EST 2013	grey78 grey78 CTGreen CTGreen CTGreen CTGreen CTGreen CTYellow CTYellow 
Mon Dec 09 16:31:17 EST 2013	CTGreen grey78 grey78 CTPurple CTPurple CTPurple CTYellow CTYellow CTGreen 
Mon Dec 09 16:31:17 EST 2013	CTGreen CTGreen grey78 grey78 CTGreen CTYellow CTYellow CTGreen CTGreen 
Mon Dec 09 16:31:17 EST 2013	CTGreen CTGreen CTGreen grey78 CTGreen CTYellow CTGreen CTGreen CTGreen 
Mon Dec 09 16:31:17 EST 2013	</squareColors>
Mon Dec 09 16:31:17 EST 2013	<goalPosition>
Mon Dec 09 16:31:17 EST 2013	Goal position: (R:0,C:0)
Mon Dec 09 16:31:17 EST 2013	<goalPosition>
Mon Dec 09 16:31:17 EST 2013	Goal position: (R:0,C:0)
Mon Dec 09 16:31:17 EST 2013	<firstPlayerPossibleGoal1>
Mon Dec 09 16:31:17 EST 2013	0.5
Mon Dec 09 16:31:17 EST 2013	0
Mon Dec 09 16:31:17 EST 2013	0
Mon Dec 09 16:31:17 EST 2013	</firstPlayerPossibleGoal1>
Mon Dec 09 16:31:17 EST 2013	<firstPlayerPossibleGoal2>
Mon Dec 09 16:31:17 EST 2013	0.5
Mon Dec 09 16:31:17 EST 2013	0
Mon Dec 09 16:31:17 EST 2013	8
Mon Dec 09 16:31:17 EST 2013	</firstPlayerPossibleGoal2>
Mon Dec 09 16:31:17 EST 2013	<numberOfPlayers>
Mon Dec 09 16:31:17 EST 2013	3
Mon Dec 09 16:31:17 EST 2013	<firstPlayerChips>
Mon Dec 09 16:31:17 EST 2013	Setting chips for player: 510 id:0
Mon Dec 09 16:31:17 EST 2013	{ chips  'CTRed':0 'CTGreen':0 'CTPurple':0 'grey78':12 'CTYellow':12 }
Mon Dec 09 16:31:17 EST 2013	Player position: (R:5,C:4)
Mon Dec 09 16:31:17 EST 2013	Setting chips for player: 520 id:1
Mon Dec 09 16:31:17 EST 2013	{ chips  'CTRed':33 'CTGreen':0 'CTPurple':7 'grey78':0 'CTYellow':0 }
Mon Dec 09 16:31:17 EST 2013	Player position: (R:0,C:8)
Mon Dec 09 16:31:17 EST 2013	Setting chips for player: 540 id:2
Mon Dec 09 16:31:17 EST 2013	{ chips  'CTRed':33 'CTGreen':0 'CTPurple':7 'grey78':0 'CTYellow':0 }
Mon Dec 09 16:31:17 EST 2013	Player position: (R:0,C:0)
Mon Dec 09 16:31:17 EST 2013	Protocol: A New Phase Began: Strategy Prep Phase. loop is true
Mon Dec 09 16:31:17 EST 2013	---------- Beginning Strategy Prep Phase at round 0 ----------
Mon Dec 09 16:32:17 EST 2013	A Phase Ended: Strategy Prep Phase
Mon Dec 09 16:32:17 EST 2013	Protocol: A New Phase Began: Communication Phase. loop is true
Mon Dec 09 16:32:17 EST 2013	---------- Beginning Communication Phase at round 1 ----------
Mon Dec 09 16:33:01 EST 2013	Received communication message 
Mon Dec 09 16:33:01 EST 2013	From player: 520
Mon Dec 09 16:33:01 EST 2013	To player: 510
Mon Dec 09 16:33:01 EST 2013	Chips to send by proposer: { chips  'CTRed':0 'CTPurple':0 'CTGreen':0 'grey78':0 'CTYellow':0 }
Mon Dec 09 16:33:01 EST 2013	Chips to send by responder: { chips  'CTRed':0 'CTPurple':0 'CTGreen':0 'grey78':8 'CTYellow':0 }
Mon Dec 09 16:33:25 EST 2013	Received communication message 
Mon Dec 09 16:33:25 EST 2013	From player: 540
Mon Dec 09 16:33:25 EST 2013	To player: 510
Mon Dec 09 16:33:25 EST 2013	Chips to send by proposer: { chips  'CTRed':5 'CTPurple':2 'CTGreen':0 'grey78':0 'CTYellow':0 }
Mon Dec 09 16:33:25 EST 2013	Chips to send by responder: { chips  'CTRed':0 'CTPurple':0 'CTGreen':0 'grey78':4 'CTYellow':0 }
Mon Dec 09 16:33:25 EST 2013	Received communication message 
Mon Dec 09 16:33:25 EST 2013	Proposer 1 accepted? true
Mon Dec 09 16:33:25 EST 2013	A Phase Ended: Communication Phase
Mon Dec 09 16:33:25 EST 2013	Protocol: A New Phase Began: Movement Phase. loop is true
Mon Dec 09 16:33:25 EST 2013	---------- Beginning Movement Phase at round 1 ----------
Mon Dec 09 16:33:25 EST 2013	remove strategy phase. 
Mon Dec 09 16:33:25 EST 2013	Received communication message 
Mon Dec 09 16:33:25 EST 2013	Proposer 0 accepted? false
Mon Dec 09 16:34:10 EST 2013	A Phase Ended: Movement Phase
Mon Dec 09 16:34:10 EST 2013	Protocol: A New Phase Began: Feedback Phase. loop is true
Mon Dec 09 16:34:10 EST 2013	---------- Beginning Feedback Phase at round 1 ----------
Mon Dec 09 16:34:10 EST 2013	Number of consecutive no movements for player 510 is 1
Mon Dec 09 16:34:10 EST 2013	TDPlayerPosition is(R:5,C:4)goal location 0(R:0,C:0)goal location 1(R:0,C:8)
Mon Dec 09 16:34:10 EST 2013	ended is false
Mon Dec 09 16:34:15 EST 2013	A Phase Ended: Feedback Phase
Mon Dec 09 16:34:15 EST 2013	 numberofMoves in round 1 is 0
Mon Dec 09 16:34:15 EST 2013	Swaping roles:
Mon Dec 09 16:34:15 EST 2013	Protocol: A New Phase Began: Communication Phase. loop is true
Mon Dec 09 16:34:15 EST 2013	---------- Beginning Communication Phase at round 2 ----------
Mon Dec 09 16:34:26 EST 2013	Received communication message 
Mon Dec 09 16:34:26 EST 2013	From player: 510
Mon Dec 09 16:34:26 EST 2013	To player: 540
Mon Dec 09 16:34:26 EST 2013	Chips to send by proposer: { chips  'CTYellow':11 }
Mon Dec 09 16:34:26 EST 2013	Chips to send by responder: { chips  'CTRed':28 'CTPurple':5 'grey78':4 }
Mon Dec 09 16:35:35 EST 2013	Received communication message 
Mon Dec 09 16:35:35 EST 2013	Proposer 1 accepted? true
Mon Dec 09 16:35:35 EST 2013	A Phase Ended: Communication Phase
Mon Dec 09 16:35:35 EST 2013	Protocol: A New Phase Began: Movement Phase. loop is true
Mon Dec 09 16:35:35 EST 2013	---------- Beginning Movement Phase at round 2 ----------
Mon Dec 09 16:36:19 EST 2013	A Phase Ended: Movement Phase
Mon Dec 09 16:36:19 EST 2013	Protocol: A New Phase Began: Feedback Phase. loop is true
Mon Dec 09 16:36:19 EST 2013	---------- Beginning Feedback Phase at round 2 ----------
Mon Dec 09 16:36:19 EST 2013	The TD player reached the goal, end the game
Mon Dec 09 16:36:19 EST 2013	ended is true
Mon Dec 09 16:36:24 EST 2013	A Phase Ended: Feedback Phase
Mon Dec 09 16:36:24 EST 2013	 numberofMoves in round 2 is 9
Mon Dec 09 16:36:24 EST 2013	Loop status: false
Mon Dec 09 16:36:24 EST 2013	Player: 510 ,role: Proposer score is: 370
Mon Dec 09 16:36:24 EST 2013	Player: 510Game Ended
Mon Dec 09 16:36:24 EST 2013	Player: 540 ,role: Responder score is: 205
Mon Dec 09 16:36:24 EST 2013	Player: 540Game Ended
Mon Dec 09 16:36:24 EST 2013	Player: 520 ,role: Responder score is: 200
Mon Dec 09 16:36:24 EST 2013	Player: 520Game Ended
Mon Dec 09 16:36:24 EST 2013	Protocol: A New Phase Began: Communication Phase. loop is false
Mon Dec 09 16:36:24 EST 2013	---------- Beginning Communication Phase at round 2 ----------
