filename,round,propID,respID,IsPropCustomer,chipsToSend,chipsToReceive,accept,propCurrentScore,respCurrentScore,actualSent,ActualRcvd,propResultingScore,respResultingScore,#ofCustomerMovesInRound,customerRowPositionAfterMovePhase,customerColPositionAfterMovePhase,Player100ChipsAfterMovePhase,Player100ScoreAfterMovePhase,Player200ChipsAfterMovePhase,Player200ScoreAfterMovePhase,Player300ChipsAfterMovePhase,Player300ScoreAfterMovePhase,generosityLevel,ClientReachedGoal
3playersLog_1386625567636.csv,1,520,510,false,{ chips  },{ chips  },IGNORED,200,120,,,,,0,(R:5,C:4),{ chips  'CTRed':0 'CTGreen':0 'CTPurple':2 'grey78':12 'CTYellow':11 },125,{ chips  'CTRed':33 'CTGreen':0 'CTPurple':7 'grey78':0 'CTYellow':0 },200,{ chips  'CTRed':33 'CTGreen':0 'CTPurple':5 'grey78':0 'CTYellow':1 },195
3playersLog_1386625567636.csv,1,540,510,false,{ chips  'CTPurple':2 },{ chips  'CTYellow':1 },TRUE,200,120,{ chips  'CTRed':0 'CTPurple':2 'CTGreen':0 'grey78':0 'CTYellow':0 },{ chips  'CTRed':0 'CTPurple':0 'CTGreen':0 'grey78':0 'CTYellow':1 },195,125,0,(R:5,C:4),{ chips  'CTRed':0 'CTGreen':0 'CTPurple':2 'grey78':12 'CTYellow':11 },125,{ chips  'CTRed':33 'CTGreen':0 'CTPurple':7 'grey78':0 'CTYellow':0 },200,{ chips  'CTRed':33 'CTGreen':0 'CTPurple':5 'grey78':0 'CTYellow':1 },195
3playersLog_1386625567636.csv,2,510,540,true,{ chips  'CTYellow':10 },{ chips  'CTRed':33 'CTPurple':5 },FALSE,125,195,,,,,1,(R:5,C:3),{ chips  'CTRed':0 'CTGreen':0 'CTPurple':2 'grey78':11 'CTYellow':11 },120,{ chips  'CTRed':33 'CTGreen':0 'CTPurple':7 'grey78':0 'CTYellow':0 },200,{ chips  'CTRed':33 'CTGreen':0 'CTPurple':5 'grey78':0 'CTYellow':1 },195
3playersLog_1386625567636.csv,3,520,510,false,{ chips  },{ chips  },FALSE,200,120,,,,,0,(R:5,C:3),{ chips  'CTRed':0 'CTGreen':0 'CTPurple':2 'grey78':11 'CTYellow':11 },120,{ chips  'CTRed':33 'CTGreen':0 'CTPurple':7 'grey78':0 'CTYellow':0 },200,{ chips  'CTRed':33 'CTGreen':0 'CTPurple':5 'grey78':0 'CTYellow':1 },195
3playersLog_1386625567636.csv,3,540,510,false,{ chips  'CTRed':12 'CTPurple':5 },{ chips  'CTYellow':10 },FALSE,195,120,,,,,0,(R:5,C:3),{ chips  'CTRed':0 'CTGreen':0 'CTPurple':2 'grey78':11 'CTYellow':11 },120,{ chips  'CTRed':33 'CTGreen':0 'CTPurple':7 'grey78':0 'CTYellow':0 },200,{ chips  'CTRed':33 'CTGreen':0 'CTPurple':5 'grey78':0 'CTYellow':1 },195
3playersLog_1386625567636.csv,4,510,540,true,{ chips  'CTYellow':10 },{ chips  'CTRed':33 'CTPurple':5 },FALSE,120,195,,,,,1,(R:4,C:3),{ chips  'CTRed':0 'CTGreen':0 'CTPurple':2 'grey78':10 'CTYellow':11 },115,{ chips  'CTRed':33 'CTGreen':0 'CTPurple':7 'grey78':0 'CTYellow':0 },200,{ chips  'CTRed':33 'CTGreen':0 'CTPurple':5 'grey78':0 'CTYellow':1 },195
3playersLog_1386625567636.csv,5,520,510,false,{ chips  },{ chips  },FALSE,200,115,,,,,0,(R:4,C:3),{ chips  'CTRed':0 'CTGreen':0 'CTPurple':2 'grey78':10 'CTYellow':11 },115,{ chips  'CTRed':33 'CTGreen':0 'CTPurple':7 'grey78':0 'CTYellow':0 },200,{ chips  'CTRed':33 'CTGreen':0 'CTPurple':5 'grey78':0 'CTYellow':1 },195
3playersLog_1386625567636.csv,5,540,510,false,{ chips  'CTRed':12 'CTPurple':5 },{ chips  'CTYellow':10 },FALSE,195,115,,,,,0,(R:4,C:3),{ chips  'CTRed':0 'CTGreen':0 'CTPurple':2 'grey78':10 'CTYellow':11 },115,{ chips  'CTRed':33 'CTGreen':0 'CTPurple':7 'grey78':0 'CTYellow':0 },200,{ chips  'CTRed':33 'CTGreen':0 'CTPurple':5 'grey78':0 'CTYellow':1 },195
3playersLog_1386625567636.csv,6,510,540,true,{ chips  'CTYellow':10 },{ chips  'CTRed':33 'CTPurple':5 },FALSE,115,195,,,,,1,(R:4,C:2),{ chips  'CTRed':0 'CTGreen':0 'CTPurple':2 'grey78':9 'CTYellow':11 },110,{ chips  'CTRed':33 'CTGreen':0 'CTPurple':7 'grey78':0 'CTYellow':0 },200,{ chips  'CTRed':33 'CTGreen':0 'CTPurple':5 'grey78':0 'CTYellow':1 },195
3playersLog_1386625567636.csv,7,520,510,false,{ chips  },{ chips  },IGNORED,200,110,,,,,0,(R:4,C:2),{ chips  'CTRed':12 'CTGreen':0 'CTPurple':7 'grey78':9 'CTYellow':11 },195,{ chips  'CTRed':33 'CTGreen':0 'CTPurple':7 'grey78':0 'CTYellow':0 },200,{ chips  'CTRed':21 'CTGreen':0 'CTPurple':0 'grey78':0 'CTYellow':1 },110
3playersLog_1386625567636.csv,7,540,510,false,{ chips  'CTRed':12 'CTPurple':5 },{ chips  },TRUE,195,110,{ chips  'CTRed':12 'CTPurple':5 'CTGreen':0 'grey78':0 'CTYellow':0 },{ chips  'CTRed':0 'CTPurple':0 'CTGreen':0 'grey78':0 'CTYellow':0 },110,195,0,(R:4,C:2),{ chips  'CTRed':12 'CTGreen':0 'CTPurple':7 'grey78':9 'CTYellow':11 },195,{ chips  'CTRed':33 'CTGreen':0 'CTPurple':7 'grey78':0 'CTYellow':0 },200,{ chips  'CTRed':21 'CTGreen':0 'CTPurple':0 'grey78':0 'CTYellow':1 },110
3playersLog_1386625567636.csv,8,510,540,true,{ chips  'CTYellow':10 },{ chips  'CTRed':21 },TRUE,195,200,{ chips  'CTYellow':10 },{ chips  'CTRed':21 'CTPurple':0 'grey78':0 },250,55,6,(R:0,C:0),{ chips  'CTRed':33 'CTGreen':0 'CTPurple':7 'grey78':3 'CTYellow':1 },370,{ chips  'CTRed':33 'CTGreen':0 'CTPurple':7 'grey78':0 'CTYellow':0 },200,{ chips  'CTRed':0 'CTGreen':0 'CTPurple':0 'grey78':0 'CTYellow':11 },205
3playersLog_1386625567636.csv,,,,,,,,,,,,,,,,,,,,,,,,true
