Tue Nov 26 16:42:41 IST 2013	This is the CT debug logger; svn version 638; sep 27 09
Tue Nov 26 16:42:41 IST 2013	Tue Nov 26 16:42:41 IST 2013
Tue Nov 26 16:42:41 IST 2013	ThreePlayersAgentPlayerNastySP(): entering.
Tue Nov 26 16:47:33 IST 2013	phaseAdvanced(): entering.
Tue Nov 26 16:47:33 IST 2013	phaseAdvanced(): new phase is 'Strategy Prep Phase'.
Tue Nov 26 16:48:33 IST 2013	phaseAdvanced(): entering.
Tue Nov 26 16:48:33 IST 2013	phaseAdvanced(): new phase is 'Communication Phase'.
Tue Nov 26 16:48:58 IST 2013	onReceipt(): entering.
Tue Nov 26 16:51:00 IST 2013	phaseAdvanced(): entering.
Tue Nov 26 16:51:00 IST 2013	phaseAdvanced(): new phase is 'Movement Phase'.
Tue Nov 26 16:51:44 IST 2013	phaseAdvanced(): entering.
Tue Nov 26 16:51:44 IST 2013	phaseAdvanced(): new phase is 'Feedback Phase'.
