Tue Nov 19 18:05:53 IST 2013	This is the CT debug logger; svn version 638; sep 27 09
Tue Nov 19 18:05:53 IST 2013	Tue Nov 19 18:05:53 IST 2013
Tue Nov 19 18:05:53 IST 2013	ID Number: 63788
Tue Nov 19 18:05:53 IST 2013	Creating board
Tue Nov 19 18:05:53 IST 2013	<colors>
Tue Nov 19 18:05:53 IST 2013	{ GamePalette  'CTPurple':0 'CTRed':1 'CTGreen':2 'grey78':3 'CTYellow':4 }
Tue Nov 19 18:05:53 IST 2013	<rows>
Tue Nov 19 18:05:53 IST 2013	6
Tue Nov 19 18:05:53 IST 2013	<columns>
Tue Nov 19 18:05:53 IST 2013	9
Tue Nov 19 18:05:53 IST 2013	<squaresColors>
Tue Nov 19 18:05:53 IST 2013	grey78 CTGreen CTGreen CTGreen CTGreen CTGreen CTGreen CTGreen CTYellow 
Tue Nov 19 18:05:53 IST 2013	grey78 CTPurple CTPurple CTPurple CTPurple CTPurple CTPurple CTPurple CTYellow 
Tue Nov 19 18:05:53 IST 2013	grey78 grey78 CTGreen CTGreen CTGreen CTGreen CTGreen CTYellow CTYellow 
Tue Nov 19 18:05:53 IST 2013	CTGreen grey78 grey78 CTPurple CTPurple CTPurple CTYellow CTYellow CTGreen 
Tue Nov 19 18:05:53 IST 2013	CTGreen CTGreen grey78 grey78 CTGreen CTYellow CTYellow CTGreen CTGreen 
Tue Nov 19 18:05:53 IST 2013	CTGreen CTGreen CTGreen grey78 CTGreen CTYellow CTGreen CTGreen CTGreen 
Tue Nov 19 18:05:53 IST 2013	</squareColors>
Tue Nov 19 18:05:53 IST 2013	<goalPosition>
Tue Nov 19 18:05:53 IST 2013	Goal position: (R:0,C:0)
Tue Nov 19 18:05:53 IST 2013	<goalPosition>
Tue Nov 19 18:05:53 IST 2013	Goal position: (R:0,C:0)
Tue Nov 19 18:05:53 IST 2013	<firstPlayerPossibleGoal1>
Tue Nov 19 18:05:53 IST 2013	0.5
Tue Nov 19 18:05:53 IST 2013	0
Tue Nov 19 18:05:53 IST 2013	0
Tue Nov 19 18:05:53 IST 2013	</firstPlayerPossibleGoal1>
Tue Nov 19 18:05:53 IST 2013	<firstPlayerPossibleGoal2>
Tue Nov 19 18:05:53 IST 2013	0.5
Tue Nov 19 18:05:53 IST 2013	0
Tue Nov 19 18:05:53 IST 2013	8
Tue Nov 19 18:05:53 IST 2013	</firstPlayerPossibleGoal2>
Tue Nov 19 18:05:53 IST 2013	<numberOfPlayers>
Tue Nov 19 18:05:53 IST 2013	3
Tue Nov 19 18:05:53 IST 2013	<firstPlayerChips>
Tue Nov 19 18:05:53 IST 2013	Setting chips for player: 500 id:0
Tue Nov 19 18:05:53 IST 2013	{ chips  'CTRed':0 'CTGreen':0 'CTPurple':0 'grey78':12 'CTYellow':12 }
Tue Nov 19 18:05:53 IST 2013	Player position: (R:5,C:4)
Tue Nov 19 18:05:53 IST 2013	Setting chips for player: 550 id:1
Tue Nov 19 18:05:53 IST 2013	{ chips  'CTRed':33 'CTGreen':0 'CTPurple':7 'grey78':0 'CTYellow':0 }
Tue Nov 19 18:05:53 IST 2013	Player position: (R:0,C:8)
Tue Nov 19 18:05:53 IST 2013	Setting chips for player: 540 id:2
Tue Nov 19 18:05:53 IST 2013	{ chips  'CTRed':33 'CTGreen':0 'CTPurple':7 'grey78':0 'CTYellow':0 }
Tue Nov 19 18:05:53 IST 2013	Player position: (R:0,C:0)
Tue Nov 19 18:05:53 IST 2013	Protocol: A New Phase Began: Strategy Prep Phase. loop is true
Tue Nov 19 18:05:53 IST 2013	---------- Beginning Strategy Prep Phase at round 0 ----------
Tue Nov 19 18:06:53 IST 2013	A Phase Ended: Strategy Prep Phase
Tue Nov 19 18:06:53 IST 2013	Protocol: A New Phase Began: Communication Phase. loop is true
Tue Nov 19 18:06:53 IST 2013	---------- Beginning Communication Phase at round 1 ----------
Tue Nov 19 18:06:57 IST 2013	Received communication message 
Tue Nov 19 18:06:57 IST 2013	From player: 550
Tue Nov 19 18:06:57 IST 2013	To player: 500
Tue Nov 19 18:06:57 IST 2013	Chips to send by proposer: { chips  'CTRed':11 'CTPurple':2 'CTYellow':0 }
Tue Nov 19 18:06:57 IST 2013	Chips to send by responder: { chips  'grey78':3 }
Tue Nov 19 18:07:35 IST 2013	Received communication message 
Tue Nov 19 18:07:35 IST 2013	From player: 540
Tue Nov 19 18:07:35 IST 2013	To player: 500
Tue Nov 19 18:07:35 IST 2013	Chips to send by proposer: { chips  'CTRed':3 'CTPurple':0 'CTGreen':0 'grey78':0 'CTYellow':0 }
Tue Nov 19 18:07:35 IST 2013	Chips to send by responder: { chips  'CTRed':0 'CTPurple':0 'CTGreen':0 'grey78':5 'CTYellow':0 }
Tue Nov 19 18:08:03 IST 2013	Received communication message 
Tue Nov 19 18:08:03 IST 2013	Proposer 0 accepted? true
Tue Nov 19 18:08:03 IST 2013	A Phase Ended: Communication Phase
Tue Nov 19 18:08:03 IST 2013	Protocol: A New Phase Began: Movement Phase. loop is true
Tue Nov 19 18:08:03 IST 2013	---------- Beginning Movement Phase at round 1 ----------
Tue Nov 19 18:08:03 IST 2013	remove strategy phase. 
Tue Nov 19 18:08:47 IST 2013	A Phase Ended: Movement Phase
Tue Nov 19 18:08:47 IST 2013	Protocol: A New Phase Began: Feedback Phase. loop is true
Tue Nov 19 18:08:47 IST 2013	---------- Beginning Feedback Phase at round 1 ----------
Tue Nov 19 18:08:47 IST 2013	Number of consecutive no movements for player 500 is 0
Tue Nov 19 18:08:47 IST 2013	TDPlayerPosition is(R:4,C:5)goal location 0(R:0,C:0)goal location 1(R:0,C:8)
Tue Nov 19 18:08:47 IST 2013	ended is false
Tue Nov 19 18:08:52 IST 2013	A Phase Ended: Feedback Phase
Tue Nov 19 18:08:52 IST 2013	 numberofMoves in round 1 is 2
Tue Nov 19 18:08:52 IST 2013	Swaping roles:
Tue Nov 19 18:08:52 IST 2013	Protocol: A New Phase Began: Communication Phase. loop is true
Tue Nov 19 18:08:52 IST 2013	---------- Beginning Communication Phase at round 2 ----------
Tue Nov 19 18:10:53 IST 2013	Received communication message 
Tue Nov 19 18:10:53 IST 2013	From player: 500
Tue Nov 19 18:10:53 IST 2013	To player: 550
Tue Nov 19 18:10:53 IST 2013	Chips to send by proposer: { chips  'CTRed':0 'CTPurple':0 'CTGreen':0 'grey78':0 'CTYellow':0 }
Tue Nov 19 18:10:53 IST 2013	Chips to send by responder: { chips  'CTRed':14 'CTPurple':3 'CTGreen':0 'grey78':0 'CTYellow':0 }
Tue Nov 19 18:10:54 IST 2013	Received communication message 
Tue Nov 19 18:10:54 IST 2013	Proposer 0 accepted? true
Tue Nov 19 18:10:54 IST 2013	A Phase Ended: Communication Phase
Tue Nov 19 18:10:54 IST 2013	Protocol: A New Phase Began: Movement Phase. loop is true
Tue Nov 19 18:10:54 IST 2013	---------- Beginning Movement Phase at round 2 ----------
Tue Nov 19 18:11:38 IST 2013	A Phase Ended: Movement Phase
Tue Nov 19 18:11:38 IST 2013	Protocol: A New Phase Began: Feedback Phase. loop is true
Tue Nov 19 18:11:38 IST 2013	---------- Beginning Feedback Phase at round 2 ----------
Tue Nov 19 18:11:38 IST 2013	Number of consecutive no movements for player 500 is 0
Tue Nov 19 18:11:38 IST 2013	TDPlayerPosition is(R:3,C:6)goal location 0(R:0,C:0)goal location 1(R:0,C:8)
Tue Nov 19 18:11:38 IST 2013	ended is false
Tue Nov 19 18:11:43 IST 2013	A Phase Ended: Feedback Phase
Tue Nov 19 18:11:43 IST 2013	 numberofMoves in round 2 is 2
Tue Nov 19 18:11:43 IST 2013	Swaping roles:
Tue Nov 19 18:11:43 IST 2013	Protocol: A New Phase Began: Communication Phase. loop is true
Tue Nov 19 18:11:43 IST 2013	---------- Beginning Communication Phase at round 3 ----------
Tue Nov 19 18:11:44 IST 2013	Received communication message 
Tue Nov 19 18:11:44 IST 2013	From player: 550
Tue Nov 19 18:11:44 IST 2013	To player: 500
Tue Nov 19 18:11:44 IST 2013	Chips to send by proposer: { chips  'CTRed':2 'CTPurple':0 'CTYellow':0 }
Tue Nov 19 18:11:44 IST 2013	Chips to send by responder: { chips  'grey78':2 }
Tue Nov 19 18:12:00 IST 2013	Received communication message 
Tue Nov 19 18:12:00 IST 2013	Proposer 0 accepted? false
Tue Nov 19 18:12:00 IST 2013	case that we had one reject, and one accept
Tue Nov 19 18:12:58 IST 2013	Received communication message 
Tue Nov 19 18:12:58 IST 2013	From player: 540
Tue Nov 19 18:12:58 IST 2013	To player: 500
Tue Nov 19 18:12:58 IST 2013	Chips to send by proposer: { chips  'CTRed':26 'CTPurple':4 'CTGreen':0 'grey78':0 'CTYellow':0 }
Tue Nov 19 18:12:58 IST 2013	Chips to send by responder: { chips  'CTRed':0 'CTPurple':0 'CTGreen':0 'grey78':0 'CTYellow':4 }
Tue Nov 19 18:13:13 IST 2013	Received communication message 
Tue Nov 19 18:13:13 IST 2013	Proposer 1 accepted? true
Tue Nov 19 18:13:13 IST 2013	A Phase Ended: Communication Phase
Tue Nov 19 18:13:13 IST 2013	Protocol: A New Phase Began: Movement Phase. loop is true
Tue Nov 19 18:13:13 IST 2013	---------- Beginning Movement Phase at round 3 ----------
Tue Nov 19 18:13:57 IST 2013	A Phase Ended: Movement Phase
Tue Nov 19 18:13:57 IST 2013	Protocol: A New Phase Began: Feedback Phase. loop is true
Tue Nov 19 18:13:57 IST 2013	---------- Beginning Feedback Phase at round 3 ----------
Tue Nov 19 18:13:57 IST 2013	Number of consecutive no movements for player 500 is 0
Tue Nov 19 18:13:57 IST 2013	TDPlayerPosition is(R:3,C:4)goal location 0(R:0,C:0)goal location 1(R:0,C:8)
Tue Nov 19 18:13:57 IST 2013	ended is false
Tue Nov 19 18:14:02 IST 2013	A Phase Ended: Feedback Phase
Tue Nov 19 18:14:02 IST 2013	 numberofMoves in round 3 is 2
Tue Nov 19 18:14:02 IST 2013	Swaping roles:
Tue Nov 19 18:14:02 IST 2013	Protocol: A New Phase Began: Communication Phase. loop is true
Tue Nov 19 18:14:02 IST 2013	---------- Beginning Communication Phase at round 4 ----------
Tue Nov 19 18:15:22 IST 2013	Received communication message 
Tue Nov 19 18:15:22 IST 2013	From player: 500
Tue Nov 19 18:15:22 IST 2013	To player: 540
Tue Nov 19 18:15:22 IST 2013	Chips to send by proposer: { chips  'CTRed':0 'CTPurple':0 'CTGreen':0 'grey78':0 'CTYellow':0 }
Tue Nov 19 18:15:22 IST 2013	Chips to send by responder: { chips  'CTRed':4 'CTPurple':0 'CTGreen':0 'grey78':0 'CTYellow':3 }
Tue Nov 19 18:16:07 IST 2013	Received communication message 
Tue Nov 19 18:16:07 IST 2013	Proposer 1 accepted? true
Tue Nov 19 18:16:07 IST 2013	A Phase Ended: Communication Phase
Tue Nov 19 18:16:07 IST 2013	Protocol: A New Phase Began: Movement Phase. loop is true
Tue Nov 19 18:16:07 IST 2013	---------- Beginning Movement Phase at round 4 ----------
Tue Nov 19 18:16:52 IST 2013	A Phase Ended: Movement Phase
Tue Nov 19 18:16:52 IST 2013	Protocol: A New Phase Began: Feedback Phase. loop is true
Tue Nov 19 18:16:52 IST 2013	---------- Beginning Feedback Phase at round 4 ----------
Tue Nov 19 18:16:52 IST 2013	Number of consecutive no movements for player 500 is 1
Tue Nov 19 18:16:52 IST 2013	TDPlayerPosition is(R:3,C:4)goal location 0(R:0,C:0)goal location 1(R:0,C:8)
Tue Nov 19 18:16:52 IST 2013	ended is false
Tue Nov 19 18:16:57 IST 2013	A Phase Ended: Feedback Phase
Tue Nov 19 18:16:57 IST 2013	 numberofMoves in round 4 is 1
Tue Nov 19 18:16:57 IST 2013	Swaping roles:
Tue Nov 19 18:16:57 IST 2013	Protocol: A New Phase Began: Communication Phase. loop is true
Tue Nov 19 18:16:57 IST 2013	---------- Beginning Communication Phase at round 5 ----------
Tue Nov 19 18:16:58 IST 2013	Received communication message 
Tue Nov 19 18:16:58 IST 2013	From player: 550
Tue Nov 19 18:16:58 IST 2013	To player: 500
Tue Nov 19 18:16:58 IST 2013	Chips to send by proposer: { chips  'CTRed':2 'CTPurple':0 'CTYellow':0 }
Tue Nov 19 18:16:58 IST 2013	Chips to send by responder: { chips  'grey78':2 }
Tue Nov 19 18:17:07 IST 2013	Received communication message 
Tue Nov 19 18:17:07 IST 2013	Proposer 0 accepted? false
Tue Nov 19 18:17:07 IST 2013	case that we had one reject, and one accept
Tue Nov 19 18:17:55 IST 2013	Received communication message 
Tue Nov 19 18:17:55 IST 2013	From player: 540
Tue Nov 19 18:17:55 IST 2013	To player: 500
Tue Nov 19 18:17:55 IST 2013	Chips to send by proposer: { chips  'CTRed':1 'CTPurple':0 'CTGreen':0 'grey78':0 'CTYellow':0 }
Tue Nov 19 18:17:55 IST 2013	Chips to send by responder: { chips  'CTRed':0 'CTPurple':0 'CTGreen':0 'grey78':0 'CTYellow':4 }
Tue Nov 19 18:18:12 IST 2013	Received communication message 
Tue Nov 19 18:18:12 IST 2013	Proposer 1 accepted? true
Tue Nov 19 18:18:12 IST 2013	A Phase Ended: Communication Phase
Tue Nov 19 18:18:12 IST 2013	Protocol: A New Phase Began: Movement Phase. loop is true
Tue Nov 19 18:18:12 IST 2013	---------- Beginning Movement Phase at round 5 ----------
Tue Nov 19 18:18:56 IST 2013	A Phase Ended: Movement Phase
Tue Nov 19 18:18:56 IST 2013	Protocol: A New Phase Began: Feedback Phase. loop is true
Tue Nov 19 18:18:56 IST 2013	---------- Beginning Feedback Phase at round 5 ----------
Tue Nov 19 18:18:56 IST 2013	Number of consecutive no movements for player 500 is 0
Tue Nov 19 18:18:56 IST 2013	TDPlayerPosition is(R:3,C:2)goal location 0(R:0,C:0)goal location 1(R:0,C:8)
Tue Nov 19 18:18:56 IST 2013	ended is false
Tue Nov 19 18:19:01 IST 2013	A Phase Ended: Feedback Phase
Tue Nov 19 18:19:01 IST 2013	 numberofMoves in round 5 is 1
Tue Nov 19 18:19:01 IST 2013	Swaping roles:
Tue Nov 19 18:19:01 IST 2013	Protocol: A New Phase Began: Communication Phase. loop is true
Tue Nov 19 18:19:01 IST 2013	---------- Beginning Communication Phase at round 6 ----------
Tue Nov 19 18:19:50 IST 2013	Received communication message 
Tue Nov 19 18:19:50 IST 2013	From player: 500
Tue Nov 19 18:19:50 IST 2013	To player: 540
Tue Nov 19 18:19:50 IST 2013	Chips to send by proposer: { chips  'CTRed':0 'CTPurple':0 'CTGreen':0 'grey78':0 'CTYellow':0 }
Tue Nov 19 18:19:50 IST 2013	Chips to send by responder: { chips  'CTRed':1 'CTPurple':2 'CTGreen':0 'grey78':0 'CTYellow':3 }
Tue Nov 19 18:20:13 IST 2013	Received communication message 
Tue Nov 19 18:20:13 IST 2013	Proposer 1 accepted? true
Tue Nov 19 18:20:13 IST 2013	A Phase Ended: Communication Phase
Tue Nov 19 18:20:13 IST 2013	Protocol: A New Phase Began: Movement Phase. loop is true
Tue Nov 19 18:20:13 IST 2013	---------- Beginning Movement Phase at round 6 ----------
Tue Nov 19 18:20:57 IST 2013	A Phase Ended: Movement Phase
Tue Nov 19 18:20:57 IST 2013	Protocol: A New Phase Began: Feedback Phase. loop is true
Tue Nov 19 18:20:57 IST 2013	---------- Beginning Feedback Phase at round 6 ----------
Tue Nov 19 18:20:57 IST 2013	Number of consecutive no movements for player 500 is 0
Tue Nov 19 18:20:57 IST 2013	TDPlayerPosition is(R:2,C:1)goal location 0(R:0,C:0)goal location 1(R:0,C:8)
Tue Nov 19 18:20:57 IST 2013	ended is false
Tue Nov 19 18:21:02 IST 2013	A Phase Ended: Feedback Phase
Tue Nov 19 18:21:02 IST 2013	 numberofMoves in round 6 is 2
Tue Nov 19 18:21:02 IST 2013	Swaping roles:
Tue Nov 19 18:21:02 IST 2013	Protocol: A New Phase Began: Communication Phase. loop is true
Tue Nov 19 18:21:02 IST 2013	---------- Beginning Communication Phase at round 7 ----------
Tue Nov 19 18:21:03 IST 2013	Received communication message 
Tue Nov 19 18:21:03 IST 2013	From player: 550
Tue Nov 19 18:21:03 IST 2013	To player: 500
Tue Nov 19 18:21:03 IST 2013	Chips to send by proposer: { chips  'CTRed':2 'CTPurple':0 'CTYellow':0 }
Tue Nov 19 18:21:03 IST 2013	Chips to send by responder: { chips  'grey78':1 }
Tue Nov 19 18:21:16 IST 2013	Received communication message 
Tue Nov 19 18:21:16 IST 2013	Proposer 0 accepted? false
Tue Nov 19 18:21:16 IST 2013	case that we had one reject, and one accept
Tue Nov 19 18:21:37 IST 2013	Received communication message 
Tue Nov 19 18:21:37 IST 2013	From player: 540
Tue Nov 19 18:21:37 IST 2013	To player: 500
Tue Nov 19 18:21:37 IST 2013	Chips to send by proposer: { chips  'CTRed':1 'CTPurple':1 'CTGreen':0 'grey78':0 'CTYellow':0 }
Tue Nov 19 18:21:37 IST 2013	Chips to send by responder: { chips  'CTRed':0 'CTPurple':0 'CTGreen':0 'grey78':0 'CTYellow':2 }
Tue Nov 19 18:22:08 IST 2013	Received communication message 
Tue Nov 19 18:22:08 IST 2013	Proposer 1 accepted? false
Tue Nov 19 18:22:08 IST 2013	case that we had one reject, and one accept
Tue Nov 19 18:22:08 IST 2013	A Phase Ended: Communication Phase
Tue Nov 19 18:22:08 IST 2013	Protocol: A New Phase Began: Movement Phase. loop is true
Tue Nov 19 18:22:08 IST 2013	---------- Beginning Movement Phase at round 7 ----------
Tue Nov 19 18:22:52 IST 2013	A Phase Ended: Movement Phase
Tue Nov 19 18:22:52 IST 2013	Protocol: A New Phase Began: Feedback Phase. loop is true
Tue Nov 19 18:22:52 IST 2013	---------- Beginning Feedback Phase at round 7 ----------
Tue Nov 19 18:22:52 IST 2013	Number of consecutive no movements for player 500 is 1
Tue Nov 19 18:22:52 IST 2013	TDPlayerPosition is(R:2,C:1)goal location 0(R:0,C:0)goal location 1(R:0,C:8)
Tue Nov 19 18:22:52 IST 2013	ended is false
Tue Nov 19 18:22:57 IST 2013	A Phase Ended: Feedback Phase
Tue Nov 19 18:22:57 IST 2013	 numberofMoves in round 7 is 0
Tue Nov 19 18:22:57 IST 2013	Swaping roles:
Tue Nov 19 18:22:57 IST 2013	Protocol: A New Phase Began: Communication Phase. loop is true
Tue Nov 19 18:22:57 IST 2013	---------- Beginning Communication Phase at round 8 ----------
Tue Nov 19 18:23:51 IST 2013	Received communication message 
Tue Nov 19 18:23:51 IST 2013	From player: 500
Tue Nov 19 18:23:51 IST 2013	To player: 540
Tue Nov 19 18:23:51 IST 2013	Chips to send by proposer: { chips  'CTRed':0 'CTPurple':0 'CTGreen':0 'grey78':0 'CTYellow':1 }
Tue Nov 19 18:23:51 IST 2013	Chips to send by responder: { chips  'CTRed':1 'CTPurple':1 'CTGreen':0 'grey78':0 'CTYellow':0 }
Tue Nov 19 18:24:30 IST 2013	Received communication message 
Tue Nov 19 18:24:30 IST 2013	Proposer 1 accepted? false
Tue Nov 19 18:24:30 IST 2013	case that we had one reject, and one accept
Tue Nov 19 18:24:30 IST 2013	A Phase Ended: Communication Phase
Tue Nov 19 18:24:30 IST 2013	Protocol: A New Phase Began: Movement Phase. loop is true
Tue Nov 19 18:24:30 IST 2013	---------- Beginning Movement Phase at round 8 ----------
Tue Nov 19 18:25:14 IST 2013	A Phase Ended: Movement Phase
Tue Nov 19 18:25:14 IST 2013	Protocol: A New Phase Began: Feedback Phase. loop is true
Tue Nov 19 18:25:14 IST 2013	---------- Beginning Feedback Phase at round 8 ----------
Tue Nov 19 18:25:14 IST 2013	Number of consecutive no movements for player 500 is 0
Tue Nov 19 18:25:14 IST 2013	TDPlayerPosition is(R:1,C:1)goal location 0(R:0,C:0)goal location 1(R:0,C:8)
Tue Nov 19 18:25:14 IST 2013	ended is false
Tue Nov 19 18:25:19 IST 2013	A Phase Ended: Feedback Phase
Tue Nov 19 18:25:19 IST 2013	 numberofMoves in round 8 is 1
Tue Nov 19 18:25:19 IST 2013	Swaping roles:
Tue Nov 19 18:25:19 IST 2013	Protocol: A New Phase Began: Communication Phase. loop is true
Tue Nov 19 18:25:19 IST 2013	---------- Beginning Communication Phase at round 9 ----------
Tue Nov 19 18:25:20 IST 2013	Received communication message 
Tue Nov 19 18:25:20 IST 2013	From player: 550
Tue Nov 19 18:25:20 IST 2013	To player: 500
Tue Nov 19 18:25:20 IST 2013	Chips to send by proposer: { chips  'CTRed':2 'CTPurple':0 'CTYellow':0 }
Tue Nov 19 18:25:20 IST 2013	Chips to send by responder: { chips  'grey78':1 }
Tue Nov 19 18:25:46 IST 2013	Received communication message 
Tue Nov 19 18:25:46 IST 2013	From player: 540
Tue Nov 19 18:25:46 IST 2013	To player: 500
Tue Nov 19 18:25:46 IST 2013	Chips to send by proposer: { chips  'CTRed':1 'CTPurple':1 'CTGreen':0 'grey78':0 'CTYellow':0 }
Tue Nov 19 18:25:46 IST 2013	Chips to send by responder: { chips  'CTRed':0 'CTPurple':0 'CTGreen':0 'grey78':0 'CTYellow':2 }
Tue Nov 19 18:26:21 IST 2013	Received communication message 
Tue Nov 19 18:26:21 IST 2013	Proposer 0 accepted? true
Tue Nov 19 18:26:21 IST 2013	A Phase Ended: Communication Phase
Tue Nov 19 18:26:21 IST 2013	Protocol: A New Phase Began: Movement Phase. loop is true
Tue Nov 19 18:26:21 IST 2013	---------- Beginning Movement Phase at round 9 ----------
Tue Nov 19 18:27:05 IST 2013	A Phase Ended: Movement Phase
Tue Nov 19 18:27:05 IST 2013	Protocol: A New Phase Began: Feedback Phase. loop is true
Tue Nov 19 18:27:05 IST 2013	---------- Beginning Feedback Phase at round 9 ----------
Tue Nov 19 18:27:05 IST 2013	Number of consecutive no movements for player 500 is 0
Tue Nov 19 18:27:05 IST 2013	TDPlayerPosition is(R:1,C:2)goal location 0(R:0,C:0)goal location 1(R:0,C:8)
Tue Nov 19 18:27:05 IST 2013	ended is false
Tue Nov 19 18:27:10 IST 2013	A Phase Ended: Feedback Phase
Tue Nov 19 18:27:10 IST 2013	 numberofMoves in round 9 is 1
Tue Nov 19 18:27:10 IST 2013	Swaping roles:
Tue Nov 19 18:27:10 IST 2013	Protocol: A New Phase Began: Communication Phase. loop is true
Tue Nov 19 18:27:10 IST 2013	---------- Beginning Communication Phase at round 10 ----------
Tue Nov 19 18:28:09 IST 2013	Received communication message 
Tue Nov 19 18:28:09 IST 2013	From player: 500
Tue Nov 19 18:28:09 IST 2013	To player: 550
Tue Nov 19 18:28:09 IST 2013	Chips to send by proposer: { chips  'CTRed':0 'CTPurple':0 'CTGreen':0 'grey78':0 'CTYellow':0 }
Tue Nov 19 18:28:09 IST 2013	Chips to send by responder: { chips  'CTRed':6 'CTPurple':2 'CTGreen':0 'grey78':0 'CTYellow':0 }
Tue Nov 19 18:28:09 IST 2013	Received communication message 
Tue Nov 19 18:28:09 IST 2013	Proposer 0 accepted? true
Tue Nov 19 18:28:09 IST 2013	A Phase Ended: Communication Phase
Tue Nov 19 18:28:09 IST 2013	Protocol: A New Phase Began: Movement Phase. loop is true
Tue Nov 19 18:28:09 IST 2013	---------- Beginning Movement Phase at round 10 ----------
Tue Nov 19 18:28:53 IST 2013	A Phase Ended: Movement Phase
Tue Nov 19 18:28:53 IST 2013	Protocol: A New Phase Began: Feedback Phase. loop is true
Tue Nov 19 18:28:53 IST 2013	---------- Beginning Feedback Phase at round 10 ----------
Tue Nov 19 18:28:53 IST 2013	Number of consecutive no movements for player 500 is 1
Tue Nov 19 18:28:53 IST 2013	TDPlayerPosition is(R:1,C:2)goal location 0(R:0,C:0)goal location 1(R:0,C:8)
Tue Nov 19 18:28:53 IST 2013	ended is false
Tue Nov 19 18:28:58 IST 2013	A Phase Ended: Feedback Phase
Tue Nov 19 18:28:58 IST 2013	 numberofMoves in round 10 is 0
Tue Nov 19 18:28:58 IST 2013	Swaping roles:
Tue Nov 19 18:28:58 IST 2013	Protocol: A New Phase Began: Communication Phase. loop is true
Tue Nov 19 18:28:58 IST 2013	---------- Beginning Communication Phase at round 11 ----------
Tue Nov 19 18:28:59 IST 2013	Received communication message 
Tue Nov 19 18:28:59 IST 2013	From player: 550
Tue Nov 19 18:28:59 IST 2013	To player: 500
Tue Nov 19 18:28:59 IST 2013	Chips to send by proposer: { chips  'CTRed':0 'CTPurple':0 'CTYellow':0 }
Tue Nov 19 18:28:59 IST 2013	Chips to send by responder: { chips  'grey78':0 }
Tue Nov 19 18:29:27 IST 2013	Received communication message 
Tue Nov 19 18:29:27 IST 2013	From player: 540
Tue Nov 19 18:29:27 IST 2013	To player: 500
Tue Nov 19 18:29:27 IST 2013	Chips to send by proposer: { chips  'CTRed':1 'CTPurple':0 'CTGreen':0 'grey78':0 'CTYellow':0 }
Tue Nov 19 18:29:27 IST 2013	Chips to send by responder: { chips  'CTRed':0 'CTPurple':2 'CTGreen':0 'grey78':0 'CTYellow':2 }
Tue Nov 19 18:30:10 IST 2013	Received communication message 
Tue Nov 19 18:30:10 IST 2013	Proposer 1 accepted? false
Tue Nov 19 18:30:10 IST 2013	case that we had one reject, and one accept
Tue Nov 19 18:30:18 IST 2013	Received communication message 
Tue Nov 19 18:30:18 IST 2013	Proposer 0 accepted? true
Tue Nov 19 18:30:18 IST 2013	A Phase Ended: Communication Phase
Tue Nov 19 18:30:18 IST 2013	Protocol: A New Phase Began: Movement Phase. loop is true
Tue Nov 19 18:30:18 IST 2013	---------- Beginning Movement Phase at round 11 ----------
Tue Nov 19 18:31:02 IST 2013	A Phase Ended: Movement Phase
Tue Nov 19 18:31:02 IST 2013	Protocol: A New Phase Began: Feedback Phase. loop is true
Tue Nov 19 18:31:02 IST 2013	---------- Beginning Feedback Phase at round 11 ----------
Tue Nov 19 18:31:02 IST 2013	Number of consecutive no movements for player 500 is 0
Tue Nov 19 18:31:02 IST 2013	TDPlayerPosition is(R:1,C:3)goal location 0(R:0,C:0)goal location 1(R:0,C:8)
Tue Nov 19 18:31:02 IST 2013	ended is false
Tue Nov 19 18:31:07 IST 2013	A Phase Ended: Feedback Phase
Tue Nov 19 18:31:07 IST 2013	 numberofMoves in round 11 is 1
Tue Nov 19 18:31:07 IST 2013	Swaping roles:
Tue Nov 19 18:31:07 IST 2013	Protocol: A New Phase Began: Communication Phase. loop is true
Tue Nov 19 18:31:07 IST 2013	---------- Beginning Communication Phase at round 12 ----------
Tue Nov 19 18:32:18 IST 2013	Received communication message 
Tue Nov 19 18:32:18 IST 2013	From player: 500
Tue Nov 19 18:32:18 IST 2013	To player: 540
Tue Nov 19 18:32:18 IST 2013	Chips to send by proposer: { chips  'CTRed':0 'CTPurple':0 'CTGreen':0 'grey78':0 'CTYellow':0 }
Tue Nov 19 18:32:18 IST 2013	Chips to send by responder: { chips  'CTRed':1 'CTPurple':1 'CTGreen':0 'grey78':0 'CTYellow':2 }
Tue Nov 19 18:32:28 IST 2013	Received communication message 
Tue Nov 19 18:32:28 IST 2013	Proposer 1 accepted? true
Tue Nov 19 18:32:28 IST 2013	A Phase Ended: Communication Phase
Tue Nov 19 18:32:28 IST 2013	Protocol: A New Phase Began: Movement Phase. loop is true
Tue Nov 19 18:32:28 IST 2013	---------- Beginning Movement Phase at round 12 ----------
Tue Nov 19 18:33:12 IST 2013	A Phase Ended: Movement Phase
Tue Nov 19 18:33:12 IST 2013	Protocol: A New Phase Began: Feedback Phase. loop is true
Tue Nov 19 18:33:12 IST 2013	---------- Beginning Feedback Phase at round 12 ----------
Tue Nov 19 18:33:12 IST 2013	Number of consecutive no movements for player 500 is 0
Tue Nov 19 18:33:12 IST 2013	TDPlayerPosition is(R:1,C:1)goal location 0(R:0,C:0)goal location 1(R:0,C:8)
Tue Nov 19 18:33:12 IST 2013	ended is false
Tue Nov 19 18:33:17 IST 2013	A Phase Ended: Feedback Phase
Tue Nov 19 18:33:17 IST 2013	 numberofMoves in round 12 is 2
Tue Nov 19 18:33:17 IST 2013	Swaping roles:
Tue Nov 19 18:33:17 IST 2013	Protocol: A New Phase Began: Communication Phase. loop is true
Tue Nov 19 18:33:17 IST 2013	---------- Beginning Communication Phase at round 13 ----------
Tue Nov 19 18:33:17 IST 2013	Received communication message 
Tue Nov 19 18:33:17 IST 2013	From player: 550
Tue Nov 19 18:33:17 IST 2013	To player: 500
Tue Nov 19 18:33:17 IST 2013	Chips to send by proposer: { chips  'CTRed':0 'CTPurple':0 'CTYellow':0 }
Tue Nov 19 18:33:17 IST 2013	Chips to send by responder: { chips  'grey78':0 }
Tue Nov 19 18:33:55 IST 2013	Received communication message 
Tue Nov 19 18:33:55 IST 2013	Proposer 0 accepted? false
Tue Nov 19 18:33:55 IST 2013	case that we had one reject, and one accept
Tue Nov 19 18:34:05 IST 2013	Received communication message 
Tue Nov 19 18:34:05 IST 2013	From player: 540
Tue Nov 19 18:34:05 IST 2013	To player: 500
Tue Nov 19 18:34:05 IST 2013	Chips to send by proposer: { chips  'CTRed':0 'CTPurple':0 'CTGreen':0 'grey78':0 'CTYellow':0 }
Tue Nov 19 18:34:05 IST 2013	Chips to send by responder: { chips  'CTRed':2 'CTPurple':0 'CTGreen':0 'grey78':0 'CTYellow':0 }
Tue Nov 19 18:34:19 IST 2013	Received communication message 
Tue Nov 19 18:34:19 IST 2013	Proposer 1 accepted? false
Tue Nov 19 18:34:19 IST 2013	case that we had one reject, and one accept
Tue Nov 19 18:34:19 IST 2013	A Phase Ended: Communication Phase
Tue Nov 19 18:34:19 IST 2013	Protocol: A New Phase Began: Movement Phase. loop is true
Tue Nov 19 18:34:19 IST 2013	---------- Beginning Movement Phase at round 13 ----------
Tue Nov 19 18:35:03 IST 2013	A Phase Ended: Movement Phase
Tue Nov 19 18:35:03 IST 2013	Protocol: A New Phase Began: Feedback Phase. loop is true
Tue Nov 19 18:35:03 IST 2013	---------- Beginning Feedback Phase at round 13 ----------
Tue Nov 19 18:35:03 IST 2013	The TD player reached the goal, end the game
Tue Nov 19 18:35:03 IST 2013	ended is true
Tue Nov 19 18:35:08 IST 2013	A Phase Ended: Feedback Phase
Tue Nov 19 18:35:08 IST 2013	 numberofMoves in round 13 is 2
Tue Nov 19 18:35:08 IST 2013	Loop status: false
Tue Nov 19 18:35:08 IST 2013	Player: 500 ,role: Responder score is: 565
Tue Nov 19 18:35:08 IST 2013	Player: 500Game Ended
Tue Nov 19 18:35:08 IST 2013	Player: 540 ,role: Proposer score is: 150
Tue Nov 19 18:35:08 IST 2013	Player: 540Game Ended
Tue Nov 19 18:35:08 IST 2013	Player: 550 ,role: Proposer score is: 20
Tue Nov 19 18:35:08 IST 2013	Player: 550Game Ended
Tue Nov 19 18:35:08 IST 2013	Protocol: A New Phase Began: Communication Phase. loop is false
Tue Nov 19 18:35:08 IST 2013	---------- Beginning Communication Phase at round 13 ----------
