@relation IsraelHVsHAndHVsAOffersTransfer2OptAllorOthers

@attribute playerI_WPR numeric
@attribute playerJ_WPR numeric
@attribute playerI_CS numeric
@attribute playerI_RS numeric
@attribute playerJ_CS numeric
@attribute playerJ_RS numeric
@attribute playerJ2Options {0,1}

@data
0.53,0.53,45,185,45,60,0
0.53,0.53,45,60,45,185,0
0.159,0.229,60,100,40,20,0
0.229,0.159,40,20,60,100,0
0.3977,0.0687,55,185,55,60,0
0.0687,0.3977,55,60,55,185,0
0.11931,0.02061,55,65,55,65,0
0.02061,0.11931,55,65,55,65,1
0.035793,0.706183,70,185,50,60,0
0.706183,0.035793,50,60,70,185,0
0.010738,0.211855,50,95,70,140,0
0.211855,0.010738,70,140,50,95,0
0.073221,0.063556,65,180,55,65,0
0.063556,0.073221,55,65,65,180,0
0.6,0.6,45,180,45,180,0
0.6,0.6,45,180,45,180,1
0.32,0.88,185,180,60,180,0
0.88,0.32,60,180,185,180,1
0.53,0.53,45,180,45,180,0
0.53,0.53,45,180,45,180,0
0.205667,0.299,65,180,45,55,0
0.299,0.205667,45,55,65,180,0
0.0617,0.0897,65,175,45,70,0
0.0897,0.0617,45,70,65,175,0
0.6,0.6,45,50,45,70,0
0.6,0.6,45,70,45,50,0
0.18,0.18,45,180,45,180,0
0.18,0.18,45,180,45,180,0
0.054,0.054,45,50,45,70,0
0.054,0.054,45,70,45,50,0
0.0162,0.3662,60,185,40,60,0
0.3662,0.0162,40,60,60,185,0
0.00486,0.45986,55,60,55,185,1
0.45986,0.00486,55,185,55,60,0
0.701458,0.215736,65,180,65,180,0
0.215736,0.701458,65,180,65,180,1
0.210437,0.764721,185,185,60,175,0
0.764721,0.210437,60,175,185,185,0
0.063131,2.329416,200,160,45,200,0
2.329416,0.063131,45,200,200,160,0
0.6,0.6,45,190,45,170,0
0.6,0.6,45,170,45,190,0
0.25,0.333125,75,75,45,45,0
0.333125,0.25,45,45,75,75,1
0.775,0.799938,80,80,40,40,0
0.799938,0.775,40,40,80,80,1
0.9325,0.939981,30,35,90,210,1
0.939981,0.9325,90,210,30,35,0
0.97975,0.309994,90,205,40,155,1
0.309994,0.97975,40,155,90,205,0
0.293925,0.792998,210,210,35,35,0
0.792998,0.293925,35,35,210,210,1
0.788178,0.937899,215,260,30,100,0
0.937899,0.788178,30,100,215,260,1
0.53,0.53,45,190,45,45,0
0.53,0.53,45,45,45,190,0
0.159,0.229,60,45,40,190,1
0.229,0.159,40,190,60,45,1
0.7477,0.7687,190,190,45,45,0
0.7687,0.7477,45,45,190,190,1
0.92431,0.93061,35,10,200,225,1
0.93061,0.92431,200,225,35,10,0
0.6,0.6,45,70,45,50,1
0.6,0.6,45,50,45,70,1
0.88,0.88,70,195,50,50,1
0.88,0.88,50,50,70,195,1
0.964,0.964,195,230,50,130,1
0.964,0.964,50,130,195,230,1
0.6,0.6,45,180,45,180,0
0.6,0.6,45,180,45,180,1
0.88,0.18,30,15,195,210,1
0.18,0.88,195,210,30,15,0
0.964,0.054,195,195,30,30,1
0.054,0.964,30,30,195,195,1
0.6,0.6,45,180,45,180,0
0.6,0.6,45,180,45,180,1
0.18,0.88,195,210,30,150,0
0.88,0.18,30,150,195,210,0
0.194,0.264,185,220,60,140,0
0.264,0.194,60,140,185,220,0
0.0582,0.0792,185,215,60,145,0
0.0792,0.0582,60,145,185,215,1
0.6,0.6,45,180,45,180,0
0.6,0.6,45,180,45,180,0
0.25,0.25,55,180,55,180,0
0.25,0.25,55,180,55,180,0
0.075,0.152778,70,185,50,60,0
0.152778,0.075,50,60,70,185,0
0.0225,0.045833,70,180,50,180,0
0.045833,0.0225,50,180,70,180,0
0.00675,0.01375,50,235,70,5,0
0.01375,0.00675,70,5,50,235,0
0.002025,0.022546,55,155,65,205,0
0.022546,0.002025,65,205,55,155,0
0.070608,0.084542,55,265,75,-10,0
0.084542,0.070608,75,-10,55,265,0
0.6,0.6,45,170,45,190,1
0.6,0.6,45,190,45,170,1
0.53,0.53,50,60,40,50,1
0.53,0.53,40,50,50,60,0
0.53,0.53,60,180,40,180,0
0.53,0.53,40,180,60,180,0
0.159,0.159,40,220,60,15,0
0.159,0.159,60,15,40,220,1
0.7477,0.0477,40,275,60,-40,0
0.0477,0.7477,60,-40,40,275,1
0.6,0.6,45,65,45,65,1
0.6,0.6,45,65,45,65,1
0.88,0.88,65,180,65,180,0
0.88,0.88,65,180,65,180,0
0.264,0.264,65,180,65,180,1
0.264,0.264,65,180,65,180,0
0.0792,0.7792,185,260,60,100,0
0.7792,0.0792,60,100,185,260,0
0.02376,0.27751,190,260,55,100,0
0.27751,0.02376,55,100,190,260,0
0.053795,0.083253,50,165,195,195,0
0.083253,0.053795,195,195,50,165,0
0.6,0.6,45,180,45,180,0
0.6,0.6,45,180,45,180,1
0.32,0.88,185,230,60,130,1
0.88,0.32,60,130,185,230,0
0.096,0.964,235,260,10,100,0
0.964,0.096,10,100,235,260,1
0.6,0.6,45,175,45,185,1
0.6,0.6,45,185,45,175,0
0.53,0.53,45,65,45,35,0
0.53,0.53,45,35,45,65,0
0.159,0.859,50,70,40,60,0
0.859,0.159,40,60,50,70,1
0.0477,0.9577,70,70,40,50,0
0.9577,0.0477,40,50,70,70,1
0.71431,0.28731,65,185,55,60,0
0.28731,0.71431,55,60,65,185,1
0.242293,0.786193,65,180,65,180,0
0.786193,0.242293,65,180,65,180,0
0.072688,0.235858,65,175,65,185,0
0.235858,0.072688,65,185,65,175,0
0.021806,0.098757,70,185,60,175,1
0.098757,0.021806,60,175,70,185,0
0.53,0.53,45,55,45,55,0
0.53,0.53,45,55,45,55,1
0.859,0.159,40,55,60,55,1
0.159,0.859,60,55,40,55,1
0.9577,0.7477,55,65,55,65,1
0.7477,0.9577,55,65,55,65,1
0.98731,0.92431,65,180,65,180,1
0.92431,0.98731,65,180,65,180,1
0.53,0.53,45,55,45,55,0
0.53,0.53,45,55,45,55,1
0.859,0.159,40,45,60,190,1
0.159,0.859,60,190,40,45,1
0.9577,0.7477,45,45,190,200,1
0.7477,0.9577,190,200,45,45,1
0.98731,0.92431,45,20,200,225,0
0.92431,0.98731,200,225,45,20,1
0.996193,0.977293,35,35,210,220,1
0.977293,0.996193,210,220,35,35,0
0.6,0.6,45,55,45,55,0
0.6,0.6,45,55,45,55,1
0.18,0.88,60,185,40,40,0
0.88,0.18,40,40,60,185,1
0.102276,0.964,50,185,50,175,1
0.964,0.102276,50,175,50,185,0
0.730683,0.3142,40,160,195,200,1
0.3142,0.730683,195,200,40,160,1
0.6,0.6,45,205,45,20,0
0.6,0.6,45,20,45,205,1
0.18,0.88,45,65,45,65,0
0.88,0.18,45,65,45,65,0
0.054,0.614,60,180,40,180,0
0.614,0.054,40,180,60,180,0
0.53,0.53,45,205,45,155,0
0.53,0.53,45,155,45,205,0
0.219,0.299,70,180,50,180,0
0.299,0.219,50,180,70,180,0
0.0657,0.167478,65,205,65,50,0
0.167478,0.0657,65,50,65,205,0
0.01971,0.050243,65,180,65,180,0
0.050243,0.01971,65,180,65,180,0
0.005913,0.015073,65,180,65,180,0
0.015073,0.005913,65,180,65,180,0
0.001774,0.004522,65,190,65,170,0
0.004522,0.001774,65,170,65,190,0
0.000532,0.001357,65,180,65,180,0
0.001357,0.000532,65,180,65,180,0
0.53,0.53,45,210,45,150,0
0.53,0.53,45,150,45,210,0
0.314556,0.159,25,170,85,190,0
0.159,0.314556,85,190,25,170,0
0.094367,0.0477,85,190,25,170,0
0.0477,0.094367,25,170,85,190,0
0.6,0.6,45,70,45,40,1
0.6,0.6,45,40,45,70,1
0.88,0.88,40,175,70,185,0
0.88,0.88,70,185,40,175,1
0.964,0.334,35,160,200,200,0
0.334,0.964,200,200,35,160,1
0.366978,0.8002,205,215,40,145,1
0.8002,0.366978,40,145,205,215,1
0.53,0.53,45,70,45,60,0
0.53,0.53,45,60,45,70,1
0.759,0.859,65,180,65,180,0
0.859,0.759,65,180,65,180,1
0.9277,0.2577,60,175,185,185,0
0.2577,0.9277,185,185,60,175,0
0.27831,0.07731,185,220,60,140,0
0.07731,0.27831,60,140,185,220,0
0.083493,0.023193,185,220,60,140,0
0.023193,0.083493,60,140,185,220,0
0.025048,0.006958,60,175,185,185,0
0.006958,0.025048,185,185,60,175,0
0.6,0.6,45,65,45,65,1
0.88,0.88,65,180,65,180,1
0.6,0.6,45,65,45,65,1
0.6,0.6,75,190,35,170,0
0.88,0.18,60,165,185,195,1
0.6,0.6,40,55,60,190,1
0.6,0.6,70,185,50,175,0
0.6,0.6,65,180,65,180,0
0.6,0.6,65,180,65,180,0
0.6,0.6,60,155,185,205,1
0.6,0.6,45,65,45,65,1
0.6,0.6,70,185,50,175,0
0.6,0.6,60,155,185,205,1
0.6,0.6,45,65,45,65,1
0.6,0.6,65,180,65,180,1
0.6,0.6,45,55,45,55,1
0.6,0.6,55,180,55,180,1
0.6,0.6,185,190,60,170,1
0.6,0.6,45,65,45,65,1
0.6,0.6,75,190,35,170,0
0.6,0.6,65,180,65,180,0
0.18,0.18,65,175,65,185,0
0.082,0.054,60,175,70,185,0
0.0246,0.0162,60,175,70,70,0
0.6,0.6,45,65,45,65,1
0.53,0.88,70,185,50,175,1
0.88,0.53,190,195,55,165,1
0.88,0.53,195,195,50,50,1
0.6,0.6,45,65,45,65,1
0.6,0.6,65,180,65,180,1
0.6,0.6,45,55,45,55,1
0.6,0.6,60,185,40,175,0
0.6,0.6,50,170,70,190,0
0.6,0.6,50,170,70,190,0
0.6,0.6,50,170,70,190,0
0.6,0.6,45,65,45,65,1
0.6,0.6,65,180,65,180,1
0.18,0.88,185,260,60,100,0
0.054,0.264,185,260,60,100,0
0.0162,0.0792,185,260,60,100,0
0.034027,0.02376,180,255,65,105,1
0.02376,0.034027,260,260,-15,-15,1
0.6,0.6,45,65,45,65,1
0.6,0.6,65,180,65,180,1
0.6,0.6,45,65,45,65,1
0.6,0.6,65,180,65,180,1
0.6,0.6,45,55,45,55,1
0.6,0.6,55,180,55,180,1
0.6,0.6,190,195,45,165,0
0.6,0.6,190,185,45,175,0
0.6,0.6,190,185,45,175,0
0.6,0.6,190,185,45,175,0
0.6,0.6,45,55,45,55,1
0.6,0.6,50,175,60,185,1
0.6,0.6,45,65,45,65,1
0.6,0.6,70,185,50,175,0
0.257778,0.852,185,180,60,180,1
0.6,0.6,45,65,45,65,1
0.6,0.6,60,160,185,200,1
0.6,0.6,45,65,45,65,1
0.6,0.6,65,180,65,180,1
0.6,0.6,185,185,60,60,1
0.88,0.88,185,205,60,155,1
0.6,0.6,45,65,45,65,1
0.6,0.6,70,185,50,175,1
0.6,0.6,190,205,55,155,1
0.53,0.53,45,150,45,95,1
0.751308,0.859,160,185,85,175,1
0.225392,0.9577,190,185,55,175,1
0.6,0.6,45,65,45,65,1
0.6,0.6,65,180,65,180,1
0.6,0.6,45,65,45,65,1
0.6,0.6,65,180,65,180,1
0.18,0.88,185,180,60,180,1
0.6,0.6,45,65,45,65,1
0.6,0.6,75,190,35,170,0
0.6,0.6,70,185,50,175,0
0.6,0.6,60,175,70,185,1
0.6,0.6,45,65,45,65,1
0.6,0.6,70,185,50,175,0
0.6,0.6,45,65,45,65,1
0.6,0.6,65,180,65,180,1
0.6,0.6,45,65,45,65,1
0.6,0.6,75,190,35,170,0
0.6,0.6,75,190,35,170,0
0.6,0.6,70,185,50,175,0
0.18,0.18,70,180,50,180,0
0.18,0.18,65,180,65,180,0
0.054,0.054,65,-20,65,270,0
0.054,0.054,65,180,65,180,0
0.6,0.6,45,65,45,65,1
0.6,0.6,65,180,65,180,1
0.6,0.6,185,195,60,165,0
0.6,0.6,185,185,60,60,1
0.88,0.88,185,195,60,165,1
0.6,0.6,45,65,45,65,1
0.6,0.6,65,180,65,180,1
0.18,0.88,185,180,60,180,1
