0,4,9,14,14,15,0
5,-4,1,-1,-1,-1,1,-36,4,-15,-1,-1,-1
5,3,3,3,15,5,1,17,5,-7,-7,1,1,4
2,-8,1,0,4,-15,0,0,-14
4,2,3,4,4,3,1,0,0,3,6,8,17
4,-6,-15,-15,-2,0,2,-6,-29
3,-4,4,13,2,4,17,1,5
2,-1,6,1,-9,2,-8,-4
5,-1,-2,4,4,4,0,0
2,0,-7,0,0
2,-1,5,1,10,1,3
0,0,0
0,0,1,8
0,0,1,-6
0,0,1,4
0,0,0
1,3,0,0
0,0,0
0,0,0
0,0,0
