filename,round,propID,respID,IsPropCustomer,chipsToSend,chipsToReceive,accept,propCurrentScore,respCurrentScore,actualSent,ActualRcvd,propResultingScore,respResultingScore,#ofCustomerMovesInRound,customerRowPositionAfterMovePhase,customerColPositionAfterMovePhase,Player100ChipsAfterMovePhase,Player100ScoreAfterMovePhase,Player200ChipsAfterMovePhase,Player200ScoreAfterMovePhase,Player300ChipsAfterMovePhase,Player300ScoreAfterMovePhase,generosityLevel,ClientReachedGoal
3playersLog_1369308053156.csv,1,200,100,false,{ chips  'CTRed':8 'CTPurple':2 },{ chips  'CTYellow':5 },FALSE,200,125,,,,,0,(R:5,C:4),{ chips  'CTRed':1 'CTGreen':0 'CTPurple':0 'grey78':12 'CTYellow':12 },125,{ chips  'CTRed':33 'CTGreen':0 'CTPurple':7 'grey78':0 'CTYellow':0 },200,{ chips  'CTRed':32 'CTGreen':0 'CTPurple':7 'grey78':0 'CTYellow':0 },195
3playersLog_1369308053156.csv,1,300,100,false,{ chips  'CTRed':1 },{ chips  },TRUE,200,120,{ chips  'CTRed':1 'CTPurple':0 'CTGreen':0 'grey78':0 'CTYellow':0 },{ chips  'CTRed':0 'CTPurple':0 'CTGreen':0 'grey78':0 'CTYellow':0 },195,125,0,(R:5,C:4),{ chips  'CTRed':1 'CTGreen':0 'CTPurple':0 'grey78':12 'CTYellow':12 },125,{ chips  'CTRed':33 'CTGreen':0 'CTPurple':7 'grey78':0 'CTYellow':0 },200,{ chips  'CTRed':32 'CTGreen':0 'CTPurple':7 'grey78':0 'CTYellow':0 },195
3playersLog_1369308053156.csv,2,100,300,true,{ chips  'CTRed':1 },{ chips  },TRUE,125,195,{ chips  'CTRed':1 'CTPurple':0 'CTGreen':0 'grey78':0 'CTYellow':0 },{ chips  'CTRed':0 'CTPurple':0 'CTGreen':0 'grey78':0 'CTYellow':0 },120,200,2,(R:4,C:5),{ chips  'CTRed':0 'CTGreen':0 'CTPurple':0 'grey78':12 'CTYellow':10 },110,{ chips  'CTRed':33 'CTGreen':0 'CTPurple':7 'grey78':0 'CTYellow':0 },200,{ chips  'CTRed':33 'CTGreen':0 'CTPurple':7 'grey78':0 'CTYellow':0 },200
3playersLog_1369308053156.csv,3,200,100,false,{ chips  'CTPurple':4 },{ chips  'CTYellow':1 },TRUE,200,110,{ chips  'CTRed':0 'CTPurple':4 'CTGreen':0 'grey78':0 'CTYellow':0 },{ chips  'CTRed':0 'CTPurple':0 'CTGreen':0 'grey78':0 'CTYellow':1 },185,125,0,(R:4,C:5),{ chips  'CTRed':0 'CTGreen':0 'CTPurple':4 'grey78':12 'CTYellow':9 },125,{ chips  'CTRed':33 'CTGreen':0 'CTPurple':3 'grey78':0 'CTYellow':1 },185,{ chips  'CTRed':33 'CTGreen':0 'CTPurple':7 'grey78':0 'CTYellow':0 },200
3playersLog_1369308053156.csv,4,100,200,true,{ chips  'grey78':3 },{ chips  'CTPurple':2 },TRUE,125,185,{ chips  'CTRed':0 'CTPurple':0 'CTGreen':0 'grey78':3 'CTYellow':0 },{ chips  'CTRed':0 'CTPurple':2 'CTGreen':0 'grey78':0 'CTYellow':0 },120,190,1,(R:3,C:5),{ chips  'CTRed':0 'CTGreen':0 'CTPurple':5 'grey78':9 'CTYellow':9 },115,{ chips  'CTRed':33 'CTGreen':0 'CTPurple':1 'grey78':3 'CTYellow':1 },190,{ chips  'CTRed':33 'CTGreen':0 'CTPurple':7 'grey78':0 'CTYellow':0 },200
3playersLog_1369308053156.csv,5,200,100,false,{ chips  'grey78':1 },{ chips  'CTYellow':1 },FALSE,190,120,,,,,1,(R:3,C:4),{ chips  'CTRed':0 'CTGreen':0 'CTPurple':5 'grey78':9 'CTYellow':9 },115,{ chips  'CTRed':33 'CTGreen':0 'CTPurple':1 'grey78':3 'CTYellow':1 },190,{ chips  'CTRed':33 'CTGreen':0 'CTPurple':6 'grey78':0 'CTYellow':0 },195
3playersLog_1369308053156.csv,5,300,100,false,{ chips  'CTPurple':1 },{ chips  },TRUE,200,115,{ chips  'CTRed':0 'CTPurple':1 'CTGreen':0 'grey78':0 'CTYellow':0 },{ chips  'CTRed':0 'CTPurple':0 'CTGreen':0 'grey78':0 'CTYellow':0 },195,120,1,(R:3,C:4),{ chips  'CTRed':0 'CTGreen':0 'CTPurple':5 'grey78':9 'CTYellow':9 },115,{ chips  'CTRed':33 'CTGreen':0 'CTPurple':1 'grey78':3 'CTYellow':1 },190,{ chips  'CTRed':33 'CTGreen':0 'CTPurple':6 'grey78':0 'CTYellow':0 },195
3playersLog_1369308053156.csv,6,100,200,true,{ chips  'grey78':9 },{ chips  'CTRed':11 'CTPurple':1 'CTYellow':1 },FALSE,115,190,,,,,1,(R:3,C:3),{ chips  'CTRed':0 'CTGreen':0 'CTPurple':4 'grey78':9 'CTYellow':9 },110,{ chips  'CTRed':33 'CTGreen':0 'CTPurple':1 'grey78':3 'CTYellow':1 },190,{ chips  'CTRed':33 'CTGreen':0 'CTPurple':6 'grey78':0 'CTYellow':0 },195
3playersLog_1369308053156.csv,7,200,100,false,{ chips  'CTRed':3 'CTPurple':1 'CTYellow':1 },{ chips  'grey78':5 },IGNORED,190,115,,,,,0,(R:3,C:3),{ chips  'CTRed':1 'CTGreen':0 'CTPurple':4 'grey78':9 'CTYellow':9 },115,{ chips  'CTRed':33 'CTGreen':0 'CTPurple':1 'grey78':3 'CTYellow':1 },190,{ chips  'CTRed':32 'CTGreen':0 'CTPurple':6 'grey78':0 'CTYellow':0 },190
3playersLog_1369308053156.csv,7,300,100,false,{ chips  'CTRed':1 },{ chips  },TRUE,195,110,{ chips  'CTRed':1 'CTPurple':0 'CTGreen':0 'grey78':0 'CTYellow':0 },{ chips  'CTRed':0 'CTPurple':0 'CTGreen':0 'grey78':0 'CTYellow':0 },190,115,0,(R:3,C:3),{ chips  'CTRed':1 'CTGreen':0 'CTPurple':4 'grey78':9 'CTYellow':9 },115,{ chips  'CTRed':33 'CTGreen':0 'CTPurple':1 'grey78':3 'CTYellow':1 },190,{ chips  'CTRed':32 'CTGreen':0 'CTPurple':6 'grey78':0 'CTYellow':0 },190
3playersLog_1369308053156.csv,8,100,300,true,{ chips  'grey78':1 'CTYellow':9 },{ chips  'CTRed':13 'CTPurple':1 },TRUE,115,190,{ chips  'CTRed':0 'CTPurple':0 'CTGreen':0 'grey78':1 'CTYellow':9 },{ chips  'CTRed':13 'CTPurple':1 'CTGreen':0 'grey78':0 'CTYellow':0 },135,170,2,(R:3,C:1),{ chips  'CTRed':14 'CTGreen':0 'CTPurple':5 'grey78':6 'CTYellow':0 },125,{ chips  'CTRed':33 'CTGreen':0 'CTPurple':1 'grey78':3 'CTYellow':1 },190,{ chips  'CTRed':19 'CTGreen':0 'CTPurple':5 'grey78':1 'CTYellow':9 },170
3playersLog_1369308053156.csv,9,200,100,false,{ chips  'CTRed':10 'CTYellow':1 },{ chips  'grey78':5 },FALSE,190,130,,,,,4,(R:0,C:0),{ chips  'CTRed':15 'CTGreen':0 'CTPurple':5 'grey78':2 'CTYellow':0 },260,{ chips  'CTRed':33 'CTGreen':0 'CTPurple':1 'grey78':3 'CTYellow':1 },190,{ chips  'CTRed':18 'CTGreen':0 'CTPurple':5 'grey78':1 'CTYellow':9 },315
3playersLog_1369308053156.csv,9,300,100,false,{ chips  'CTRed':1 },{ chips  },TRUE,170,125,{ chips  'CTRed':1 'CTPurple':0 'CTGreen':0 'grey78':0 'CTYellow':0 },{ chips  'CTRed':0 'CTPurple':0 'CTGreen':0 'grey78':0 'CTYellow':0 },165,130,4,(R:0,C:0),{ chips  'CTRed':15 'CTGreen':0 'CTPurple':5 'grey78':2 'CTYellow':0 },260,{ chips  'CTRed':33 'CTGreen':0 'CTPurple':1 'grey78':3 'CTYellow':1 },190,{ chips  'CTRed':18 'CTGreen':0 'CTPurple':5 'grey78':1 'CTYellow':9 },315
3playersLog_1369308053156.csv,,,,,,,,,,,,,,,,,,,,,,,,true
