Tue Sep 03 14:26:47 IDT 2013	This is the CT debug logger; svn version 638; sep 27 09
Tue Sep 03 14:26:47 IDT 2013	Tue Sep 03 14:26:47 IDT 2013
Tue Sep 03 14:26:47 IDT 2013	ThreePlayersAgentPlayer(): entering.
Tue Sep 03 14:30:07 IDT 2013	phaseAdvanced(): entering.
Tue Sep 03 14:30:07 IDT 2013	phaseAdvanced(): new phase is 'Strategy Prep Phase'.
Tue Sep 03 14:31:07 IDT 2013	phaseAdvanced(): entering.
Tue Sep 03 14:31:07 IDT 2013	phaseAdvanced(): new phase is 'Communication Phase'.
Tue Sep 03 14:31:47 IDT 2013	onReceipt(): entering.
Tue Sep 03 14:31:47 IDT 2013	onReceipt(): opponent's proposal: ({ chips  'CTRed':2 'CTPurple':2 'CTGreen':0 'grey78':0 'CTYellow':0 }, { chips  'CTRed':0 'CTPurple':0 'CTGreen':0 'grey78':4 'CTYellow':0 }).
Tue Sep 03 14:32:11 IDT 2013	onReceipt(): entering.
Tue Sep 03 14:32:11 IDT 2013	onReceipt(): opponent's proposal: ({ chips  'CTRed':0 'CTPurple':1 'CTGreen':0 'grey78':0 'CTYellow':0 }, { chips  'CTRed':0 'CTPurple':0 'CTGreen':0 'grey78':0 'CTYellow':1 }).
Tue Sep 03 14:32:11 IDT 2013	responseToSend(): entering.
Tue Sep 03 14:32:12 IDT 2013	compareProposals(): decision: 0 utility 120.0
Tue Sep 03 14:32:12 IDT 2013	responseToSend(): rejecting both proposals
Tue Sep 03 14:32:12 IDT 2013	phaseAdvanced(): entering.
Tue Sep 03 14:32:12 IDT 2013	phaseAdvanced(): new phase is 'Movement Phase'.
Tue Sep 03 14:32:56 IDT 2013	phaseAdvanced(): entering.
Tue Sep 03 14:32:56 IDT 2013	phaseAdvanced(): new phase is 'Feedback Phase'.
Tue Sep 03 14:33:01 IDT 2013	phaseAdvanced(): entering.
Tue Sep 03 14:33:01 IDT 2013	phaseAdvanced(): new phase is 'Communication Phase'.
Tue Sep 03 14:33:24 IDT 2013	onReceipt(): entering.
Tue Sep 03 14:33:24 IDT 2013	phaseAdvanced(): entering.
Tue Sep 03 14:33:24 IDT 2013	phaseAdvanced(): new phase is 'Movement Phase'.
Tue Sep 03 14:33:24 IDT 2013	phaseAdvanced(): found paths (16).
Tue Sep 03 14:34:08 IDT 2013	phaseAdvanced(): entering.
Tue Sep 03 14:34:08 IDT 2013	phaseAdvanced(): new phase is 'Feedback Phase'.
