filename,round,propID,respID,IsPropCustomer,chipsToSend,chipsToReceive,accept,propCurrentScore,respCurrentScore,actualSent,ActualRcvd,propResultingScore,respResultingScore,#ofCustomerMovesInRound,customerRowPositionAfterMovePhase,customerColPositionAfterMovePhase,Player100ChipsAfterMovePhase,Player100ScoreAfterMovePhase,Player200ChipsAfterMovePhase,Player200ScoreAfterMovePhase,Player300ChipsAfterMovePhase,Player300ScoreAfterMovePhase,generosityLevel,ClientReachedGoal
3playersLog_1390914589910.csv,1,560,500,false,{ chips  'CTRed':14 },{ chips  },TRUE,200,120,{ chips  'CTRed':14 },{ chips  'grey78':0 },130,190,2,(R:4,C:5),{ chips  'CTRed':14 'CTGreen':0 'CTPurple':0 'grey78':12 'CTYellow':10 },180,{ chips  'CTRed':19 'CTGreen':0 'CTPurple':7 'grey78':0 'CTYellow':0 },130,{ chips  'CTRed':33 'CTGreen':0 'CTPurple':7 'grey78':0 'CTYellow':0 },200
3playersLog_1390914589910.csv,1,540,500,false,{ chips  'CTRed':4 },{ chips  'grey78':3 },IGNORED,200,120,,,,,2,(R:4,C:5),{ chips  'CTRed':14 'CTGreen':0 'CTPurple':0 'grey78':12 'CTYellow':10 },180,{ chips  'CTRed':19 'CTGreen':0 'CTPurple':7 'grey78':0 'CTYellow':0 },130,{ chips  'CTRed':33 'CTGreen':0 'CTPurple':7 'grey78':0 'CTYellow':0 },200
3playersLog_1390914589910.csv,2,500,560,true,{ chips  'CTRed':6 },{ chips  'CTPurple':3 },TRUE,180,130,{ chips  'CTRed':6 'CTPurple':0 'CTGreen':0 'grey78':0 'CTYellow':0 },{ chips  'CTRed':0 'CTPurple':3 'CTGreen':0 'grey78':0 'CTYellow':0 },165,145,2,(R:3,C:6),{ chips  'CTRed':8 'CTGreen':0 'CTPurple':3 'grey78':12 'CTYellow':8 },155,{ chips  'CTRed':25 'CTGreen':0 'CTPurple':4 'grey78':0 'CTYellow':0 },145,{ chips  'CTRed':33 'CTGreen':0 'CTPurple':7 'grey78':0 'CTYellow':0 },200
3playersLog_1390914589910.csv,3,560,500,false,{ chips  'CTRed':3 },{ chips  },TRUE,145,155,{ chips  'CTRed':3 },{ chips  'grey78':0 },130,170,2,(R:2,C:7),{ chips  'CTRed':11 'CTGreen':0 'CTPurple':3 'grey78':12 'CTYellow':6 },160,{ chips  'CTRed':22 'CTGreen':0 'CTPurple':4 'grey78':0 'CTYellow':0 },130,{ chips  'CTRed':33 'CTGreen':0 'CTPurple':7 'grey78':0 'CTYellow':0 },200
3playersLog_1390914589910.csv,3,540,500,false,{ chips  'CTRed':5 'CTPurple':5 },{ chips  'CTYellow':3 },IGNORED,200,155,,,,,2,(R:2,C:7),{ chips  'CTRed':11 'CTGreen':0 'CTPurple':3 'grey78':12 'CTYellow':6 },160,{ chips  'CTRed':22 'CTGreen':0 'CTPurple':4 'grey78':0 'CTYellow':0 },130,{ chips  'CTRed':33 'CTGreen':0 'CTPurple':7 'grey78':0 'CTYellow':0 },200
3playersLog_1390914589910.csv,4,500,540,true,{ chips  'CTYellow':2 },{ chips  'CTPurple':6 },FALSE,160,200,,,,,2,(R:1,C:8),{ chips  'CTRed':11 'CTGreen':0 'CTPurple':2 'grey78':12 'CTYellow':5 },150,{ chips  'CTRed':22 'CTGreen':0 'CTPurple':4 'grey78':0 'CTYellow':0 },130,{ chips  'CTRed':33 'CTGreen':0 'CTPurple':7 'grey78':0 'CTYellow':0 },200
3playersLog_1390914589910.csv,5,560,500,false,{ chips  'CTRed':3 },{ chips  },IGNORED,130,150,,,,,0,(R:1,C:8),{ chips  'CTRed':11 'CTGreen':0 'CTPurple':2 'grey78':12 'CTYellow':5 },150,{ chips  'CTRed':22 'CTGreen':0 'CTPurple':4 'grey78':0 'CTYellow':0 },130,{ chips  'CTRed':33 'CTGreen':0 'CTPurple':7 'grey78':0 'CTYellow':0 },200
3playersLog_1390914589910.csv,5,540,500,false,{ chips  'CTRed':15 'CTPurple':7 },{ chips  'grey78':2 'CTYellow':5 },IGNORED,200,150,,,,,0,(R:1,C:8),{ chips  'CTRed':11 'CTGreen':0 'CTPurple':2 'grey78':12 'CTYellow':5 },150,{ chips  'CTRed':22 'CTGreen':0 'CTPurple':4 'grey78':0 'CTYellow':0 },130,{ chips  'CTRed':33 'CTGreen':0 'CTPurple':7 'grey78':0 'CTYellow':0 },200
3playersLog_1390914589910.csv,6,500,540,true,{ chips  },{ chips  'CTRed':8 'CTPurple':5 },FALSE,150,200,,,,,1,(R:2,C:8),{ chips  'CTRed':11 'CTGreen':0 'CTPurple':2 'grey78':12 'CTYellow':4 },145,{ chips  'CTRed':22 'CTGreen':0 'CTPurple':4 'grey78':0 'CTYellow':0 },130,{ chips  'CTRed':33 'CTGreen':0 'CTPurple':7 'grey78':0 'CTYellow':0 },200
3playersLog_1390914589910.csv,7,560,500,false,{ chips  'CTRed':4 },{ chips  },FALSE,130,145,,,,,2,(R:1,C:7),{ chips  'CTRed':11 'CTGreen':0 'CTPurple':1 'grey78':12 'CTYellow':3 },135,{ chips  'CTRed':22 'CTGreen':0 'CTPurple':4 'grey78':0 'CTYellow':0 },130,{ chips  'CTRed':33 'CTGreen':0 'CTPurple':7 'grey78':0 'CTYellow':0 },200
3playersLog_1390914589910.csv,7,540,500,false,{ chips  'CTRed':12 'CTPurple':7 },{ chips  'CTYellow':4 },FALSE,200,145,,,,,2,(R:1,C:7),{ chips  'CTRed':11 'CTGreen':0 'CTPurple':1 'grey78':12 'CTYellow':3 },135,{ chips  'CTRed':22 'CTGreen':0 'CTPurple':4 'grey78':0 'CTYellow':0 },130,{ chips  'CTRed':33 'CTGreen':0 'CTPurple':7 'grey78':0 'CTYellow':0 },200
3playersLog_1390914589910.csv,8,500,540,true,{ chips  },{ chips  'CTRed':10 'CTPurple':6 },FALSE,135,200,,,,,0,(R:1,C:7),{ chips  'CTRed':11 'CTGreen':0 'CTPurple':1 'grey78':12 'CTYellow':3 },135,{ chips  'CTRed':22 'CTGreen':0 'CTPurple':4 'grey78':0 'CTYellow':0 },130,{ chips  'CTRed':33 'CTGreen':0 'CTPurple':7 'grey78':0 'CTYellow':0 },200
3playersLog_1390914589910.csv,9,560,500,false,{ chips  },{ chips  'grey78':1 },IGNORED,130,135,,,,,1,(R:1,C:8),{ chips  'CTRed':11 'CTGreen':0 'CTPurple':1 'grey78':12 'CTYellow':2 },130,{ chips  'CTRed':22 'CTGreen':0 'CTPurple':4 'grey78':0 'CTYellow':0 },130,{ chips  'CTRed':33 'CTGreen':0 'CTPurple':7 'grey78':0 'CTYellow':0 },200
3playersLog_1390914589910.csv,9,540,500,false,{ chips  'CTRed':5 'CTPurple':5 },{ chips  'CTYellow':2 },IGNORED,200,135,,,,,1,(R:1,C:8),{ chips  'CTRed':11 'CTGreen':0 'CTPurple':1 'grey78':12 'CTYellow':2 },130,{ chips  'CTRed':22 'CTGreen':0 'CTPurple':4 'grey78':0 'CTYellow':0 },130,{ chips  'CTRed':33 'CTGreen':0 'CTPurple':7 'grey78':0 'CTYellow':0 },200
3playersLog_1390914589910.csv,10,500,560,true,{ chips  'CTPurple':1 },{ chips  'CTRed':10 },FALSE,130,130,,,,,0,(R:1,C:8),{ chips  'CTRed':11 'CTGreen':0 'CTPurple':1 'grey78':12 'CTYellow':2 },130,{ chips  'CTRed':22 'CTGreen':0 'CTPurple':4 'grey78':0 'CTYellow':0 },130,{ chips  'CTRed':33 'CTGreen':0 'CTPurple':7 'grey78':0 'CTYellow':0 },200
3playersLog_1390914589910.csv,11,560,500,false,{ chips  'CTRed':5 },{ chips  },TRUE,130,130,{ chips  'CTRed':5 },{ chips  'grey78':0 },105,155,1,(R:0,C:8),{ chips  'CTRed':16 'CTGreen':0 'CTPurple':1 'grey78':12 'CTYellow':1 },300,{ chips  'CTRed':17 'CTGreen':0 'CTPurple':4 'grey78':0 'CTYellow':0 },255,{ chips  'CTRed':33 'CTGreen':0 'CTPurple':7 'grey78':0 'CTYellow':0 },200
3playersLog_1390914589910.csv,11,540,500,false,{ chips  },{ chips  'CTYellow':2 },IGNORED,200,130,,,,,1,(R:0,C:8),{ chips  'CTRed':16 'CTGreen':0 'CTPurple':1 'grey78':12 'CTYellow':1 },300,{ chips  'CTRed':17 'CTGreen':0 'CTPurple':4 'grey78':0 'CTYellow':0 },255,{ chips  'CTRed':33 'CTGreen':0 'CTPurple':7 'grey78':0 'CTYellow':0 },200
3playersLog_1390914589910.csv,,,,,,,,,,,,,,,,,,,,,,,,true
