filename,round,propID,respID,IsPropCustomer,chipsToSend,chipsToReceive,accept,propCurrentScore,respCurrentScore,actualSent,ActualRcvd,propResultingScore,respResultingScore,#ofCustomerMovesInRound,customerRowPositionAfterMovePhase,customerColPositionAfterMovePhase,Player100ChipsAfterMovePhase,Player100ScoreAfterMovePhase,Player200ChipsAfterMovePhase,Player200ScoreAfterMovePhase,Player300ChipsAfterMovePhase,Player300ScoreAfterMovePhase,generosityLevel,ClientReachedGoal
3playersLog_1388233464703.csv,1,540,510,false,{ chips  'CTRed':9 },{ chips  'CTYellow':6 },TRUE,200,120,{ chips  'CTRed':9 'CTPurple':0 'CTGreen':0 'grey78':0 'CTYellow':0 },{ chips  'CTRed':0 'CTPurple':0 'CTGreen':0 'grey78':0 'CTYellow':6 },185,135,0,(R:5,C:4),{ chips  'CTRed':9 'CTGreen':0 'CTPurple':0 'grey78':12 'CTYellow':6 },135,{ chips  'CTRed':33 'CTGreen':0 'CTPurple':7 'grey78':0 'CTYellow':0 },200,{ chips  'CTRed':24 'CTGreen':0 'CTPurple':7 'grey78':0 'CTYellow':6 },185
3playersLog_1388233464703.csv,2,510,540,true,{ chips  'CTYellow':5 },{ chips  'CTRed':24 'CTPurple':7 },FALSE,135,185,,,,,1,(R:5,C:3),{ chips  'CTRed':9 'CTGreen':0 'CTPurple':0 'grey78':11 'CTYellow':6 },130,{ chips  'CTRed':33 'CTGreen':0 'CTPurple':7 'grey78':0 'CTYellow':0 },200,{ chips  'CTRed':24 'CTGreen':0 'CTPurple':7 'grey78':0 'CTYellow':6 },185
3playersLog_1388233464703.csv,3,520,510,false,{ chips  'CTRed':2 'CTPurple':2 },{ chips  },TRUE,200,130,{ chips  'CTRed':2 'CTPurple':2 'CTGreen':0 'grey78':0 'CTYellow':0 },{ chips  'CTRed':0 'CTPurple':0 'CTGreen':0 'grey78':0 'CTYellow':0 },180,150,0,(R:5,C:3),{ chips  'CTRed':11 'CTGreen':0 'CTPurple':2 'grey78':11 'CTYellow':6 },150,{ chips  'CTRed':31 'CTGreen':0 'CTPurple':5 'grey78':0 'CTYellow':0 },180,{ chips  'CTRed':24 'CTGreen':0 'CTPurple':7 'grey78':0 'CTYellow':6 },185
3playersLog_1388233464703.csv,3,540,510,false,{ chips  'CTRed':5 'CTPurple':1 },{ chips  'grey78':2 'CTYellow':4 },IGNORED,185,130,,,,,0,(R:5,C:3),{ chips  'CTRed':11 'CTGreen':0 'CTPurple':2 'grey78':11 'CTYellow':6 },150,{ chips  'CTRed':31 'CTGreen':0 'CTPurple':5 'grey78':0 'CTYellow':0 },180,{ chips  'CTRed':24 'CTGreen':0 'CTPurple':7 'grey78':0 'CTYellow':6 },185
3playersLog_1388233464703.csv,4,510,540,true,{ chips  'CTYellow':5 },{ chips  'CTRed':24 'CTPurple':7 },FALSE,150,185,,,,,1,(R:4,C:3),{ chips  'CTRed':11 'CTGreen':0 'CTPurple':2 'grey78':10 'CTYellow':6 },145,{ chips  'CTRed':31 'CTGreen':0 'CTPurple':5 'grey78':0 'CTYellow':0 },180,{ chips  'CTRed':24 'CTGreen':0 'CTPurple':7 'grey78':0 'CTYellow':6 },185
3playersLog_1388233464703.csv,5,520,510,false,{ chips  'CTRed':1 'CTPurple':1 },{ chips  'grey78':3 },IGNORED,180,145,,,,,0,(R:4,C:3),{ chips  'CTRed':14 'CTGreen':0 'CTPurple':0 'grey78':10 'CTYellow':6 },150,{ chips  'CTRed':31 'CTGreen':0 'CTPurple':5 'grey78':0 'CTYellow':0 },180,{ chips  'CTRed':21 'CTGreen':0 'CTPurple':9 'grey78':0 'CTYellow':6 },180
3playersLog_1388233464703.csv,5,540,510,false,{ chips  'CTRed':3 },{ chips  'CTPurple':2 },TRUE,185,145,{ chips  'CTRed':3 'CTPurple':0 'CTGreen':0 'grey78':0 'CTYellow':0 },{ chips  'CTRed':0 'CTPurple':2 'CTGreen':0 'grey78':0 'CTYellow':0 },180,150,0,(R:4,C:3),{ chips  'CTRed':14 'CTGreen':0 'CTPurple':0 'grey78':10 'CTYellow':6 },150,{ chips  'CTRed':31 'CTGreen':0 'CTPurple':5 'grey78':0 'CTYellow':0 },180,{ chips  'CTRed':21 'CTGreen':0 'CTPurple':9 'grey78':0 'CTYellow':6 },180
3playersLog_1388233464703.csv,6,510,540,true,{ chips  'CTYellow':5 },{ chips  'CTRed':21 'CTPurple':9 },FALSE,150,180,,,,,1,(R:4,C:2),{ chips  'CTRed':14 'CTGreen':0 'CTPurple':0 'grey78':9 'CTYellow':6 },145,{ chips  'CTRed':31 'CTGreen':0 'CTPurple':5 'grey78':0 'CTYellow':0 },180,{ chips  'CTRed':21 'CTGreen':0 'CTPurple':9 'grey78':0 'CTYellow':6 },180
3playersLog_1388233464703.csv,7,520,510,false,{ chips  'CTRed':1 'CTPurple':2 },{ chips  'CTRed':1 'grey78':1 },TRUE,180,145,{ chips  'CTRed':1 'CTPurple':2 'CTGreen':0 'grey78':0 'CTYellow':0 },{ chips  'CTRed':1 'CTPurple':0 'CTGreen':0 'grey78':1 'CTYellow':0 },175,150,0,(R:4,C:2),{ chips  'CTRed':14 'CTGreen':0 'CTPurple':2 'grey78':8 'CTYellow':6 },150,{ chips  'CTRed':31 'CTGreen':0 'CTPurple':3 'grey78':1 'CTYellow':0 },175,{ chips  'CTRed':21 'CTGreen':0 'CTPurple':9 'grey78':0 'CTYellow':6 },180
3playersLog_1388233464703.csv,7,540,510,false,{ chips  'CTRed':5 },{ chips  'CTYellow':6 },IGNORED,180,145,,,,,0,(R:4,C:2),{ chips  'CTRed':14 'CTGreen':0 'CTPurple':2 'grey78':8 'CTYellow':6 },150,{ chips  'CTRed':31 'CTGreen':0 'CTPurple':3 'grey78':1 'CTYellow':0 },175,{ chips  'CTRed':21 'CTGreen':0 'CTPurple':9 'grey78':0 'CTYellow':6 },180
3playersLog_1388233464703.csv,8,510,540,true,{ chips  'CTYellow':5 },{ chips  'CTRed':21 'CTPurple':9 },FALSE,150,180,,,,,1,(R:3,C:2),{ chips  'CTRed':14 'CTGreen':0 'CTPurple':2 'grey78':7 'CTYellow':6 },145,{ chips  'CTRed':31 'CTGreen':0 'CTPurple':3 'grey78':1 'CTYellow':0 },175,{ chips  'CTRed':21 'CTGreen':0 'CTPurple':9 'grey78':0 'CTYellow':6 },180
3playersLog_1388233464703.csv,9,520,510,false,{ chips  'CTPurple':1 },{ chips  'CTYellow':2 },IGNORED,175,145,,,,,0,(R:3,C:2),{ chips  'CTRed':21 'CTGreen':0 'CTPurple':0 'grey78':5 'CTYellow':6 },160,{ chips  'CTRed':31 'CTGreen':0 'CTPurple':3 'grey78':1 'CTYellow':0 },175,{ chips  'CTRed':14 'CTGreen':0 'CTPurple':11 'grey78':2 'CTYellow':6 },165
3playersLog_1388233464703.csv,9,540,510,false,{ chips  'CTRed':7 },{ chips  'CTPurple':2 'grey78':2 },TRUE,180,145,{ chips  'CTRed':7 'CTPurple':0 'CTGreen':0 'grey78':0 'CTYellow':0 },{ chips  'CTRed':0 'CTPurple':2 'CTGreen':0 'grey78':2 'CTYellow':0 },165,160,0,(R:3,C:2),{ chips  'CTRed':21 'CTGreen':0 'CTPurple':0 'grey78':5 'CTYellow':6 },160,{ chips  'CTRed':31 'CTGreen':0 'CTPurple':3 'grey78':1 'CTYellow':0 },175,{ chips  'CTRed':14 'CTGreen':0 'CTPurple':11 'grey78':2 'CTYellow':6 },165
3playersLog_1388233464703.csv,10,510,540,true,{ chips  'CTYellow':5 },{ chips  'CTRed':14 'CTPurple':11 'grey78':2 },FALSE,160,165,,,,,1,(R:3,C:1),{ chips  'CTRed':21 'CTGreen':0 'CTPurple':0 'grey78':4 'CTYellow':6 },155,{ chips  'CTRed':31 'CTGreen':0 'CTPurple':3 'grey78':1 'CTYellow':0 },175,{ chips  'CTRed':14 'CTGreen':0 'CTPurple':11 'grey78':2 'CTYellow':6 },165
3playersLog_1388233464703.csv,11,520,510,false,{ chips  'CTPurple':1 },{ chips  'CTYellow':1 },IGNORED,175,155,,,,,0,(R:3,C:1),{ chips  'CTRed':21 'CTGreen':0 'CTPurple':0 'grey78':4 'CTYellow':6 },155,{ chips  'CTRed':31 'CTGreen':0 'CTPurple':3 'grey78':1 'CTYellow':0 },175,{ chips  'CTRed':14 'CTGreen':0 'CTPurple':11 'grey78':2 'CTYellow':6 },165
3playersLog_1388233464703.csv,12,510,540,true,{ chips  'CTYellow':5 },{ chips  'CTRed':14 'CTPurple':11 'grey78':2 },FALSE,155,165,,,,,1,(R:2,C:1),{ chips  'CTRed':21 'CTGreen':0 'CTPurple':0 'grey78':3 'CTYellow':6 },150,{ chips  'CTRed':31 'CTGreen':0 'CTPurple':3 'grey78':1 'CTYellow':0 },175,{ chips  'CTRed':14 'CTGreen':0 'CTPurple':11 'grey78':2 'CTYellow':6 },165
3playersLog_1388233464703.csv,13,520,510,false,{ chips  'CTRed':2 },{ chips  'grey78':1 },IGNORED,175,150,,,,,0,(R:2,C:1),{ chips  'CTRed':21 'CTGreen':0 'CTPurple':0 'grey78':3 'CTYellow':6 },150,{ chips  'CTRed':31 'CTGreen':0 'CTPurple':3 'grey78':1 'CTYellow':0 },175,{ chips  'CTRed':14 'CTGreen':0 'CTPurple':11 'grey78':2 'CTYellow':6 },165
3playersLog_1388233464703.csv,14,510,540,true,{ chips  'CTYellow':5 },{ chips  'CTRed':14 'CTPurple':11 'grey78':2 },FALSE,150,165,,,,,1,(R:2,C:0),{ chips  'CTRed':21 'CTGreen':0 'CTPurple':0 'grey78':2 'CTYellow':6 },145,{ chips  'CTRed':31 'CTGreen':0 'CTPurple':3 'grey78':1 'CTYellow':0 },175,{ chips  'CTRed':14 'CTGreen':0 'CTPurple':11 'grey78':2 'CTYellow':6 },165
3playersLog_1388233464703.csv,15,520,510,false,{ chips  'CTRed':2 'CTPurple':2 },{ chips  'CTRed':2 },TRUE,175,145,{ chips  'CTRed':2 'CTPurple':2 'CTGreen':0 'grey78':0 'CTYellow':0 },{ chips  'CTRed':2 'CTPurple':0 'CTGreen':0 'grey78':0 'CTYellow':0 },165,155,0,(R:2,C:0),{ chips  'CTRed':21 'CTGreen':0 'CTPurple':2 'grey78':2 'CTYellow':6 },155,{ chips  'CTRed':31 'CTGreen':0 'CTPurple':1 'grey78':1 'CTYellow':0 },165,{ chips  'CTRed':14 'CTGreen':0 'CTPurple':11 'grey78':2 'CTYellow':6 },165
3playersLog_1388233464703.csv,16,510,540,true,{ chips  'CTYellow':5 },{ chips  'CTRed':14 'CTPurple':11 'grey78':2 },FALSE,155,165,,,,,1,(R:1,C:0),{ chips  'CTRed':21 'CTGreen':0 'CTPurple':2 'grey78':1 'CTYellow':6 },150,{ chips  'CTRed':31 'CTGreen':0 'CTPurple':1 'grey78':1 'CTYellow':0 },165,{ chips  'CTRed':14 'CTGreen':0 'CTPurple':11 'grey78':2 'CTYellow':6 },165
3playersLog_1388233464703.csv,17,520,510,false,{ chips  'CTRed':10 },{ chips  'CTYellow':5 },TRUE,165,150,{ chips  'CTRed':10 'CTPurple':0 'CTGreen':0 'grey78':0 'CTYellow':0 },{ chips  'CTRed':0 'CTPurple':0 'CTGreen':0 'grey78':0 'CTYellow':5 },140,175,1,(R:0,C:0),{ chips  'CTRed':31 'CTGreen':0 'CTPurple':2 'grey78':0 'CTYellow':1 },320,{ chips  'CTRed':21 'CTGreen':0 'CTPurple':1 'grey78':1 'CTYellow':5 },140,{ chips  'CTRed':14 'CTGreen':0 'CTPurple':11 'grey78':2 'CTYellow':6 },315
3playersLog_1388233464703.csv,17,540,510,false,{ chips  'CTRed':2 },{ chips  'CTPurple':2 },IGNORED,165,150,,,,,1,(R:0,C:0),{ chips  'CTRed':31 'CTGreen':0 'CTPurple':2 'grey78':0 'CTYellow':1 },320,{ chips  'CTRed':21 'CTGreen':0 'CTPurple':1 'grey78':1 'CTYellow':5 },140,{ chips  'CTRed':14 'CTGreen':0 'CTPurple':11 'grey78':2 'CTYellow':6 },315
3playersLog_1388233464703.csv,,,,,,,,,,,,,,,,,,,,,,,,true
