Tue Sep 03 14:09:54 IDT 2013	This is the CT debug logger; svn version 638; sep 27 09
Tue Sep 03 14:09:54 IDT 2013	Tue Sep 03 14:09:54 IDT 2013
Tue Sep 03 14:09:54 IDT 2013	ThreePlayersAgentPlayer(): entering.
Tue Sep 03 14:10:04 IDT 2013	phaseAdvanced(): entering.
Tue Sep 03 14:10:04 IDT 2013	phaseAdvanced(): new phase is 'Strategy Prep Phase'.
Tue Sep 03 14:11:04 IDT 2013	phaseAdvanced(): entering.
Tue Sep 03 14:11:04 IDT 2013	phaseAdvanced(): new phase is 'Communication Phase'.
Tue Sep 03 14:11:45 IDT 2013	phaseAdvanced(): entering.
Tue Sep 03 14:11:45 IDT 2013	phaseAdvanced(): new phase is 'Movement Phase'.
Tue Sep 03 14:12:30 IDT 2013	phaseAdvanced(): entering.
Tue Sep 03 14:12:30 IDT 2013	phaseAdvanced(): new phase is 'Feedback Phase'.
Tue Sep 03 14:12:35 IDT 2013	phaseAdvanced(): entering.
Tue Sep 03 14:12:35 IDT 2013	phaseAdvanced(): new phase is 'Communication Phase'.
Tue Sep 03 14:13:51 IDT 2013	phaseAdvanced(): entering.
Tue Sep 03 14:13:51 IDT 2013	phaseAdvanced(): new phase is 'Movement Phase'.
Tue Sep 03 14:14:36 IDT 2013	phaseAdvanced(): entering.
Tue Sep 03 14:14:36 IDT 2013	phaseAdvanced(): new phase is 'Feedback Phase'.
