Sun Jan 05 20:50:35 CST 2014	This is the CT debug logger; svn version 638; sep 27 09
Sun Jan 05 20:50:35 CST 2014	Sun Jan 05 20:50:35 CST 2014
Sun Jan 05 20:50:35 CST 2014	ID Number: 65431
Sun Jan 05 20:50:35 CST 2014	Creating board
Sun Jan 05 20:50:35 CST 2014	<colors>
Sun Jan 05 20:50:35 CST 2014	{ GamePalette  'CTPurple':0 'CTRed':1 'CTGreen':2 'grey78':3 'CTYellow':4 }
Sun Jan 05 20:50:35 CST 2014	<rows>
Sun Jan 05 20:50:35 CST 2014	6
Sun Jan 05 20:50:35 CST 2014	<columns>
Sun Jan 05 20:50:35 CST 2014	9
Sun Jan 05 20:50:35 CST 2014	<squaresColors>
Sun Jan 05 20:50:35 CST 2014	grey78 CTGreen CTGreen CTGreen CTGreen CTGreen CTGreen CTGreen CTYellow 
Sun Jan 05 20:50:35 CST 2014	grey78 CTPurple CTPurple CTPurple CTPurple CTPurple CTPurple CTPurple CTYellow 
Sun Jan 05 20:50:35 CST 2014	grey78 grey78 CTGreen CTGreen CTGreen CTGreen CTGreen CTYellow CTYellow 
Sun Jan 05 20:50:35 CST 2014	CTGreen grey78 grey78 CTPurple CTPurple CTPurple CTYellow CTYellow CTGreen 
Sun Jan 05 20:50:35 CST 2014	CTGreen CTGreen grey78 grey78 CTGreen CTYellow CTYellow CTGreen CTGreen 
Sun Jan 05 20:50:35 CST 2014	CTGreen CTGreen CTGreen grey78 CTGreen CTYellow CTGreen CTGreen CTGreen 
Sun Jan 05 20:50:35 CST 2014	</squareColors>
Sun Jan 05 20:50:35 CST 2014	<goalPosition>
Sun Jan 05 20:50:35 CST 2014	Goal position: (R:0,C:0)
Sun Jan 05 20:50:35 CST 2014	<goalPosition>
Sun Jan 05 20:50:35 CST 2014	Goal position: (R:0,C:0)
Sun Jan 05 20:50:35 CST 2014	<firstPlayerPossibleGoal1>
Sun Jan 05 20:50:35 CST 2014	0.5
Sun Jan 05 20:50:35 CST 2014	0
Sun Jan 05 20:50:35 CST 2014	0
Sun Jan 05 20:50:35 CST 2014	</firstPlayerPossibleGoal1>
Sun Jan 05 20:50:35 CST 2014	<firstPlayerPossibleGoal2>
Sun Jan 05 20:50:35 CST 2014	0.5
Sun Jan 05 20:50:35 CST 2014	0
Sun Jan 05 20:50:35 CST 2014	8
Sun Jan 05 20:50:35 CST 2014	</firstPlayerPossibleGoal2>
Sun Jan 05 20:50:35 CST 2014	<numberOfPlayers>
Sun Jan 05 20:50:35 CST 2014	3
Sun Jan 05 20:50:35 CST 2014	<firstPlayerChips>
Sun Jan 05 20:50:35 CST 2014	Setting chips for player: 500 id:0
Sun Jan 05 20:50:35 CST 2014	{ chips  'CTRed':0 'CTGreen':0 'CTPurple':0 'grey78':12 'CTYellow':12 }
Sun Jan 05 20:50:35 CST 2014	Player position: (R:5,C:4)
Sun Jan 05 20:50:35 CST 2014	Setting chips for player: 530 id:1
Sun Jan 05 20:50:35 CST 2014	{ chips  'CTRed':33 'CTGreen':0 'CTPurple':7 'grey78':0 'CTYellow':0 }
Sun Jan 05 20:50:35 CST 2014	Player position: (R:0,C:8)
Sun Jan 05 20:50:35 CST 2014	Setting chips for player: 540 id:2
Sun Jan 05 20:50:35 CST 2014	{ chips  'CTRed':33 'CTGreen':0 'CTPurple':7 'grey78':0 'CTYellow':0 }
Sun Jan 05 20:50:35 CST 2014	Player position: (R:0,C:0)
Sun Jan 05 20:50:35 CST 2014	Protocol: A New Phase Began: Strategy Prep Phase. loop is true
Sun Jan 05 20:50:35 CST 2014	---------- Beginning Strategy Prep Phase at round 0 ----------
Sun Jan 05 20:51:35 CST 2014	A Phase Ended: Strategy Prep Phase
Sun Jan 05 20:51:35 CST 2014	Protocol: A New Phase Began: Communication Phase. loop is true
Sun Jan 05 20:51:35 CST 2014	---------- Beginning Communication Phase at round 1 ----------
Sun Jan 05 20:51:41 CST 2014	Received communication message 
Sun Jan 05 20:51:41 CST 2014	From player: 530
Sun Jan 05 20:51:41 CST 2014	To player: 500
Sun Jan 05 20:51:41 CST 2014	Chips to send by proposer: { chips  'CTRed':33 'CTPurple':7 'CTYellow':0 }
Sun Jan 05 20:51:41 CST 2014	Chips to send by responder: { chips  'grey78':11 }
Sun Jan 05 20:51:50 CST 2014	Received communication message 
Sun Jan 05 20:51:50 CST 2014	Proposer 0 accepted? true
Sun Jan 05 20:51:50 CST 2014	A Phase Ended: Communication Phase
Sun Jan 05 20:51:50 CST 2014	Protocol: A New Phase Began: Movement Phase. loop is true
Sun Jan 05 20:51:50 CST 2014	---------- Beginning Movement Phase at round 1 ----------
Sun Jan 05 20:51:50 CST 2014	remove strategy phase. 
Sun Jan 05 20:52:34 CST 2014	A Phase Ended: Movement Phase
Sun Jan 05 20:52:34 CST 2014	Protocol: A New Phase Began: Feedback Phase. loop is true
Sun Jan 05 20:52:34 CST 2014	---------- Beginning Feedback Phase at round 1 ----------
Sun Jan 05 20:52:34 CST 2014	Number of consecutive no movements for player 500 is 1
Sun Jan 05 20:52:34 CST 2014	TDPlayerPosition is(R:5,C:4)goal location 0(R:0,C:0)goal location 1(R:0,C:8)
Sun Jan 05 20:52:34 CST 2014	ended is false
Sun Jan 05 20:52:39 CST 2014	A Phase Ended: Feedback Phase
Sun Jan 05 20:52:39 CST 2014	 numberofMoves in round 1 is 0
Sun Jan 05 20:52:39 CST 2014	Swaping roles:
Sun Jan 05 20:52:39 CST 2014	Protocol: A New Phase Began: Communication Phase. loop is true
Sun Jan 05 20:52:39 CST 2014	---------- Beginning Communication Phase at round 2 ----------
Sun Jan 05 20:53:39 CST 2014	Received communication message 
Sun Jan 05 20:53:39 CST 2014	From player: 500
Sun Jan 05 20:53:39 CST 2014	To player: 540
Sun Jan 05 20:53:39 CST 2014	Chips to send by proposer: { chips  'CTRed':0 'CTPurple':0 'CTGreen':0 'grey78':0 'CTYellow':0 }
Sun Jan 05 20:53:39 CST 2014	Chips to send by responder: { chips  'CTRed':10 'CTPurple':5 'CTGreen':0 'grey78':0 'CTYellow':0 }
Sun Jan 05 20:53:50 CST 2014	Received communication message 
Sun Jan 05 20:53:50 CST 2014	Proposer 1 accepted? false
Sun Jan 05 20:53:50 CST 2014	case that we had one reject, and one accept
Sun Jan 05 20:53:50 CST 2014	A Phase Ended: Communication Phase
Sun Jan 05 20:53:50 CST 2014	Protocol: A New Phase Began: Movement Phase. loop is true
Sun Jan 05 20:53:50 CST 2014	---------- Beginning Movement Phase at round 2 ----------
Sun Jan 05 20:54:34 CST 2014	A Phase Ended: Movement Phase
Sun Jan 05 20:54:34 CST 2014	Protocol: A New Phase Began: Feedback Phase. loop is true
Sun Jan 05 20:54:34 CST 2014	---------- Beginning Feedback Phase at round 2 ----------
Sun Jan 05 20:54:34 CST 2014	Number of consecutive no movements for player 500 is 0
Sun Jan 05 20:54:34 CST 2014	TDPlayerPosition is(R:5,C:5)goal location 0(R:0,C:0)goal location 1(R:0,C:8)
Sun Jan 05 20:54:34 CST 2014	ended is false
Sun Jan 05 20:54:39 CST 2014	A Phase Ended: Feedback Phase
Sun Jan 05 20:54:39 CST 2014	 numberofMoves in round 2 is 1
Sun Jan 05 20:54:39 CST 2014	Swaping roles:
Sun Jan 05 20:54:39 CST 2014	Protocol: A New Phase Began: Communication Phase. loop is true
Sun Jan 05 20:54:39 CST 2014	---------- Beginning Communication Phase at round 3 ----------
Sun Jan 05 20:54:39 CST 2014	Received communication message 
Sun Jan 05 20:54:39 CST 2014	From player: 530
Sun Jan 05 20:54:39 CST 2014	To player: 500
Sun Jan 05 20:54:39 CST 2014	Chips to send by proposer: { chips  'CTRed':0 'CTPurple':0 'CTYellow':0 }
Sun Jan 05 20:54:39 CST 2014	Chips to send by responder: { chips  'grey78':0 }
Sun Jan 05 20:55:00 CST 2014	Received communication message 
Sun Jan 05 20:55:00 CST 2014	Proposer 0 accepted? false
Sun Jan 05 20:55:00 CST 2014	case that we had one reject, and one accept
Sun Jan 05 20:55:27 CST 2014	Received communication message 
Sun Jan 05 20:55:27 CST 2014	From player: 540
Sun Jan 05 20:55:27 CST 2014	To player: 500
Sun Jan 05 20:55:27 CST 2014	Chips to send by proposer: { chips  'CTRed':0 'CTPurple':3 'CTGreen':0 'grey78':0 'CTYellow':0 }
Sun Jan 05 20:55:27 CST 2014	Chips to send by responder: { chips  'CTRed':33 'CTPurple':7 'CTGreen':0 'grey78':1 'CTYellow':0 }
Sun Jan 05 20:55:44 CST 2014	Received communication message 
Sun Jan 05 20:55:44 CST 2014	Proposer 1 accepted? false
Sun Jan 05 20:55:44 CST 2014	case that we had one reject, and one accept
Sun Jan 05 20:55:44 CST 2014	A Phase Ended: Communication Phase
Sun Jan 05 20:55:44 CST 2014	Protocol: A New Phase Began: Movement Phase. loop is true
Sun Jan 05 20:55:44 CST 2014	---------- Beginning Movement Phase at round 3 ----------
Sun Jan 05 20:56:28 CST 2014	A Phase Ended: Movement Phase
Sun Jan 05 20:56:28 CST 2014	Protocol: A New Phase Began: Feedback Phase. loop is true
Sun Jan 05 20:56:28 CST 2014	---------- Beginning Feedback Phase at round 3 ----------
Sun Jan 05 20:56:28 CST 2014	Number of consecutive no movements for player 500 is 0
Sun Jan 05 20:56:28 CST 2014	TDPlayerPosition is(R:3,C:5)goal location 0(R:0,C:0)goal location 1(R:0,C:8)
Sun Jan 05 20:56:28 CST 2014	ended is false
Sun Jan 05 20:56:33 CST 2014	A Phase Ended: Feedback Phase
Sun Jan 05 20:56:33 CST 2014	 numberofMoves in round 3 is 2
Sun Jan 05 20:56:33 CST 2014	Swaping roles:
Sun Jan 05 20:56:33 CST 2014	Protocol: A New Phase Began: Communication Phase. loop is true
Sun Jan 05 20:56:33 CST 2014	---------- Beginning Communication Phase at round 4 ----------
Sun Jan 05 20:57:00 CST 2014	Received communication message 
Sun Jan 05 20:57:00 CST 2014	From player: 500
Sun Jan 05 20:57:00 CST 2014	To player: 540
Sun Jan 05 20:57:00 CST 2014	Chips to send by proposer: { chips  'CTRed':0 'CTPurple':0 'CTGreen':0 'grey78':0 'CTYellow':0 }
Sun Jan 05 20:57:00 CST 2014	Chips to send by responder: { chips  'CTRed':5 'CTPurple':5 'CTGreen':0 'grey78':0 'CTYellow':0 }
Sun Jan 05 20:57:12 CST 2014	Received communication message 
Sun Jan 05 20:57:12 CST 2014	Proposer 1 accepted? false
Sun Jan 05 20:57:12 CST 2014	case that we had one reject, and one accept
Sun Jan 05 20:57:12 CST 2014	A Phase Ended: Communication Phase
Sun Jan 05 20:57:12 CST 2014	Protocol: A New Phase Began: Movement Phase. loop is true
Sun Jan 05 20:57:12 CST 2014	---------- Beginning Movement Phase at round 4 ----------
Sun Jan 05 20:57:56 CST 2014	A Phase Ended: Movement Phase
Sun Jan 05 20:57:56 CST 2014	Protocol: A New Phase Began: Feedback Phase. loop is true
Sun Jan 05 20:57:56 CST 2014	---------- Beginning Feedback Phase at round 4 ----------
Sun Jan 05 20:57:56 CST 2014	Number of consecutive no movements for player 500 is 0
Sun Jan 05 20:57:56 CST 2014	TDPlayerPosition is(R:3,C:6)goal location 0(R:0,C:0)goal location 1(R:0,C:8)
Sun Jan 05 20:57:56 CST 2014	ended is false
Sun Jan 05 20:58:01 CST 2014	A Phase Ended: Feedback Phase
Sun Jan 05 20:58:01 CST 2014	 numberofMoves in round 4 is 1
Sun Jan 05 20:58:01 CST 2014	Swaping roles:
Sun Jan 05 20:58:01 CST 2014	Protocol: A New Phase Began: Communication Phase. loop is true
Sun Jan 05 20:58:01 CST 2014	---------- Beginning Communication Phase at round 5 ----------
Sun Jan 05 20:58:01 CST 2014	Received communication message 
Sun Jan 05 20:58:01 CST 2014	From player: 530
Sun Jan 05 20:58:01 CST 2014	To player: 500
Sun Jan 05 20:58:01 CST 2014	Chips to send by proposer: { chips  'CTRed':0 'CTPurple':0 'CTYellow':0 }
Sun Jan 05 20:58:01 CST 2014	Chips to send by responder: { chips  'grey78':0 }
Sun Jan 05 20:58:08 CST 2014	Received communication message 
Sun Jan 05 20:58:08 CST 2014	Proposer 0 accepted? true
Sun Jan 05 20:58:08 CST 2014	A Phase Ended: Communication Phase
Sun Jan 05 20:58:08 CST 2014	Protocol: A New Phase Began: Movement Phase. loop is true
Sun Jan 05 20:58:08 CST 2014	---------- Beginning Movement Phase at round 5 ----------
Sun Jan 05 20:58:53 CST 2014	A Phase Ended: Movement Phase
Sun Jan 05 20:58:53 CST 2014	Protocol: A New Phase Began: Feedback Phase. loop is true
Sun Jan 05 20:58:53 CST 2014	---------- Beginning Feedback Phase at round 5 ----------
Sun Jan 05 20:58:53 CST 2014	Number of consecutive no movements for player 500 is 0
Sun Jan 05 20:58:53 CST 2014	TDPlayerPosition is(R:2,C:7)goal location 0(R:0,C:0)goal location 1(R:0,C:8)
Sun Jan 05 20:58:53 CST 2014	ended is false
Sun Jan 05 20:58:58 CST 2014	A Phase Ended: Feedback Phase
Sun Jan 05 20:58:58 CST 2014	 numberofMoves in round 5 is 2
Sun Jan 05 20:58:58 CST 2014	Swaping roles:
Sun Jan 05 20:58:58 CST 2014	Protocol: A New Phase Began: Communication Phase. loop is true
Sun Jan 05 20:58:58 CST 2014	---------- Beginning Communication Phase at round 6 ----------
Sun Jan 05 20:59:32 CST 2014	Received communication message 
Sun Jan 05 20:59:32 CST 2014	From player: 500
Sun Jan 05 20:59:32 CST 2014	To player: 540
Sun Jan 05 20:59:32 CST 2014	Chips to send by proposer: { chips  'CTRed':0 'CTPurple':0 'CTGreen':0 'grey78':0 'CTYellow':0 }
Sun Jan 05 20:59:32 CST 2014	Chips to send by responder: { chips  'CTRed':20 'CTPurple':5 'CTGreen':0 'grey78':0 'CTYellow':0 }
Sun Jan 05 20:59:39 CST 2014	Received communication message 
Sun Jan 05 20:59:39 CST 2014	Proposer 1 accepted? false
Sun Jan 05 20:59:39 CST 2014	case that we had one reject, and one accept
Sun Jan 05 20:59:39 CST 2014	A Phase Ended: Communication Phase
Sun Jan 05 20:59:39 CST 2014	Protocol: A New Phase Began: Movement Phase. loop is true
Sun Jan 05 20:59:39 CST 2014	---------- Beginning Movement Phase at round 6 ----------
Sun Jan 05 21:00:23 CST 2014	A Phase Ended: Movement Phase
Sun Jan 05 21:00:23 CST 2014	Protocol: A New Phase Began: Feedback Phase. loop is true
Sun Jan 05 21:00:23 CST 2014	---------- Beginning Feedback Phase at round 6 ----------
Sun Jan 05 21:00:23 CST 2014	Number of consecutive no movements for player 500 is 1
Sun Jan 05 21:00:23 CST 2014	TDPlayerPosition is(R:2,C:7)goal location 0(R:0,C:0)goal location 1(R:0,C:8)
Sun Jan 05 21:00:23 CST 2014	ended is false
Sun Jan 05 21:00:28 CST 2014	A Phase Ended: Feedback Phase
Sun Jan 05 21:00:28 CST 2014	 numberofMoves in round 6 is 0
Sun Jan 05 21:00:28 CST 2014	Swaping roles:
Sun Jan 05 21:00:28 CST 2014	Protocol: A New Phase Began: Communication Phase. loop is true
Sun Jan 05 21:00:28 CST 2014	---------- Beginning Communication Phase at round 7 ----------
Sun Jan 05 21:00:28 CST 2014	Received communication message 
Sun Jan 05 21:00:28 CST 2014	From player: 530
Sun Jan 05 21:00:28 CST 2014	To player: 500
Sun Jan 05 21:00:28 CST 2014	Chips to send by proposer: { chips  'CTRed':0 'CTPurple':0 'CTYellow':0 }
Sun Jan 05 21:00:28 CST 2014	Chips to send by responder: { chips  'grey78':0 }
Sun Jan 05 21:00:38 CST 2014	Received communication message 
Sun Jan 05 21:00:38 CST 2014	Proposer 0 accepted? false
Sun Jan 05 21:00:38 CST 2014	case that we had one reject, and one accept
Sun Jan 05 21:00:52 CST 2014	Received communication message 
Sun Jan 05 21:00:52 CST 2014	From player: 540
Sun Jan 05 21:00:52 CST 2014	To player: 500
Sun Jan 05 21:00:52 CST 2014	Chips to send by proposer: { chips  'CTRed':0 'CTPurple':0 'CTGreen':0 'grey78':0 'CTYellow':0 }
Sun Jan 05 21:00:52 CST 2014	Chips to send by responder: { chips  'CTRed':22 'CTPurple':6 'CTGreen':0 'grey78':1 'CTYellow':7 }
Sun Jan 05 21:01:56 CST 2014	Received communication message 
Sun Jan 05 21:01:56 CST 2014	Proposer 1 accepted? false
Sun Jan 05 21:01:56 CST 2014	case that we had one reject, and one accept
Sun Jan 05 21:01:56 CST 2014	A Phase Ended: Communication Phase
Sun Jan 05 21:01:56 CST 2014	Protocol: A New Phase Began: Movement Phase. loop is true
Sun Jan 05 21:01:56 CST 2014	---------- Beginning Movement Phase at round 7 ----------
Sun Jan 05 21:02:40 CST 2014	A Phase Ended: Movement Phase
Sun Jan 05 21:02:40 CST 2014	Protocol: A New Phase Began: Feedback Phase. loop is true
Sun Jan 05 21:02:40 CST 2014	---------- Beginning Feedback Phase at round 7 ----------
Sun Jan 05 21:02:40 CST 2014	Number of consecutive no movements for player 500 is 0
Sun Jan 05 21:02:40 CST 2014	TDPlayerPosition is(R:1,C:8)goal location 0(R:0,C:0)goal location 1(R:0,C:8)
Sun Jan 05 21:02:40 CST 2014	ended is false
Sun Jan 05 21:02:45 CST 2014	A Phase Ended: Feedback Phase
Sun Jan 05 21:02:45 CST 2014	 numberofMoves in round 7 is 2
Sun Jan 05 21:02:45 CST 2014	Swaping roles:
Sun Jan 05 21:02:45 CST 2014	Protocol: A New Phase Began: Communication Phase. loop is true
Sun Jan 05 21:02:45 CST 2014	---------- Beginning Communication Phase at round 8 ----------
Sun Jan 05 21:03:31 CST 2014	Received communication message 
Sun Jan 05 21:03:31 CST 2014	From player: 500
Sun Jan 05 21:03:31 CST 2014	To player: 540
Sun Jan 05 21:03:31 CST 2014	Chips to send by proposer: { chips  'CTRed':0 'CTPurple':0 'CTGreen':0 'grey78':0 'CTYellow':0 }
Sun Jan 05 21:03:31 CST 2014	Chips to send by responder: { chips  'CTRed':33 'CTPurple':7 'CTGreen':0 'grey78':0 'CTYellow':0 }
Sun Jan 05 21:03:42 CST 2014	Received communication message 
Sun Jan 05 21:03:42 CST 2014	Proposer 1 accepted? false
Sun Jan 05 21:03:42 CST 2014	case that we had one reject, and one accept
Sun Jan 05 21:03:42 CST 2014	A Phase Ended: Communication Phase
Sun Jan 05 21:03:42 CST 2014	Protocol: A New Phase Began: Movement Phase. loop is true
Sun Jan 05 21:03:42 CST 2014	---------- Beginning Movement Phase at round 8 ----------
Sun Jan 05 21:04:26 CST 2014	A Phase Ended: Movement Phase
Sun Jan 05 21:04:26 CST 2014	Protocol: A New Phase Began: Feedback Phase. loop is true
Sun Jan 05 21:04:26 CST 2014	---------- Beginning Feedback Phase at round 8 ----------
Sun Jan 05 21:04:26 CST 2014	The TD player reached the goal, end the game
Sun Jan 05 21:04:26 CST 2014	ended is true
Sun Jan 05 21:04:31 CST 2014	A Phase Ended: Feedback Phase
Sun Jan 05 21:04:31 CST 2014	 numberofMoves in round 8 is 1
Sun Jan 05 21:04:31 CST 2014	Loop status: false
Sun Jan 05 21:04:31 CST 2014	Player: 500 ,role: Proposer score is: 370
Sun Jan 05 21:04:31 CST 2014	Player: 500Game Ended
Sun Jan 05 21:04:31 CST 2014	Player: 540 ,role: Responder score is: 200
Sun Jan 05 21:04:31 CST 2014	Player: 540Game Ended
Sun Jan 05 21:04:31 CST 2014	Player: 530 ,role: Responder score is: 205
Sun Jan 05 21:04:31 CST 2014	Player: 530Game Ended
Sun Jan 05 21:04:31 CST 2014	Protocol: A New Phase Began: Communication Phase. loop is false
Sun Jan 05 21:04:31 CST 2014	---------- Beginning Communication Phase at round 8 ----------
Sun Jan 05 21:07:31 CST 2014	A Phase Ended: Communication Phase
Sun Jan 05 21:07:31 CST 2014	Protocol: A New Phase Began: Movement Phase. loop is false
Sun Jan 05 21:07:31 CST 2014	---------- Beginning Movement Phase at round 8 ----------
Sun Jan 05 21:08:16 CST 2014	A Phase Ended: Movement Phase
Sun Jan 05 21:08:16 CST 2014	Protocol: A New Phase Began: Feedback Phase. loop is false
Sun Jan 05 21:08:16 CST 2014	---------- Beginning Feedback Phase at round 8 ----------
Sun Jan 05 21:08:16 CST 2014	The TD player reached the goal, end the game
Sun Jan 05 21:08:16 CST 2014	ended is true
Sun Jan 05 21:08:21 CST 2014	A Phase Ended: Feedback Phase
Sun Jan 05 21:08:21 CST 2014	 numberofMoves in round 8 is 0
Sun Jan 05 21:08:21 CST 2014	Loop status: false
Sun Jan 05 21:08:21 CST 2014	Player: 500 ,role: GameEnded score is: 370
Sun Jan 05 21:08:21 CST 2014	Player: 500Game Ended
Sun Jan 05 21:08:21 CST 2014	Player: 540 ,role: GameEnded score is: 200
Sun Jan 05 21:08:21 CST 2014	Player: 540Game Ended
Sun Jan 05 21:08:21 CST 2014	Player: 530 ,role: GameEnded score is: 205
Sun Jan 05 21:08:21 CST 2014	Player: 530Game Ended
