filename,round,propID,respID,IsPropCustomer,chipsToSend,chipsToReceive,accept,propCurrentScore,respCurrentScore,actualSent,ActualRcvd,propResultingScore,respResultingScore,#ofCustomerMovesInRound,customerRowPositionAfterMovePhase,customerColPositionAfterMovePhase,Player100ChipsAfterMovePhase,Player100ScoreAfterMovePhase,Player200ChipsAfterMovePhase,Player200ScoreAfterMovePhase,Player300ChipsAfterMovePhase,Player300ScoreAfterMovePhase,generosityLevel,ClientReachedGoal
3playersLog_1384531374841.csv,1,200,100,FALSE,{ chips  'CTRed':15 'CTPurple':3 },{ chips  },IGNORED,200,120,,,,,6,(R:2,C:1),{ chips  'CTRed':20 'CTGreen':0 'CTPurple':7 'grey78':6 'CTYellow':1 },170,{ chips  'CTRed':33 'CTGreen':0 'CTPurple':7 'grey78':0 'CTYellow':0 },200,{ chips  'CTRed':13 'CTGreen':0 'CTPurple':0 'grey78':0 'CTYellow':11 },120,,
3playersLog_1384531374841.csv,1,300,100,FALSE,{ chips  'CTRed':20 'CTPurple':7 },{ chips  'CTYellow':11 },TRUE,200,120,{ chips  'CTRed':20 'CTPurple':7 'CTGreen':0 'grey78':0 'CTYellow':0 },{ chips  'CTRed':0 'CTPurple':0 'CTGreen':0 'grey78':0 'CTYellow':11 },120,200,6,(R:2,C:1),{ chips  'CTRed':20 'CTGreen':0 'CTPurple':7 'grey78':6 'CTYellow':1 },170,{ chips  'CTRed':33 'CTGreen':0 'CTPurple':7 'grey78':0 'CTYellow':0 },200,{ chips  'CTRed':13 'CTGreen':0 'CTPurple':0 'grey78':0 'CTYellow':11 },120,,
3playersLog_1384531374841.csv,2,,,,,,,,,,,,,3,(R:0,C:0),{ chips  'CTRed':20 'CTGreen':0 'CTPurple':6 'grey78':4 'CTYellow':1 },305,{ chips  'CTRed':33 'CTGreen':0 'CTPurple':7 'grey78':0 'CTYellow':0 },200,{ chips  'CTRed':13 'CTGreen':0 'CTPurple':0 'grey78':0 'CTYellow':11 },270,,
3playersLog_1384531374841.csv,,,,,,,,,,,,,,,,,,,,,,,,TRUE
