filename,round,propID,respID,IsPropCustomer,chipsToSend,chipsToReceive,accept,propCurrentScore,respCurrentScore,actualSent,ActualRcvd,propResultingScore,respResultingScore,#ofCustomerMovesInRound,customerRowPositionAfterMovePhase,customerColPositionAfterMovePhase,Player100ChipsAfterMovePhase,Player100ScoreAfterMovePhase,Player200ChipsAfterMovePhase,Player200ScoreAfterMovePhase,Player300ChipsAfterMovePhase,Player300ScoreAfterMovePhase,generosityLevel,ClientReachedGoal
3playersLog_1390305125127.csv,1,560,500,false,{ chips  'CTRed':14 },{ chips  },TRUE,200,120,{ chips  'CTRed':14 },{ chips  'grey78':0 },130,190,0,(R:5,C:4),{ chips  'CTRed':14 'CTGreen':0 'CTPurple':0 'grey78':12 'CTYellow':12 },190,{ chips  'CTRed':19 'CTGreen':0 'CTPurple':7 'grey78':0 'CTYellow':0 },130,{ chips  'CTRed':33 'CTGreen':0 'CTPurple':7 'grey78':0 'CTYellow':0 },200
3playersLog_1390305125127.csv,1,540,500,false,{ chips  'CTRed':1 'CTPurple':1 },{ chips  },IGNORED,200,120,,,,,0,(R:5,C:4),{ chips  'CTRed':14 'CTGreen':0 'CTPurple':0 'grey78':12 'CTYellow':12 },190,{ chips  'CTRed':19 'CTGreen':0 'CTPurple':7 'grey78':0 'CTYellow':0 },130,{ chips  'CTRed':33 'CTGreen':0 'CTPurple':7 'grey78':0 'CTYellow':0 },200
3playersLog_1390305125127.csv,2,500,560,true,{ chips  'CTRed':8 },{ chips  'CTPurple':4 },TRUE,190,130,{ chips  'CTRed':8 'CTPurple':0 'CTGreen':0 'grey78':0 'CTYellow':0 },{ chips  'CTRed':0 'CTPurple':4 'CTGreen':0 'grey78':0 'CTYellow':0 },170,150,3,(R:4,C:6),{ chips  'CTRed':6 'CTGreen':0 'CTPurple':4 'grey78':12 'CTYellow':9 },155,{ chips  'CTRed':27 'CTGreen':0 'CTPurple':3 'grey78':0 'CTYellow':0 },150,{ chips  'CTRed':33 'CTGreen':0 'CTPurple':7 'grey78':0 'CTYellow':0 },200
3playersLog_1390305125127.csv,3,560,500,false,{ chips  'CTRed':3 },{ chips  },IGNORED,150,155,,,,,1,(R:3,C:6),{ chips  'CTRed':11 'CTGreen':0 'CTPurple':6 'grey78':12 'CTYellow':8 },185,{ chips  'CTRed':27 'CTGreen':0 'CTPurple':3 'grey78':0 'CTYellow':0 },150,{ chips  'CTRed':28 'CTGreen':0 'CTPurple':5 'grey78':0 'CTYellow':0 },165
3playersLog_1390305125127.csv,3,540,500,false,{ chips  'CTRed':5 'CTPurple':2 },{ chips  },TRUE,200,155,{ chips  'CTRed':5 'CTPurple':2 'CTGreen':0 'grey78':0 'CTYellow':0 },{ chips  'CTRed':0 'CTPurple':0 'CTGreen':0 'grey78':0 'CTYellow':0 },165,190,1,(R:3,C:6),{ chips  'CTRed':11 'CTGreen':0 'CTPurple':6 'grey78':12 'CTYellow':8 },185,{ chips  'CTRed':27 'CTGreen':0 'CTPurple':3 'grey78':0 'CTYellow':0 },150,{ chips  'CTRed':28 'CTGreen':0 'CTPurple':5 'grey78':0 'CTYellow':0 },165
3playersLog_1390305125127.csv,4,500,560,true,{ chips  'grey78':2 },{ chips  'CTPurple':3 },TRUE,185,150,{ chips  'CTRed':0 'CTPurple':0 'CTGreen':0 'grey78':2 'CTYellow':0 },{ chips  'CTRed':0 'CTPurple':3 'CTGreen':0 'grey78':0 'CTYellow':0 },190,145,2,(R:2,C:7),{ chips  'CTRed':11 'CTGreen':0 'CTPurple':9 'grey78':10 'CTYellow':6 },180,{ chips  'CTRed':27 'CTGreen':0 'CTPurple':0 'grey78':2 'CTYellow':0 },145,{ chips  'CTRed':28 'CTGreen':0 'CTPurple':5 'grey78':0 'CTYellow':0 },165
3playersLog_1390305125127.csv,5,560,500,false,{ chips  'CTRed':3 },{ chips  },IGNORED,145,180,,,,,1,(R:1,C:7),{ chips  'CTRed':21 'CTGreen':0 'CTPurple':7 'grey78':5 'CTYellow':6 },195,{ chips  'CTRed':27 'CTGreen':0 'CTPurple':0 'grey78':2 'CTYellow':0 },145,{ chips  'CTRed':18 'CTGreen':0 'CTPurple':6 'grey78':5 'CTYellow':0 },145
3playersLog_1390305125127.csv,5,540,500,false,{ chips  'CTRed':10 'CTPurple':2 },{ chips  'CTPurple':3 'grey78':5 },TRUE,165,180,{ chips  'CTRed':10 'CTPurple':2 'CTGreen':0 'grey78':0 'CTYellow':0 },{ chips  'CTRed':0 'CTPurple':3 'CTGreen':0 'grey78':5 'CTYellow':0 },145,200,1,(R:1,C:7),{ chips  'CTRed':21 'CTGreen':0 'CTPurple':7 'grey78':5 'CTYellow':6 },195,{ chips  'CTRed':27 'CTGreen':0 'CTPurple':0 'grey78':2 'CTYellow':0 },145,{ chips  'CTRed':18 'CTGreen':0 'CTPurple':6 'grey78':5 'CTYellow':0 },145
3playersLog_1390305125127.csv,6,500,540,true,{ chips  'CTRed':3 'CTYellow':2 },{ chips  'CTPurple':5 'grey78':3 },FALSE,195,145,,,,,1,(R:1,C:8),{ chips  'CTRed':21 'CTGreen':0 'CTPurple':7 'grey78':5 'CTYellow':5 },190,{ chips  'CTRed':27 'CTGreen':0 'CTPurple':0 'grey78':2 'CTYellow':0 },145,{ chips  'CTRed':18 'CTGreen':0 'CTPurple':6 'grey78':5 'CTYellow':0 },145
3playersLog_1390305125127.csv,7,560,500,false,{ chips  'CTRed':4 },{ chips  },IGNORED,145,190,,,,,1,(R:0,C:8),{ chips  'CTRed':26 'CTGreen':0 'CTPurple':12 'grey78':0 'CTYellow':4 },360,{ chips  'CTRed':27 'CTGreen':0 'CTPurple':0 'grey78':2 'CTYellow':0 },295,{ chips  'CTRed':13 'CTGreen':0 'CTPurple':1 'grey78':10 'CTYellow':0 },120
3playersLog_1390305125127.csv,7,540,500,false,{ chips  'CTRed':5 'CTPurple':5 },{ chips  'grey78':5 },TRUE,145,190,{ chips  'CTRed':5 'CTPurple':5 'CTGreen':0 'grey78':0 'CTYellow':0 },{ chips  'CTRed':0 'CTPurple':0 'CTGreen':0 'grey78':5 'CTYellow':0 },120,215,1,(R:0,C:8),{ chips  'CTRed':26 'CTGreen':0 'CTPurple':12 'grey78':0 'CTYellow':4 },360,{ chips  'CTRed':27 'CTGreen':0 'CTPurple':0 'grey78':2 'CTYellow':0 },295,{ chips  'CTRed':13 'CTGreen':0 'CTPurple':1 'grey78':10 'CTYellow':0 },120
3playersLog_1390305125127.csv,,,,,,,,,,,,,,,,,,,,,,,,true
