filename,round,propID,respID,IsPropCustomer,chipsToSend,chipsToReceive,accept,propCurrentScore,respCurrentScore,actualSent,ActualRcvd,propResultingScore,respResultingScore,#ofCustomerMovesInRound,customerRowPositionAfterMovePhase,customerColPositionAfterMovePhase,Player100ChipsAfterMovePhase,Player100ScoreAfterMovePhase,Player200ChipsAfterMovePhase,Player200ScoreAfterMovePhase,Player300ChipsAfterMovePhase,Player300ScoreAfterMovePhase,generosityLevel,ClientReachedGoal
3playersLog_1389794210393.csv,1,560,500,false,{ chips  'CTRed':15 },{ chips  },TRUE,200,120,{ chips  'CTRed':15 },{ chips  'grey78':0 },125,195,6,(R:2,C:7),{ chips  'CTRed':15 'CTGreen':0 'CTPurple':0 'grey78':12 'CTYellow':6 },165,{ chips  'CTRed':18 'CTGreen':0 'CTPurple':7 'grey78':0 'CTYellow':0 },125,{ chips  'CTRed':33 'CTGreen':0 'CTPurple':7 'grey78':0 'CTYellow':0 },200
3playersLog_1389794210393.csv,1,540,500,false,{ chips  'CTRed':5 },{ chips  'CTYellow':3 },IGNORED,200,120,,,,,6,(R:2,C:7),{ chips  'CTRed':15 'CTGreen':0 'CTPurple':0 'grey78':12 'CTYellow':6 },165,{ chips  'CTRed':18 'CTGreen':0 'CTPurple':7 'grey78':0 'CTYellow':0 },125,{ chips  'CTRed':33 'CTGreen':0 'CTPurple':7 'grey78':0 'CTYellow':0 },200
3playersLog_1389794210393.csv,2,500,560,true,{ chips  'CTYellow':4 },{ chips  'CTRed':15 'CTPurple':7 },FALSE,165,125,,,,,3,(R:0,C:8),{ chips  'CTRed':15 'CTGreen':0 'CTPurple':0 'grey78':12 'CTYellow':3 },300,{ chips  'CTRed':18 'CTGreen':0 'CTPurple':7 'grey78':0 'CTYellow':0 },275,{ chips  'CTRed':33 'CTGreen':0 'CTPurple':7 'grey78':0 'CTYellow':0 },200
3playersLog_1389794210393.csv,,,,,,,,,,,,,,,,,,,,,,,,true
