filename,round,propID,respID,IsPropCustomer,chipsToSend,chipsToReceive,accept,propCurrentScore,respCurrentScore,actualSent,ActualRcvd,propResultingScore,respResultingScore,#ofCustomerMovesInRound,customerRowPositionAfterMovePhase,customerColPositionAfterMovePhase,Player100ChipsAfterMovePhase,Player100ScoreAfterMovePhase,Player200ChipsAfterMovePhase,Player200ScoreAfterMovePhase,Player300ChipsAfterMovePhase,Player300ScoreAfterMovePhase,generosityLevel,ClientReachedGoal
3playersLog_1389794210393.csv,1,560,500,FALSE,{ chips  'CTRed':15 },{ chips  },TRUE,200,120,{ chips  'CTRed':15 },{ chips  'grey78':0 },125,195,6,(R:2,C:7),{ chips  'CTRed':15 'CTGreen':0 'CTPurple':0 'grey78':12 'CTYellow':6 },165,{ chips  'CTRed':18 'CTGreen':0 'CTPurple':7 'grey78':0 'CTYellow':0 },125,{ chips  'CTRed':33 'CTGreen':0 'CTPurple':7 'grey78':0 'CTYellow':0 },200,,
3playersLog_1389794210393.csv,1,540,500,FALSE,{ chips  'CTRed':5 },{ chips  'CTYellow':3 },IGNORED,200,120,,,,,6,(R:2,C:7),{ chips  'CTRed':15 'CTGreen':0 'CTPurple':0 'grey78':12 'CTYellow':6 },165,{ chips  'CTRed':18 'CTGreen':0 'CTPurple':7 'grey78':0 'CTYellow':0 },125,{ chips  'CTRed':33 'CTGreen':0 'CTPurple':7 'grey78':0 'CTYellow':0 },200,,
3playersLog_1389794210393.csv,2,500,560,TRUE,{ chips  'CTYellow':4 },{ chips  'CTRed':15 'CTPurple':7 },FALSE,165,125,,,,,3,(R:0,C:8),{ chips  'CTRed':15 'CTGreen':0 'CTPurple':0 'grey78':12 'CTYellow':3 },300,{ chips  'CTRed':18 'CTGreen':0 'CTPurple':7 'grey78':0 'CTYellow':0 },275,{ chips  'CTRed':33 'CTGreen':0 'CTPurple':7 'grey78':0 'CTYellow':0 },200,,
3playersLog_1389794210393.csv,,,,,,,,,,,,,,,,,,,,,,,,TRUE
3playersLog_1389794215639.csv,1,560,500,FALSE,{ chips  'CTRed':15 },{ chips  },TRUE,200,120,{ chips  'CTRed':15 },{ chips  'grey78':0 },125,195,4,(R:3,C:6),{ chips  'CTRed':15 'CTGreen':0 'CTPurple':0 'grey78':12 'CTYellow':8 },175,{ chips  'CTRed':18 'CTGreen':0 'CTPurple':7 'grey78':0 'CTYellow':0 },125,{ chips  'CTRed':33 'CTGreen':0 'CTPurple':7 'grey78':0 'CTYellow':0 },200,,
3playersLog_1389794215639.csv,1,540,500,FALSE,{ chips  'CTRed':4 'CTPurple':1 },{ chips  },IGNORED,200,120,,,,,4,(R:3,C:6),{ chips  'CTRed':15 'CTGreen':0 'CTPurple':0 'grey78':12 'CTYellow':8 },175,{ chips  'CTRed':18 'CTGreen':0 'CTPurple':7 'grey78':0 'CTYellow':0 },125,{ chips  'CTRed':33 'CTGreen':0 'CTPurple':7 'grey78':0 'CTYellow':0 },200,,
3playersLog_1389794215639.csv,2,500,540,TRUE,{ chips  },{ chips  'CTRed':20 'CTPurple':3 },TRUE,175,125,{ chips  'CTRed':0 'CTPurple':0 'CTGreen':0 'grey78':0 'CTYellow':0 },{ chips  'CTRed':20 'CTPurple':3 'CTGreen':0 'grey78':0 'CTYellow':0 },290,85,6,(R:2,C:1),{ chips  'CTRed':35 'CTGreen':0 'CTPurple':0 'grey78':9 'CTYellow':8 },260,{ chips  'CTRed':18 'CTGreen':0 'CTPurple':7 'grey78':0 'CTYellow':0 },125,{ chips  'CTRed':13 'CTGreen':0 'CTPurple':4 'grey78':0 'CTYellow':0 },85,,
3playersLog_1389794215639.csv,3,560,500,FALSE,{ chips  },{ chips  'grey78':7 },IGNORED,125,260,,,,,0,(R:2,C:1),{ chips  'CTRed':35 'CTGreen':0 'CTPurple':0 'grey78':9 'CTYellow':8 },260,{ chips  'CTRed':18 'CTGreen':0 'CTPurple':7 'grey78':0 'CTYellow':0 },125,{ chips  'CTRed':13 'CTGreen':0 'CTPurple':4 'grey78':0 'CTYellow':0 },85,,
3playersLog_1389794215639.csv,3,540,500,FALSE,{ chips  'CTRed':8 'CTPurple':2 },{ chips  },IGNORED,85,260,,,,,0,(R:2,C:1),{ chips  'CTRed':35 'CTGreen':0 'CTPurple':0 'grey78':9 'CTYellow':8 },260,{ chips  'CTRed':18 'CTGreen':0 'CTPurple':7 'grey78':0 'CTYellow':0 },125,{ chips  'CTRed':13 'CTGreen':0 'CTPurple':4 'grey78':0 'CTYellow':0 },85,,
3playersLog_1389794215639.csv,4,500,560,TRUE,{ chips  },{ chips  'CTRed':9 'CTPurple':7 },FALSE,260,125,,,,,3,(R:0,C:0),{ chips  'CTRed':35 'CTGreen':0 'CTPurple':0 'grey78':6 'CTYellow':8 },395,{ chips  'CTRed':18 'CTGreen':0 'CTPurple':7 'grey78':0 'CTYellow':0 },125,{ chips  'CTRed':13 'CTGreen':0 'CTPurple':4 'grey78':0 'CTYellow':0 },235,,
3playersLog_1389794215639.csv,,,,,,,,,,,,,,,,,,,,,,,,TRUE
3playersLog_1390218262186.csv,1,560,500,FALSE,{ chips  'CTRed':9 },{ chips  },TRUE,200,120,{ chips  'CTRed':9 },{ chips  'grey78':0 },155,165,3,(R:4,C:6),{ chips  'CTRed':9 'CTGreen':0 'CTPurple':0 'grey78':12 'CTYellow':9 },150,{ chips  'CTRed':24 'CTGreen':0 'CTPurple':7 'grey78':0 'CTYellow':0 },155,{ chips  'CTRed':33 'CTGreen':0 'CTPurple':7 'grey78':0 'CTYellow':0 },200,,
3playersLog_1390218262186.csv,2,500,540,TRUE,{ chips  'CTRed':7 'grey78':4 },{ chips  },FALSE,150,200,,,,,1,(R:3,C:6),{ chips  'CTRed':9 'CTGreen':0 'CTPurple':0 'grey78':12 'CTYellow':8 },145,{ chips  'CTRed':24 'CTGreen':0 'CTPurple':7 'grey78':0 'CTYellow':0 },155,{ chips  'CTRed':33 'CTGreen':0 'CTPurple':7 'grey78':0 'CTYellow':0 },200,,
3playersLog_1390218262186.csv,3,560,500,FALSE,{ chips  'CTRed':5 },{ chips  },TRUE,155,145,{ chips  'CTRed':5 },{ chips  'grey78':0 },130,170,1,(R:3,C:7),{ chips  'CTRed':14 'CTGreen':0 'CTPurple':0 'grey78':12 'CTYellow':7 },165,{ chips  'CTRed':19 'CTGreen':0 'CTPurple':7 'grey78':0 'CTYellow':0 },130,{ chips  'CTRed':33 'CTGreen':0 'CTPurple':7 'grey78':0 'CTYellow':0 },200,,
3playersLog_1390218262186.csv,4,500,560,TRUE,{ chips  'grey78':3 },{ chips  'CTRed':5 },TRUE,165,130,{ chips  'CTRed':0 'CTPurple':0 'CTGreen':0 'grey78':3 'CTYellow':0 },{ chips  'CTRed':5 'CTPurple':0 'CTGreen':0 'grey78':0 'CTYellow':0 },175,120,2,(R:2,C:8),{ chips  'CTRed':19 'CTGreen':0 'CTPurple':0 'grey78':9 'CTYellow':5 },165,{ chips  'CTRed':14 'CTGreen':0 'CTPurple':7 'grey78':3 'CTYellow':0 },120,{ chips  'CTRed':33 'CTGreen':0 'CTPurple':7 'grey78':0 'CTYellow':0 },200,,
3playersLog_1390218262186.csv,5,560,500,FALSE,{ chips  'CTRed':2 },{ chips  },TRUE,120,165,{ chips  'CTRed':2 },{ chips  'grey78':0 },110,175,1,(R:1,C:8),{ chips  'CTRed':21 'CTGreen':0 'CTPurple':0 'grey78':9 'CTYellow':4 },170,{ chips  'CTRed':12 'CTGreen':0 'CTPurple':7 'grey78':3 'CTYellow':0 },110,{ chips  'CTRed':33 'CTGreen':0 'CTPurple':7 'grey78':0 'CTYellow':0 },200,,
3playersLog_1390218262186.csv,6,500,540,TRUE,{ chips  'grey78':2 },{ chips  'CTRed':7 },TRUE,170,110,{ chips  'CTRed':0 'CTPurple':0 'CTGreen':0 'grey78':2 'CTYellow':0 },{ chips  'CTRed':7 'CTPurple':0 'CTGreen':0 'grey78':0 'CTYellow':0 },195,175,1,(R:0,C:8),{ chips  'CTRed':28 'CTGreen':0 'CTPurple':0 'grey78':7 'CTYellow':3 },340,{ chips  'CTRed':12 'CTGreen':0 'CTPurple':7 'grey78':3 'CTYellow':0 },260,{ chips  'CTRed':26 'CTGreen':0 'CTPurple':7 'grey78':2 'CTYellow':0 },175,,
3playersLog_1390218262186.csv,,,,,,,,,,,,,,,,,,,,,,,,TRUE
3playersLog_1390218857882.csv,1,560,500,FALSE,{ chips  'CTRed':14 },{ chips  },TRUE,200,120,{ chips  'CTRed':14 },{ chips  'grey78':0 },130,190,1,(R:5,C:5),{ chips  'CTRed':14 'CTGreen':0 'CTPurple':0 'grey78':12 'CTYellow':11 },185,{ chips  'CTRed':19 'CTGreen':0 'CTPurple':7 'grey78':0 'CTYellow':0 },130,{ chips  'CTRed':33 'CTGreen':0 'CTPurple':7 'grey78':0 'CTYellow':0 },200,,
3playersLog_1390218857882.csv,2,500,560,TRUE,{ chips  'grey78':2 },{ chips  'CTRed':11 },FALSE,175,130,,,,,1,(R:3,C:6),{ chips  'CTRed':14 'CTGreen':0 'CTPurple':0 'grey78':12 'CTYellow':8 },170,{ chips  'CTRed':19 'CTGreen':0 'CTPurple':7 'grey78':0 'CTYellow':0 },130,{ chips  'CTRed':33 'CTGreen':0 'CTPurple':7 'grey78':0 'CTYellow':0 },200,,
3playersLog_1390218857882.csv,3,560,500,FALSE,{ chips  'CTRed':15 },{ chips  },TRUE,130,170,{ chips  'CTRed':15 },{ chips  'grey78':0 },55,245,0,(R:3,C:6),{ chips  'CTRed':29 'CTGreen':0 'CTPurple':0 'grey78':12 'CTYellow':8 },245,{ chips  'CTRed':4 'CTGreen':0 'CTPurple':7 'grey78':0 'CTYellow':0 },55,{ chips  'CTRed':33 'CTGreen':0 'CTPurple':7 'grey78':0 'CTYellow':0 },200,,
3playersLog_1390218857882.csv,4,500,540,TRUE,{ chips  'grey78':2 },{ chips  'CTRed':14 },TRUE,245,55,{ chips  'CTRed':0 'CTPurple':0 'CTGreen':0 'grey78':2 'CTYellow':0 },{ chips  'CTRed':14 'CTPurple':0 'CTGreen':0 'grey78':0 'CTYellow':0 },305,140,3,(R:2,C:8),{ chips  'CTRed':43 'CTGreen':0 'CTPurple':0 'grey78':10 'CTYellow':5 },290,{ chips  'CTRed':4 'CTGreen':0 'CTPurple':7 'grey78':0 'CTYellow':0 },55,{ chips  'CTRed':19 'CTGreen':0 'CTPurple':7 'grey78':2 'CTYellow':0 },140,,
3playersLog_1390218857882.csv,5,560,500,FALSE,{ chips  },{ chips  },FALSE,55,290,,,,,2,(R:0,C:8),{ chips  'CTRed':43 'CTGreen':0 'CTPurple':0 'grey78':10 'CTYellow':3 },430,{ chips  'CTRed':4 'CTGreen':0 'CTPurple':7 'grey78':0 'CTYellow':0 },205,{ chips  'CTRed':19 'CTGreen':0 'CTPurple':7 'grey78':2 'CTYellow':0 },140,,
3playersLog_1390218857882.csv,5,540,500,FALSE,{ chips  'CTPurple':6 },{ chips  'CTRed':10 'CTYellow':5 },FALSE,140,290,,,,,2,(R:0,C:8),{ chips  'CTRed':43 'CTGreen':0 'CTPurple':0 'grey78':10 'CTYellow':3 },430,{ chips  'CTRed':4 'CTGreen':0 'CTPurple':7 'grey78':0 'CTYellow':0 },205,{ chips  'CTRed':19 'CTGreen':0 'CTPurple':7 'grey78':2 'CTYellow':0 },140,,
3playersLog_1390218857882.csv,,,,,,,,,,,,,,,,,,,,,,,,TRUE
3playersLog_1390222862429.csv,1,560,500,FALSE,{ chips  'CTRed':14 },{ chips  },FALSE,200,120,,,,,4,(R:3,C:2),{ chips  'CTRed':1 'CTGreen':0 'CTPurple':2 'grey78':7 'CTYellow':9 },95,{ chips  'CTRed':33 'CTGreen':0 'CTPurple':7 'grey78':0 'CTYellow':0 },200,{ chips  'CTRed':32 'CTGreen':0 'CTPurple':5 'grey78':1 'CTYellow':3 },205,,
3playersLog_1390222862429.csv,1,540,500,FALSE,{ chips  'CTRed':1 'CTPurple':2 },{ chips  'grey78':1 'CTYellow':3 },TRUE,200,120,{ chips  'CTRed':1 'CTPurple':2 'CTGreen':0 'grey78':0 'CTYellow':0 },{ chips  'CTRed':0 'CTPurple':0 'CTGreen':0 'grey78':1 'CTYellow':3 },205,115,4,(R:3,C:2),{ chips  'CTRed':1 'CTGreen':0 'CTPurple':2 'grey78':7 'CTYellow':9 },95,{ chips  'CTRed':33 'CTGreen':0 'CTPurple':7 'grey78':0 'CTYellow':0 },200,{ chips  'CTRed':32 'CTGreen':0 'CTPurple':5 'grey78':1 'CTYellow':3 },205,,
3playersLog_1390222862429.csv,2,500,540,TRUE,{ chips  'CTYellow':4 },{ chips  'CTPurple':5 },FALSE,95,205,,,,,2,(R:2,C:1),{ chips  'CTRed':1 'CTGreen':0 'CTPurple':2 'grey78':5 'CTYellow':9 },85,{ chips  'CTRed':33 'CTGreen':0 'CTPurple':7 'grey78':0 'CTYellow':0 },200,{ chips  'CTRed':32 'CTGreen':0 'CTPurple':5 'grey78':1 'CTYellow':3 },205,,
3playersLog_1390222862429.csv,3,560,500,FALSE,{ chips  },{ chips  },FALSE,200,85,,,,,3,(R:0,C:0),{ chips  'CTRed':6 'CTGreen':0 'CTPurple':1 'grey78':4 'CTYellow':6 },235,{ chips  'CTRed':33 'CTGreen':0 'CTPurple':7 'grey78':0 'CTYellow':0 },200,{ chips  'CTRed':27 'CTGreen':0 'CTPurple':5 'grey78':0 'CTYellow':6 },340,,
3playersLog_1390222862429.csv,3,540,500,FALSE,{ chips  'CTRed':5 'grey78':1 },{ chips  'CTYellow':3 },TRUE,205,85,{ chips  'CTRed':5 'CTPurple':0 'CTGreen':0 'grey78':1 'CTYellow':0 },{ chips  'CTRed':0 'CTPurple':0 'CTGreen':0 'grey78':0 'CTYellow':3 },190,100,3,(R:0,C:0),{ chips  'CTRed':6 'CTGreen':0 'CTPurple':1 'grey78':4 'CTYellow':6 },235,{ chips  'CTRed':33 'CTGreen':0 'CTPurple':7 'grey78':0 'CTYellow':0 },200,{ chips  'CTRed':27 'CTGreen':0 'CTPurple':5 'grey78':0 'CTYellow':6 },340,,
3playersLog_1390222862429.csv,,,,,,,,,,,,,,,,,,,,,,,,TRUE
3playersLog_1390304979545.csv,1,560,500,FALSE,{ chips  'CTRed':14 },{ chips  },TRUE,200,120,{ chips  'CTRed':14 },{ chips  'grey78':0 },130,190,8,(R:1,C:0),{ chips  'CTRed':14 'CTGreen':0 'CTPurple':0 'grey78':4 'CTYellow':12 },150,{ chips  'CTRed':19 'CTGreen':0 'CTPurple':7 'grey78':0 'CTYellow':0 },130,{ chips  'CTRed':33 'CTGreen':0 'CTPurple':7 'grey78':0 'CTYellow':0 },200,,
3playersLog_1390304979545.csv,1,540,500,FALSE,{ chips  'CTRed':3 'CTPurple':2 },{ chips  'CTYellow':5 },IGNORED,200,120,,,,,8,(R:1,C:0),{ chips  'CTRed':14 'CTGreen':0 'CTPurple':0 'grey78':4 'CTYellow':12 },150,{ chips  'CTRed':19 'CTGreen':0 'CTPurple':7 'grey78':0 'CTYellow':0 },130,{ chips  'CTRed':33 'CTGreen':0 'CTPurple':7 'grey78':0 'CTYellow':0 },200,,
3playersLog_1390304979545.csv,2,500,540,TRUE,{ chips  'CTRed':6 },{ chips  'CTPurple':7 },TRUE,150,130,{ chips  'CTRed':6 'CTPurple':0 'CTGreen':0 'grey78':0 'CTYellow':0 },{ chips  'CTRed':0 'CTPurple':7 'CTGreen':0 'grey78':0 'CTYellow':0 },155,195,1,(R:0,C:0),{ chips  'CTRed':8 'CTGreen':0 'CTPurple':7 'grey78':3 'CTYellow':12 },300,{ chips  'CTRed':19 'CTGreen':0 'CTPurple':7 'grey78':0 'CTYellow':0 },130,{ chips  'CTRed':39 'CTGreen':0 'CTPurple':0 'grey78':0 'CTYellow':0 },345,,
3playersLog_1390304979545.csv,,,,,,,,,,,,,,,,,,,,,,,,TRUE
3playersLog_1390305125127.csv,1,560,500,FALSE,{ chips  'CTRed':14 },{ chips  },TRUE,200,120,{ chips  'CTRed':14 },{ chips  'grey78':0 },130,190,0,(R:5,C:4),{ chips  'CTRed':14 'CTGreen':0 'CTPurple':0 'grey78':12 'CTYellow':12 },190,{ chips  'CTRed':19 'CTGreen':0 'CTPurple':7 'grey78':0 'CTYellow':0 },130,{ chips  'CTRed':33 'CTGreen':0 'CTPurple':7 'grey78':0 'CTYellow':0 },200,,
3playersLog_1390305125127.csv,1,540,500,FALSE,{ chips  'CTRed':1 'CTPurple':1 },{ chips  },IGNORED,200,120,,,,,0,(R:5,C:4),{ chips  'CTRed':14 'CTGreen':0 'CTPurple':0 'grey78':12 'CTYellow':12 },190,{ chips  'CTRed':19 'CTGreen':0 'CTPurple':7 'grey78':0 'CTYellow':0 },130,{ chips  'CTRed':33 'CTGreen':0 'CTPurple':7 'grey78':0 'CTYellow':0 },200,,
3playersLog_1390305125127.csv,2,500,560,TRUE,{ chips  'CTRed':8 },{ chips  'CTPurple':4 },TRUE,190,130,{ chips  'CTRed':8 'CTPurple':0 'CTGreen':0 'grey78':0 'CTYellow':0 },{ chips  'CTRed':0 'CTPurple':4 'CTGreen':0 'grey78':0 'CTYellow':0 },170,150,3,(R:4,C:6),{ chips  'CTRed':6 'CTGreen':0 'CTPurple':4 'grey78':12 'CTYellow':9 },155,{ chips  'CTRed':27 'CTGreen':0 'CTPurple':3 'grey78':0 'CTYellow':0 },150,{ chips  'CTRed':33 'CTGreen':0 'CTPurple':7 'grey78':0 'CTYellow':0 },200,,
3playersLog_1390305125127.csv,3,560,500,FALSE,{ chips  'CTRed':3 },{ chips  },IGNORED,150,155,,,,,1,(R:3,C:6),{ chips  'CTRed':11 'CTGreen':0 'CTPurple':6 'grey78':12 'CTYellow':8 },185,{ chips  'CTRed':27 'CTGreen':0 'CTPurple':3 'grey78':0 'CTYellow':0 },150,{ chips  'CTRed':28 'CTGreen':0 'CTPurple':5 'grey78':0 'CTYellow':0 },165,,
3playersLog_1390305125127.csv,3,540,500,FALSE,{ chips  'CTRed':5 'CTPurple':2 },{ chips  },TRUE,200,155,{ chips  'CTRed':5 'CTPurple':2 'CTGreen':0 'grey78':0 'CTYellow':0 },{ chips  'CTRed':0 'CTPurple':0 'CTGreen':0 'grey78':0 'CTYellow':0 },165,190,1,(R:3,C:6),{ chips  'CTRed':11 'CTGreen':0 'CTPurple':6 'grey78':12 'CTYellow':8 },185,{ chips  'CTRed':27 'CTGreen':0 'CTPurple':3 'grey78':0 'CTYellow':0 },150,{ chips  'CTRed':28 'CTGreen':0 'CTPurple':5 'grey78':0 'CTYellow':0 },165,,
3playersLog_1390305125127.csv,4,500,560,TRUE,{ chips  'grey78':2 },{ chips  'CTPurple':3 },TRUE,185,150,{ chips  'CTRed':0 'CTPurple':0 'CTGreen':0 'grey78':2 'CTYellow':0 },{ chips  'CTRed':0 'CTPurple':3 'CTGreen':0 'grey78':0 'CTYellow':0 },190,145,2,(R:2,C:7),{ chips  'CTRed':11 'CTGreen':0 'CTPurple':9 'grey78':10 'CTYellow':6 },180,{ chips  'CTRed':27 'CTGreen':0 'CTPurple':0 'grey78':2 'CTYellow':0 },145,{ chips  'CTRed':28 'CTGreen':0 'CTPurple':5 'grey78':0 'CTYellow':0 },165,,
3playersLog_1390305125127.csv,5,560,500,FALSE,{ chips  'CTRed':3 },{ chips  },IGNORED,145,180,,,,,1,(R:1,C:7),{ chips  'CTRed':21 'CTGreen':0 'CTPurple':7 'grey78':5 'CTYellow':6 },195,{ chips  'CTRed':27 'CTGreen':0 'CTPurple':0 'grey78':2 'CTYellow':0 },145,{ chips  'CTRed':18 'CTGreen':0 'CTPurple':6 'grey78':5 'CTYellow':0 },145,,
3playersLog_1390305125127.csv,5,540,500,FALSE,{ chips  'CTRed':10 'CTPurple':2 },{ chips  'CTPurple':3 'grey78':5 },TRUE,165,180,{ chips  'CTRed':10 'CTPurple':2 'CTGreen':0 'grey78':0 'CTYellow':0 },{ chips  'CTRed':0 'CTPurple':3 'CTGreen':0 'grey78':5 'CTYellow':0 },145,200,1,(R:1,C:7),{ chips  'CTRed':21 'CTGreen':0 'CTPurple':7 'grey78':5 'CTYellow':6 },195,{ chips  'CTRed':27 'CTGreen':0 'CTPurple':0 'grey78':2 'CTYellow':0 },145,{ chips  'CTRed':18 'CTGreen':0 'CTPurple':6 'grey78':5 'CTYellow':0 },145,,
3playersLog_1390305125127.csv,6,500,540,TRUE,{ chips  'CTRed':3 'CTYellow':2 },{ chips  'CTPurple':5 'grey78':3 },FALSE,195,145,,,,,1,(R:1,C:8),{ chips  'CTRed':21 'CTGreen':0 'CTPurple':7 'grey78':5 'CTYellow':5 },190,{ chips  'CTRed':27 'CTGreen':0 'CTPurple':0 'grey78':2 'CTYellow':0 },145,{ chips  'CTRed':18 'CTGreen':0 'CTPurple':6 'grey78':5 'CTYellow':0 },145,,
3playersLog_1390305125127.csv,7,560,500,FALSE,{ chips  'CTRed':4 },{ chips  },IGNORED,145,190,,,,,1,(R:0,C:8),{ chips  'CTRed':26 'CTGreen':0 'CTPurple':12 'grey78':0 'CTYellow':4 },360,{ chips  'CTRed':27 'CTGreen':0 'CTPurple':0 'grey78':2 'CTYellow':0 },295,{ chips  'CTRed':13 'CTGreen':0 'CTPurple':1 'grey78':10 'CTYellow':0 },120,,
3playersLog_1390305125127.csv,7,540,500,FALSE,{ chips  'CTRed':5 'CTPurple':5 },{ chips  'grey78':5 },TRUE,145,190,{ chips  'CTRed':5 'CTPurple':5 'CTGreen':0 'grey78':0 'CTYellow':0 },{ chips  'CTRed':0 'CTPurple':0 'CTGreen':0 'grey78':5 'CTYellow':0 },120,215,1,(R:0,C:8),{ chips  'CTRed':26 'CTGreen':0 'CTPurple':12 'grey78':0 'CTYellow':4 },360,{ chips  'CTRed':27 'CTGreen':0 'CTPurple':0 'grey78':2 'CTYellow':0 },295,{ chips  'CTRed':13 'CTGreen':0 'CTPurple':1 'grey78':10 'CTYellow':0 },120,,
3playersLog_1390305125127.csv,,,,,,,,,,,,,,,,,,,,,,,,TRUE
3playersLog_1390309024008.csv,1,560,500,FALSE,{ chips  'CTRed':14 },{ chips  },TRUE,200,120,{ chips  'CTRed':14 },{ chips  'grey78':0 },130,190,0,(R:5,C:4),{ chips  'CTRed':14 'CTGreen':0 'CTPurple':0 'grey78':12 'CTYellow':12 },190,{ chips  'CTRed':19 'CTGreen':0 'CTPurple':7 'grey78':0 'CTYellow':0 },130,{ chips  'CTRed':33 'CTGreen':0 'CTPurple':7 'grey78':0 'CTYellow':0 },200,,
3playersLog_1390309024008.csv,1,540,500,FALSE,{ chips  'CTRed':5 },{ chips  'CTYellow':3 },FALSE,200,120,,,,,0,(R:5,C:4),{ chips  'CTRed':14 'CTGreen':0 'CTPurple':0 'grey78':12 'CTYellow':12 },190,{ chips  'CTRed':19 'CTGreen':0 'CTPurple':7 'grey78':0 'CTYellow':0 },130,{ chips  'CTRed':33 'CTGreen':0 'CTPurple':7 'grey78':0 'CTYellow':0 },200,,
3playersLog_1390309024008.csv,2,500,560,TRUE,{ chips  'CTRed':5 },{ chips  'CTPurple':2 },TRUE,190,130,{ chips  'CTRed':5 'CTPurple':0 'CTGreen':0 'grey78':0 'CTYellow':0 },{ chips  'CTRed':0 'CTPurple':2 'CTGreen':0 'grey78':0 'CTYellow':0 },175,145,1,(R:5,C:5),{ chips  'CTRed':9 'CTGreen':0 'CTPurple':2 'grey78':12 'CTYellow':11 },170,{ chips  'CTRed':24 'CTGreen':0 'CTPurple':5 'grey78':0 'CTYellow':0 },145,{ chips  'CTRed':33 'CTGreen':0 'CTPurple':7 'grey78':0 'CTYellow':0 },200,,
3playersLog_1390309024008.csv,3,560,500,FALSE,{ chips  'CTRed':3 },{ chips  },TRUE,145,170,{ chips  'CTRed':3 },{ chips  'grey78':0 },130,185,1,(R:4,C:5),{ chips  'CTRed':12 'CTGreen':0 'CTPurple':2 'grey78':12 'CTYellow':10 },180,{ chips  'CTRed':21 'CTGreen':0 'CTPurple':5 'grey78':0 'CTYellow':0 },130,{ chips  'CTRed':33 'CTGreen':0 'CTPurple':7 'grey78':0 'CTYellow':0 },200,,
3playersLog_1390309024008.csv,3,540,500,FALSE,{ chips  'CTRed':10 'CTPurple':1 },{ chips  'CTYellow':4 },FALSE,200,170,,,,,1,(R:4,C:5),{ chips  'CTRed':12 'CTGreen':0 'CTPurple':2 'grey78':12 'CTYellow':10 },180,{ chips  'CTRed':21 'CTGreen':0 'CTPurple':5 'grey78':0 'CTYellow':0 },130,{ chips  'CTRed':33 'CTGreen':0 'CTPurple':7 'grey78':0 'CTYellow':0 },200,,
3playersLog_1390309024008.csv,4,500,540,TRUE,{ chips  'CTRed':1 'grey78':2 },{ chips  'CTRed':2 'CTPurple':2 },FALSE,180,200,,,,,0,(R:4,C:5),{ chips  'CTRed':12 'CTGreen':0 'CTPurple':2 'grey78':12 'CTYellow':10 },180,{ chips  'CTRed':21 'CTGreen':0 'CTPurple':5 'grey78':0 'CTYellow':0 },130,{ chips  'CTRed':33 'CTGreen':0 'CTPurple':7 'grey78':0 'CTYellow':0 },200,,
3playersLog_1390309024008.csv,5,560,500,FALSE,{ chips  'CTRed':3 },{ chips  },TRUE,130,180,{ chips  'CTRed':3 },{ chips  'grey78':0 },115,195,1,(R:3,C:5),{ chips  'CTRed':15 'CTGreen':0 'CTPurple':1 'grey78':12 'CTYellow':10 },190,{ chips  'CTRed':18 'CTGreen':0 'CTPurple':5 'grey78':0 'CTYellow':0 },115,{ chips  'CTRed':33 'CTGreen':0 'CTPurple':7 'grey78':0 'CTYellow':0 },200,,
3playersLog_1390309024008.csv,5,540,500,FALSE,{ chips  'CTRed':9 'CTPurple':2 },{ chips  'CTYellow':6 },FALSE,200,180,,,,,1,(R:3,C:5),{ chips  'CTRed':15 'CTGreen':0 'CTPurple':1 'grey78':12 'CTYellow':10 },190,{ chips  'CTRed':18 'CTGreen':0 'CTPurple':5 'grey78':0 'CTYellow':0 },115,{ chips  'CTRed':33 'CTGreen':0 'CTPurple':7 'grey78':0 'CTYellow':0 },200,,
3playersLog_1390309024008.csv,6,500,560,TRUE,{ chips  'grey78':2 },{ chips  'CTRed':6 },TRUE,190,115,{ chips  'CTRed':0 'CTPurple':0 'CTGreen':0 'grey78':2 'CTYellow':0 },{ chips  'CTRed':6 'CTPurple':0 'CTGreen':0 'grey78':0 'CTYellow':0 },210,95,0,(R:3,C:5),{ chips  'CTRed':21 'CTGreen':0 'CTPurple':1 'grey78':10 'CTYellow':10 },210,{ chips  'CTRed':12 'CTGreen':0 'CTPurple':5 'grey78':2 'CTYellow':0 },95,{ chips  'CTRed':33 'CTGreen':0 'CTPurple':7 'grey78':0 'CTYellow':0 },200,,
3playersLog_1390309024008.csv,7,560,500,FALSE,{ chips  'CTRed':4 },{ chips  },TRUE,95,210,{ chips  'CTRed':4 },{ chips  'grey78':0 },75,230,1,(R:3,C:6),{ chips  'CTRed':25 'CTGreen':0 'CTPurple':1 'grey78':10 'CTYellow':9 },225,{ chips  'CTRed':8 'CTGreen':0 'CTPurple':5 'grey78':2 'CTYellow':0 },75,{ chips  'CTRed':33 'CTGreen':0 'CTPurple':7 'grey78':0 'CTYellow':0 },200,,
3playersLog_1390309024008.csv,7,540,500,FALSE,{ chips  'CTRed':12 'CTPurple':3 },{ chips  'CTYellow':5 },FALSE,200,210,,,,,1,(R:3,C:6),{ chips  'CTRed':25 'CTGreen':0 'CTPurple':1 'grey78':10 'CTYellow':9 },225,{ chips  'CTRed':8 'CTGreen':0 'CTPurple':5 'grey78':2 'CTYellow':0 },75,{ chips  'CTRed':33 'CTGreen':0 'CTPurple':7 'grey78':0 'CTYellow':0 },200,,
3playersLog_1390309024008.csv,8,500,540,TRUE,{ chips  'grey78':1 'CTYellow':2 },{ chips  'CTRed':8 },FALSE,225,200,,,,,1,(R:3,C:7),{ chips  'CTRed':25 'CTGreen':0 'CTPurple':1 'grey78':10 'CTYellow':8 },220,{ chips  'CTRed':8 'CTGreen':0 'CTPurple':5 'grey78':2 'CTYellow':0 },75,{ chips  'CTRed':33 'CTGreen':0 'CTPurple':7 'grey78':0 'CTYellow':0 },200,,
3playersLog_1390309024008.csv,9,560,500,FALSE,{ chips  },{ chips  'grey78':2 },FALSE,75,220,,,,,1,(R:2,C:7),{ chips  'CTRed':25 'CTGreen':0 'CTPurple':1 'grey78':10 'CTYellow':7 },215,{ chips  'CTRed':8 'CTGreen':0 'CTPurple':5 'grey78':2 'CTYellow':0 },75,{ chips  'CTRed':33 'CTGreen':0 'CTPurple':7 'grey78':0 'CTYellow':0 },200,,
3playersLog_1390309024008.csv,9,540,500,FALSE,{ chips  'CTRed':15 'CTPurple':5 },{ chips  'CTYellow':5 },FALSE,200,220,,,,,1,(R:2,C:7),{ chips  'CTRed':25 'CTGreen':0 'CTPurple':1 'grey78':10 'CTYellow':7 },215,{ chips  'CTRed':8 'CTGreen':0 'CTPurple':5 'grey78':2 'CTYellow':0 },75,{ chips  'CTRed':33 'CTGreen':0 'CTPurple':7 'grey78':0 'CTYellow':0 },200,,
3playersLog_1390309024008.csv,10,500,560,TRUE,{ chips  'grey78':2 },{ chips  'CTRed':6 },TRUE,215,75,{ chips  'CTRed':0 'CTPurple':0 'CTGreen':0 'grey78':2 'CTYellow':0 },{ chips  'CTRed':6 'CTPurple':0 'CTGreen':0 'grey78':0 'CTYellow':0 },235,55,1,(R:1,C:7),{ chips  'CTRed':31 'CTGreen':0 'CTPurple':0 'grey78':8 'CTYellow':7 },230,{ chips  'CTRed':2 'CTGreen':0 'CTPurple':5 'grey78':4 'CTYellow':0 },55,{ chips  'CTRed':33 'CTGreen':0 'CTPurple':7 'grey78':0 'CTYellow':0 },200,,
3playersLog_1390309024008.csv,11,560,500,FALSE,{ chips  },{ chips  'grey78':1 },FALSE,55,230,,,,,0,(R:1,C:7),{ chips  'CTRed':31 'CTGreen':0 'CTPurple':0 'grey78':8 'CTYellow':7 },230,{ chips  'CTRed':2 'CTGreen':0 'CTPurple':5 'grey78':4 'CTYellow':0 },55,{ chips  'CTRed':33 'CTGreen':0 'CTPurple':7 'grey78':0 'CTYellow':0 },200,,
3playersLog_1390309024008.csv,11,540,500,FALSE,{ chips  'CTRed':10 'CTPurple':7 },{ chips  'CTYellow':6 },FALSE,200,230,,,,,0,(R:1,C:7),{ chips  'CTRed':31 'CTGreen':0 'CTPurple':0 'grey78':8 'CTYellow':7 },230,{ chips  'CTRed':2 'CTGreen':0 'CTPurple':5 'grey78':4 'CTYellow':0 },55,{ chips  'CTRed':33 'CTGreen':0 'CTPurple':7 'grey78':0 'CTYellow':0 },200,,
3playersLog_1390309024008.csv,12,500,560,TRUE,{ chips  'grey78':1 'CTYellow':1 },{ chips  'CTRed':2 'CTPurple':4 },FALSE,230,55,,,,,1,(R:1,C:8),{ chips  'CTRed':31 'CTGreen':0 'CTPurple':0 'grey78':8 'CTYellow':6 },225,{ chips  'CTRed':2 'CTGreen':0 'CTPurple':5 'grey78':4 'CTYellow':0 },55,{ chips  'CTRed':33 'CTGreen':0 'CTPurple':7 'grey78':0 'CTYellow':0 },200,,
3playersLog_1390309024008.csv,13,560,500,FALSE,{ chips  },{ chips  },FALSE,55,225,,,,,1,(R:0,C:8),{ chips  'CTRed':31 'CTGreen':0 'CTPurple':0 'grey78':8 'CTYellow':5 },370,{ chips  'CTRed':2 'CTGreen':0 'CTPurple':5 'grey78':4 'CTYellow':0 },205,{ chips  'CTRed':33 'CTGreen':0 'CTPurple':7 'grey78':0 'CTYellow':0 },200,,
3playersLog_1390309024008.csv,13,540,500,FALSE,{ chips  'CTRed':1 'CTPurple':1 },{ chips  'CTRed':31 'grey78':8 'CTYellow':6 },FALSE,200,225,,,,,1,(R:0,C:8),{ chips  'CTRed':31 'CTGreen':0 'CTPurple':0 'grey78':8 'CTYellow':5 },370,{ chips  'CTRed':2 'CTGreen':0 'CTPurple':5 'grey78':4 'CTYellow':0 },205,{ chips  'CTRed':33 'CTGreen':0 'CTPurple':7 'grey78':0 'CTYellow':0 },200,,
3playersLog_1390309024008.csv,,,,,,,,,,,,,,,,,,,,,,,,TRUE
3playersLog_1390309098959.csv,1,560,500,FALSE,{ chips  'CTRed':15 },{ chips  },TRUE,200,120,{ chips  'CTRed':15 },{ chips  'grey78':0 },125,195,1,(R:5,C:5),{ chips  'CTRed':15 'CTGreen':0 'CTPurple':0 'grey78':12 'CTYellow':11 },190,{ chips  'CTRed':18 'CTGreen':0 'CTPurple':7 'grey78':0 'CTYellow':0 },125,{ chips  'CTRed':33 'CTGreen':0 'CTPurple':7 'grey78':0 'CTYellow':0 },200,,
3playersLog_1390309098959.csv,1,540,500,FALSE,{ chips  'CTRed':10 'CTPurple':3 },{ chips  'CTYellow':5 },IGNORED,200,120,,,,,1,(R:5,C:5),{ chips  'CTRed':15 'CTGreen':0 'CTPurple':0 'grey78':12 'CTYellow':11 },190,{ chips  'CTRed':18 'CTGreen':0 'CTPurple':7 'grey78':0 'CTYellow':0 },125,{ chips  'CTRed':33 'CTGreen':0 'CTPurple':7 'grey78':0 'CTYellow':0 },200,,
3playersLog_1390309098959.csv,2,500,560,TRUE,{ chips  'grey78':3 'CTYellow':1 },{ chips  'CTRed':2 'CTPurple':2 },TRUE,190,125,{ chips  'CTRed':0 'CTPurple':0 'CTGreen':0 'grey78':3 'CTYellow':1 },{ chips  'CTRed':2 'CTPurple':2 'CTGreen':0 'grey78':0 'CTYellow':0 },190,125,0,(R:5,C:5),{ chips  'CTRed':17 'CTGreen':0 'CTPurple':2 'grey78':9 'CTYellow':10 },190,{ chips  'CTRed':16 'CTGreen':0 'CTPurple':5 'grey78':3 'CTYellow':1 },125,{ chips  'CTRed':33 'CTGreen':0 'CTPurple':7 'grey78':0 'CTYellow':0 },200,,
3playersLog_1390309098959.csv,3,560,500,FALSE,{ chips  'CTRed':5 },{ chips  },IGNORED,125,190,,,,,1,(R:4,C:5),{ chips  'CTRed':37 'CTGreen':0 'CTPurple':7 'grey78':7 'CTYellow':9 },300,{ chips  'CTRed':16 'CTGreen':0 'CTPurple':5 'grey78':3 'CTYellow':1 },125,{ chips  'CTRed':13 'CTGreen':0 'CTPurple':2 'grey78':2 'CTYellow':0 },85,,
3playersLog_1390309098959.csv,3,540,500,FALSE,{ chips  'CTRed':20 'CTPurple':5 },{ chips  'grey78':2 },TRUE,200,190,{ chips  'CTRed':20 'CTPurple':5 'CTGreen':0 'grey78':0 'CTYellow':0 },{ chips  'CTRed':0 'CTPurple':0 'CTGreen':0 'grey78':2 'CTYellow':0 },85,305,1,(R:4,C:5),{ chips  'CTRed':37 'CTGreen':0 'CTPurple':7 'grey78':7 'CTYellow':9 },300,{ chips  'CTRed':16 'CTGreen':0 'CTPurple':5 'grey78':3 'CTYellow':1 },125,{ chips  'CTRed':13 'CTGreen':0 'CTPurple':2 'grey78':2 'CTYellow':0 },85,,
3playersLog_1390309098959.csv,4,500,560,TRUE,{ chips  'CTRed':2 },{ chips  'CTPurple':1 'CTYellow':1 },TRUE,300,125,{ chips  'CTRed':2 'CTPurple':0 'CTGreen':0 'grey78':0 'CTYellow':0 },{ chips  'CTRed':0 'CTPurple':1 'CTGreen':0 'grey78':0 'CTYellow':1 },300,125,0,(R:4,C:5),{ chips  'CTRed':35 'CTGreen':0 'CTPurple':8 'grey78':7 'CTYellow':10 },300,{ chips  'CTRed':18 'CTGreen':0 'CTPurple':4 'grey78':3 'CTYellow':0 },125,{ chips  'CTRed':13 'CTGreen':0 'CTPurple':2 'grey78':2 'CTYellow':0 },85,,
3playersLog_1390309098959.csv,5,560,500,FALSE,{ chips  'CTRed':4 },{ chips  },TRUE,125,300,{ chips  'CTRed':4 },{ chips  'grey78':0 },105,320,1,(R:4,C:6),{ chips  'CTRed':39 'CTGreen':0 'CTPurple':8 'grey78':7 'CTYellow':9 },315,{ chips  'CTRed':14 'CTGreen':0 'CTPurple':4 'grey78':3 'CTYellow':0 },105,{ chips  'CTRed':13 'CTGreen':0 'CTPurple':2 'grey78':2 'CTYellow':0 },85,,
3playersLog_1390309098959.csv,5,540,500,FALSE,{ chips  'CTRed':4 },{ chips  'CTYellow':3 },IGNORED,85,300,,,,,1,(R:4,C:6),{ chips  'CTRed':39 'CTGreen':0 'CTPurple':8 'grey78':7 'CTYellow':9 },315,{ chips  'CTRed':14 'CTGreen':0 'CTPurple':4 'grey78':3 'CTYellow':0 },105,{ chips  'CTRed':13 'CTGreen':0 'CTPurple':2 'grey78':2 'CTYellow':0 },85,,
3playersLog_1390309098959.csv,6,500,560,TRUE,{ chips  'CTRed':2 },{ chips  'CTPurple':2 },TRUE,315,105,{ chips  'CTRed':2 'CTPurple':0 'CTGreen':0 'grey78':0 'CTYellow':0 },{ chips  'CTRed':0 'CTPurple':2 'CTGreen':0 'grey78':0 'CTYellow':0 },315,105,0,(R:4,C:6),{ chips  'CTRed':37 'CTGreen':0 'CTPurple':10 'grey78':7 'CTYellow':9 },315,{ chips  'CTRed':16 'CTGreen':0 'CTPurple':2 'grey78':3 'CTYellow':0 },105,{ chips  'CTRed':13 'CTGreen':0 'CTPurple':2 'grey78':2 'CTYellow':0 },85,,
3playersLog_1390309098959.csv,7,560,500,FALSE,{ chips  },{ chips  'grey78':4 },IGNORED,105,315,,,,,1,(R:3,C:6),{ chips  'CTRed':37 'CTGreen':0 'CTPurple':10 'grey78':9 'CTYellow':7 },315,{ chips  'CTRed':16 'CTGreen':0 'CTPurple':2 'grey78':3 'CTYellow':0 },105,{ chips  'CTRed':13 'CTGreen':0 'CTPurple':2 'grey78':0 'CTYellow':1 },80,,
3playersLog_1390309098959.csv,7,540,500,FALSE,{ chips  'grey78':2 },{ chips  'CTYellow':1 },TRUE,85,315,{ chips  'CTRed':0 'CTPurple':0 'CTGreen':0 'grey78':2 'CTYellow':0 },{ chips  'CTRed':0 'CTPurple':0 'CTGreen':0 'grey78':0 'CTYellow':1 },80,320,1,(R:3,C:6),{ chips  'CTRed':37 'CTGreen':0 'CTPurple':10 'grey78':9 'CTYellow':7 },315,{ chips  'CTRed':16 'CTGreen':0 'CTPurple':2 'grey78':3 'CTYellow':0 },105,{ chips  'CTRed':13 'CTGreen':0 'CTPurple':2 'grey78':0 'CTYellow':1 },80,,
3playersLog_1390309098959.csv,8,500,540,TRUE,{ chips  'CTRed':2 },{ chips  'CTPurple':1 'CTYellow':1 },FALSE,315,80,,,,,0,(R:3,C:6),{ chips  'CTRed':37 'CTGreen':0 'CTPurple':10 'grey78':9 'CTYellow':7 },315,{ chips  'CTRed':16 'CTGreen':0 'CTPurple':2 'grey78':3 'CTYellow':0 },105,{ chips  'CTRed':13 'CTGreen':0 'CTPurple':2 'grey78':0 'CTYellow':1 },80,,
3playersLog_1390309098959.csv,9,560,500,FALSE,{ chips  'CTRed':4 },{ chips  },TRUE,105,315,{ chips  'CTRed':4 },{ chips  'grey78':0 },85,335,1,(R:3,C:7),{ chips  'CTRed':41 'CTGreen':0 'CTPurple':10 'grey78':9 'CTYellow':6 },330,{ chips  'CTRed':12 'CTGreen':0 'CTPurple':2 'grey78':3 'CTYellow':0 },85,{ chips  'CTRed':13 'CTGreen':0 'CTPurple':2 'grey78':0 'CTYellow':1 },80,,
3playersLog_1390309098959.csv,9,540,500,FALSE,{ chips  'CTRed':2 'CTPurple':1 },{ chips  'CTYellow':2 },IGNORED,80,315,,,,,1,(R:3,C:7),{ chips  'CTRed':41 'CTGreen':0 'CTPurple':10 'grey78':9 'CTYellow':6 },330,{ chips  'CTRed':12 'CTGreen':0 'CTPurple':2 'grey78':3 'CTYellow':0 },85,{ chips  'CTRed':13 'CTGreen':0 'CTPurple':2 'grey78':0 'CTYellow':1 },80,,
3playersLog_1390309098959.csv,10,500,540,TRUE,{ chips  'grey78':3 },{ chips  'CTPurple':2 },FALSE,330,80,,,,,0,(R:3,C:7),{ chips  'CTRed':41 'CTGreen':0 'CTPurple':10 'grey78':9 'CTYellow':6 },330,{ chips  'CTRed':12 'CTGreen':0 'CTPurple':2 'grey78':3 'CTYellow':0 },85,{ chips  'CTRed':13 'CTGreen':0 'CTPurple':2 'grey78':0 'CTYellow':1 },80,,
3playersLog_1390309098959.csv,11,560,500,FALSE,{ chips  },{ chips  'grey78':1 },IGNORED,85,330,,,,,1,(R:2,C:7),{ chips  'CTRed':44 'CTGreen':0 'CTPurple':11 'grey78':9 'CTYellow':3 },335,{ chips  'CTRed':12 'CTGreen':0 'CTPurple':2 'grey78':3 'CTYellow':0 },85,{ chips  'CTRed':10 'CTGreen':0 'CTPurple':1 'grey78':0 'CTYellow':3 },70,,
3playersLog_1390309098959.csv,11,540,500,FALSE,{ chips  'CTRed':3 'CTPurple':1 },{ chips  'CTYellow':2 },TRUE,80,330,{ chips  'CTRed':3 'CTPurple':1 'CTGreen':0 'grey78':0 'CTYellow':0 },{ chips  'CTRed':0 'CTPurple':0 'CTGreen':0 'grey78':0 'CTYellow':2 },70,340,1,(R:2,C:7),{ chips  'CTRed':44 'CTGreen':0 'CTPurple':11 'grey78':9 'CTYellow':3 },335,{ chips  'CTRed':12 'CTGreen':0 'CTPurple':2 'grey78':3 'CTYellow':0 },85,{ chips  'CTRed':10 'CTGreen':0 'CTPurple':1 'grey78':0 'CTYellow':3 },70,,
3playersLog_1390309098959.csv,12,500,560,TRUE,{ chips  'CTYellow':1 },{ chips  'CTPurple':2 'grey78':3 },TRUE,335,85,{ chips  'CTRed':0 'CTPurple':0 'CTGreen':0 'grey78':0 'CTYellow':1 },{ chips  'CTRed':0 'CTPurple':2 'CTGreen':0 'grey78':3 'CTYellow':0 },355,65,0,(R:2,C:7),{ chips  'CTRed':44 'CTGreen':0 'CTPurple':13 'grey78':12 'CTYellow':2 },355,{ chips  'CTRed':12 'CTGreen':0 'CTPurple':0 'grey78':0 'CTYellow':1 },65,{ chips  'CTRed':10 'CTGreen':0 'CTPurple':1 'grey78':0 'CTYellow':3 },70,,
3playersLog_1390309098959.csv,13,560,500,FALSE,{ chips  },{ chips  },TRUE,65,355,{ chips  'grey78':0 },{ chips  'CTRed':0 'CTPurple':0 },65,355,1,(R:1,C:7),{ chips  'CTRed':44 'CTGreen':0 'CTPurple':12 'grey78':12 'CTYellow':2 },350,{ chips  'CTRed':12 'CTGreen':0 'CTPurple':0 'grey78':0 'CTYellow':1 },65,{ chips  'CTRed':10 'CTGreen':0 'CTPurple':1 'grey78':0 'CTYellow':3 },70,,
3playersLog_1390309098959.csv,13,540,500,FALSE,{ chips  'CTRed':5 'CTPurple':1 },{ chips  'CTYellow':1 },IGNORED,70,355,,,,,1,(R:1,C:7),{ chips  'CTRed':44 'CTGreen':0 'CTPurple':12 'grey78':12 'CTYellow':2 },350,{ chips  'CTRed':12 'CTGreen':0 'CTPurple':0 'grey78':0 'CTYellow':1 },65,{ chips  'CTRed':10 'CTGreen':0 'CTPurple':1 'grey78':0 'CTYellow':3 },70,,
3playersLog_1390309098959.csv,14,500,560,TRUE,{ chips  'CTPurple':7 },{ chips  'CTRed':12 'CTYellow':1 },FALSE,350,65,,,,,0,(R:1,C:7),{ chips  'CTRed':44 'CTGreen':0 'CTPurple':12 'grey78':12 'CTYellow':2 },350,{ chips  'CTRed':12 'CTGreen':0 'CTPurple':0 'grey78':0 'CTYellow':1 },65,{ chips  'CTRed':10 'CTGreen':0 'CTPurple':1 'grey78':0 'CTYellow':3 },70,,
3playersLog_1390309098959.csv,15,560,500,FALSE,{ chips  'CTRed':3 },{ chips  },TRUE,65,350,{ chips  'CTRed':3 },{ chips  'grey78':0 },50,365,1,(R:1,C:8),{ chips  'CTRed':47 'CTGreen':0 'CTPurple':12 'grey78':12 'CTYellow':1 },360,{ chips  'CTRed':9 'CTGreen':0 'CTPurple':0 'grey78':0 'CTYellow':1 },50,{ chips  'CTRed':10 'CTGreen':0 'CTPurple':1 'grey78':0 'CTYellow':3 },70,,
3playersLog_1390309098959.csv,15,540,500,FALSE,{ chips  'CTRed':6 },{ chips  'CTYellow':1 },IGNORED,70,350,,,,,1,(R:1,C:8),{ chips  'CTRed':47 'CTGreen':0 'CTPurple':12 'grey78':12 'CTYellow':1 },360,{ chips  'CTRed':9 'CTGreen':0 'CTPurple':0 'grey78':0 'CTYellow':1 },50,{ chips  'CTRed':10 'CTGreen':0 'CTPurple':1 'grey78':0 'CTYellow':3 },70,,
3playersLog_1390309098959.csv,16,500,540,TRUE,{ chips  'CTYellow':1 },{ chips  'CTRed':10 'CTPurple':1 },TRUE,360,50,{ chips  'CTRed':0 'CTPurple':0 'CTGreen':0 'grey78':0 'CTYellow':1 },{ chips  'CTRed':10 'CTPurple':1 'CTGreen':0 'grey78':0 'CTYellow':0 },410,20,0,(R:1,C:8),{ chips  'CTRed':57 'CTGreen':0 'CTPurple':13 'grey78':12 'CTYellow':0 },410,{ chips  'CTRed':9 'CTGreen':0 'CTPurple':0 'grey78':0 'CTYellow':1 },50,{ chips  'CTRed':0 'CTGreen':0 'CTPurple':0 'grey78':0 'CTYellow':4 },20,,
3playersLog_1390309098959.csv,17,560,500,FALSE,{ chips  },{ chips  },IGNORED,50,410,,,,,9,(R:0,C:0),{ chips  'CTRed':57 'CTGreen':0 'CTPurple':6 'grey78':10 'CTYellow':0 },515,{ chips  'CTRed':9 'CTGreen':0 'CTPurple':0 'grey78':0 'CTYellow':1 },50,{ chips  'CTRed':0 'CTGreen':0 'CTPurple':0 'grey78':0 'CTYellow':4 },170,,
3playersLog_1390309098959.csv,,,,,,,,,,,,,,,,,,,,,,,,TRUE
3playersLog_1390309221772.csv,1,560,500,FALSE,{ chips  'CTRed':9 },{ chips  },TRUE,200,120,{ chips  'CTRed':9 },{ chips  'grey78':0 },155,165,3,(R:4,C:6),{ chips  'CTRed':9 'CTGreen':0 'CTPurple':0 'grey78':12 'CTYellow':9 },150,{ chips  'CTRed':24 'CTGreen':0 'CTPurple':7 'grey78':0 'CTYellow':0 },155,{ chips  'CTRed':33 'CTGreen':0 'CTPurple':7 'grey78':0 'CTYellow':0 },200,,
3playersLog_1390309221772.csv,2,500,560,TRUE,{ chips  'grey78':7 },{ chips  'CTPurple':7 },TRUE,145,155,{ chips  'CTRed':0 'CTPurple':0 'CTGreen':0 'grey78':7 'CTYellow':0 },{ chips  'CTRed':0 'CTPurple':7 'CTGreen':0 'grey78':0 'CTYellow':0 },145,155,5,(R:0,C:8),{ chips  'CTRed':9 'CTGreen':0 'CTPurple':7 'grey78':5 'CTYellow':3 },270,{ chips  'CTRed':24 'CTGreen':0 'CTPurple':0 'grey78':7 'CTYellow':0 },305,{ chips  'CTRed':33 'CTGreen':0 'CTPurple':7 'grey78':0 'CTYellow':0 },200,,
3playersLog_1390309221772.csv,,,,,,,,,,,,,,,,,,,,,,,,TRUE
3playersLog_1390909408701.csv,1,560,500,FALSE,{ chips  'CTRed':15 },{ chips  },FALSE,200,120,,,,,2,(R:4,C:3),{ chips  'CTRed':5 'CTGreen':0 'CTPurple':0 'grey78':10 'CTYellow':12 },135,{ chips  'CTRed':33 'CTGreen':0 'CTPurple':7 'grey78':0 'CTYellow':0 },200,{ chips  'CTRed':28 'CTGreen':0 'CTPurple':7 'grey78':0 'CTYellow':0 },175,,
3playersLog_1390909408701.csv,1,540,500,FALSE,{ chips  'CTRed':5 },{ chips  },TRUE,200,120,{ chips  'CTRed':5 'CTPurple':0 'CTGreen':0 'grey78':0 'CTYellow':0 },{ chips  'CTRed':0 'CTPurple':0 'CTGreen':0 'grey78':0 'CTYellow':0 },175,145,2,(R:4,C:3),{ chips  'CTRed':5 'CTGreen':0 'CTPurple':0 'grey78':10 'CTYellow':12 },135,{ chips  'CTRed':33 'CTGreen':0 'CTPurple':7 'grey78':0 'CTYellow':0 },200,{ chips  'CTRed':28 'CTGreen':0 'CTPurple':7 'grey78':0 'CTYellow':0 },175,,
3playersLog_1390909408701.csv,2,500,540,TRUE,{ chips  'CTYellow':2 },{ chips  'CTRed':3 },TRUE,135,200,{ chips  'CTRed':0 'CTPurple':0 'CTGreen':0 'grey78':0 'CTYellow':2 },{ chips  'CTRed':3 'CTPurple':0 'CTGreen':0 'grey78':0 'CTYellow':0 },140,170,1,(R:4,C:2),{ chips  'CTRed':8 'CTGreen':0 'CTPurple':0 'grey78':9 'CTYellow':10 },135,{ chips  'CTRed':33 'CTGreen':0 'CTPurple':7 'grey78':0 'CTYellow':0 },200,{ chips  'CTRed':25 'CTGreen':0 'CTPurple':7 'grey78':0 'CTYellow':2 },170,,
3playersLog_1390909408701.csv,3,560,500,FALSE,{ chips  },{ chips  'grey78':7 },IGNORED,200,135,,,,,1,(R:3,C:2),{ chips  'CTRed':18 'CTGreen':0 'CTPurple':0 'grey78':8 'CTYellow':2 },140,{ chips  'CTRed':33 'CTGreen':0 'CTPurple':7 'grey78':0 'CTYellow':0 },200,{ chips  'CTRed':15 'CTGreen':0 'CTPurple':7 'grey78':0 'CTYellow':10 },160,,
3playersLog_1390909408701.csv,3,540,500,FALSE,{ chips  'CTRed':10 },{ chips  'CTYellow':8 },TRUE,170,135,{ chips  'CTRed':10 'CTPurple':0 'CTGreen':0 'grey78':0 'CTYellow':0 },{ chips  'CTRed':0 'CTPurple':0 'CTGreen':0 'grey78':0 'CTYellow':8 },160,145,1,(R:3,C:2),{ chips  'CTRed':18 'CTGreen':0 'CTPurple':0 'grey78':8 'CTYellow':2 },140,{ chips  'CTRed':33 'CTGreen':0 'CTPurple':7 'grey78':0 'CTYellow':0 },200,{ chips  'CTRed':15 'CTGreen':0 'CTPurple':7 'grey78':0 'CTYellow':10 },160,,
3playersLog_1390909408701.csv,4,500,540,TRUE,{ chips  'CTRed':5 },{ chips  'CTYellow':1 },TRUE,140,200,{ chips  'CTRed':5 'CTPurple':0 'CTGreen':0 'grey78':0 'CTYellow':0 },{ chips  'CTRed':0 'CTPurple':0 'CTGreen':0 'grey78':0 'CTYellow':1 },120,180,1,(R:3,C:1),{ chips  'CTRed':13 'CTGreen':0 'CTPurple':0 'grey78':7 'CTYellow':3 },115,{ chips  'CTRed':33 'CTGreen':0 'CTPurple':7 'grey78':0 'CTYellow':0 },200,{ chips  'CTRed':20 'CTGreen':0 'CTPurple':7 'grey78':0 'CTYellow':9 },180,,
3playersLog_1390909408701.csv,5,560,500,FALSE,{ chips  'CTPurple':6 },{ chips  },TRUE,200,115,{ chips  'CTPurple':6 },{ chips  'grey78':0 },170,145,1,(R:2,C:1),{ chips  'CTRed':13 'CTGreen':0 'CTPurple':6 'grey78':6 'CTYellow':3 },140,{ chips  'CTRed':33 'CTGreen':0 'CTPurple':1 'grey78':0 'CTYellow':0 },170,{ chips  'CTRed':20 'CTGreen':0 'CTPurple':7 'grey78':0 'CTYellow':9 },180,,
3playersLog_1390909408701.csv,5,540,500,FALSE,{ chips  'CTRed':4 },{ chips  'CTYellow':3 },IGNORED,180,115,,,,,1,(R:2,C:1),{ chips  'CTRed':13 'CTGreen':0 'CTPurple':6 'grey78':6 'CTYellow':3 },140,{ chips  'CTRed':33 'CTGreen':0 'CTPurple':1 'grey78':0 'CTYellow':0 },170,{ chips  'CTRed':20 'CTGreen':0 'CTPurple':7 'grey78':0 'CTYellow':9 },180,,
3playersLog_1390909408701.csv,6,500,560,TRUE,{ chips  'CTPurple':1 },{ chips  'CTRed':7 },TRUE,140,170,{ chips  'CTRed':0 'CTPurple':1 'CTGreen':0 'grey78':0 'CTYellow':0 },{ chips  'CTRed':7 'CTPurple':0 'CTGreen':0 'grey78':0 'CTYellow':0 },170,140,1,(R:2,C:0),{ chips  'CTRed':20 'CTGreen':0 'CTPurple':5 'grey78':5 'CTYellow':3 },165,{ chips  'CTRed':26 'CTGreen':0 'CTPurple':2 'grey78':0 'CTYellow':0 },140,{ chips  'CTRed':20 'CTGreen':0 'CTPurple':7 'grey78':0 'CTYellow':9 },180,,
3playersLog_1390909408701.csv,7,560,500,FALSE,{ chips  'CTRed':3 'CTPurple':2 },{ chips  },TRUE,140,165,{ chips  'CTRed':3 'CTPurple':2 },{ chips  'grey78':0 },115,190,1,(R:1,C:0),{ chips  'CTRed':23 'CTGreen':0 'CTPurple':7 'grey78':4 'CTYellow':3 },185,{ chips  'CTRed':23 'CTGreen':0 'CTPurple':0 'grey78':0 'CTYellow':0 },115,{ chips  'CTRed':20 'CTGreen':0 'CTPurple':7 'grey78':0 'CTYellow':9 },180,,
3playersLog_1390909408701.csv,7,540,500,FALSE,{ chips  'CTRed':10 },{ chips  'CTPurple':5 'CTYellow':3 },IGNORED,180,165,,,,,1,(R:1,C:0),{ chips  'CTRed':23 'CTGreen':0 'CTPurple':7 'grey78':4 'CTYellow':3 },185,{ chips  'CTRed':23 'CTGreen':0 'CTPurple':0 'grey78':0 'CTYellow':0 },115,{ chips  'CTRed':20 'CTGreen':0 'CTPurple':7 'grey78':0 'CTYellow':9 },180,,
3playersLog_1390909408701.csv,8,500,560,TRUE,{ chips  'CTPurple':2 },{ chips  'CTRed':10 },TRUE,185,115,{ chips  'CTRed':0 'CTPurple':2 'CTGreen':0 'grey78':0 'CTYellow':0 },{ chips  'CTRed':10 'CTPurple':0 'CTGreen':0 'grey78':0 'CTYellow':0 },225,75,1,(R:0,C:0),{ chips  'CTRed':33 'CTGreen':0 'CTPurple':5 'grey78':3 'CTYellow':3 },370,{ chips  'CTRed':13 'CTGreen':0 'CTPurple':2 'grey78':0 'CTYellow':0 },75,{ chips  'CTRed':20 'CTGreen':0 'CTPurple':7 'grey78':0 'CTYellow':9 },330,,
3playersLog_1390909408701.csv,,,,,,,,,,,,,,,,,,,,,,,,TRUE
3playersLog_1390909479982.csv,1,560,500,FALSE,{ chips  'CTRed':14 },{ chips  },TRUE,200,120,{ chips  'CTRed':14 },{ chips  'grey78':0 },130,190,2,(R:4,C:3),{ chips  'CTRed':14 'CTGreen':0 'CTPurple':0 'grey78':10 'CTYellow':12 },180,{ chips  'CTRed':19 'CTGreen':0 'CTPurple':7 'grey78':0 'CTYellow':0 },130,{ chips  'CTRed':33 'CTGreen':0 'CTPurple':7 'grey78':0 'CTYellow':0 },200,,
3playersLog_1390909479982.csv,2,500,540,TRUE,{ chips  'CTRed':3 'CTYellow':2 },{ chips  },TRUE,180,130,{ chips  'CTRed':3 'CTPurple':0 'CTGreen':0 'grey78':0 'CTYellow':2 },{ chips  'CTRed':0 'CTPurple':0 'CTGreen':0 'grey78':0 'CTYellow':0 },155,225,0,(R:4,C:3),{ chips  'CTRed':11 'CTGreen':0 'CTPurple':0 'grey78':10 'CTYellow':10 },155,{ chips  'CTRed':19 'CTGreen':0 'CTPurple':7 'grey78':0 'CTYellow':0 },130,{ chips  'CTRed':36 'CTGreen':0 'CTPurple':7 'grey78':0 'CTYellow':2 },225,,
3playersLog_1390909479982.csv,3,560,500,FALSE,{ chips  },{ chips  'grey78':7 },IGNORED,130,155,,,,,1,(R:5,C:3),{ chips  'CTRed':11 'CTGreen':0 'CTPurple':0 'grey78':9 'CTYellow':10 },150,{ chips  'CTRed':19 'CTGreen':0 'CTPurple':7 'grey78':0 'CTYellow':0 },130,{ chips  'CTRed':36 'CTGreen':0 'CTPurple':7 'grey78':0 'CTYellow':2 },225,,
3playersLog_1390909479982.csv,3,540,500,FALSE,{ chips  'CTRed':20 'CTPurple':1 },{ chips  'CTYellow':10 },IGNORED,225,155,,,,,1,(R:5,C:3),{ chips  'CTRed':11 'CTGreen':0 'CTPurple':0 'grey78':9 'CTYellow':10 },150,{ chips  'CTRed':19 'CTGreen':0 'CTPurple':7 'grey78':0 'CTYellow':0 },130,{ chips  'CTRed':36 'CTGreen':0 'CTPurple':7 'grey78':0 'CTYellow':2 },225,,
3playersLog_1390909479982.csv,4,500,560,TRUE,{ chips  'CTRed':6 },{ chips  },TRUE,150,130,{ chips  'CTRed':6 'CTPurple':0 'CTGreen':0 'grey78':0 'CTYellow':0 },{ chips  'CTRed':0 'CTPurple':0 'CTGreen':0 'grey78':0 'CTYellow':0 },120,160,0,(R:5,C:3),{ chips  'CTRed':5 'CTGreen':0 'CTPurple':0 'grey78':9 'CTYellow':10 },120,{ chips  'CTRed':25 'CTGreen':0 'CTPurple':7 'grey78':0 'CTYellow':0 },160,{ chips  'CTRed':36 'CTGreen':0 'CTPurple':7 'grey78':0 'CTYellow':2 },225,,
3playersLog_1390909479982.csv,5,560,500,FALSE,{ chips  'CTPurple':6 },{ chips  },TRUE,160,120,{ chips  'CTPurple':6 },{ chips  'grey78':0 },130,150,2,(R:3,C:3),{ chips  'CTRed':5 'CTGreen':0 'CTPurple':5 'grey78':8 'CTYellow':10 },140,{ chips  'CTRed':25 'CTGreen':0 'CTPurple':1 'grey78':0 'CTYellow':0 },130,{ chips  'CTRed':36 'CTGreen':0 'CTPurple':7 'grey78':0 'CTYellow':2 },225,,
3playersLog_1390909479982.csv,5,540,500,FALSE,{ chips  'CTRed':20 'CTPurple':2 },{ chips  'CTYellow':10 },IGNORED,225,120,,,,,2,(R:3,C:3),{ chips  'CTRed':5 'CTGreen':0 'CTPurple':5 'grey78':8 'CTYellow':10 },140,{ chips  'CTRed':25 'CTGreen':0 'CTPurple':1 'grey78':0 'CTYellow':0 },130,{ chips  'CTRed':36 'CTGreen':0 'CTPurple':7 'grey78':0 'CTYellow':2 },225,,
3playersLog_1390909479982.csv,6,500,560,TRUE,{ chips  'grey78':2 },{ chips  'CTRed':6 },TRUE,140,130,{ chips  'CTRed':0 'CTPurple':0 'CTGreen':0 'grey78':2 'CTYellow':0 },{ chips  'CTRed':6 'CTPurple':0 'CTGreen':0 'grey78':0 'CTYellow':0 },160,110,0,(R:3,C:3),{ chips  'CTRed':11 'CTGreen':0 'CTPurple':5 'grey78':6 'CTYellow':10 },160,{ chips  'CTRed':19 'CTGreen':0 'CTPurple':1 'grey78':2 'CTYellow':0 },110,{ chips  'CTRed':36 'CTGreen':0 'CTPurple':7 'grey78':0 'CTYellow':2 },225,,
3playersLog_1390909479982.csv,7,560,500,FALSE,{ chips  'CTRed':5 },{ chips  },TRUE,110,160,{ chips  'CTRed':5 },{ chips  'grey78':0 },85,185,2,(R:3,C:5),{ chips  'CTRed':16 'CTGreen':0 'CTPurple':3 'grey78':6 'CTYellow':10 },175,{ chips  'CTRed':14 'CTGreen':0 'CTPurple':1 'grey78':2 'CTYellow':0 },85,{ chips  'CTRed':36 'CTGreen':0 'CTPurple':7 'grey78':0 'CTYellow':2 },225,,
3playersLog_1390909479982.csv,7,540,500,FALSE,{ chips  'CTRed':14 'CTPurple':3 },{ chips  'CTYellow':6 },FALSE,225,160,,,,,2,(R:3,C:5),{ chips  'CTRed':16 'CTGreen':0 'CTPurple':3 'grey78':6 'CTYellow':10 },175,{ chips  'CTRed':14 'CTGreen':0 'CTPurple':1 'grey78':2 'CTYellow':0 },85,{ chips  'CTRed':36 'CTGreen':0 'CTPurple':7 'grey78':0 'CTYellow':2 },225,,
3playersLog_1390909479982.csv,8,500,560,TRUE,{ chips  },{ chips  'CTRed':8 },FALSE,175,85,,,,,1,(R:3,C:4),{ chips  'CTRed':16 'CTGreen':0 'CTPurple':2 'grey78':6 'CTYellow':10 },170,{ chips  'CTRed':14 'CTGreen':0 'CTPurple':1 'grey78':2 'CTYellow':0 },85,{ chips  'CTRed':36 'CTGreen':0 'CTPurple':7 'grey78':0 'CTYellow':2 },225,,
3playersLog_1390909479982.csv,9,560,500,FALSE,{ chips  'CTRed':1 },{ chips  },IGNORED,85,170,,,,,7,(R:0,C:0),{ chips  'CTRed':36 'CTGreen':0 'CTPurple':4 'grey78':0 'CTYellow':4 },370,{ chips  'CTRed':14 'CTGreen':0 'CTPurple':1 'grey78':2 'CTYellow':0 },85,{ chips  'CTRed':16 'CTGreen':0 'CTPurple':4 'grey78':0 'CTYellow':8 },290,,
3playersLog_1390909479982.csv,9,540,500,FALSE,{ chips  'CTRed':20 'CTPurple':3 },{ chips  'CTYellow':6 },TRUE,225,170,{ chips  'CTRed':20 'CTPurple':3 'CTGreen':0 'grey78':0 'CTYellow':0 },{ chips  'CTRed':0 'CTPurple':0 'CTGreen':0 'grey78':0 'CTYellow':6 },140,255,7,(R:0,C:0),{ chips  'CTRed':36 'CTGreen':0 'CTPurple':4 'grey78':0 'CTYellow':4 },370,{ chips  'CTRed':14 'CTGreen':0 'CTPurple':1 'grey78':2 'CTYellow':0 },85,{ chips  'CTRed':16 'CTGreen':0 'CTPurple':4 'grey78':0 'CTYellow':8 },290,,
3playersLog_1390909479982.csv,,,,,,,,,,,,,,,,,,,,,,,,TRUE
3playersLog_1390909971653.csv,1,560,500,FALSE,{ chips  'CTRed':15 },{ chips  },TRUE,200,120,{ chips  'CTRed':15 },{ chips  'grey78':0 },125,195,3,(R:5,C:3),{ chips  'CTRed':15 'CTGreen':0 'CTPurple':0 'grey78':9 'CTYellow':12 },180,{ chips  'CTRed':18 'CTGreen':0 'CTPurple':7 'grey78':0 'CTYellow':0 },125,{ chips  'CTRed':33 'CTGreen':0 'CTPurple':7 'grey78':0 'CTYellow':0 },200,,
3playersLog_1390909971653.csv,2,500,560,TRUE,{ chips  'grey78':1 },{ chips  'CTPurple':3 },FALSE,180,125,,,,,1,(R:4,C:3),{ chips  'CTRed':15 'CTGreen':0 'CTPurple':0 'grey78':8 'CTYellow':12 },175,{ chips  'CTRed':18 'CTGreen':0 'CTPurple':7 'grey78':0 'CTYellow':0 },125,{ chips  'CTRed':33 'CTGreen':0 'CTPurple':7 'grey78':0 'CTYellow':0 },200,,
3playersLog_1390909971653.csv,3,560,500,FALSE,{ chips  'CTPurple':1 },{ chips  },TRUE,125,175,{ chips  'CTPurple':1 },{ chips  'grey78':0 },120,180,0,(R:4,C:3),{ chips  'CTRed':15 'CTGreen':0 'CTPurple':1 'grey78':8 'CTYellow':12 },180,{ chips  'CTRed':18 'CTGreen':0 'CTPurple':6 'grey78':0 'CTYellow':0 },120,{ chips  'CTRed':33 'CTGreen':0 'CTPurple':7 'grey78':0 'CTYellow':0 },200,,
3playersLog_1390909971653.csv,4,500,540,TRUE,{ chips  'CTPurple':1 },{ chips  'CTRed':15 },FALSE,180,200,,,,,1,(R:4,C:2),{ chips  'CTRed':15 'CTGreen':0 'CTPurple':1 'grey78':7 'CTYellow':12 },175,{ chips  'CTRed':18 'CTGreen':0 'CTPurple':6 'grey78':0 'CTYellow':0 },120,{ chips  'CTRed':33 'CTGreen':0 'CTPurple':7 'grey78':0 'CTYellow':0 },200,,
3playersLog_1390909971653.csv,5,560,500,FALSE,{ chips  'CTRed':6 'CTPurple':2 },{ chips  },TRUE,120,175,{ chips  'CTRed':6 'CTPurple':2 },{ chips  'grey78':0 },80,215,1,(R:3,C:2),{ chips  'CTRed':21 'CTGreen':0 'CTPurple':3 'grey78':6 'CTYellow':12 },210,{ chips  'CTRed':12 'CTGreen':0 'CTPurple':4 'grey78':0 'CTYellow':0 },80,{ chips  'CTRed':33 'CTGreen':0 'CTPurple':7 'grey78':0 'CTYellow':0 },200,,
3playersLog_1390909971653.csv,5,540,500,FALSE,{ chips  'CTRed':11 'CTPurple':3 },{ chips  'CTRed':4 'CTPurple':1 },FALSE,200,175,,,,,1,(R:3,C:2),{ chips  'CTRed':21 'CTGreen':0 'CTPurple':3 'grey78':6 'CTYellow':12 },210,{ chips  'CTRed':12 'CTGreen':0 'CTPurple':4 'grey78':0 'CTYellow':0 },80,{ chips  'CTRed':33 'CTGreen':0 'CTPurple':7 'grey78':0 'CTYellow':0 },200,,
3playersLog_1390909971653.csv,6,500,540,TRUE,{ chips  'CTPurple':1 },{ chips  'CTRed':10 },FALSE,210,200,,,,,0,(R:3,C:2),{ chips  'CTRed':21 'CTGreen':0 'CTPurple':3 'grey78':6 'CTYellow':12 },210,{ chips  'CTRed':12 'CTGreen':0 'CTPurple':4 'grey78':0 'CTYellow':0 },80,{ chips  'CTRed':33 'CTGreen':0 'CTPurple':7 'grey78':0 'CTYellow':0 },200,,
3playersLog_1390909971653.csv,7,560,500,FALSE,{ chips  'CTRed':5 },{ chips  },IGNORED,80,210,,,,,5,(R:0,C:0),{ chips  'CTRed':24 'CTGreen':0 'CTPurple':3 'grey78':1 'CTYellow':12 },350,{ chips  'CTRed':12 'CTGreen':0 'CTPurple':4 'grey78':0 'CTYellow':0 },80,{ chips  'CTRed':30 'CTGreen':0 'CTPurple':7 'grey78':0 'CTYellow':0 },335,,
3playersLog_1390909971653.csv,7,540,500,FALSE,{ chips  'CTRed':3 },{ chips  },TRUE,200,210,{ chips  'CTRed':3 'CTPurple':0 'CTGreen':0 'grey78':0 'CTYellow':0 },{ chips  'CTRed':0 'CTPurple':0 'CTGreen':0 'grey78':0 'CTYellow':0 },185,225,5,(R:0,C:0),{ chips  'CTRed':24 'CTGreen':0 'CTPurple':3 'grey78':1 'CTYellow':12 },350,{ chips  'CTRed':12 'CTGreen':0 'CTPurple':4 'grey78':0 'CTYellow':0 },80,{ chips  'CTRed':30 'CTGreen':0 'CTPurple':7 'grey78':0 'CTYellow':0 },335,,
3playersLog_1390909971653.csv,,,,,,,,,,,,,,,,,,,,,,,,TRUE
3playersLog_1390914589910.csv,1,560,500,FALSE,{ chips  'CTRed':14 },{ chips  },TRUE,200,120,{ chips  'CTRed':14 },{ chips  'grey78':0 },130,190,2,(R:4,C:5),{ chips  'CTRed':14 'CTGreen':0 'CTPurple':0 'grey78':12 'CTYellow':10 },180,{ chips  'CTRed':19 'CTGreen':0 'CTPurple':7 'grey78':0 'CTYellow':0 },130,{ chips  'CTRed':33 'CTGreen':0 'CTPurple':7 'grey78':0 'CTYellow':0 },200,,
3playersLog_1390914589910.csv,1,540,500,FALSE,{ chips  'CTRed':4 },{ chips  'grey78':3 },IGNORED,200,120,,,,,2,(R:4,C:5),{ chips  'CTRed':14 'CTGreen':0 'CTPurple':0 'grey78':12 'CTYellow':10 },180,{ chips  'CTRed':19 'CTGreen':0 'CTPurple':7 'grey78':0 'CTYellow':0 },130,{ chips  'CTRed':33 'CTGreen':0 'CTPurple':7 'grey78':0 'CTYellow':0 },200,,
3playersLog_1390914589910.csv,2,500,560,TRUE,{ chips  'CTRed':6 },{ chips  'CTPurple':3 },TRUE,180,130,{ chips  'CTRed':6 'CTPurple':0 'CTGreen':0 'grey78':0 'CTYellow':0 },{ chips  'CTRed':0 'CTPurple':3 'CTGreen':0 'grey78':0 'CTYellow':0 },165,145,2,(R:3,C:6),{ chips  'CTRed':8 'CTGreen':0 'CTPurple':3 'grey78':12 'CTYellow':8 },155,{ chips  'CTRed':25 'CTGreen':0 'CTPurple':4 'grey78':0 'CTYellow':0 },145,{ chips  'CTRed':33 'CTGreen':0 'CTPurple':7 'grey78':0 'CTYellow':0 },200,,
3playersLog_1390914589910.csv,3,560,500,FALSE,{ chips  'CTRed':3 },{ chips  },TRUE,145,155,{ chips  'CTRed':3 },{ chips  'grey78':0 },130,170,2,(R:2,C:7),{ chips  'CTRed':11 'CTGreen':0 'CTPurple':3 'grey78':12 'CTYellow':6 },160,{ chips  'CTRed':22 'CTGreen':0 'CTPurple':4 'grey78':0 'CTYellow':0 },130,{ chips  'CTRed':33 'CTGreen':0 'CTPurple':7 'grey78':0 'CTYellow':0 },200,,
3playersLog_1390914589910.csv,3,540,500,FALSE,{ chips  'CTRed':5 'CTPurple':5 },{ chips  'CTYellow':3 },IGNORED,200,155,,,,,2,(R:2,C:7),{ chips  'CTRed':11 'CTGreen':0 'CTPurple':3 'grey78':12 'CTYellow':6 },160,{ chips  'CTRed':22 'CTGreen':0 'CTPurple':4 'grey78':0 'CTYellow':0 },130,{ chips  'CTRed':33 'CTGreen':0 'CTPurple':7 'grey78':0 'CTYellow':0 },200,,
3playersLog_1390914589910.csv,4,500,540,TRUE,{ chips  'CTYellow':2 },{ chips  'CTPurple':6 },FALSE,160,200,,,,,2,(R:1,C:8),{ chips  'CTRed':11 'CTGreen':0 'CTPurple':2 'grey78':12 'CTYellow':5 },150,{ chips  'CTRed':22 'CTGreen':0 'CTPurple':4 'grey78':0 'CTYellow':0 },130,{ chips  'CTRed':33 'CTGreen':0 'CTPurple':7 'grey78':0 'CTYellow':0 },200,,
3playersLog_1390914589910.csv,5,560,500,FALSE,{ chips  'CTRed':3 },{ chips  },IGNORED,130,150,,,,,0,(R:1,C:8),{ chips  'CTRed':11 'CTGreen':0 'CTPurple':2 'grey78':12 'CTYellow':5 },150,{ chips  'CTRed':22 'CTGreen':0 'CTPurple':4 'grey78':0 'CTYellow':0 },130,{ chips  'CTRed':33 'CTGreen':0 'CTPurple':7 'grey78':0 'CTYellow':0 },200,,
3playersLog_1390914589910.csv,5,540,500,FALSE,{ chips  'CTRed':15 'CTPurple':7 },{ chips  'grey78':2 'CTYellow':5 },IGNORED,200,150,,,,,0,(R:1,C:8),{ chips  'CTRed':11 'CTGreen':0 'CTPurple':2 'grey78':12 'CTYellow':5 },150,{ chips  'CTRed':22 'CTGreen':0 'CTPurple':4 'grey78':0 'CTYellow':0 },130,{ chips  'CTRed':33 'CTGreen':0 'CTPurple':7 'grey78':0 'CTYellow':0 },200,,
3playersLog_1390914589910.csv,6,500,540,TRUE,{ chips  },{ chips  'CTRed':8 'CTPurple':5 },FALSE,150,200,,,,,1,(R:2,C:8),{ chips  'CTRed':11 'CTGreen':0 'CTPurple':2 'grey78':12 'CTYellow':4 },145,{ chips  'CTRed':22 'CTGreen':0 'CTPurple':4 'grey78':0 'CTYellow':0 },130,{ chips  'CTRed':33 'CTGreen':0 'CTPurple':7 'grey78':0 'CTYellow':0 },200,,
3playersLog_1390914589910.csv,7,560,500,FALSE,{ chips  'CTRed':4 },{ chips  },FALSE,130,145,,,,,2,(R:1,C:7),{ chips  'CTRed':11 'CTGreen':0 'CTPurple':1 'grey78':12 'CTYellow':3 },135,{ chips  'CTRed':22 'CTGreen':0 'CTPurple':4 'grey78':0 'CTYellow':0 },130,{ chips  'CTRed':33 'CTGreen':0 'CTPurple':7 'grey78':0 'CTYellow':0 },200,,
3playersLog_1390914589910.csv,7,540,500,FALSE,{ chips  'CTRed':12 'CTPurple':7 },{ chips  'CTYellow':4 },FALSE,200,145,,,,,2,(R:1,C:7),{ chips  'CTRed':11 'CTGreen':0 'CTPurple':1 'grey78':12 'CTYellow':3 },135,{ chips  'CTRed':22 'CTGreen':0 'CTPurple':4 'grey78':0 'CTYellow':0 },130,{ chips  'CTRed':33 'CTGreen':0 'CTPurple':7 'grey78':0 'CTYellow':0 },200,,
3playersLog_1390914589910.csv,8,500,540,TRUE,{ chips  },{ chips  'CTRed':10 'CTPurple':6 },FALSE,135,200,,,,,0,(R:1,C:7),{ chips  'CTRed':11 'CTGreen':0 'CTPurple':1 'grey78':12 'CTYellow':3 },135,{ chips  'CTRed':22 'CTGreen':0 'CTPurple':4 'grey78':0 'CTYellow':0 },130,{ chips  'CTRed':33 'CTGreen':0 'CTPurple':7 'grey78':0 'CTYellow':0 },200,,
3playersLog_1390914589910.csv,9,560,500,FALSE,{ chips  },{ chips  'grey78':1 },IGNORED,130,135,,,,,1,(R:1,C:8),{ chips  'CTRed':11 'CTGreen':0 'CTPurple':1 'grey78':12 'CTYellow':2 },130,{ chips  'CTRed':22 'CTGreen':0 'CTPurple':4 'grey78':0 'CTYellow':0 },130,{ chips  'CTRed':33 'CTGreen':0 'CTPurple':7 'grey78':0 'CTYellow':0 },200,,
3playersLog_1390914589910.csv,9,540,500,FALSE,{ chips  'CTRed':5 'CTPurple':5 },{ chips  'CTYellow':2 },IGNORED,200,135,,,,,1,(R:1,C:8),{ chips  'CTRed':11 'CTGreen':0 'CTPurple':1 'grey78':12 'CTYellow':2 },130,{ chips  'CTRed':22 'CTGreen':0 'CTPurple':4 'grey78':0 'CTYellow':0 },130,{ chips  'CTRed':33 'CTGreen':0 'CTPurple':7 'grey78':0 'CTYellow':0 },200,,
3playersLog_1390914589910.csv,10,500,560,TRUE,{ chips  'CTPurple':1 },{ chips  'CTRed':10 },FALSE,130,130,,,,,0,(R:1,C:8),{ chips  'CTRed':11 'CTGreen':0 'CTPurple':1 'grey78':12 'CTYellow':2 },130,{ chips  'CTRed':22 'CTGreen':0 'CTPurple':4 'grey78':0 'CTYellow':0 },130,{ chips  'CTRed':33 'CTGreen':0 'CTPurple':7 'grey78':0 'CTYellow':0 },200,,
3playersLog_1390914589910.csv,11,560,500,FALSE,{ chips  'CTRed':5 },{ chips  },TRUE,130,130,{ chips  'CTRed':5 },{ chips  'grey78':0 },105,155,1,(R:0,C:8),{ chips  'CTRed':16 'CTGreen':0 'CTPurple':1 'grey78':12 'CTYellow':1 },300,{ chips  'CTRed':17 'CTGreen':0 'CTPurple':4 'grey78':0 'CTYellow':0 },255,{ chips  'CTRed':33 'CTGreen':0 'CTPurple':7 'grey78':0 'CTYellow':0 },200,,
3playersLog_1390914589910.csv,11,540,500,FALSE,{ chips  },{ chips  'CTYellow':2 },IGNORED,200,130,,,,,1,(R:0,C:8),{ chips  'CTRed':16 'CTGreen':0 'CTPurple':1 'grey78':12 'CTYellow':1 },300,{ chips  'CTRed':17 'CTGreen':0 'CTPurple':4 'grey78':0 'CTYellow':0 },255,{ chips  'CTRed':33 'CTGreen':0 'CTPurple':7 'grey78':0 'CTYellow':0 },200,,
3playersLog_1390914589910.csv,,,,,,,,,,,,,,,,,,,,,,,,TRUE
3playersLog_1390914772841.csv,1,560,500,FALSE,{ chips  'CTRed':14 },{ chips  },TRUE,200,120,{ chips  'CTRed':14 },{ chips  'grey78':0 },130,190,0,(R:5,C:4),{ chips  'CTRed':14 'CTGreen':0 'CTPurple':0 'grey78':12 'CTYellow':12 },190,{ chips  'CTRed':19 'CTGreen':0 'CTPurple':7 'grey78':0 'CTYellow':0 },130,{ chips  'CTRed':33 'CTGreen':0 'CTPurple':7 'grey78':0 'CTYellow':0 },200,,
3playersLog_1390914772841.csv,1,540,500,FALSE,{ chips  'CTPurple':2 },{ chips  'CTYellow':3 },FALSE,200,120,,,,,0,(R:5,C:4),{ chips  'CTRed':14 'CTGreen':0 'CTPurple':0 'grey78':12 'CTYellow':12 },190,{ chips  'CTRed':19 'CTGreen':0 'CTPurple':7 'grey78':0 'CTYellow':0 },130,{ chips  'CTRed':33 'CTGreen':0 'CTPurple':7 'grey78':0 'CTYellow':0 },200,,
3playersLog_1390914772841.csv,2,500,560,TRUE,{ chips  'grey78':2 },{ chips  'CTRed':6 },FALSE,190,130,,,,,1,(R:5,C:3),{ chips  'CTRed':14 'CTGreen':0 'CTPurple':0 'grey78':11 'CTYellow':12 },185,{ chips  'CTRed':19 'CTGreen':0 'CTPurple':7 'grey78':0 'CTYellow':0 },130,{ chips  'CTRed':33 'CTGreen':0 'CTPurple':7 'grey78':0 'CTYellow':0 },200,,
3playersLog_1390914772841.csv,3,560,500,FALSE,{ chips  'CTPurple':1 },{ chips  },TRUE,130,185,{ chips  'CTPurple':1 },{ chips  'grey78':0 },125,190,1,(R:4,C:3),{ chips  'CTRed':14 'CTGreen':0 'CTPurple':1 'grey78':10 'CTYellow':12 },185,{ chips  'CTRed':19 'CTGreen':0 'CTPurple':6 'grey78':0 'CTYellow':0 },125,{ chips  'CTRed':33 'CTGreen':0 'CTPurple':7 'grey78':0 'CTYellow':0 },200,,
3playersLog_1390914772841.csv,3,540,500,FALSE,{ chips  'CTRed':4 },{ chips  'CTYellow':2 },FALSE,200,185,,,,,1,(R:4,C:3),{ chips  'CTRed':14 'CTGreen':0 'CTPurple':1 'grey78':10 'CTYellow':12 },185,{ chips  'CTRed':19 'CTGreen':0 'CTPurple':6 'grey78':0 'CTYellow':0 },125,{ chips  'CTRed':33 'CTGreen':0 'CTPurple':7 'grey78':0 'CTYellow':0 },200,,
3playersLog_1390914772841.csv,4,500,560,TRUE,{ chips  },{ chips  'CTPurple':2 },FALSE,185,125,,,,,0,(R:4,C:3),{ chips  'CTRed':14 'CTGreen':0 'CTPurple':1 'grey78':10 'CTYellow':12 },185,{ chips  'CTRed':19 'CTGreen':0 'CTPurple':6 'grey78':0 'CTYellow':0 },125,{ chips  'CTRed':33 'CTGreen':0 'CTPurple':7 'grey78':0 'CTYellow':0 },200,,
3playersLog_1390914772841.csv,5,560,500,FALSE,{ chips  'CTRed':6 'CTPurple':2 },{ chips  },TRUE,125,185,{ chips  'CTRed':6 'CTPurple':2 },{ chips  'grey78':0 },85,225,2,(R:3,C:4),{ chips  'CTRed':20 'CTGreen':0 'CTPurple':1 'grey78':10 'CTYellow':12 },215,{ chips  'CTRed':13 'CTGreen':0 'CTPurple':4 'grey78':0 'CTYellow':0 },85,{ chips  'CTRed':33 'CTGreen':0 'CTPurple':7 'grey78':0 'CTYellow':0 },200,,
3playersLog_1390914772841.csv,5,540,500,FALSE,{ chips  'CTRed':6 },{ chips  'CTPurple':1 },FALSE,200,185,,,,,2,(R:3,C:4),{ chips  'CTRed':20 'CTGreen':0 'CTPurple':1 'grey78':10 'CTYellow':12 },215,{ chips  'CTRed':13 'CTGreen':0 'CTPurple':4 'grey78':0 'CTYellow':0 },85,{ chips  'CTRed':33 'CTGreen':0 'CTPurple':7 'grey78':0 'CTYellow':0 },200,,
3playersLog_1390914772841.csv,6,500,560,TRUE,{ chips  'grey78':2 },{ chips  'CTRed':4 },FALSE,215,85,,,,,0,(R:3,C:4),{ chips  'CTRed':20 'CTGreen':0 'CTPurple':1 'grey78':10 'CTYellow':12 },215,{ chips  'CTRed':13 'CTGreen':0 'CTPurple':4 'grey78':0 'CTYellow':0 },85,{ chips  'CTRed':33 'CTGreen':0 'CTPurple':7 'grey78':0 'CTYellow':0 },200,,
3playersLog_1390914772841.csv,7,560,500,FALSE,{ chips  },{ chips  },FALSE,85,215,,,,,1,(R:3,C:5),{ chips  'CTRed':32 'CTGreen':0 'CTPurple':1 'grey78':10 'CTYellow':8 },255,{ chips  'CTRed':13 'CTGreen':0 'CTPurple':4 'grey78':0 'CTYellow':0 },85,{ chips  'CTRed':21 'CTGreen':0 'CTPurple':6 'grey78':0 'CTYellow':4 },155,,
3playersLog_1390914772841.csv,7,540,500,FALSE,{ chips  'CTRed':12 'CTPurple':1 },{ chips  'CTYellow':4 },TRUE,200,215,{ chips  'CTRed':12 'CTPurple':1 'CTGreen':0 'grey78':0 'CTYellow':0 },{ chips  'CTRed':0 'CTPurple':0 'CTGreen':0 'grey78':0 'CTYellow':4 },155,260,1,(R:3,C:5),{ chips  'CTRed':32 'CTGreen':0 'CTPurple':1 'grey78':10 'CTYellow':8 },255,{ chips  'CTRed':13 'CTGreen':0 'CTPurple':4 'grey78':0 'CTYellow':0 },85,{ chips  'CTRed':21 'CTGreen':0 'CTPurple':6 'grey78':0 'CTYellow':4 },155,,
3playersLog_1390914772841.csv,8,500,540,TRUE,{ chips  'CTYellow':2 },{ chips  'CTRed':10 'CTPurple':1 },TRUE,255,85,{ chips  'CTRed':0 'CTPurple':0 'CTGreen':0 'grey78':0 'CTYellow':2 },{ chips  'CTRed':10 'CTPurple':1 'CTGreen':0 'grey78':0 'CTYellow':0 },300,110,0,(R:3,C:5),{ chips  'CTRed':42 'CTGreen':0 'CTPurple':2 'grey78':10 'CTYellow':6 },300,{ chips  'CTRed':13 'CTGreen':0 'CTPurple':4 'grey78':0 'CTYellow':0 },85,{ chips  'CTRed':11 'CTGreen':0 'CTPurple':5 'grey78':0 'CTYellow':6 },110,,
3playersLog_1390914772841.csv,9,560,500,FALSE,{ chips  'CTRed':4 },{ chips  },TRUE,85,300,{ chips  'CTRed':4 },{ chips  'grey78':0 },65,320,0,(R:3,C:5),{ chips  'CTRed':46 'CTGreen':0 'CTPurple':2 'grey78':10 'CTYellow':6 },320,{ chips  'CTRed':9 'CTGreen':0 'CTPurple':4 'grey78':0 'CTYellow':0 },65,{ chips  'CTRed':11 'CTGreen':0 'CTPurple':5 'grey78':0 'CTYellow':6 },110,,
3playersLog_1390914772841.csv,9,540,500,FALSE,{ chips  'CTRed':7 },{ chips  'CTYellow':1 },FALSE,110,300,,,,,0,(R:3,C:5),{ chips  'CTRed':46 'CTGreen':0 'CTPurple':2 'grey78':10 'CTYellow':6 },320,{ chips  'CTRed':9 'CTGreen':0 'CTPurple':4 'grey78':0 'CTYellow':0 },65,{ chips  'CTRed':11 'CTGreen':0 'CTPurple':5 'grey78':0 'CTYellow':6 },110,,
3playersLog_1390914772841.csv,,,,,,,,,,,,,,,,,,,,,,,,FALSE
3playersLog_1390914888224.csv,1,560,500,FALSE,{ chips  'CTRed':14 },{ chips  },FALSE,200,120,,,,,1,(R:5,C:5),{ chips  'CTRed':5 'CTGreen':0 'CTPurple':3 'grey78':12 'CTYellow':4 },120,{ chips  'CTRed':33 'CTGreen':0 'CTPurple':7 'grey78':0 'CTYellow':0 },200,{ chips  'CTRed':28 'CTGreen':0 'CTPurple':4 'grey78':0 'CTYellow':7 },195,,
3playersLog_1390914888224.csv,1,540,500,FALSE,{ chips  'CTRed':5 'CTPurple':3 },{ chips  'CTYellow':7 },TRUE,200,120,{ chips  'CTRed':5 'CTPurple':3 'CTGreen':0 'grey78':0 'CTYellow':0 },{ chips  'CTRed':0 'CTPurple':0 'CTGreen':0 'grey78':0 'CTYellow':7 },195,125,1,(R:5,C:5),{ chips  'CTRed':5 'CTGreen':0 'CTPurple':3 'grey78':12 'CTYellow':4 },120,{ chips  'CTRed':33 'CTGreen':0 'CTPurple':7 'grey78':0 'CTYellow':0 },200,{ chips  'CTRed':28 'CTGreen':0 'CTPurple':4 'grey78':0 'CTYellow':7 },195,,
3playersLog_1390914888224.csv,2,500,540,TRUE,{ chips  'CTYellow':1 },{ chips  'CTRed':7 'CTPurple':1 },FALSE,120,195,,,,,1,(R:4,C:5),{ chips  'CTRed':5 'CTGreen':0 'CTPurple':3 'grey78':12 'CTYellow':3 },115,{ chips  'CTRed':33 'CTGreen':0 'CTPurple':7 'grey78':0 'CTYellow':0 },200,{ chips  'CTRed':28 'CTGreen':0 'CTPurple':4 'grey78':0 'CTYellow':7 },195,,
3playersLog_1390914888224.csv,3,560,500,FALSE,{ chips  'CTRed':3 },{ chips  },TRUE,200,110,{ chips  'CTRed':3 },{ chips  'grey78':0 },185,125,0,(R:3,C:5),{ chips  'CTRed':8 'CTGreen':0 'CTPurple':2 'grey78':12 'CTYellow':3 },125,{ chips  'CTRed':30 'CTGreen':0 'CTPurple':7 'grey78':0 'CTYellow':0 },185,{ chips  'CTRed':28 'CTGreen':0 'CTPurple':4 'grey78':0 'CTYellow':7 },195,,
3playersLog_1390914888224.csv,3,540,500,FALSE,{ chips  'CTRed':10 },{ chips  'CTYellow':3 },FALSE,195,110,,,,,0,(R:3,C:5),{ chips  'CTRed':8 'CTGreen':0 'CTPurple':2 'grey78':12 'CTYellow':3 },125,{ chips  'CTRed':30 'CTGreen':0 'CTPurple':7 'grey78':0 'CTYellow':0 },185,{ chips  'CTRed':28 'CTGreen':0 'CTPurple':4 'grey78':0 'CTYellow':7 },195,,
3playersLog_1390914888224.csv,4,500,540,TRUE,{ chips  'grey78':4 },{ chips  'CTRed':10 },FALSE,125,195,,,,,2,(R:3,C:3),{ chips  'CTRed':8 'CTGreen':0 'CTPurple':0 'grey78':12 'CTYellow':3 },115,{ chips  'CTRed':30 'CTGreen':0 'CTPurple':7 'grey78':0 'CTYellow':0 },185,{ chips  'CTRed':28 'CTGreen':0 'CTPurple':4 'grey78':0 'CTYellow':7 },195,,
3playersLog_1390914888224.csv,5,560,500,FALSE,{ chips  'CTRed':14 'CTPurple':3 },{ chips  },TRUE,185,115,{ chips  'CTRed':14 'CTPurple':3 },{ chips  'grey78':0 },100,200,0,(R:3,C:3),{ chips  'CTRed':22 'CTGreen':0 'CTPurple':3 'grey78':12 'CTYellow':3 },200,{ chips  'CTRed':16 'CTGreen':0 'CTPurple':4 'grey78':0 'CTYellow':0 },100,{ chips  'CTRed':28 'CTGreen':0 'CTPurple':4 'grey78':0 'CTYellow':7 },195,,
3playersLog_1390914888224.csv,5,540,500,FALSE,{ chips  'CTRed':9 },{ chips  'CTYellow':2 },FALSE,195,115,,,,,0,(R:3,C:3),{ chips  'CTRed':22 'CTGreen':0 'CTPurple':3 'grey78':12 'CTYellow':3 },200,{ chips  'CTRed':16 'CTGreen':0 'CTPurple':4 'grey78':0 'CTYellow':0 },100,{ chips  'CTRed':28 'CTGreen':0 'CTPurple':4 'grey78':0 'CTYellow':7 },195,,
3playersLog_1390914888224.csv,6,500,560,TRUE,{ chips  'grey78':3 },{ chips  'CTRed':5 },FALSE,200,100,,,,,1,(R:3,C:2),{ chips  'CTRed':22 'CTGreen':0 'CTPurple':3 'grey78':11 'CTYellow':3 },195,{ chips  'CTRed':16 'CTGreen':0 'CTPurple':4 'grey78':0 'CTYellow':0 },100,{ chips  'CTRed':28 'CTGreen':0 'CTPurple':4 'grey78':0 'CTYellow':7 },195,,
3playersLog_1390914888224.csv,7,560,500,FALSE,{ chips  'CTRed':5 },{ chips  },TRUE,100,195,{ chips  'CTRed':5 'CTPurple':0 },{ chips  'grey78':0 },75,220,0,(R:3,C:2),{ chips  'CTRed':27 'CTGreen':0 'CTPurple':3 'grey78':11 'CTYellow':3 },220,{ chips  'CTRed':11 'CTGreen':0 'CTPurple':4 'grey78':0 'CTYellow':0 },75,{ chips  'CTRed':28 'CTGreen':0 'CTPurple':4 'grey78':0 'CTYellow':7 },195,,
3playersLog_1390914888224.csv,7,540,500,FALSE,{ chips  'CTRed':11 },{ chips  'CTYellow':2 },FALSE,195,195,,,,,0,(R:3,C:2),{ chips  'CTRed':27 'CTGreen':0 'CTPurple':3 'grey78':11 'CTYellow':3 },220,{ chips  'CTRed':11 'CTGreen':0 'CTPurple':4 'grey78':0 'CTYellow':0 },75,{ chips  'CTRed':28 'CTGreen':0 'CTPurple':4 'grey78':0 'CTYellow':7 },195,,
3playersLog_1390914888224.csv,8,500,560,TRUE,{ chips  'grey78':4 },{ chips  'CTRed':6 },FALSE,220,75,,,,,1,(R:3,C:1),{ chips  'CTRed':27 'CTGreen':0 'CTPurple':3 'grey78':10 'CTYellow':3 },215,{ chips  'CTRed':11 'CTGreen':0 'CTPurple':4 'grey78':0 'CTYellow':0 },75,{ chips  'CTRed':28 'CTGreen':0 'CTPurple':4 'grey78':0 'CTYellow':7 },195,,
3playersLog_1390914888224.csv,9,560,500,FALSE,{ chips  'CTPurple':3 },{ chips  },FALSE,75,215,,,,,0,(R:3,C:1),{ chips  'CTRed':27 'CTGreen':0 'CTPurple':3 'grey78':10 'CTYellow':3 },215,{ chips  'CTRed':11 'CTGreen':0 'CTPurple':4 'grey78':0 'CTYellow':0 },75,{ chips  'CTRed':28 'CTGreen':0 'CTPurple':4 'grey78':0 'CTYellow':7 },195,,
3playersLog_1390914888224.csv,9,540,500,FALSE,{ chips  'CTRed':6 },{ chips  'CTPurple':1 },FALSE,195,215,,,,,0,(R:3,C:1),{ chips  'CTRed':27 'CTGreen':0 'CTPurple':3 'grey78':10 'CTYellow':3 },215,{ chips  'CTRed':11 'CTGreen':0 'CTPurple':4 'grey78':0 'CTYellow':0 },75,{ chips  'CTRed':28 'CTGreen':0 'CTPurple':4 'grey78':0 'CTYellow':7 },195,,
3playersLog_1390914888224.csv,10,500,560,TRUE,{ chips  },{ chips  },TRUE,215,75,{ chips  'CTRed':0 'CTPurple':0 'CTGreen':0 'grey78':0 'CTYellow':0 },{ chips  'CTRed':0 'CTPurple':0 'CTGreen':0 'grey78':0 'CTYellow':0 },215,75,1,(R:2,C:1),{ chips  'CTRed':27 'CTGreen':0 'CTPurple':3 'grey78':9 'CTYellow':3 },210,{ chips  'CTRed':11 'CTGreen':0 'CTPurple':4 'grey78':0 'CTYellow':0 },75,{ chips  'CTRed':28 'CTGreen':0 'CTPurple':4 'grey78':0 'CTYellow':7 },195,,
3playersLog_1390914888224.csv,11,560,500,FALSE,{ chips  'CTPurple':3 },{ chips  },FALSE,75,210,,,,,0,(R:2,C:1),{ chips  'CTRed':27 'CTGreen':0 'CTPurple':3 'grey78':9 'CTYellow':3 },210,{ chips  'CTRed':11 'CTGreen':0 'CTPurple':4 'grey78':0 'CTYellow':0 },75,{ chips  'CTRed':28 'CTGreen':0 'CTPurple':4 'grey78':0 'CTYellow':7 },195,,
3playersLog_1390914888224.csv,11,540,500,FALSE,{ chips  'CTRed':6 },{ chips  'CTPurple':1 },FALSE,195,210,,,,,0,(R:2,C:1),{ chips  'CTRed':27 'CTGreen':0 'CTPurple':3 'grey78':9 'CTYellow':3 },210,{ chips  'CTRed':11 'CTGreen':0 'CTPurple':4 'grey78':0 'CTYellow':0 },75,{ chips  'CTRed':28 'CTGreen':0 'CTPurple':4 'grey78':0 'CTYellow':7 },195,,
3playersLog_1390914888224.csv,12,500,540,TRUE,{ chips  'CTYellow':1 },{ chips  'CTRed':6 },FALSE,210,195,,,,,1,(R:1,C:1),{ chips  'CTRed':27 'CTGreen':0 'CTPurple':2 'grey78':9 'CTYellow':3 },205,{ chips  'CTRed':11 'CTGreen':0 'CTPurple':4 'grey78':0 'CTYellow':0 },75,{ chips  'CTRed':28 'CTGreen':0 'CTPurple':4 'grey78':0 'CTYellow':7 },195,,
3playersLog_1390914888224.csv,13,560,500,FALSE,{ chips  },{ chips  },FALSE,75,205,,,,,0,(R:1,C:1),{ chips  'CTRed':27 'CTGreen':0 'CTPurple':2 'grey78':9 'CTYellow':3 },205,{ chips  'CTRed':11 'CTGreen':0 'CTPurple':4 'grey78':0 'CTYellow':0 },75,{ chips  'CTRed':28 'CTGreen':0 'CTPurple':4 'grey78':0 'CTYellow':7 },195,,
3playersLog_1390914888224.csv,13,540,500,FALSE,{ chips  'CTRed':10 },{ chips  'CTPurple':1 },FALSE,195,205,,,,,0,(R:1,C:1),{ chips  'CTRed':27 'CTGreen':0 'CTPurple':2 'grey78':9 'CTYellow':3 },205,{ chips  'CTRed':11 'CTGreen':0 'CTPurple':4 'grey78':0 'CTYellow':0 },75,{ chips  'CTRed':28 'CTGreen':0 'CTPurple':4 'grey78':0 'CTYellow':7 },195,,
3playersLog_1390914888224.csv,14,500,540,TRUE,{ chips  'CTPurple':1 },{ chips  'CTRed':12 },TRUE,205,75,{ chips  'CTRed':0 'CTPurple':1 'CTGreen':0 'grey78':0 'CTYellow':0 },{ chips  'CTRed':12 'CTPurple':0 'CTGreen':0 'grey78':0 'CTYellow':0 },260,140,1,(R:1,C:0),{ chips  'CTRed':39 'CTGreen':0 'CTPurple':1 'grey78':8 'CTYellow':3 },255,{ chips  'CTRed':11 'CTGreen':0 'CTPurple':4 'grey78':0 'CTYellow':0 },75,{ chips  'CTRed':16 'CTGreen':0 'CTPurple':5 'grey78':0 'CTYellow':7 },140,,
3playersLog_1390914888224.csv,15,560,500,FALSE,{ chips  },{ chips  },FALSE,75,255,,,,,1,(R:0,C:0),{ chips  'CTRed':39 'CTGreen':0 'CTPurple':1 'grey78':7 'CTYellow':3 },400,{ chips  'CTRed':11 'CTGreen':0 'CTPurple':4 'grey78':0 'CTYellow':0 },75,{ chips  'CTRed':16 'CTGreen':0 'CTPurple':5 'grey78':0 'CTYellow':7 },290,,
3playersLog_1390914888224.csv,15,540,500,FALSE,{ chips  },{ chips  },FALSE,140,255,,,,,1,(R:0,C:0),{ chips  'CTRed':39 'CTGreen':0 'CTPurple':1 'grey78':7 'CTYellow':3 },400,{ chips  'CTRed':11 'CTGreen':0 'CTPurple':4 'grey78':0 'CTYellow':0 },75,{ chips  'CTRed':16 'CTGreen':0 'CTPurple':5 'grey78':0 'CTYellow':7 },290,,
3playersLog_1390914888224.csv,,,,,,,,,,,,,,,,,,,,,,,,TRUE
,,,,,,,,,,,,,,,,,,,,,,,,
