filename,round,propID,respID,IsPropCustomer,chipsToSend,chipsToReceive,accept,propCurrentScore,respCurrentScore,actualSent,ActualRcvd,propResultingScore,respResultingScore,#ofCustomerMovesInRound,customerRowPositionAfterMovePhase,customerColPositionAfterMovePhase,Player100ChipsAfterMovePhase,Player100ScoreAfterMovePhase,Player200ChipsAfterMovePhase,Player200ScoreAfterMovePhase,Player300ChipsAfterMovePhase,Player300ScoreAfterMovePhase,generosityLevel,ClientReachedGoal
3playersLog_1387773847312.csv,1,200,100,false,{ chips  'CTPurple':1 },{ chips  },TRUE,200,120,{ chips  'CTRed':0 'CTPurple':1 'CTGreen':0 'grey78':0 'CTYellow':0 },{ chips  'CTRed':0 'CTPurple':0 'CTGreen':0 'grey78':0 'CTYellow':0 },195,125,2,(R:4,C:5),{ chips  'CTRed':0 'CTGreen':0 'CTPurple':1 'grey78':12 'CTYellow':10 },115,{ chips  'CTRed':33 'CTGreen':0 'CTPurple':6 'grey78':0 'CTYellow':0 },195,{ chips  'CTRed':33 'CTGreen':0 'CTPurple':7 'grey78':0 'CTYellow':0 },200
3playersLog_1387773847312.csv,2,100,300,true,{ chips  },{ chips  'CTRed':4 'CTPurple':2 },TRUE,115,195,{ chips  'CTRed':0 'CTPurple':0 'CTGreen':0 'grey78':0 'CTYellow':0 },{ chips  'CTRed':4 'CTPurple':2 'CTGreen':0 'grey78':0 'CTYellow':0 },145,170,1,(R:4,C:6),{ chips  'CTRed':4 'CTGreen':0 'CTPurple':3 'grey78':12 'CTYellow':9 },140,{ chips  'CTRed':33 'CTGreen':0 'CTPurple':6 'grey78':0 'CTYellow':0 },195,{ chips  'CTRed':29 'CTGreen':0 'CTPurple':5 'grey78':0 'CTYellow':0 },170
3playersLog_1387773847312.csv,3,200,100,false,{ chips  'CTRed':2 },{ chips  },TRUE,195,140,{ chips  'CTRed':2 'CTPurple':0 'CTGreen':0 'grey78':0 'CTYellow':0 },{ chips  'CTRed':0 'CTPurple':0 'CTGreen':0 'grey78':0 'CTYellow':0 },185,150,1,(R:3,C:6),{ chips  'CTRed':6 'CTGreen':0 'CTPurple':3 'grey78':12 'CTYellow':8 },145,{ chips  'CTRed':31 'CTGreen':0 'CTPurple':6 'grey78':0 'CTYellow':0 },185,{ chips  'CTRed':29 'CTGreen':0 'CTPurple':5 'grey78':0 'CTYellow':0 },170
3playersLog_1387773847312.csv,4,100,300,true,{ chips  'CTRed':1 },{ chips  },TRUE,145,185,{ chips  'CTRed':1 'CTPurple':0 'CTGreen':0 'grey78':0 'CTYellow':0 },{ chips  'CTRed':0 'CTPurple':0 'CTGreen':0 'grey78':0 'CTYellow':0 },140,175,1,(R:3,C:7),{ chips  'CTRed':5 'CTGreen':0 'CTPurple':3 'grey78':12 'CTYellow':7 },135,{ chips  'CTRed':31 'CTGreen':0 'CTPurple':6 'grey78':0 'CTYellow':0 },185,{ chips  'CTRed':30 'CTGreen':0 'CTPurple':5 'grey78':0 'CTYellow':0 },175
3playersLog_1387773847312.csv,5,200,100,false,{ chips  'CTRed':1 },{ chips  },TRUE,185,135,{ chips  'CTRed':1 'CTPurple':0 'CTGreen':0 'grey78':0 'CTYellow':0 },{ chips  'CTRed':0 'CTPurple':0 'CTGreen':0 'grey78':0 'CTYellow':0 },180,140,0,(R:3,C:7),{ chips  'CTRed':6 'CTGreen':0 'CTPurple':3 'grey78':12 'CTYellow':7 },140,{ chips  'CTRed':30 'CTGreen':0 'CTPurple':6 'grey78':0 'CTYellow':0 },180,{ chips  'CTRed':30 'CTGreen':0 'CTPurple':5 'grey78':0 'CTYellow':0 },175
3playersLog_1387773847312.csv,5,300,100,false,{ chips  'CTRed':4 },{ chips  'CTYellow':3 },IGNORED,175,135,,,,,0,(R:3,C:7),{ chips  'CTRed':6 'CTGreen':0 'CTPurple':3 'grey78':12 'CTYellow':7 },140,{ chips  'CTRed':30 'CTGreen':0 'CTPurple':6 'grey78':0 'CTYellow':0 },180,{ chips  'CTRed':30 'CTGreen':0 'CTPurple':5 'grey78':0 'CTYellow':0 },175
3playersLog_1387773847312.csv,6,100,200,true,{ chips  },{ chips  'CTRed':10 },FALSE,140,180,,,,,1,(R:3,C:6),{ chips  'CTRed':6 'CTGreen':0 'CTPurple':3 'grey78':12 'CTYellow':6 },135,{ chips  'CTRed':30 'CTGreen':0 'CTPurple':6 'grey78':0 'CTYellow':0 },180,{ chips  'CTRed':30 'CTGreen':0 'CTPurple':5 'grey78':0 'CTYellow':0 },175
3playersLog_1387773847312.csv,7,200,100,false,{ chips  'CTRed':4 },{ chips  },TRUE,180,135,{ chips  'CTRed':4 'CTPurple':0 'CTGreen':0 'grey78':0 'CTYellow':0 },{ chips  'CTRed':0 'CTPurple':0 'CTGreen':0 'grey78':0 'CTYellow':0 },160,155,1,(R:3,C:5),{ chips  'CTRed':10 'CTGreen':0 'CTPurple':2 'grey78':12 'CTYellow':6 },150,{ chips  'CTRed':26 'CTGreen':0 'CTPurple':6 'grey78':0 'CTYellow':0 },160,{ chips  'CTRed':30 'CTGreen':0 'CTPurple':5 'grey78':0 'CTYellow':0 },175
3playersLog_1387773847312.csv,7,300,100,false,{ chips  'CTPurple':3 },{ chips  'CTRed':4 },IGNORED,175,135,,,,,1,(R:3,C:5),{ chips  'CTRed':10 'CTGreen':0 'CTPurple':2 'grey78':12 'CTYellow':6 },150,{ chips  'CTRed':26 'CTGreen':0 'CTPurple':6 'grey78':0 'CTYellow':0 },160,{ chips  'CTRed':30 'CTGreen':0 'CTPurple':5 'grey78':0 'CTYellow':0 },175
3playersLog_1387773847312.csv,8,100,300,true,{ chips  },{ chips  'CTPurple':4 },TRUE,150,160,{ chips  'CTRed':0 'CTPurple':0 'CTGreen':0 'grey78':0 'CTYellow':0 },{ chips  'CTRed':0 'CTPurple':4 'CTGreen':0 'grey78':0 'CTYellow':0 },170,155,1,(R:3,C:4),{ chips  'CTRed':10 'CTGreen':0 'CTPurple':5 'grey78':12 'CTYellow':6 },165,{ chips  'CTRed':26 'CTGreen':0 'CTPurple':6 'grey78':0 'CTYellow':0 },160,{ chips  'CTRed':30 'CTGreen':0 'CTPurple':1 'grey78':0 'CTYellow':0 },155
3playersLog_1387773847312.csv,9,200,100,false,{ chips  },{ chips  },TRUE,160,165,{ chips  'CTRed':0 'CTPurple':0 'CTGreen':0 'grey78':0 'CTYellow':0 },{ chips  'CTRed':0 'CTPurple':0 'CTGreen':0 'grey78':0 'CTYellow':0 },160,165,1,(R:3,C:5),{ chips  'CTRed':10 'CTGreen':0 'CTPurple':4 'grey78':12 'CTYellow':6 },160,{ chips  'CTRed':26 'CTGreen':0 'CTPurple':6 'grey78':0 'CTYellow':0 },160,{ chips  'CTRed':30 'CTGreen':0 'CTPurple':1 'grey78':0 'CTYellow':0 },155
3playersLog_1387773847312.csv,9,300,100,false,{ chips  'CTRed':3 },{ chips  'CTYellow':1 },IGNORED,155,165,,,,,1,(R:3,C:5),{ chips  'CTRed':10 'CTGreen':0 'CTPurple':4 'grey78':12 'CTYellow':6 },160,{ chips  'CTRed':26 'CTGreen':0 'CTPurple':6 'grey78':0 'CTYellow':0 },160,{ chips  'CTRed':30 'CTGreen':0 'CTPurple':1 'grey78':0 'CTYellow':0 },155
3playersLog_1387773847312.csv,10,100,300,true,{ chips  },{ chips  'CTRed':5 },FALSE,160,155,,,,,0,(R:3,C:5),{ chips  'CTRed':10 'CTGreen':0 'CTPurple':4 'grey78':12 'CTYellow':6 },160,{ chips  'CTRed':26 'CTGreen':0 'CTPurple':6 'grey78':0 'CTYellow':0 },160,{ chips  'CTRed':30 'CTGreen':0 'CTPurple':1 'grey78':0 'CTYellow':0 },155
3playersLog_1387773847312.csv,11,200,100,false,{ chips  },{ chips  },FALSE,160,160,,,,,1,(R:3,C:4),{ chips  'CTRed':10 'CTGreen':0 'CTPurple':3 'grey78':12 'CTYellow':6 },155,{ chips  'CTRed':26 'CTGreen':0 'CTPurple':6 'grey78':0 'CTYellow':0 },160,{ chips  'CTRed':30 'CTGreen':0 'CTPurple':1 'grey78':0 'CTYellow':0 },155
3playersLog_1387773847312.csv,11,300,100,false,{ chips  'CTRed':3 },{ chips  'CTRed':2 'CTPurple':1 'CTYellow':1 },FALSE,155,160,,,,,1,(R:3,C:4),{ chips  'CTRed':10 'CTGreen':0 'CTPurple':3 'grey78':12 'CTYellow':6 },155,{ chips  'CTRed':26 'CTGreen':0 'CTPurple':6 'grey78':0 'CTYellow':0 },160,{ chips  'CTRed':30 'CTGreen':0 'CTPurple':1 'grey78':0 'CTYellow':0 },155
3playersLog_1387773847312.csv,12,100,200,true,{ chips  },{ chips  'CTRed':4 },TRUE,155,160,{ chips  'CTRed':0 'CTPurple':0 'CTGreen':0 'grey78':0 'CTYellow':0 },{ chips  'CTRed':4 'CTPurple':0 'CTGreen':0 'grey78':0 'CTYellow':0 },175,140,1,(R:3,C:5),{ chips  'CTRed':14 'CTGreen':0 'CTPurple':2 'grey78':12 'CTYellow':6 },170,{ chips  'CTRed':22 'CTGreen':0 'CTPurple':6 'grey78':0 'CTYellow':0 },140,{ chips  'CTRed':30 'CTGreen':0 'CTPurple':1 'grey78':0 'CTYellow':0 },155
3playersLog_1387773847312.csv,13,200,100,false,{ chips  },{ chips  },FALSE,140,170,,,,,0,(R:3,C:5),{ chips  'CTRed':14 'CTGreen':0 'CTPurple':2 'grey78':12 'CTYellow':6 },170,{ chips  'CTRed':22 'CTGreen':0 'CTPurple':6 'grey78':0 'CTYellow':0 },140,{ chips  'CTRed':30 'CTGreen':0 'CTPurple':1 'grey78':0 'CTYellow':0 },155
3playersLog_1387773847312.csv,13,300,100,false,{ chips  'CTRed':3 },{ chips  'CTYellow':1 },FALSE,155,170,,,,,0,(R:3,C:5),{ chips  'CTRed':14 'CTGreen':0 'CTPurple':2 'grey78':12 'CTYellow':6 },170,{ chips  'CTRed':22 'CTGreen':0 'CTPurple':6 'grey78':0 'CTYellow':0 },140,{ chips  'CTRed':30 'CTGreen':0 'CTPurple':1 'grey78':0 'CTYellow':0 },155
3playersLog_1387773847312.csv,14,100,200,true,{ chips  },{ chips  'CTRed':1 },TRUE,170,140,{ chips  'CTRed':0 'CTPurple':0 'CTGreen':0 'grey78':0 'CTYellow':0 },{ chips  'CTRed':1 'CTPurple':0 'CTGreen':0 'grey78':0 'CTYellow':0 },175,135,6,(R:0,C:8),{ chips  'CTRed':15 'CTGreen':0 'CTPurple':2 'grey78':12 'CTYellow':0 },295,{ chips  'CTRed':21 'CTGreen':0 'CTPurple':6 'grey78':0 'CTYellow':0 },285,{ chips  'CTRed':30 'CTGreen':0 'CTPurple':1 'grey78':0 'CTYellow':0 },155
3playersLog_1387773847312.csv,,,,,,,,,,,,,,,,,,,,,,,,true
