filename,round,propID,respID,IsPropCustomer,chipsToSend,chipsToReceive,accept,propCurrentScore,respCurrentScore,actualSent,ActualRcvd,propResultingScore,respResultingScore,#ofCustomerMovesInRound,customerRowPositionAfterMovePhase,customerColPositionAfterMovePhase,Player100ChipsAfterMovePhase,Player100ScoreAfterMovePhase,Player200ChipsAfterMovePhase,Player200ScoreAfterMovePhase,Player300ChipsAfterMovePhase,Player300ScoreAfterMovePhase,isCommitment,generosityLevel,ClientReachedGoal
3playersLog_1387541383809.csv,1,300,200,FALSE,{ chips  'CTPurple':2 },{ chips  'CTYellow':2 },TRUE,200,120,{ chips  'CTRed':0 'CTPurple':2 'CTGreen':0 'grey78':0 'CTYellow':0 },{ chips  'CTRed':0 'CTPurple':0 'CTGreen':0 'grey78':0 'CTYellow':2 },200,120,3,(R:5,C:3),{ chips  'CTRed':0 'CTGreen':0 'CTPurple':2 'grey78':9 'CTYellow':10 },105,{ chips  'CTRed':33 'CTGreen':0 'CTPurple':5 'grey78':0 'CTYellow':2 },200,{ chips  'CTRed':33 'CTGreen':0 'CTPurple':7 'grey78':0 'CTYellow':0 },200,TRUE,,
3playersLog_1387541383809.csv,2,200,100,TRUE,{ chips  'CTPurple':1 'CTYellow':1 },{ chips  'CTRed':3 },TRUE,105,200,{ chips  'CTRed':0 'CTPurple':1 'CTGreen':0 'grey78':0 'CTYellow':1 },{ chips  'CTRed':3 'CTPurple':0 'CTGreen':0 'grey78':0 'CTYellow':0 },110,195,3,(R:3,C:2),{ chips  'CTRed':3 'CTGreen':0 'CTPurple':1 'grey78':6 'CTYellow':9 },95,{ chips  'CTRed':33 'CTGreen':0 'CTPurple':5 'grey78':0 'CTYellow':2 },200,{ chips  'CTRed':30 'CTGreen':0 'CTPurple':8 'grey78':0 'CTYellow':1 },195,FALSE,,
3playersLog_1387541383809.csv,3,300,200,FALSE,{ chips  'CTPurple':3 },{ chips  'grey78':3 },FALSE,200,95,,,200,95,2,(R:2,C:1),{ chips  'CTRed':5 'CTGreen':0 'CTPurple':3 'grey78':4 'CTYellow':8 },100,{ chips  'CTRed':33 'CTGreen':0 'CTPurple':5 'grey78':0 'CTYellow':2 },200,{ chips  'CTRed':28 'CTGreen':0 'CTPurple':6 'grey78':0 'CTYellow':2 },180,FALSE,,
3playersLog_1387541383809.csv,3,100,200,FALSE,{ chips  'CTRed':2 'CTPurple':2 },{ chips  'CTYellow':1 },TRUE,195,95,{ chips  'CTRed':2 'CTPurple':2 'CTGreen':0 'grey78':0 'CTYellow':0 },{ chips  'CTRed':0 'CTPurple':0 'CTGreen':0 'grey78':0 'CTYellow':1 },180,110,2,(R:2,C:1),{ chips  'CTRed':5 'CTGreen':0 'CTPurple':3 'grey78':4 'CTYellow':8 },100,{ chips  'CTRed':33 'CTGreen':0 'CTPurple':5 'grey78':0 'CTYellow':2 },200,{ chips  'CTRed':28 'CTGreen':0 'CTPurple':6 'grey78':0 'CTYellow':2 },180,FALSE,,
3playersLog_1387541383809.csv,4,200,300,TRUE,{ chips  'CTRed':2 },{ chips  'CTYellow':2 },TRUE,100,200,{ chips  'CTRed':2 'CTPurple':0 'CTGreen':0 'grey78':0 'CTYellow':0 },{ chips  'CTRed':0 'CTPurple':0 'CTGreen':0 'grey78':0 'CTYellow':2 },100,200,3,(R:0,C:0),{ chips  'CTRed':3 'CTGreen':0 'CTPurple':3 'grey78':1 'CTYellow':10 },235,{ chips  'CTRed':35 'CTGreen':0 'CTPurple':5 'grey78':0 'CTYellow':0 },200,{ chips  'CTRed':28 'CTGreen':0 'CTPurple':6 'grey78':0 'CTYellow':2 },330,FALSE,,
3playersLog_1387541383809.csv,,,,,,,,,,,,,,,,,,,,,,,,,TRUE
3playersLog_1387541917131.csv,1,200,100,FALSE,{ chips  'CTRed':2 'CTPurple':2 },{ chips  'grey78':2 },TRUE,200,120,{ chips  'CTRed':2 'CTPurple':2 'CTGreen':0 'grey78':0 'CTYellow':0 },{ chips  'CTRed':0 'CTPurple':0 'CTGreen':0 'grey78':2 'CTYellow':0 },190,130,2,(R:4,C:3),{ chips  'CTRed':2 'CTGreen':0 'CTPurple':2 'grey78':8 'CTYellow':12 },120,{ chips  'CTRed':33 'CTGreen':0 'CTPurple':7 'grey78':0 'CTYellow':0 },200,{ chips  'CTRed':31 'CTGreen':0 'CTPurple':5 'grey78':2 'CTYellow':0 },190,FALSE,,
3playersLog_1387541917131.csv,2,,,,,,,,,,,,,0,(R:4,C:3),{ chips  'CTRed':2 'CTGreen':0 'CTPurple':2 'grey78':8 'CTYellow':12 },120,{ chips  'CTRed':33 'CTGreen':0 'CTPurple':7 'grey78':0 'CTYellow':0 },200,{ chips  'CTRed':31 'CTGreen':0 'CTPurple':5 'grey78':2 'CTYellow':0 },190,FALSE,,
3playersLog_1387541917131.csv,3,300,100,FALSE,{ chips  'CTRed':1 },{ chips  },FALSE,200,120,,,195,125,1,(R:5,C:3),{ chips  'CTRed':2 'CTGreen':0 'CTPurple':2 'grey78':7 'CTYellow':12 },115,{ chips  'CTRed':33 'CTGreen':0 'CTPurple':7 'grey78':0 'CTYellow':0 },200,{ chips  'CTRed':31 'CTGreen':0 'CTPurple':5 'grey78':2 'CTYellow':0 },190,FALSE,,
3playersLog_1387541917131.csv,3,200,100,FALSE,{ chips  'CTRed':2 'CTPurple':1 },{ chips  'CTYellow':3 },FALSE,190,120,,,190,120,1,(R:5,C:3),{ chips  'CTRed':2 'CTGreen':0 'CTPurple':2 'grey78':7 'CTYellow':12 },115,{ chips  'CTRed':33 'CTGreen':0 'CTPurple':7 'grey78':0 'CTYellow':0 },200,{ chips  'CTRed':31 'CTGreen':0 'CTPurple':5 'grey78':2 'CTYellow':0 },190,FALSE,,
3playersLog_1387541917131.csv,4,100,300,TRUE,{ chips  'grey78':2 },{ chips  'CTRed':10 },TRUE,115,200,{ chips  'CTRed':0 'CTPurple':0 'CTGreen':0 'grey78':2 'CTYellow':0 },{ chips  'CTRed':10 'CTPurple':0 'CTGreen':0 'grey78':0 'CTYellow':0 },155,160,3,(R:3,C:4),{ chips  'CTRed':12 'CTGreen':0 'CTPurple':0 'grey78':4 'CTYellow':12 },140,{ chips  'CTRed':23 'CTGreen':0 'CTPurple':7 'grey78':2 'CTYellow':0 },160,{ chips  'CTRed':31 'CTGreen':0 'CTPurple':5 'grey78':2 'CTYellow':0 },190,FALSE,,
3playersLog_1387541917131.csv,5,300,100,FALSE,{ chips  'CTPurple':1 },{ chips  },FALSE,160,140,,,155,145,0,(R:3,C:4),{ chips  'CTRed':12 'CTGreen':0 'CTPurple':0 'grey78':4 'CTYellow':12 },140,{ chips  'CTRed':23 'CTGreen':0 'CTPurple':7 'grey78':2 'CTYellow':0 },160,{ chips  'CTRed':31 'CTGreen':0 'CTPurple':5 'grey78':2 'CTYellow':0 },190,FALSE,,
3playersLog_1387541917131.csv,5,200,100,FALSE,{ chips  'CTRed':4 'grey78':1 },{ chips  'CTYellow':2 },FALSE,190,140,,,175,155,0,(R:3,C:4),{ chips  'CTRed':12 'CTGreen':0 'CTPurple':0 'grey78':4 'CTYellow':12 },140,{ chips  'CTRed':23 'CTGreen':0 'CTPurple':7 'grey78':2 'CTYellow':0 },160,{ chips  'CTRed':31 'CTGreen':0 'CTPurple':5 'grey78':2 'CTYellow':0 },190,FALSE,,
3playersLog_1387541917131.csv,6,100,200,TRUE,{ chips  'CTYellow':5 },{ chips  'CTRed':10 'CTPurple':1 'grey78':2 },FALSE,140,190,,,180,150,0,(R:3,C:4),{ chips  'CTRed':12 'CTGreen':0 'CTPurple':0 'grey78':4 'CTYellow':12 },140,{ chips  'CTRed':23 'CTGreen':0 'CTPurple':7 'grey78':2 'CTYellow':0 },160,{ chips  'CTRed':31 'CTGreen':0 'CTPurple':5 'grey78':2 'CTYellow':0 },190,FALSE,,
3playersLog_1387541917131.csv,,,,,,,,,,,,,,,,,,,,,,,,,FALSE
3playersLog_1387542012919.csv,1,,,,,,,,,,,,,9,(R:0,C:0),{ chips  'CTRed':0 'CTGreen':0 'CTPurple':0 'grey78':3 'CTYellow':12 },225,{ chips  'CTRed':33 'CTGreen':0 'CTPurple':7 'grey78':0 'CTYellow':0 },200,{ chips  'CTRed':33 'CTGreen':0 'CTPurple':7 'grey78':0 'CTYellow':0 },350,FALSE,,
3playersLog_1387542012919.csv,,,,,,,,,,,,,,,,,,,,,,,,,TRUE
3playersLog_1387542171890.csv,1,200,100,FALSE,{ chips  'CTRed':20 },{ chips  'grey78':11 },TRUE,200,120,{ chips  'CTRed':20 'CTPurple':0 'CTGreen':0 'grey78':0 'CTYellow':0 },{ chips  'CTRed':0 'CTPurple':0 'CTGreen':0 'grey78':11 'CTYellow':0 },155,165,0,(R:5,C:4),{ chips  'CTRed':20 'CTGreen':0 'CTPurple':0 'grey78':1 'CTYellow':12 },165,{ chips  'CTRed':13 'CTGreen':0 'CTPurple':7 'grey78':11 'CTYellow':0 },155,{ chips  'CTRed':33 'CTGreen':0 'CTPurple':7 'grey78':0 'CTYellow':0 },200,TRUE,,
3playersLog_1387542171890.csv,1,300,100,FALSE,{ chips  'CTRed':10 },{ chips  'grey78':12 },IGNORED,200,120,,,210,110,0,(R:5,C:4),{ chips  'CTRed':20 'CTGreen':0 'CTPurple':0 'grey78':1 'CTYellow':12 },165,{ chips  'CTRed':13 'CTGreen':0 'CTPurple':7 'grey78':11 'CTYellow':0 },155,{ chips  'CTRed':33 'CTGreen':0 'CTPurple':7 'grey78':0 'CTYellow':0 },200,TRUE,,
3playersLog_1387542171890.csv,2,100,200,TRUE,{ chips  'CTYellow':3 },{ chips  'CTRed':10 'grey78':8 },FALSE,165,155,,,240,80,0,(R:5,C:4),{ chips  'CTRed':20 'CTGreen':0 'CTPurple':0 'grey78':1 'CTYellow':12 },165,{ chips  'CTRed':13 'CTGreen':0 'CTPurple':7 'grey78':11 'CTYellow':0 },155,{ chips  'CTRed':33 'CTGreen':0 'CTPurple':7 'grey78':0 'CTYellow':0 },200,FALSE,,
3playersLog_1387542171890.csv,,,,,,,,,,,,,,,,,,,,,,,,,FALSE
3playersLog_1387542511984.csv,1,200,100,FALSE,{ chips  'CTRed':1 },{ chips  },FALSE,200,120,,,195,125,12,(R:2,C:1),{ chips  'CTRed':0 'CTGreen':0 'CTPurple':0 'grey78':0 'CTYellow':12 },60,{ chips  'CTRed':33 'CTGreen':0 'CTPurple':7 'grey78':0 'CTYellow':0 },200,{ chips  'CTRed':33 'CTGreen':0 'CTPurple':7 'grey78':0 'CTYellow':0 },200,FALSE,,
3playersLog_1387542511984.csv,1,300,100,FALSE,{ chips  'CTRed':10 },{ chips  },FALSE,200,120,,,150,170,12,(R:2,C:1),{ chips  'CTRed':0 'CTGreen':0 'CTPurple':0 'grey78':0 'CTYellow':12 },60,{ chips  'CTRed':33 'CTGreen':0 'CTPurple':7 'grey78':0 'CTYellow':0 },200,{ chips  'CTRed':33 'CTGreen':0 'CTPurple':7 'grey78':0 'CTYellow':0 },200,FALSE,,
3playersLog_1387542511984.csv,2,100,300,TRUE,{ chips  'CTYellow':1 },{ chips  'CTPurple':1 },IGNORED,60,200,,,60,200,0,(R:2,C:1),{ chips  'CTRed':0 'CTGreen':0 'CTPurple':0 'grey78':0 'CTYellow':12 },60,{ chips  'CTRed':33 'CTGreen':0 'CTPurple':7 'grey78':0 'CTYellow':0 },200,{ chips  'CTRed':33 'CTGreen':0 'CTPurple':7 'grey78':0 'CTYellow':0 },200,FALSE,,
3playersLog_1387542511984.csv,3,200,100,FALSE,{ chips  'CTRed':2 },{ chips  },IGNORED,200,60,,,190,70,0,(R:2,C:1),{ chips  'CTRed':2 'CTGreen':0 'CTPurple':0 'grey78':0 'CTYellow':12 },70,{ chips  'CTRed':33 'CTGreen':0 'CTPurple':7 'grey78':0 'CTYellow':0 },200,{ chips  'CTRed':31 'CTGreen':0 'CTPurple':7 'grey78':0 'CTYellow':0 },190,TRUE,,
3playersLog_1387542511984.csv,3,300,100,FALSE,{ chips  'CTRed':2 },{ chips  },TRUE,200,60,{ chips  'CTRed':2 'CTPurple':0 'CTGreen':0 'grey78':0 'CTYellow':0 },{ chips  'CTRed':0 'CTPurple':0 'CTGreen':0 'grey78':0 'CTYellow':0 },190,70,0,(R:2,C:1),{ chips  'CTRed':2 'CTGreen':0 'CTPurple':0 'grey78':0 'CTYellow':12 },70,{ chips  'CTRed':33 'CTGreen':0 'CTPurple':7 'grey78':0 'CTYellow':0 },200,{ chips  'CTRed':31 'CTGreen':0 'CTPurple':7 'grey78':0 'CTYellow':0 },190,FALSE,,
3playersLog_1387542511984.csv,,,,,,,,,,,,,,,,,,,,,,,,,FALSE
3playersLog_1387773847312.csv,1,200,100,FALSE,{ chips  'CTPurple':1 },{ chips  },TRUE,200,120,{ chips  'CTRed':0 'CTPurple':1 'CTGreen':0 'grey78':0 'CTYellow':0 },{ chips  'CTRed':0 'CTPurple':0 'CTGreen':0 'grey78':0 'CTYellow':0 },195,125,2,(R:4,C:5),{ chips  'CTRed':0 'CTGreen':0 'CTPurple':1 'grey78':12 'CTYellow':10 },115,{ chips  'CTRed':33 'CTGreen':0 'CTPurple':6 'grey78':0 'CTYellow':0 },195,{ chips  'CTRed':33 'CTGreen':0 'CTPurple':7 'grey78':0 'CTYellow':0 },200,FALSE,,
3playersLog_1387773847312.csv,2,100,300,TRUE,{ chips  },{ chips  'CTRed':4 'CTPurple':2 },TRUE,115,195,{ chips  'CTRed':0 'CTPurple':0 'CTGreen':0 'grey78':0 'CTYellow':0 },{ chips  'CTRed':4 'CTPurple':2 'CTGreen':0 'grey78':0 'CTYellow':0 },145,170,1,(R:4,C:6),{ chips  'CTRed':4 'CTGreen':0 'CTPurple':3 'grey78':12 'CTYellow':9 },140,{ chips  'CTRed':33 'CTGreen':0 'CTPurple':6 'grey78':0 'CTYellow':0 },195,{ chips  'CTRed':29 'CTGreen':0 'CTPurple':5 'grey78':0 'CTYellow':0 },170,FALSE,,
3playersLog_1387773847312.csv,3,200,100,FALSE,{ chips  'CTRed':2 },{ chips  },TRUE,195,140,{ chips  'CTRed':2 'CTPurple':0 'CTGreen':0 'grey78':0 'CTYellow':0 },{ chips  'CTRed':0 'CTPurple':0 'CTGreen':0 'grey78':0 'CTYellow':0 },185,150,1,(R:3,C:6),{ chips  'CTRed':6 'CTGreen':0 'CTPurple':3 'grey78':12 'CTYellow':8 },145,{ chips  'CTRed':31 'CTGreen':0 'CTPurple':6 'grey78':0 'CTYellow':0 },185,{ chips  'CTRed':29 'CTGreen':0 'CTPurple':5 'grey78':0 'CTYellow':0 },170,FALSE,,
3playersLog_1387773847312.csv,4,100,300,TRUE,{ chips  'CTRed':1 },{ chips  },TRUE,145,185,{ chips  'CTRed':1 'CTPurple':0 'CTGreen':0 'grey78':0 'CTYellow':0 },{ chips  'CTRed':0 'CTPurple':0 'CTGreen':0 'grey78':0 'CTYellow':0 },140,175,1,(R:3,C:7),{ chips  'CTRed':5 'CTGreen':0 'CTPurple':3 'grey78':12 'CTYellow':7 },135,{ chips  'CTRed':31 'CTGreen':0 'CTPurple':6 'grey78':0 'CTYellow':0 },185,{ chips  'CTRed':30 'CTGreen':0 'CTPurple':5 'grey78':0 'CTYellow':0 },175,FALSE,,
3playersLog_1387773847312.csv,5,200,100,FALSE,{ chips  'CTRed':1 },{ chips  },TRUE,185,135,{ chips  'CTRed':1 'CTPurple':0 'CTGreen':0 'grey78':0 'CTYellow':0 },{ chips  'CTRed':0 'CTPurple':0 'CTGreen':0 'grey78':0 'CTYellow':0 },180,140,0,(R:3,C:7),{ chips  'CTRed':6 'CTGreen':0 'CTPurple':3 'grey78':12 'CTYellow':7 },140,{ chips  'CTRed':30 'CTGreen':0 'CTPurple':6 'grey78':0 'CTYellow':0 },180,{ chips  'CTRed':30 'CTGreen':0 'CTPurple':5 'grey78':0 'CTYellow':0 },175,FALSE,,
3playersLog_1387773847312.csv,5,300,100,FALSE,{ chips  'CTRed':4 },{ chips  'CTYellow':3 },IGNORED,175,135,,,170,140,0,(R:3,C:7),{ chips  'CTRed':6 'CTGreen':0 'CTPurple':3 'grey78':12 'CTYellow':7 },140,{ chips  'CTRed':30 'CTGreen':0 'CTPurple':6 'grey78':0 'CTYellow':0 },180,{ chips  'CTRed':30 'CTGreen':0 'CTPurple':5 'grey78':0 'CTYellow':0 },175,FALSE,,
3playersLog_1387773847312.csv,6,100,200,TRUE,{ chips  },{ chips  'CTRed':10 },FALSE,140,180,,,190,130,1,(R:3,C:6),{ chips  'CTRed':6 'CTGreen':0 'CTPurple':3 'grey78':12 'CTYellow':6 },135,{ chips  'CTRed':30 'CTGreen':0 'CTPurple':6 'grey78':0 'CTYellow':0 },180,{ chips  'CTRed':30 'CTGreen':0 'CTPurple':5 'grey78':0 'CTYellow':0 },175,FALSE,,
3playersLog_1387773847312.csv,7,200,100,FALSE,{ chips  'CTRed':4 },{ chips  },TRUE,180,135,{ chips  'CTRed':4 'CTPurple':0 'CTGreen':0 'grey78':0 'CTYellow':0 },{ chips  'CTRed':0 'CTPurple':0 'CTGreen':0 'grey78':0 'CTYellow':0 },160,155,1,(R:3,C:5),{ chips  'CTRed':10 'CTGreen':0 'CTPurple':2 'grey78':12 'CTYellow':6 },150,{ chips  'CTRed':26 'CTGreen':0 'CTPurple':6 'grey78':0 'CTYellow':0 },160,{ chips  'CTRed':30 'CTGreen':0 'CTPurple':5 'grey78':0 'CTYellow':0 },175,FALSE,,
3playersLog_1387773847312.csv,7,300,100,FALSE,{ chips  'CTPurple':3 },{ chips  'CTRed':4 },IGNORED,175,135,,,180,130,1,(R:3,C:5),{ chips  'CTRed':10 'CTGreen':0 'CTPurple':2 'grey78':12 'CTYellow':6 },150,{ chips  'CTRed':26 'CTGreen':0 'CTPurple':6 'grey78':0 'CTYellow':0 },160,{ chips  'CTRed':30 'CTGreen':0 'CTPurple':5 'grey78':0 'CTYellow':0 },175,FALSE,,
3playersLog_1387773847312.csv,8,100,300,TRUE,{ chips  },{ chips  'CTPurple':4 },TRUE,150,160,{ chips  'CTRed':0 'CTPurple':0 'CTGreen':0 'grey78':0 'CTYellow':0 },{ chips  'CTRed':0 'CTPurple':4 'CTGreen':0 'grey78':0 'CTYellow':0 },170,155,1,(R:3,C:4),{ chips  'CTRed':10 'CTGreen':0 'CTPurple':5 'grey78':12 'CTYellow':6 },165,{ chips  'CTRed':26 'CTGreen':0 'CTPurple':6 'grey78':0 'CTYellow':0 },160,{ chips  'CTRed':30 'CTGreen':0 'CTPurple':1 'grey78':0 'CTYellow':0 },155,FALSE,,
3playersLog_1387773847312.csv,9,200,100,FALSE,{ chips  },{ chips  },TRUE,160,165,{ chips  'CTRed':0 'CTPurple':0 'CTGreen':0 'grey78':0 'CTYellow':0 },{ chips  'CTRed':0 'CTPurple':0 'CTGreen':0 'grey78':0 'CTYellow':0 },160,165,1,(R:3,C:5),{ chips  'CTRed':10 'CTGreen':0 'CTPurple':4 'grey78':12 'CTYellow':6 },160,{ chips  'CTRed':26 'CTGreen':0 'CTPurple':6 'grey78':0 'CTYellow':0 },160,{ chips  'CTRed':30 'CTGreen':0 'CTPurple':1 'grey78':0 'CTYellow':0 },155,FALSE,,
3playersLog_1387773847312.csv,9,300,100,FALSE,{ chips  'CTRed':3 },{ chips  'CTYellow':1 },IGNORED,155,165,,,145,175,1,(R:3,C:5),{ chips  'CTRed':10 'CTGreen':0 'CTPurple':4 'grey78':12 'CTYellow':6 },160,{ chips  'CTRed':26 'CTGreen':0 'CTPurple':6 'grey78':0 'CTYellow':0 },160,{ chips  'CTRed':30 'CTGreen':0 'CTPurple':1 'grey78':0 'CTYellow':0 },155,FALSE,,
3playersLog_1387773847312.csv,10,100,300,TRUE,{ chips  },{ chips  'CTRed':5 },FALSE,160,155,,,185,130,0,(R:3,C:5),{ chips  'CTRed':10 'CTGreen':0 'CTPurple':4 'grey78':12 'CTYellow':6 },160,{ chips  'CTRed':26 'CTGreen':0 'CTPurple':6 'grey78':0 'CTYellow':0 },160,{ chips  'CTRed':30 'CTGreen':0 'CTPurple':1 'grey78':0 'CTYellow':0 },155,FALSE,,
3playersLog_1387773847312.csv,11,200,100,FALSE,{ chips  },{ chips  },FALSE,160,160,,,160,160,1,(R:3,C:4),{ chips  'CTRed':10 'CTGreen':0 'CTPurple':3 'grey78':12 'CTYellow':6 },155,{ chips  'CTRed':26 'CTGreen':0 'CTPurple':6 'grey78':0 'CTYellow':0 },160,{ chips  'CTRed':30 'CTGreen':0 'CTPurple':1 'grey78':0 'CTYellow':0 },155,FALSE,,
3playersLog_1387773847312.csv,11,300,100,FALSE,{ chips  'CTRed':3 },{ chips  'CTRed':2 'CTPurple':1 'CTYellow':1 },FALSE,155,160,,,160,155,1,(R:3,C:4),{ chips  'CTRed':10 'CTGreen':0 'CTPurple':3 'grey78':12 'CTYellow':6 },155,{ chips  'CTRed':26 'CTGreen':0 'CTPurple':6 'grey78':0 'CTYellow':0 },160,{ chips  'CTRed':30 'CTGreen':0 'CTPurple':1 'grey78':0 'CTYellow':0 },155,FALSE,,
3playersLog_1387773847312.csv,12,100,200,TRUE,{ chips  },{ chips  'CTRed':4 },TRUE,155,160,{ chips  'CTRed':0 'CTPurple':0 'CTGreen':0 'grey78':0 'CTYellow':0 },{ chips  'CTRed':4 'CTPurple':0 'CTGreen':0 'grey78':0 'CTYellow':0 },175,140,1,(R:3,C:5),{ chips  'CTRed':14 'CTGreen':0 'CTPurple':2 'grey78':12 'CTYellow':6 },170,{ chips  'CTRed':22 'CTGreen':0 'CTPurple':6 'grey78':0 'CTYellow':0 },140,{ chips  'CTRed':30 'CTGreen':0 'CTPurple':1 'grey78':0 'CTYellow':0 },155,FALSE,,
3playersLog_1387773847312.csv,13,200,100,FALSE,{ chips  },{ chips  },FALSE,140,170,,,140,170,0,(R:3,C:5),{ chips  'CTRed':14 'CTGreen':0 'CTPurple':2 'grey78':12 'CTYellow':6 },170,{ chips  'CTRed':22 'CTGreen':0 'CTPurple':6 'grey78':0 'CTYellow':0 },140,{ chips  'CTRed':30 'CTGreen':0 'CTPurple':1 'grey78':0 'CTYellow':0 },155,FALSE,,
3playersLog_1387773847312.csv,13,300,100,FALSE,{ chips  'CTRed':3 },{ chips  'CTYellow':1 },FALSE,155,170,,,145,180,0,(R:3,C:5),{ chips  'CTRed':14 'CTGreen':0 'CTPurple':2 'grey78':12 'CTYellow':6 },170,{ chips  'CTRed':22 'CTGreen':0 'CTPurple':6 'grey78':0 'CTYellow':0 },140,{ chips  'CTRed':30 'CTGreen':0 'CTPurple':1 'grey78':0 'CTYellow':0 },155,FALSE,,
3playersLog_1387773847312.csv,14,100,200,TRUE,{ chips  },{ chips  'CTRed':1 },TRUE,170,140,{ chips  'CTRed':0 'CTPurple':0 'CTGreen':0 'grey78':0 'CTYellow':0 },{ chips  'CTRed':1 'CTPurple':0 'CTGreen':0 'grey78':0 'CTYellow':0 },175,135,6,(R:0,C:8),{ chips  'CTRed':15 'CTGreen':0 'CTPurple':2 'grey78':12 'CTYellow':0 },295,{ chips  'CTRed':21 'CTGreen':0 'CTPurple':6 'grey78':0 'CTYellow':0 },285,{ chips  'CTRed':30 'CTGreen':0 'CTPurple':1 'grey78':0 'CTYellow':0 },155,FALSE,,
3playersLog_1387773847312.csv,,,,,,,,,,,,,,,,,,,,,,,,,TRUE
3playersLog_1387802471390.csv,1,200,100,FALSE,{ chips  'CTRed':10 'CTPurple':5 },{ chips  },TRUE,200,120,{ chips  'CTRed':10 'CTPurple':5 'CTGreen':0 'grey78':0 'CTYellow':0 },{ chips  'CTRed':0 'CTPurple':0 'CTGreen':0 'grey78':0 'CTYellow':0 },125,195,2,(R:4,C:5),{ chips  'CTRed':10 'CTGreen':0 'CTPurple':5 'grey78':12 'CTYellow':10 },185,{ chips  'CTRed':23 'CTGreen':0 'CTPurple':2 'grey78':0 'CTYellow':0 },125,{ chips  'CTRed':33 'CTGreen':0 'CTPurple':7 'grey78':0 'CTYellow':0 },200,FALSE,,
3playersLog_1387802471390.csv,1,300,100,FALSE,{ chips  'CTRed':3 'CTPurple':1 },{ chips  },IGNORED,200,120,,,180,140,2,(R:4,C:5),{ chips  'CTRed':10 'CTGreen':0 'CTPurple':5 'grey78':12 'CTYellow':10 },185,{ chips  'CTRed':23 'CTGreen':0 'CTPurple':2 'grey78':0 'CTYellow':0 },125,{ chips  'CTRed':33 'CTGreen':0 'CTPurple':7 'grey78':0 'CTYellow':0 },200,FALSE,,
3playersLog_1387802471390.csv,2,100,200,TRUE,{ chips  'CTRed':10 },{ chips  'CTRed':2 },TRUE,185,125,{ chips  'CTRed':10 'CTPurple':0 'CTGreen':0 'grey78':0 'CTYellow':0 },{ chips  'CTRed':2 'CTPurple':0 'CTGreen':0 'grey78':0 'CTYellow':0 },145,165,0,(R:4,C:5),{ chips  'CTRed':2 'CTGreen':0 'CTPurple':5 'grey78':12 'CTYellow':10 },145,{ chips  'CTRed':31 'CTGreen':0 'CTPurple':2 'grey78':0 'CTYellow':0 },165,{ chips  'CTRed':33 'CTGreen':0 'CTPurple':7 'grey78':0 'CTYellow':0 },200,FALSE,,
3playersLog_1387802471390.csv,3,200,100,FALSE,{ chips  },{ chips  'CTRed':2 'CTPurple':5 },IGNORED,165,145,,,200,110,2,(R:3,C:4),{ chips  'CTRed':7 'CTGreen':0 'CTPurple':6 'grey78':12 'CTYellow':10 },175,{ chips  'CTRed':31 'CTGreen':0 'CTPurple':2 'grey78':0 'CTYellow':0 },165,{ chips  'CTRed':28 'CTGreen':0 'CTPurple':4 'grey78':0 'CTYellow':0 },160,FALSE,,
3playersLog_1387802471390.csv,3,300,100,FALSE,{ chips  'CTRed':5 'CTPurple':3 },{ chips  },TRUE,200,145,{ chips  'CTRed':5 'CTPurple':3 'CTGreen':0 'grey78':0 'CTYellow':0 },{ chips  'CTRed':0 'CTPurple':0 'CTGreen':0 'grey78':0 'CTYellow':0 },160,185,2,(R:3,C:4),{ chips  'CTRed':7 'CTGreen':0 'CTPurple':6 'grey78':12 'CTYellow':10 },175,{ chips  'CTRed':31 'CTGreen':0 'CTPurple':2 'grey78':0 'CTYellow':0 },165,{ chips  'CTRed':28 'CTGreen':0 'CTPurple':4 'grey78':0 'CTYellow':0 },160,FALSE,,
3playersLog_1387802471390.csv,4,100,200,TRUE,{ chips  },{ chips  'CTRed':20 'CTPurple':1 },TRUE,175,165,{ chips  'CTRed':0 'CTPurple':0 'CTGreen':0 'grey78':0 'CTYellow':0 },{ chips  'CTRed':20 'CTPurple':1 'CTGreen':0 'grey78':0 'CTYellow':0 },280,60,7,(R:0,C:8),{ chips  'CTRed':27 'CTGreen':0 'CTPurple':6 'grey78':12 'CTYellow':4 },395,{ chips  'CTRed':11 'CTGreen':0 'CTPurple':1 'grey78':0 'CTYellow':0 },210,{ chips  'CTRed':28 'CTGreen':0 'CTPurple':4 'grey78':0 'CTYellow':0 },160,FALSE,,
3playersLog_1387802471390.csv,,,,,,,,,,,,,,,,,,,,,,,,,TRUE
3playersLog_1387803165234.csv,1,300,100,FALSE,{ chips  'CTRed':6 'CTPurple':2 },{ chips  },TRUE,200,120,{ chips  'CTRed':6 'CTPurple':2 'CTGreen':0 'grey78':0 'CTYellow':0 },{ chips  'CTRed':0 'CTPurple':0 'CTGreen':0 'grey78':0 'CTYellow':0 },160,160,2,(R:4,C:3),{ chips  'CTRed':6 'CTGreen':0 'CTPurple':2 'grey78':10 'CTYellow':12 },150,{ chips  'CTRed':33 'CTGreen':0 'CTPurple':7 'grey78':0 'CTYellow':0 },200,{ chips  'CTRed':27 'CTGreen':0 'CTPurple':5 'grey78':0 'CTYellow':0 },160,FALSE,,
3playersLog_1387803165234.csv,2,100,200,TRUE,{ chips  'CTPurple':2 },{ chips  },TRUE,150,200,{ chips  'CTRed':0 'CTPurple':2 'CTGreen':0 'grey78':0 'CTYellow':0 },{ chips  'CTRed':0 'CTPurple':0 'CTGreen':0 'grey78':0 'CTYellow':0 },140,210,2,(R:3,C:2),{ chips  'CTRed':6 'CTGreen':0 'CTPurple':0 'grey78':8 'CTYellow':12 },130,{ chips  'CTRed':33 'CTGreen':0 'CTPurple':9 'grey78':0 'CTYellow':0 },210,{ chips  'CTRed':27 'CTGreen':0 'CTPurple':5 'grey78':0 'CTYellow':0 },160,FALSE,,
3playersLog_1387803165234.csv,3,300,100,FALSE,{ chips  'CTRed':3 },{ chips  'CTYellow':2 },TRUE,160,130,{ chips  'CTRed':3 'CTPurple':0 'CTGreen':0 'grey78':0 'CTYellow':0 },{ chips  'CTRed':0 'CTPurple':0 'CTGreen':0 'grey78':0 'CTYellow':2 },155,135,1,(R:4,C:2),{ chips  'CTRed':9 'CTGreen':0 'CTPurple':0 'grey78':7 'CTYellow':10 },130,{ chips  'CTRed':33 'CTGreen':0 'CTPurple':9 'grey78':0 'CTYellow':0 },210,{ chips  'CTRed':24 'CTGreen':0 'CTPurple':5 'grey78':0 'CTYellow':2 },155,FALSE,,
3playersLog_1387803165234.csv,4,100,200,TRUE,{ chips  },{ chips  'CTRed':12 'CTPurple':9 },FALSE,130,210,,,235,105,1,(R:3,C:2),{ chips  'CTRed':9 'CTGreen':0 'CTPurple':0 'grey78':6 'CTYellow':10 },125,{ chips  'CTRed':33 'CTGreen':0 'CTPurple':9 'grey78':0 'CTYellow':0 },210,{ chips  'CTRed':24 'CTGreen':0 'CTPurple':5 'grey78':0 'CTYellow':2 },155,FALSE,,
3playersLog_1387803165234.csv,5,300,100,FALSE,{ chips  'CTRed':10 },{ chips  'CTYellow':10 },IGNORED,155,125,,,155,125,1,(R:3,C:1),{ chips  'CTRed':9 'CTGreen':0 'CTPurple':0 'grey78':5 'CTYellow':10 },120,{ chips  'CTRed':33 'CTGreen':0 'CTPurple':9 'grey78':0 'CTYellow':0 },210,{ chips  'CTRed':24 'CTGreen':0 'CTPurple':5 'grey78':0 'CTYellow':2 },155,TRUE,,
3playersLog_1387803165234.csv,6,100,300,TRUE,{ chips  },{ chips  'CTRed':10 'CTPurple':4 },FALSE,120,155,,,190,85,1,(R:2,C:1),{ chips  'CTRed':9 'CTGreen':0 'CTPurple':0 'grey78':4 'CTYellow':10 },115,{ chips  'CTRed':33 'CTGreen':0 'CTPurple':9 'grey78':0 'CTYellow':0 },210,{ chips  'CTRed':24 'CTGreen':0 'CTPurple':5 'grey78':0 'CTYellow':2 },155,FALSE,,
3playersLog_1387803165234.csv,7,300,100,FALSE,{ chips  'CTRed':9 },{ chips  'CTYellow':9 },IGNORED,155,115,,,155,115,0,(R:2,C:1),{ chips  'CTRed':9 'CTGreen':0 'CTPurple':0 'grey78':4 'CTYellow':10 },115,{ chips  'CTRed':33 'CTGreen':0 'CTPurple':9 'grey78':0 'CTYellow':0 },210,{ chips  'CTRed':24 'CTGreen':0 'CTPurple':5 'grey78':0 'CTYellow':2 },155,TRUE,,
3playersLog_1387803165234.csv,8,100,200,TRUE,{ chips  'CTYellow':7 },{ chips  'CTPurple':9 },TRUE,115,210,{ chips  'CTRed':0 'CTPurple':0 'CTGreen':0 'grey78':0 'CTYellow':7 },{ chips  'CTRed':0 'CTPurple':9 'CTGreen':0 'grey78':0 'CTYellow':0 },125,200,0,(R:2,C:1),{ chips  'CTRed':9 'CTGreen':0 'CTPurple':9 'grey78':4 'CTYellow':3 },125,{ chips  'CTRed':33 'CTGreen':0 'CTPurple':0 'grey78':0 'CTYellow':7 },200,{ chips  'CTRed':24 'CTGreen':0 'CTPurple':5 'grey78':0 'CTYellow':2 },155,FALSE,,
3playersLog_1387803165234.csv,,,,,,,,,,,,,,,,,,,,,,,,,FALSE
3playersLog_1387803664484.csv,1,300,100,FALSE,{ chips  'CTRed':5 },{ chips  'CTYellow':3 },TRUE,200,120,{ chips  'CTRed':5 'CTPurple':0 'CTGreen':0 'grey78':0 'CTYellow':0 },{ chips  'CTRed':0 'CTPurple':0 'CTGreen':0 'grey78':0 'CTYellow':3 },190,130,9,(R:0,C:8),{ chips  'CTRed':5 'CTGreen':0 'CTPurple':0 'grey78':12 'CTYellow':0 },235,{ chips  'CTRed':33 'CTGreen':0 'CTPurple':7 'grey78':0 'CTYellow':0 },350,{ chips  'CTRed':28 'CTGreen':0 'CTPurple':7 'grey78':0 'CTYellow':3 },190,FALSE,,
3playersLog_1387803664484.csv,,,,,,,,,,,,,,,,,,,,,,,,,TRUE
3playersLog_1387973823935.csv,1,200,100,FALSE,{ chips  'CTRed':13 },{ chips  },TRUE,200,120,{ chips  'CTRed':13 'CTPurple':0 'CTGreen':0 'grey78':0 'CTYellow':0 },{ chips  'CTRed':0 'CTPurple':0 'CTGreen':0 'grey78':0 'CTYellow':0 },135,185,9,(R:0,C:8),{ chips  'CTRed':13 'CTGreen':0 'CTPurple':0 'grey78':12 'CTYellow':3 },290,{ chips  'CTRed':20 'CTGreen':0 'CTPurple':7 'grey78':0 'CTYellow':0 },285,{ chips  'CTRed':33 'CTGreen':0 'CTPurple':7 'grey78':0 'CTYellow':0 },200,FALSE,,
3playersLog_1387973823935.csv,,,,,,,,,,,,,,,,,,,,,,,,,TRUE
3playersLog_1388925455687.csv,1,300,100,FALSE,{ chips  'CTRed':15 },{ chips  },TRUE,200,120,{ chips  'CTRed':15 'CTPurple':0 'CTGreen':0 'grey78':0 'CTYellow':0 },{ chips  'CTRed':0 'CTPurple':0 'CTGreen':0 'grey78':0 'CTYellow':0 },125,195,1,(R:5,C:3),{ chips  'CTRed':15 'CTGreen':0 'CTPurple':0 'grey78':11 'CTYellow':12 },190,{ chips  'CTRed':33 'CTGreen':0 'CTPurple':7 'grey78':0 'CTYellow':0 },200,{ chips  'CTRed':18 'CTGreen':0 'CTPurple':7 'grey78':0 'CTYellow':0 },125,FALSE,,
3playersLog_1388925455687.csv,2,100,300,TRUE,{ chips  'CTRed':3 'grey78':3 },{ chips  },TRUE,190,200,{ chips  'CTRed':3 'CTPurple':0 'CTGreen':0 'grey78':3 'CTYellow':0 },{ chips  'CTRed':0 'CTPurple':0 'CTGreen':0 'grey78':0 'CTYellow':0 },160,155,1,(R:4,C:3),{ chips  'CTRed':12 'CTGreen':0 'CTPurple':0 'grey78':7 'CTYellow':12 },155,{ chips  'CTRed':33 'CTGreen':0 'CTPurple':7 'grey78':0 'CTYellow':0 },200,{ chips  'CTRed':21 'CTGreen':0 'CTPurple':7 'grey78':3 'CTYellow':0 },155,FALSE,,
3playersLog_1388925455687.csv,3,200,100,FALSE,{ chips  'CTPurple':1 },{ chips  'CTRed':3 'CTYellow':1 },FALSE,200,155,,,215,140,1,(R:4,C:2),{ chips  'CTRed':14 'CTGreen':0 'CTPurple':0 'grey78':7 'CTYellow':12 },165,{ chips  'CTRed':33 'CTGreen':0 'CTPurple':7 'grey78':0 'CTYellow':0 },200,{ chips  'CTRed':19 'CTGreen':0 'CTPurple':7 'grey78':2 'CTYellow':0 },140,FALSE,,
3playersLog_1388925455687.csv,3,300,100,FALSE,{ chips  'CTRed':2 'grey78':1 },{ chips  },TRUE,155,155,{ chips  'CTRed':2 'CTPurple':0 'CTGreen':0 'grey78':1 'CTYellow':0 },{ chips  'CTRed':0 'CTPurple':0 'CTGreen':0 'grey78':0 'CTYellow':0 },140,170,1,(R:4,C:2),{ chips  'CTRed':14 'CTGreen':0 'CTPurple':0 'grey78':7 'CTYellow':12 },165,{ chips  'CTRed':33 'CTGreen':0 'CTPurple':7 'grey78':0 'CTYellow':0 },200,{ chips  'CTRed':19 'CTGreen':0 'CTPurple':7 'grey78':2 'CTYellow':0 },140,FALSE,,
3playersLog_1388925455687.csv,4,100,300,TRUE,{ chips  'CTRed':1 },{ chips  'grey78':2 },TRUE,165,200,{ chips  'CTRed':1 'CTPurple':0 'CTGreen':0 'grey78':0 'CTYellow':0 },{ chips  'CTRed':0 'CTPurple':0 'CTGreen':0 'grey78':2 'CTYellow':0 },170,135,1,(R:3,C:2),{ chips  'CTRed':13 'CTGreen':0 'CTPurple':0 'grey78':8 'CTYellow':12 },165,{ chips  'CTRed':33 'CTGreen':0 'CTPurple':7 'grey78':0 'CTYellow':0 },200,{ chips  'CTRed':20 'CTGreen':0 'CTPurple':7 'grey78':0 'CTYellow':0 },135,FALSE,,
3playersLog_1388925455687.csv,5,200,100,FALSE,{ chips  'CTRed':9 'CTPurple':1 },{ chips  'CTRed':3 'CTYellow':3 },IGNORED,200,165,,,180,185,5,(R:0,C:0),{ chips  'CTRed':33 'CTGreen':0 'CTPurple':0 'grey78':3 'CTYellow':0 },330,{ chips  'CTRed':33 'CTGreen':0 'CTPurple':7 'grey78':0 'CTYellow':0 },200,{ chips  'CTRed':0 'CTGreen':0 'CTPurple':7 'grey78':0 'CTYellow':12 },245,FALSE,,
3playersLog_1388925455687.csv,5,300,100,FALSE,{ chips  'CTRed':20 },{ chips  'CTYellow':12 },TRUE,135,165,{ chips  'CTRed':20 'CTPurple':0 'CTGreen':0 'grey78':0 'CTYellow':0 },{ chips  'CTRed':0 'CTPurple':0 'CTGreen':0 'grey78':0 'CTYellow':12 },95,205,5,(R:0,C:0),{ chips  'CTRed':33 'CTGreen':0 'CTPurple':0 'grey78':3 'CTYellow':0 },330,{ chips  'CTRed':33 'CTGreen':0 'CTPurple':7 'grey78':0 'CTYellow':0 },200,{ chips  'CTRed':0 'CTGreen':0 'CTPurple':7 'grey78':0 'CTYellow':12 },245,TRUE,,
3playersLog_1388925455687.csv,,,,,,,,,,,,,,,,,,,,,,,,,TRUE
3playersLog_1388925467484.csv,1,200,100,FALSE,{ chips  'CTRed':18 'CTPurple':4 },{ chips  'grey78':12 },FALSE,200,120,,,150,170,1,(R:5,C:3),{ chips  'CTRed':0 'CTGreen':0 'CTPurple':0 'grey78':11 'CTYellow':12 },115,{ chips  'CTRed':33 'CTGreen':0 'CTPurple':7 'grey78':0 'CTYellow':0 },200,{ chips  'CTRed':33 'CTGreen':0 'CTPurple':7 'grey78':0 'CTYellow':0 },200,TRUE,,
3playersLog_1388925467484.csv,1,300,100,FALSE,{ chips  'CTRed':1 },{ chips  },FALSE,200,120,,,195,125,1,(R:5,C:3),{ chips  'CTRed':0 'CTGreen':0 'CTPurple':0 'grey78':11 'CTYellow':12 },115,{ chips  'CTRed':33 'CTGreen':0 'CTPurple':7 'grey78':0 'CTYellow':0 },200,{ chips  'CTRed':33 'CTGreen':0 'CTPurple':7 'grey78':0 'CTYellow':0 },200,FALSE,,
3playersLog_1388925467484.csv,2,100,300,TRUE,{ chips  'CTYellow':5 },{ chips  'CTRed':10 'CTPurple':2 },IGNORED,115,200,,,150,165,1,(R:4,C:3),{ chips  'CTRed':0 'CTGreen':0 'CTPurple':0 'grey78':10 'CTYellow':12 },110,{ chips  'CTRed':33 'CTGreen':0 'CTPurple':7 'grey78':0 'CTYellow':0 },200,{ chips  'CTRed':33 'CTGreen':0 'CTPurple':7 'grey78':0 'CTYellow':0 },200,FALSE,,
3playersLog_1388925467484.csv,3,200,100,FALSE,{ chips  'CTRed':16 'CTPurple':3 },{ chips  'grey78':10 },FALSE,200,110,,,155,155,0,(R:4,C:3),{ chips  'CTRed':0 'CTGreen':0 'CTPurple':0 'grey78':10 'CTYellow':12 },110,{ chips  'CTRed':33 'CTGreen':0 'CTPurple':7 'grey78':0 'CTYellow':0 },200,{ chips  'CTRed':33 'CTGreen':0 'CTPurple':7 'grey78':0 'CTYellow':0 },200,TRUE,,
3playersLog_1388925467484.csv,3,300,100,FALSE,{ chips  'CTPurple':1 },{ chips  'grey78':5 },FALSE,200,110,,,220,90,0,(R:4,C:3),{ chips  'CTRed':0 'CTGreen':0 'CTPurple':0 'grey78':10 'CTYellow':12 },110,{ chips  'CTRed':33 'CTGreen':0 'CTPurple':7 'grey78':0 'CTYellow':0 },200,{ chips  'CTRed':33 'CTGreen':0 'CTPurple':7 'grey78':0 'CTYellow':0 },200,FALSE,,
3playersLog_1388925467484.csv,4,100,300,TRUE,{ chips  'grey78':3 },{ chips  'CTRed':8 'CTPurple':3 },FALSE,110,200,,,150,160,1,(R:4,C:2),{ chips  'CTRed':0 'CTGreen':0 'CTPurple':0 'grey78':9 'CTYellow':12 },105,{ chips  'CTRed':33 'CTGreen':0 'CTPurple':7 'grey78':0 'CTYellow':0 },200,{ chips  'CTRed':33 'CTGreen':0 'CTPurple':7 'grey78':0 'CTYellow':0 },200,FALSE,,
3playersLog_1388925467484.csv,5,200,100,FALSE,{ chips  'CTRed':9 'CTPurple':2 },{ chips  'grey78':7 },FALSE,200,105,,,180,125,0,(R:4,C:2),{ chips  'CTRed':0 'CTGreen':0 'CTPurple':0 'grey78':9 'CTYellow':12 },105,{ chips  'CTRed':33 'CTGreen':0 'CTPurple':7 'grey78':0 'CTYellow':0 },200,{ chips  'CTRed':33 'CTGreen':0 'CTPurple':7 'grey78':0 'CTYellow':0 },200,TRUE,,
3playersLog_1388925467484.csv,5,300,100,FALSE,{ chips  'CTPurple':1 },{ chips  'CTYellow':4 },FALSE,200,105,,,215,90,0,(R:4,C:2),{ chips  'CTRed':0 'CTGreen':0 'CTPurple':0 'grey78':9 'CTYellow':12 },105,{ chips  'CTRed':33 'CTGreen':0 'CTPurple':7 'grey78':0 'CTYellow':0 },200,{ chips  'CTRed':33 'CTGreen':0 'CTPurple':7 'grey78':0 'CTYellow':0 },200,FALSE,,
3playersLog_1388925467484.csv,6,100,200,TRUE,{ chips  'grey78':4 },{ chips  'CTRed':8 'CTPurple':3 },TRUE,105,200,{ chips  'CTRed':0 'CTPurple':0 'CTGreen':0 'grey78':4 'CTYellow':0 },{ chips  'CTRed':8 'CTPurple':3 'CTGreen':0 'grey78':0 'CTYellow':0 },140,165,1,(R:3,C:2),{ chips  'CTRed':8 'CTGreen':0 'CTPurple':3 'grey78':4 'CTYellow':12 },135,{ chips  'CTRed':25 'CTGreen':0 'CTPurple':4 'grey78':4 'CTYellow':0 },165,{ chips  'CTRed':33 'CTGreen':0 'CTPurple':7 'grey78':0 'CTYellow':0 },200,FALSE,,
3playersLog_1388925467484.csv,7,200,100,FALSE,{ chips  'CTRed':5 'CTPurple':2 },{ chips  'grey78':4 },TRUE,165,135,{ chips  'CTRed':5 'CTPurple':2 'CTGreen':0 'grey78':0 'CTYellow':0 },{ chips  'CTRed':0 'CTPurple':0 'CTGreen':0 'grey78':4 'CTYellow':0 },150,150,1,(R:3,C:3),{ chips  'CTRed':13 'CTGreen':0 'CTPurple':4 'grey78':0 'CTYellow':12 },145,{ chips  'CTRed':20 'CTGreen':0 'CTPurple':2 'grey78':8 'CTYellow':0 },150,{ chips  'CTRed':33 'CTGreen':0 'CTPurple':7 'grey78':0 'CTYellow':0 },200,TRUE,,
3playersLog_1388925467484.csv,7,300,100,FALSE,{ chips  'CTPurple':1 },{ chips  'CTPurple':2 'CTYellow':2 },FALSE,200,135,,,215,120,1,(R:3,C:3),{ chips  'CTRed':13 'CTGreen':0 'CTPurple':4 'grey78':0 'CTYellow':12 },145,{ chips  'CTRed':20 'CTGreen':0 'CTPurple':2 'grey78':8 'CTYellow':0 },150,{ chips  'CTRed':33 'CTGreen':0 'CTPurple':7 'grey78':0 'CTYellow':0 },200,FALSE,,
3playersLog_1388925467484.csv,8,100,300,TRUE,{ chips  'CTYellow':5 },{ chips  'CTRed':5 'CTPurple':5 },FALSE,145,200,,,170,175,0,(R:3,C:3),{ chips  'CTRed':13 'CTGreen':0 'CTPurple':4 'grey78':0 'CTYellow':12 },145,{ chips  'CTRed':20 'CTGreen':0 'CTPurple':2 'grey78':8 'CTYellow':0 },150,{ chips  'CTRed':33 'CTGreen':0 'CTPurple':7 'grey78':0 'CTYellow':0 },200,FALSE,,
3playersLog_1388925467484.csv,9,200,100,FALSE,{ chips  'CTPurple':2 },{ chips  'CTRed':1 },FALSE,150,145,,,145,150,1,(R:3,C:4),{ chips  'CTRed':13 'CTGreen':0 'CTPurple':3 'grey78':0 'CTYellow':12 },140,{ chips  'CTRed':20 'CTGreen':0 'CTPurple':2 'grey78':8 'CTYellow':0 },150,{ chips  'CTRed':33 'CTGreen':0 'CTPurple':7 'grey78':0 'CTYellow':0 },200,TRUE,,
3playersLog_1388925467484.csv,9,300,100,FALSE,{ chips  'CTPurple':1 },{ chips  'CTYellow':2 },FALSE,200,145,,,205,140,1,(R:3,C:4),{ chips  'CTRed':13 'CTGreen':0 'CTPurple':3 'grey78':0 'CTYellow':12 },140,{ chips  'CTRed':20 'CTGreen':0 'CTPurple':2 'grey78':8 'CTYellow':0 },150,{ chips  'CTRed':33 'CTGreen':0 'CTPurple':7 'grey78':0 'CTYellow':0 },200,FALSE,,
3playersLog_1388925467484.csv,10,100,200,TRUE,{ chips  'CTRed':5 'CTPurple':1 },{ chips  'grey78':3 },FALSE,140,150,,,125,165,0,(R:3,C:4),{ chips  'CTRed':13 'CTGreen':0 'CTPurple':3 'grey78':0 'CTYellow':12 },140,{ chips  'CTRed':20 'CTGreen':0 'CTPurple':2 'grey78':8 'CTYellow':0 },150,{ chips  'CTRed':33 'CTGreen':0 'CTPurple':7 'grey78':0 'CTYellow':0 },200,FALSE,,
3playersLog_1388925467484.csv,11,200,100,FALSE,{ chips  'CTPurple':2 },{ chips  'CTRed':1 },IGNORED,150,140,,,145,145,1,(R:3,C:5),{ chips  'CTRed':16 'CTGreen':0 'CTPurple':2 'grey78':0 'CTYellow':10 },140,{ chips  'CTRed':20 'CTGreen':0 'CTPurple':2 'grey78':8 'CTYellow':0 },150,{ chips  'CTRed':30 'CTGreen':0 'CTPurple':7 'grey78':0 'CTYellow':2 },195,TRUE,,
3playersLog_1388925467484.csv,11,300,100,FALSE,{ chips  'CTRed':3 },{ chips  'CTYellow':2 },TRUE,200,140,{ chips  'CTRed':3 'CTPurple':0 'CTGreen':0 'grey78':0 'CTYellow':0 },{ chips  'CTRed':0 'CTPurple':0 'CTGreen':0 'grey78':0 'CTYellow':2 },195,145,1,(R:3,C:5),{ chips  'CTRed':16 'CTGreen':0 'CTPurple':2 'grey78':0 'CTYellow':10 },140,{ chips  'CTRed':20 'CTGreen':0 'CTPurple':2 'grey78':8 'CTYellow':0 },150,{ chips  'CTRed':30 'CTGreen':0 'CTPurple':7 'grey78':0 'CTYellow':2 },195,FALSE,,
3playersLog_1388925467484.csv,12,100,300,TRUE,{ chips  'CTYellow':4 },{ chips  'CTRed':6 'CTPurple':1 },FALSE,140,195,,,155,180,0,(R:3,C:5),{ chips  'CTRed':16 'CTGreen':0 'CTPurple':2 'grey78':0 'CTYellow':10 },140,{ chips  'CTRed':20 'CTGreen':0 'CTPurple':2 'grey78':8 'CTYellow':0 },150,{ chips  'CTRed':30 'CTGreen':0 'CTPurple':7 'grey78':0 'CTYellow':2 },195,FALSE,,
3playersLog_1388925467484.csv,13,200,100,FALSE,{ chips  'grey78':1 },{ chips  'CTRed':2 },FALSE,150,140,,,155,135,1,(R:3,C:4),{ chips  'CTRed':36 'CTGreen':0 'CTPurple':3 'grey78':0 'CTYellow':0 },195,{ chips  'CTRed':20 'CTGreen':0 'CTPurple':2 'grey78':8 'CTYellow':0 },150,{ chips  'CTRed':10 'CTGreen':0 'CTPurple':5 'grey78':0 'CTYellow':12 },135,TRUE,,
3playersLog_1388925467484.csv,13,300,100,FALSE,{ chips  'CTRed':20 'CTPurple':2 },{ chips  'CTYellow':10 },TRUE,195,140,{ chips  'CTRed':20 'CTPurple':2 'CTGreen':0 'grey78':0 'CTYellow':0 },{ chips  'CTRed':0 'CTPurple':0 'CTGreen':0 'grey78':0 'CTYellow':10 },135,200,1,(R:3,C:4),{ chips  'CTRed':36 'CTGreen':0 'CTPurple':3 'grey78':0 'CTYellow':0 },195,{ chips  'CTRed':20 'CTGreen':0 'CTPurple':2 'grey78':8 'CTYellow':0 },150,{ chips  'CTRed':10 'CTGreen':0 'CTPurple':5 'grey78':0 'CTYellow':12 },135,TRUE,,
3playersLog_1388925467484.csv,14,100,200,TRUE,{ chips  'CTRed':8 },{ chips  'grey78':8 },IGNORED,195,150,,,195,150,0,(R:3,C:4),{ chips  'CTRed':36 'CTGreen':0 'CTPurple':3 'grey78':0 'CTYellow':0 },195,{ chips  'CTRed':20 'CTGreen':0 'CTPurple':2 'grey78':8 'CTYellow':0 },150,{ chips  'CTRed':10 'CTGreen':0 'CTPurple':5 'grey78':0 'CTYellow':12 },135,FALSE,,
3playersLog_1388925467484.csv,15,200,100,FALSE,{ chips  },{ chips  'CTRed':3 },FALSE,150,195,,,165,180,0,(R:3,C:4),{ chips  'CTRed':36 'CTGreen':0 'CTPurple':3 'grey78':0 'CTYellow':0 },195,{ chips  'CTRed':20 'CTGreen':0 'CTPurple':2 'grey78':8 'CTYellow':0 },150,{ chips  'CTRed':10 'CTGreen':0 'CTPurple':5 'grey78':0 'CTYellow':12 },135,TRUE,,
3playersLog_1388925467484.csv,15,300,100,FALSE,{ chips  'CTYellow':1 },{ chips  'CTRed':7 },FALSE,135,195,,,165,165,0,(R:3,C:4),{ chips  'CTRed':36 'CTGreen':0 'CTPurple':3 'grey78':0 'CTYellow':0 },195,{ chips  'CTRed':20 'CTGreen':0 'CTPurple':2 'grey78':8 'CTYellow':0 },150,{ chips  'CTRed':10 'CTGreen':0 'CTPurple':5 'grey78':0 'CTYellow':12 },135,TRUE,,
3playersLog_1388925467484.csv,,,,,,,,,,,,,,,,,,,,,,,,,FALSE
3playersLog_1388925588592.csv,1,300,100,FALSE,{ chips  },{ chips  'grey78':2 },TRUE,200,120,{ chips  'CTRed':0 'CTPurple':0 'CTGreen':0 'grey78':0 'CTYellow':0 },{ chips  'CTRed':0 'CTPurple':0 'CTGreen':0 'grey78':2 'CTYellow':0 },210,110,10,(R:1,C:0),{ chips  'CTRed':0 'CTGreen':0 'CTPurple':0 'grey78':0 'CTYellow':12 },60,{ chips  'CTRed':33 'CTGreen':0 'CTPurple':7 'grey78':0 'CTYellow':0 },200,{ chips  'CTRed':33 'CTGreen':0 'CTPurple':7 'grey78':2 'CTYellow':0 },210,FALSE,,
3playersLog_1388925588592.csv,2,100,200,TRUE,{ chips  'CTYellow':3 },{ chips  'CTRed':10 'CTPurple':3 },IGNORED,60,200,,,110,150,0,(R:1,C:0),{ chips  'CTRed':0 'CTGreen':0 'CTPurple':0 'grey78':0 'CTYellow':12 },60,{ chips  'CTRed':33 'CTGreen':0 'CTPurple':7 'grey78':0 'CTYellow':0 },200,{ chips  'CTRed':33 'CTGreen':0 'CTPurple':7 'grey78':2 'CTYellow':0 },210,FALSE,,
3playersLog_1388925588592.csv,3,300,100,FALSE,{ chips  'grey78':2 },{ chips  },TRUE,210,60,{ chips  'CTRed':0 'CTPurple':0 'CTGreen':0 'grey78':2 'CTYellow':0 },{ chips  'CTRed':0 'CTPurple':0 'CTGreen':0 'grey78':0 'CTYellow':0 },200,70,0,(R:1,C:0),{ chips  'CTRed':0 'CTGreen':0 'CTPurple':0 'grey78':2 'CTYellow':12 },70,{ chips  'CTRed':33 'CTGreen':0 'CTPurple':7 'grey78':0 'CTYellow':0 },200,{ chips  'CTRed':33 'CTGreen':0 'CTPurple':7 'grey78':0 'CTYellow':0 },200,FALSE,,
3playersLog_1388925588592.csv,,,,,,,,,,,,,,,,,,,,,,,,,FALSE
3playersLog_1388925696454.csv,1,200,100,FALSE,{ chips  'CTRed':2 },{ chips  'grey78':2 },FALSE,200,120,,,200,120,1,(R:5,C:5),{ chips  'CTRed':10 'CTGreen':0 'CTPurple':4 'grey78':12 'CTYellow':11 },185,{ chips  'CTRed':33 'CTGreen':0 'CTPurple':7 'grey78':0 'CTYellow':0 },200,{ chips  'CTRed':23 'CTGreen':0 'CTPurple':3 'grey78':0 'CTYellow':0 },130,FALSE,,
3playersLog_1388925696454.csv,1,300,100,FALSE,{ chips  'CTRed':10 'CTPurple':4 },{ chips  },TRUE,200,120,{ chips  'CTRed':10 'CTPurple':4 'CTGreen':0 'grey78':0 'CTYellow':0 },{ chips  'CTRed':0 'CTPurple':0 'CTGreen':0 'grey78':0 'CTYellow':0 },130,190,1,(R:5,C:5),{ chips  'CTRed':10 'CTGreen':0 'CTPurple':4 'grey78':12 'CTYellow':11 },185,{ chips  'CTRed':33 'CTGreen':0 'CTPurple':7 'grey78':0 'CTYellow':0 },200,{ chips  'CTRed':23 'CTGreen':0 'CTPurple':3 'grey78':0 'CTYellow':0 },130,FALSE,,
3playersLog_1388925696454.csv,2,100,200,TRUE,{ chips  'grey78':8 },{ chips  'CTRed':12 },TRUE,185,200,{ chips  'CTRed':0 'CTPurple':0 'CTGreen':0 'grey78':8 'CTYellow':0 },{ chips  'CTRed':12 'CTPurple':0 'CTGreen':0 'grey78':0 'CTYellow':0 },205,180,1,(R:4,C:5),{ chips  'CTRed':22 'CTGreen':0 'CTPurple':4 'grey78':4 'CTYellow':10 },200,{ chips  'CTRed':21 'CTGreen':0 'CTPurple':7 'grey78':8 'CTYellow':0 },180,{ chips  'CTRed':23 'CTGreen':0 'CTPurple':3 'grey78':0 'CTYellow':0 },130,FALSE,,
3playersLog_1388925696454.csv,3,200,100,FALSE,{ chips  'CTRed':8 },{ chips  'CTPurple':4 },TRUE,180,200,{ chips  'CTRed':8 'CTPurple':0 'CTGreen':0 'grey78':0 'CTYellow':0 },{ chips  'CTRed':0 'CTPurple':4 'CTGreen':0 'grey78':0 'CTYellow':0 },160,220,1,(R:4,C:6),{ chips  'CTRed':30 'CTGreen':0 'CTPurple':0 'grey78':4 'CTYellow':9 },215,{ chips  'CTRed':13 'CTGreen':0 'CTPurple':11 'grey78':8 'CTYellow':0 },160,{ chips  'CTRed':23 'CTGreen':0 'CTPurple':3 'grey78':0 'CTYellow':0 },130,TRUE,,
3playersLog_1388925696454.csv,4,100,300,TRUE,{ chips  'grey78':4 },{ chips  'CTRed':10 },TRUE,215,160,{ chips  'CTRed':0 'CTPurple':0 'CTGreen':0 'grey78':4 'CTYellow':0 },{ chips  'CTRed':10 'CTPurple':0 'CTGreen':0 'grey78':0 'CTYellow':0 },245,100,1,(R:3,C:6),{ chips  'CTRed':40 'CTGreen':0 'CTPurple':0 'grey78':0 'CTYellow':8 },240,{ chips  'CTRed':13 'CTGreen':0 'CTPurple':11 'grey78':8 'CTYellow':0 },160,{ chips  'CTRed':13 'CTGreen':0 'CTPurple':3 'grey78':4 'CTYellow':0 },100,FALSE,,
3playersLog_1388925696454.csv,5,300,100,FALSE,{ chips  'CTPurple':3 },{ chips  },TRUE,100,240,{ chips  'CTRed':0 'CTPurple':3 'CTGreen':0 'grey78':0 'CTYellow':0 },{ chips  'CTRed':0 'CTPurple':0 'CTGreen':0 'grey78':0 'CTYellow':0 },85,255,1,(R:3,C:7),{ chips  'CTRed':40 'CTGreen':0 'CTPurple':3 'grey78':0 'CTYellow':7 },250,{ chips  'CTRed':13 'CTGreen':0 'CTPurple':11 'grey78':8 'CTYellow':0 },160,{ chips  'CTRed':13 'CTGreen':0 'CTPurple':0 'grey78':4 'CTYellow':0 },85,FALSE,,
3playersLog_1388925696454.csv,6,100,300,TRUE,{ chips  'CTPurple':3 },{ chips  'CTRed':7 },TRUE,250,160,{ chips  'CTRed':0 'CTPurple':3 'CTGreen':0 'grey78':0 'CTYellow':0 },{ chips  'CTRed':7 'CTPurple':0 'CTGreen':0 'grey78':0 'CTYellow':0 },270,65,1,(R:2,C:7),{ chips  'CTRed':47 'CTGreen':0 'CTPurple':0 'grey78':0 'CTYellow':6 },265,{ chips  'CTRed':13 'CTGreen':0 'CTPurple':11 'grey78':8 'CTYellow':0 },160,{ chips  'CTRed':6 'CTGreen':0 'CTPurple':3 'grey78':4 'CTYellow':0 },65,FALSE,,
3playersLog_1388925696454.csv,7,300,100,FALSE,{ chips  'grey78':4 },{ chips  },TRUE,65,265,{ chips  'CTRed':0 'CTPurple':0 'CTGreen':0 'grey78':4 'CTYellow':0 },{ chips  'CTRed':0 'CTPurple':0 'CTGreen':0 'grey78':0 'CTYellow':0 },45,285,3,(R:0,C:8),{ chips  'CTRed':47 'CTGreen':0 'CTPurple':0 'grey78':4 'CTYellow':3 },420,{ chips  'CTRed':13 'CTGreen':0 'CTPurple':11 'grey78':8 'CTYellow':0 },310,{ chips  'CTRed':6 'CTGreen':0 'CTPurple':3 'grey78':0 'CTYellow':0 },45,FALSE,,
3playersLog_1388925696454.csv,,,,,,,,,,,,,,,,,,,,,,,,,TRUE
3playersLog_1388925826550.csv,1,200,100,FALSE,{ chips  'CTRed':4 },{ chips  'grey78':1 },IGNORED,200,120,,,185,135,1,(R:5,C:3),{ chips  'CTRed':20 'CTGreen':0 'CTPurple':0 'grey78':11 'CTYellow':0 },155,{ chips  'CTRed':33 'CTGreen':0 'CTPurple':7 'grey78':0 'CTYellow':0 },200,{ chips  'CTRed':13 'CTGreen':0 'CTPurple':7 'grey78':0 'CTYellow':12 },160,FALSE,,
3playersLog_1388925826550.csv,1,300,100,FALSE,{ chips  'CTRed':20 },{ chips  'CTYellow':12 },TRUE,200,120,{ chips  'CTRed':20 'CTPurple':0 'CTGreen':0 'grey78':0 'CTYellow':0 },{ chips  'CTRed':0 'CTPurple':0 'CTGreen':0 'grey78':0 'CTYellow':12 },160,160,1,(R:5,C:3),{ chips  'CTRed':20 'CTGreen':0 'CTPurple':0 'grey78':11 'CTYellow':0 },155,{ chips  'CTRed':33 'CTGreen':0 'CTPurple':7 'grey78':0 'CTYellow':0 },200,{ chips  'CTRed':13 'CTGreen':0 'CTPurple':7 'grey78':0 'CTYellow':12 },160,TRUE,,
3playersLog_1388925826550.csv,2,100,300,TRUE,{ chips  'CTRed':5 },{ chips  'CTPurple':7 },FALSE,155,160,,,165,150,0,(R:5,C:3),{ chips  'CTRed':20 'CTGreen':0 'CTPurple':0 'grey78':11 'CTYellow':0 },155,{ chips  'CTRed':33 'CTGreen':0 'CTPurple':7 'grey78':0 'CTYellow':0 },200,{ chips  'CTRed':13 'CTGreen':0 'CTPurple':7 'grey78':0 'CTYellow':12 },160,TRUE,,
3playersLog_1388925826550.csv,3,200,100,FALSE,{ chips  'CTPurple':1 },{ chips  'CTRed':3 },FALSE,200,155,,,210,145,1,(R:4,C:3),{ chips  'CTRed':20 'CTGreen':0 'CTPurple':0 'grey78':10 'CTYellow':0 },150,{ chips  'CTRed':33 'CTGreen':0 'CTPurple':7 'grey78':0 'CTYellow':0 },200,{ chips  'CTRed':13 'CTGreen':0 'CTPurple':7 'grey78':0 'CTYellow':12 },160,FALSE,,
3playersLog_1388925826550.csv,3,300,100,FALSE,{ chips  'CTPurple':3 },{ chips  'CTRed':5 },FALSE,160,155,,,170,145,1,(R:4,C:3),{ chips  'CTRed':20 'CTGreen':0 'CTPurple':0 'grey78':10 'CTYellow':0 },150,{ chips  'CTRed':33 'CTGreen':0 'CTPurple':7 'grey78':0 'CTYellow':0 },200,{ chips  'CTRed':13 'CTGreen':0 'CTPurple':7 'grey78':0 'CTYellow':12 },160,TRUE,,
3playersLog_1388925826550.csv,4,100,300,TRUE,{ chips  },{ chips  'CTRed':2 },FALSE,150,160,,,160,150,0,(R:4,C:3),{ chips  'CTRed':20 'CTGreen':0 'CTPurple':0 'grey78':10 'CTYellow':0 },150,{ chips  'CTRed':33 'CTGreen':0 'CTPurple':7 'grey78':0 'CTYellow':0 },200,{ chips  'CTRed':13 'CTGreen':0 'CTPurple':7 'grey78':0 'CTYellow':12 },160,TRUE,,
3playersLog_1388925826550.csv,5,200,100,FALSE,{ chips  'CTPurple':2 },{ chips  'grey78':1 },TRUE,200,150,{ chips  'CTRed':0 'CTPurple':2 'CTGreen':0 'grey78':0 'CTYellow':0 },{ chips  'CTRed':0 'CTPurple':0 'CTGreen':0 'grey78':1 'CTYellow':0 },195,155,1,(R:3,C:3),{ chips  'CTRed':20 'CTGreen':0 'CTPurple':1 'grey78':9 'CTYellow':0 },150,{ chips  'CTRed':33 'CTGreen':0 'CTPurple':5 'grey78':1 'CTYellow':0 },195,{ chips  'CTRed':13 'CTGreen':0 'CTPurple':7 'grey78':0 'CTYellow':12 },160,FALSE,,
3playersLog_1388925826550.csv,5,300,100,FALSE,{ chips  'CTPurple':3 },{ chips  'CTRed':5 },FALSE,160,150,,,170,140,1,(R:3,C:3),{ chips  'CTRed':20 'CTGreen':0 'CTPurple':1 'grey78':9 'CTYellow':0 },150,{ chips  'CTRed':33 'CTGreen':0 'CTPurple':5 'grey78':1 'CTYellow':0 },195,{ chips  'CTRed':13 'CTGreen':0 'CTPurple':7 'grey78':0 'CTYellow':12 },160,TRUE,,
3playersLog_1388925826550.csv,6,100,300,TRUE,{ chips  'CTPurple':1 },{ chips  'CTRed':2 },FALSE,150,160,,,155,155,6,(R:0,C:0),{ chips  'CTRed':20 'CTGreen':0 'CTPurple':1 'grey78':3 'CTYellow':0 },270,{ chips  'CTRed':33 'CTGreen':0 'CTPurple':5 'grey78':1 'CTYellow':0 },195,{ chips  'CTRed':13 'CTGreen':0 'CTPurple':7 'grey78':0 'CTYellow':12 },310,TRUE,,
3playersLog_1388925826550.csv,,,,,,,,,,,,,,,,,,,,,,,,,TRUE
