Wed Sep 11 09:42:00 IST 2013	This is the CT debug logger; svn version 638; sep 27 09
Wed Sep 11 09:42:00 IST 2013	Wed Sep 11 09:42:00 IST 2013
Wed Sep 11 09:42:00 IST 2013	ThreePlayersAgentPlayer(): entering.
Wed Sep 11 09:42:59 IST 2013	phaseAdvanced(): entering.
Wed Sep 11 09:42:59 IST 2013	phaseAdvanced(): new phase is 'Strategy Prep Phase'.
Wed Sep 11 09:43:59 IST 2013	phaseAdvanced(): entering.
Wed Sep 11 09:43:59 IST 2013	phaseAdvanced(): new phase is 'Communication Phase'.
Wed Sep 11 09:44:16 IST 2013	onReceipt(): entering.
Wed Sep 11 09:44:16 IST 2013	onReceipt(): opponent's proposal: ({ chips  'CTRed':0 'CTPurple':1 'CTGreen':0 'grey78':0 'CTYellow':0 }, { chips  'CTRed':0 'CTPurple':0 'CTGreen':0 'grey78':0 'CTYellow':0 }).
Wed Sep 11 09:44:46 IST 2013	onReceipt(): entering.
Wed Sep 11 09:44:46 IST 2013	onReceipt(): opponent's proposal: ({ chips  'CTRed':0 'CTPurple':2 'CTGreen':0 'grey78':0 'CTYellow':0 }, { chips  'CTRed':0 'CTPurple':0 'CTGreen':0 'grey78':4 'CTYellow':0 }).
Wed Sep 11 09:44:46 IST 2013	responseToSend(): entering.
Wed Sep 11 09:44:46 IST 2013	compareProposals(): decision: 0 utility 125.0
Wed Sep 11 09:44:46 IST 2013	responseToSend(): accepting proposal ({ chips  'CTRed':0 'CTPurple':1 'CTGreen':0 'grey78':0 'CTYellow':0 }, { chips  'CTRed':0 'CTPurple':0 'CTGreen':0 'grey78':0 'CTYellow':0 }).
Wed Sep 11 09:44:46 IST 2013	phaseAdvanced(): entering.
Wed Sep 11 09:44:46 IST 2013	phaseAdvanced(): new phase is 'Movement Phase'.
Wed Sep 11 09:45:31 IST 2013	phaseAdvanced(): entering.
Wed Sep 11 09:45:31 IST 2013	phaseAdvanced(): new phase is 'Feedback Phase'.
Wed Sep 11 09:45:36 IST 2013	phaseAdvanced(): entering.
Wed Sep 11 09:45:36 IST 2013	phaseAdvanced(): new phase is 'Communication Phase'.
Wed Sep 11 09:45:59 IST 2013	onReceipt(): entering.
Wed Sep 11 09:45:59 IST 2013	phaseAdvanced(): entering.
Wed Sep 11 09:45:59 IST 2013	phaseAdvanced(): new phase is 'Movement Phase'.
Wed Sep 11 09:46:43 IST 2013	phaseAdvanced(): entering.
Wed Sep 11 09:46:43 IST 2013	phaseAdvanced(): new phase is 'Feedback Phase'.
Wed Sep 11 09:46:48 IST 2013	phaseAdvanced(): entering.
Wed Sep 11 09:46:48 IST 2013	phaseAdvanced(): new phase is 'Communication Phase'.
Wed Sep 11 09:47:08 IST 2013	onReceipt(): entering.
Wed Sep 11 09:47:08 IST 2013	onReceipt(): opponent's proposal: ({ chips  'CTRed':5 'CTPurple':7 'CTGreen':0 'grey78':0 'CTYellow':0 }, { chips  'CTRed':0 'CTPurple':0 'CTGreen':0 'grey78':5 'CTYellow':0 }).
Wed Sep 11 09:47:16 IST 2013	onReceipt(): entering.
Wed Sep 11 09:47:16 IST 2013	onReceipt(): opponent's proposal: ({ chips  'CTRed':20 'CTPurple':0 'CTGreen':0 'grey78':0 'CTYellow':0 }, { chips  'CTRed':0 'CTPurple':0 'CTGreen':0 'grey78':6 'CTYellow':0 }).
Wed Sep 11 09:47:16 IST 2013	responseToSend(): entering.
Wed Sep 11 09:47:16 IST 2013	compareProposals(): decision: 0 utility 190.0
Wed Sep 11 09:47:16 IST 2013	responseToSend(): accepting proposal ({ chips  'CTRed':20 'CTPurple':0 'CTGreen':0 'grey78':0 'CTYellow':0 }, { chips  'CTRed':0 'CTPurple':0 'CTGreen':0 'grey78':6 'CTYellow':0 }).
Wed Sep 11 09:47:16 IST 2013	phaseAdvanced(): entering.
Wed Sep 11 09:47:16 IST 2013	phaseAdvanced(): new phase is 'Movement Phase'.
Wed Sep 11 09:48:00 IST 2013	phaseAdvanced(): entering.
Wed Sep 11 09:48:00 IST 2013	phaseAdvanced(): new phase is 'Feedback Phase'.
Wed Sep 11 09:48:05 IST 2013	phaseAdvanced(): entering.
Wed Sep 11 09:48:05 IST 2013	phaseAdvanced(): new phase is 'Communication Phase'.
Wed Sep 11 09:48:26 IST 2013	onReceipt(): entering.
Wed Sep 11 09:48:26 IST 2013	phaseAdvanced(): entering.
Wed Sep 11 09:48:26 IST 2013	phaseAdvanced(): new phase is 'Movement Phase'.
Wed Sep 11 09:49:11 IST 2013	phaseAdvanced(): entering.
Wed Sep 11 09:49:11 IST 2013	phaseAdvanced(): new phase is 'Feedback Phase'.
Wed Sep 11 09:49:16 IST 2013	phaseAdvanced(): entering.
Wed Sep 11 09:49:16 IST 2013	phaseAdvanced(): new phase is 'Communication Phase'.
Wed Sep 11 09:49:44 IST 2013	onReceipt(): entering.
Wed Sep 11 09:49:44 IST 2013	onReceipt(): opponent's proposal: ({ chips  'CTRed':0 'CTPurple':4 'CTGreen':0 'grey78':0 'CTYellow':0 }, { chips  'CTRed':0 'CTPurple':0 'CTGreen':0 'grey78':4 'CTYellow':0 }).
Wed Sep 11 09:49:49 IST 2013	onReceipt(): entering.
Wed Sep 11 09:49:49 IST 2013	onReceipt(): opponent's proposal: ({ chips  'CTRed':0 'CTPurple':2 'CTGreen':0 'grey78':0 'CTYellow':0 }, { chips  'CTRed':0 'CTPurple':0 'CTGreen':0 'grey78':6 'CTYellow':0 }).
Wed Sep 11 09:49:49 IST 2013	responseToSend(): entering.
Wed Sep 11 09:49:50 IST 2013	compareProposals(): decision: 1 utility 185.0
Wed Sep 11 09:49:50 IST 2013	responseToSend(): rejecting both proposals
Wed Sep 11 09:49:50 IST 2013	phaseAdvanced(): entering.
Wed Sep 11 09:49:50 IST 2013	phaseAdvanced(): new phase is 'Movement Phase'.
Wed Sep 11 09:50:34 IST 2013	phaseAdvanced(): entering.
Wed Sep 11 09:50:34 IST 2013	phaseAdvanced(): new phase is 'Feedback Phase'.
Wed Sep 11 09:50:39 IST 2013	phaseAdvanced(): entering.
Wed Sep 11 09:50:39 IST 2013	phaseAdvanced(): new phase is 'Communication Phase'.
Wed Sep 11 09:50:51 IST 2013	onReceipt(): entering.
Wed Sep 11 09:50:51 IST 2013	phaseAdvanced(): entering.
Wed Sep 11 09:50:51 IST 2013	phaseAdvanced(): new phase is 'Movement Phase'.
Wed Sep 11 09:51:35 IST 2013	phaseAdvanced(): entering.
Wed Sep 11 09:51:35 IST 2013	phaseAdvanced(): new phase is 'Feedback Phase'.
Wed Sep 11 09:51:40 IST 2013	phaseAdvanced(): entering.
Wed Sep 11 09:51:40 IST 2013	phaseAdvanced(): new phase is 'Communication Phase'.
Wed Sep 11 09:52:02 IST 2013	onReceipt(): entering.
Wed Sep 11 09:52:02 IST 2013	onReceipt(): opponent's proposal: ({ chips  'CTRed':6 'CTPurple':0 'CTGreen':0 'grey78':0 'CTYellow':0 }, { chips  'CTRed':0 'CTPurple':0 'CTGreen':0 'grey78':6 'CTYellow':0 }).
Wed Sep 11 09:52:12 IST 2013	onReceipt(): entering.
Wed Sep 11 09:52:12 IST 2013	onReceipt(): opponent's proposal: ({ chips  'CTRed':11 'CTPurple':3 'CTGreen':0 'grey78':0 'CTYellow':0 }, { chips  'CTRed':0 'CTPurple':0 'CTGreen':0 'grey78':5 'CTYellow':4 }).
Wed Sep 11 09:52:12 IST 2013	responseToSend(): entering.
Wed Sep 11 09:52:13 IST 2013	compareProposals(): decision: 1 utility 205.0
Wed Sep 11 09:52:13 IST 2013	responseToSend(): accepting proposal ({ chips  'CTRed':11 'CTPurple':3 'CTGreen':0 'grey78':0 'CTYellow':0 }, { chips  'CTRed':0 'CTPurple':0 'CTGreen':0 'grey78':5 'CTYellow':4 }).
Wed Sep 11 09:52:13 IST 2013	phaseAdvanced(): entering.
Wed Sep 11 09:52:13 IST 2013	phaseAdvanced(): new phase is 'Movement Phase'.
Wed Sep 11 09:52:57 IST 2013	phaseAdvanced(): entering.
Wed Sep 11 09:52:57 IST 2013	phaseAdvanced(): new phase is 'Feedback Phase'.
Wed Sep 11 09:53:02 IST 2013	phaseAdvanced(): entering.
Wed Sep 11 09:53:02 IST 2013	phaseAdvanced(): new phase is 'Communication Phase'.
Wed Sep 11 09:53:09 IST 2013	onReceipt(): entering.
Wed Sep 11 09:53:09 IST 2013	phaseAdvanced(): entering.
Wed Sep 11 09:53:09 IST 2013	phaseAdvanced(): new phase is 'Movement Phase'.
Wed Sep 11 09:53:54 IST 2013	phaseAdvanced(): entering.
Wed Sep 11 09:53:54 IST 2013	phaseAdvanced(): new phase is 'Feedback Phase'.
Wed Sep 11 09:53:59 IST 2013	phaseAdvanced(): entering.
Wed Sep 11 09:53:59 IST 2013	phaseAdvanced(): new phase is 'Communication Phase'.
Wed Sep 11 09:54:15 IST 2013	onReceipt(): entering.
Wed Sep 11 09:54:15 IST 2013	onReceipt(): opponent's proposal: ({ chips  'CTRed':10 'CTPurple':0 'CTGreen':0 'grey78':0 'CTYellow':0 }, { chips  'CTRed':0 'CTPurple':4 'CTGreen':0 'grey78':0 'CTYellow':0 }).
Wed Sep 11 09:54:23 IST 2013	onReceipt(): entering.
Wed Sep 11 09:54:23 IST 2013	onReceipt(): opponent's proposal: ({ chips  'CTRed':0 'CTPurple':0 'CTGreen':0 'grey78':3 'CTYellow':0 }, { chips  'CTRed':5 'CTPurple':0 'CTGreen':0 'grey78':0 'CTYellow':0 }).
Wed Sep 11 09:54:23 IST 2013	responseToSend(): entering.
Wed Sep 11 09:54:23 IST 2013	compareProposals(): decision: 1 utility 190.0
Wed Sep 11 09:54:23 IST 2013	responseToSend(): rejecting both proposals
Wed Sep 11 09:54:23 IST 2013	phaseAdvanced(): entering.
Wed Sep 11 09:54:23 IST 2013	phaseAdvanced(): new phase is 'Movement Phase'.
Wed Sep 11 09:55:07 IST 2013	phaseAdvanced(): entering.
Wed Sep 11 09:55:07 IST 2013	phaseAdvanced(): new phase is 'Feedback Phase'.
Wed Sep 11 09:55:12 IST 2013	phaseAdvanced(): entering.
Wed Sep 11 09:55:12 IST 2013	phaseAdvanced(): new phase is 'Communication Phase'.
Wed Sep 11 09:55:19 IST 2013	onReceipt(): entering.
Wed Sep 11 09:55:19 IST 2013	phaseAdvanced(): entering.
Wed Sep 11 09:55:19 IST 2013	phaseAdvanced(): new phase is 'Movement Phase'.
Wed Sep 11 09:56:04 IST 2013	phaseAdvanced(): entering.
Wed Sep 11 09:56:04 IST 2013	phaseAdvanced(): new phase is 'Feedback Phase'.
Wed Sep 11 09:56:09 IST 2013	phaseAdvanced(): entering.
Wed Sep 11 09:56:09 IST 2013	phaseAdvanced(): new phase is 'Communication Phase'.
Wed Sep 11 09:56:43 IST 2013	onReceipt(): entering.
Wed Sep 11 09:56:43 IST 2013	onReceipt(): opponent's proposal: ({ chips  'CTRed':0 'CTPurple':0 'CTGreen':0 'grey78':0 'CTYellow':0 }, { chips  'CTRed':5 'CTPurple':4 'CTGreen':0 'grey78':1 'CTYellow':0 }).
Wed Sep 11 09:56:56 IST 2013	onReceipt(): entering.
Wed Sep 11 09:56:56 IST 2013	onReceipt(): opponent's proposal: ({ chips  'CTRed':0 'CTPurple':0 'CTGreen':0 'grey78':3 'CTYellow':0 }, { chips  'CTRed':4 'CTPurple':0 'CTGreen':0 'grey78':0 'CTYellow':0 }).
Wed Sep 11 09:56:56 IST 2013	responseToSend(): entering.
Wed Sep 11 09:56:56 IST 2013	compareProposals(): decision: 1 utility 190.0
Wed Sep 11 09:56:56 IST 2013	responseToSend(): rejecting both proposals
Wed Sep 11 09:56:56 IST 2013	phaseAdvanced(): entering.
Wed Sep 11 09:56:56 IST 2013	phaseAdvanced(): new phase is 'Movement Phase'.
Wed Sep 11 09:57:40 IST 2013	phaseAdvanced(): entering.
Wed Sep 11 09:57:40 IST 2013	phaseAdvanced(): new phase is 'Feedback Phase'.
Wed Sep 11 09:57:45 IST 2013	phaseAdvanced(): entering.
Wed Sep 11 09:57:45 IST 2013	phaseAdvanced(): new phase is 'Communication Phase'.
Wed Sep 11 09:57:49 IST 2013	onReceipt(): entering.
Wed Sep 11 09:57:49 IST 2013	phaseAdvanced(): entering.
Wed Sep 11 09:57:49 IST 2013	phaseAdvanced(): new phase is 'Movement Phase'.
Wed Sep 11 09:58:33 IST 2013	phaseAdvanced(): entering.
Wed Sep 11 09:58:33 IST 2013	phaseAdvanced(): new phase is 'Feedback Phase'.
Wed Sep 11 09:58:38 IST 2013	phaseAdvanced(): entering.
Wed Sep 11 09:58:38 IST 2013	phaseAdvanced(): new phase is 'Communication Phase'.
Wed Sep 11 09:58:54 IST 2013	onReceipt(): entering.
Wed Sep 11 09:58:54 IST 2013	onReceipt(): opponent's proposal: ({ chips  'CTRed':0 'CTPurple':0 'CTGreen':0 'grey78':0 'CTYellow':0 }, { chips  'CTRed':10 'CTPurple':4 'CTGreen':0 'grey78':1 'CTYellow':0 }).
Wed Sep 11 09:59:24 IST 2013	onReceipt(): entering.
Wed Sep 11 09:59:24 IST 2013	onReceipt(): opponent's proposal: ({ chips  'CTRed':0 'CTPurple':1 'CTGreen':0 'grey78':3 'CTYellow':0 }, { chips  'CTRed':6 'CTPurple':0 'CTGreen':0 'grey78':0 'CTYellow':0 }).
Wed Sep 11 09:59:24 IST 2013	responseToSend(): entering.
Wed Sep 11 09:59:24 IST 2013	compareProposals(): decision: 1 utility 180.0
Wed Sep 11 09:59:24 IST 2013	responseToSend(): rejecting both proposals
Wed Sep 11 09:59:24 IST 2013	phaseAdvanced(): entering.
Wed Sep 11 09:59:24 IST 2013	phaseAdvanced(): new phase is 'Movement Phase'.
Wed Sep 11 10:00:08 IST 2013	phaseAdvanced(): entering.
Wed Sep 11 10:00:08 IST 2013	phaseAdvanced(): new phase is 'Feedback Phase'.
Wed Sep 11 10:00:13 IST 2013	phaseAdvanced(): entering.
Wed Sep 11 10:00:13 IST 2013	phaseAdvanced(): new phase is 'Communication Phase'.
Wed Sep 11 10:00:24 IST 2013	onReceipt(): entering.
Wed Sep 11 10:00:24 IST 2013	phaseAdvanced(): entering.
Wed Sep 11 10:00:24 IST 2013	phaseAdvanced(): new phase is 'Movement Phase'.
Wed Sep 11 10:01:09 IST 2013	phaseAdvanced(): entering.
Wed Sep 11 10:01:09 IST 2013	phaseAdvanced(): new phase is 'Feedback Phase'.
Wed Sep 11 10:01:14 IST 2013	phaseAdvanced(): entering.
Wed Sep 11 10:01:14 IST 2013	phaseAdvanced(): new phase is 'Communication Phase'.
Wed Sep 11 10:01:26 IST 2013	onReceipt(): entering.
Wed Sep 11 10:01:26 IST 2013	onReceipt(): opponent's proposal: ({ chips  'CTRed':0 'CTPurple':4 'CTGreen':0 'grey78':0 'CTYellow':0 }, { chips  'CTRed':4 'CTPurple':0 'CTGreen':0 'grey78':0 'CTYellow':0 }).
Wed Sep 11 10:01:55 IST 2013	onReceipt(): entering.
Wed Sep 11 10:01:55 IST 2013	onReceipt(): opponent's proposal: ({ chips  'CTRed':1 'CTPurple':0 'CTGreen':0 'grey78':0 'CTYellow':0 }, { chips  'CTRed':10 'CTPurple':3 'CTGreen':0 'grey78':1 'CTYellow':0 }).
Wed Sep 11 10:01:55 IST 2013	responseToSend(): entering.
Wed Sep 11 10:01:55 IST 2013	compareProposals(): decision: 1 utility 185.0
Wed Sep 11 10:01:55 IST 2013	responseToSend(): rejecting both proposals
Wed Sep 11 10:01:55 IST 2013	phaseAdvanced(): entering.
Wed Sep 11 10:01:55 IST 2013	phaseAdvanced(): new phase is 'Movement Phase'.
Wed Sep 11 10:02:39 IST 2013	phaseAdvanced(): entering.
Wed Sep 11 10:02:39 IST 2013	phaseAdvanced(): new phase is 'Feedback Phase'.
Wed Sep 11 10:02:44 IST 2013	phaseAdvanced(): entering.
Wed Sep 11 10:02:44 IST 2013	phaseAdvanced(): new phase is 'Communication Phase'.
Wed Sep 11 10:02:48 IST 2013	onReceipt(): entering.
Wed Sep 11 10:02:48 IST 2013	phaseAdvanced(): entering.
Wed Sep 11 10:02:48 IST 2013	phaseAdvanced(): new phase is 'Movement Phase'.
Wed Sep 11 10:03:32 IST 2013	phaseAdvanced(): entering.
Wed Sep 11 10:03:32 IST 2013	phaseAdvanced(): new phase is 'Feedback Phase'.
Wed Sep 11 10:03:37 IST 2013	phaseAdvanced(): entering.
Wed Sep 11 10:03:37 IST 2013	phaseAdvanced(): new phase is 'Communication Phase'.
Wed Sep 11 10:03:57 IST 2013	onReceipt(): entering.
Wed Sep 11 10:03:57 IST 2013	onReceipt(): opponent's proposal: ({ chips  'CTRed':0 'CTPurple':4 'CTGreen':0 'grey78':0 'CTYellow':0 }, { chips  'CTRed':0 'CTPurple':0 'CTGreen':0 'grey78':0 'CTYellow':0 }).
Wed Sep 11 10:03:58 IST 2013	onReceipt(): entering.
Wed Sep 11 10:03:58 IST 2013	onReceipt(): opponent's proposal: ({ chips  'CTRed':0 'CTPurple':0 'CTGreen':0 'grey78':0 'CTYellow':0 }, { chips  'CTRed':20 'CTPurple':0 'CTGreen':0 'grey78':0 'CTYellow':0 }).
Wed Sep 11 10:03:58 IST 2013	responseToSend(): entering.
Wed Sep 11 10:03:58 IST 2013	compareProposals(): decision: 1 utility 200.0
Wed Sep 11 10:03:58 IST 2013	responseToSend(): accepting proposal ({ chips  'CTRed':0 'CTPurple':4 'CTGreen':0 'grey78':0 'CTYellow':0 }, { chips  'CTRed':0 'CTPurple':0 'CTGreen':0 'grey78':0 'CTYellow':0 }).
Wed Sep 11 10:03:58 IST 2013	phaseAdvanced(): entering.
Wed Sep 11 10:03:58 IST 2013	phaseAdvanced(): new phase is 'Movement Phase'.
Wed Sep 11 10:04:42 IST 2013	phaseAdvanced(): entering.
Wed Sep 11 10:04:42 IST 2013	phaseAdvanced(): new phase is 'Feedback Phase'.
Wed Sep 11 10:04:47 IST 2013	phaseAdvanced(): entering.
Wed Sep 11 10:04:47 IST 2013	phaseAdvanced(): new phase is 'Communication Phase'.
Wed Sep 11 10:04:51 IST 2013	onReceipt(): entering.
Wed Sep 11 10:04:51 IST 2013	phaseAdvanced(): entering.
Wed Sep 11 10:04:51 IST 2013	phaseAdvanced(): new phase is 'Movement Phase'.
Wed Sep 11 10:05:35 IST 2013	phaseAdvanced(): entering.
Wed Sep 11 10:05:35 IST 2013	phaseAdvanced(): new phase is 'Feedback Phase'.
