filename,round,propID,respID,IsPropCustomer,chipsToSend,chipsToReceive,accept,propCurrentScore,respCurrentScore,actualSent,ActualRcvd,propResultingScore,respResultingScore,#ofCustomerMovesInRound,customerRowPositionAfterMovePhase,customerColPositionAfterMovePhase,Player100ChipsAfterMovePhase,Player100ScoreAfterMovePhase,Player200ChipsAfterMovePhase,Player200ScoreAfterMovePhase,Player300ChipsAfterMovePhase,Player300ScoreAfterMovePhase,generosityLevel,ClientReachedGoal
3playersLog_1370168083937.csv,1,200,100,false,{ chips  },{ chips  },FALSE,200,180,,,,,3,(R:3,C:3),{ chips  'CTRed':5 'CTGreen':0 'CTPurple':6 'grey78':10 'CTYellow':12 },165,{ chips  'CTRed':33 'CTGreen':0 'CTPurple':7 'grey78':0 'CTYellow':0 },200,{ chips  'CTRed':28 'CTGreen':0 'CTPurple':0 'grey78':0 'CTYellow':0 },140
3playersLog_1370168083937.csv,1,300,100,false,{ chips  'CTRed':5 'CTPurple':7 },{ chips  },TRUE,200,120,{ chips  'CTRed':5 'CTPurple':7 'CTGreen':0 'grey78':0 'CTYellow':0 },{ chips  'CTRed':0 'CTPurple':0 'CTGreen':0 'grey78':0 'CTYellow':0 },140,180,3,(R:3,C:3),{ chips  'CTRed':5 'CTGreen':0 'CTPurple':6 'grey78':10 'CTYellow':12 },165,{ chips  'CTRed':33 'CTGreen':0 'CTPurple':7 'grey78':0 'CTYellow':0 },200,{ chips  'CTRed':28 'CTGreen':0 'CTPurple':0 'grey78':0 'CTYellow':0 },140
3playersLog_1370168083937.csv,2,100,200,true,{ chips  },{ chips  'CTRed':8 'CTPurple':7 },FALSE,165,200,,,,,0,(R:3,C:3),{ chips  'CTRed':5 'CTGreen':0 'CTPurple':6 'grey78':10 'CTYellow':12 },165,{ chips  'CTRed':33 'CTGreen':0 'CTPurple':7 'grey78':0 'CTYellow':0 },200,{ chips  'CTRed':28 'CTGreen':0 'CTPurple':0 'grey78':0 'CTYellow':0 },140
3playersLog_1370168083937.csv,3,200,100,false,{ chips  'CTRed':5 'CTPurple':5 },{ chips  'grey78':5 },FALSE,200,165,,,,,4,(R:1,C:1),{ chips  'CTRed':5 'CTGreen':0 'CTPurple':5 'grey78':7 'CTYellow':12 },145,{ chips  'CTRed':33 'CTGreen':0 'CTPurple':7 'grey78':0 'CTYellow':0 },200,{ chips  'CTRed':28 'CTGreen':0 'CTPurple':0 'grey78':0 'CTYellow':0 },140
3playersLog_1370168083937.csv,3,300,100,false,{ chips  'CTRed':2 },{ chips  'CTPurple':2 'CTYellow':2 },FALSE,140,165,,,,,4,(R:1,C:1),{ chips  'CTRed':5 'CTGreen':0 'CTPurple':5 'grey78':7 'CTYellow':12 },145,{ chips  'CTRed':33 'CTGreen':0 'CTPurple':7 'grey78':0 'CTYellow':0 },200,{ chips  'CTRed':28 'CTGreen':0 'CTPurple':0 'grey78':0 'CTYellow':0 },140
3playersLog_1370168083937.csv,4,100,200,true,{ chips  'grey78':7 },{ chips  'CTRed':15 'CTPurple':7 },TRUE,145,200,{ chips  'CTRed':0 'CTPurple':0 'CTGreen':0 'grey78':7 'CTYellow':0 },{ chips  'CTRed':15 'CTPurple':7 'CTGreen':0 'grey78':0 'CTYellow':0 },220,125,8,(R:0,C:8),{ chips  'CTRed':20 'CTGreen':0 'CTPurple':6 'grey78':0 'CTYellow':10 },330,{ chips  'CTRed':18 'CTGreen':0 'CTPurple':0 'grey78':7 'CTYellow':0 },275,{ chips  'CTRed':28 'CTGreen':0 'CTPurple':0 'grey78':0 'CTYellow':0 },140
3playersLog_1370168083937.csv,,,,,,,,,,,,,,,,,,,,,,,,true
